\relax 
\catcode`:\active
\catcode`;\active
\catcode`!\active
\catcode`?\active
\select@language{french}
\@writefile{toc}{\select@language{french}}
\@writefile{lof}{\select@language{french}}
\@writefile{lot}{\select@language{french}}
\select@language{french}
\@writefile{toc}{\select@language{french}}
\@writefile{lof}{\select@language{french}}
\@writefile{lot}{\select@language{french}}
\@writefile{toc}{\contentsline {section}{\numberline {1}Introduction}{1}}
\citation{ritschard:2005rnti}
\@writefile{lof}{\contentsline {figure}{\numberline {1}{\ignorespaces Two thread conversation may have a similar representation of their social networks}}{2}}
\newlabel{fig:general}{{1}{2}}
\@writefile{lof}{\contentsline {figure}{\numberline {2}{\ignorespaces Example of prunning}}{2}}
\newlabel{fig:prunning}{{2}{2}}
\@writefile{toc}{\contentsline {section}{\numberline {2}Classic representations}{2}}
\@writefile{toc}{\contentsline {section}{\numberline {3}Tree prunning}{2}}
\@writefile{toc}{\contentsline {section}{\numberline {4}Motifs isomorphisms}{2}}
\@writefile{toc}{\contentsline {section}{\numberline {5}Motifs}{2}}
\citation{thSau00}
\citation{HolWil90}
\citation{lioni01}
\citation{thSau00}
\citation{brei:frie:olsh:ston:1984}
\citation{quin:1986ID3,quin:1993}
\bibstyle{rnti}
\bibdata{biblio_exemple}
\@writefile{lof}{\contentsline {figure}{\numberline {3}{\ignorespaces Exemple de figure avec sa l\IeC {\'e}gende. La l\IeC {\'e}gende est centr\IeC {\'e}e, sauf si, comme ici, elle fait plus d'une ligne, auquel cas elle est justifi\IeC {\'e}e.}}{3}}
\newlabel{fig_exemple}{{3}{3}}
\@writefile{toc}{\contentsline {section}{\numberline {6}Types of threads}{3}}
\@writefile{toc}{\contentsline {section}{\numberline {7}Consignes pour les r\IeC {\'e}f\IeC {\'e}rences}{3}}
\select@language{french}
\@writefile{toc}{\select@language{french}}
\@writefile{lof}{\select@language{french}}
\@writefile{lot}{\select@language{french}}
