\relax 
\providecommand*{\memsetcounter}[2]{}
\providecommand\hyper@newdestlabel[2]{}
\providecommand\HyperFirstAtBeginDocument{\AtBeginDocument}
\HyperFirstAtBeginDocument{\ifx\hyper@anchor\@undefined
\global\let\oldcontentsline\contentsline
\gdef\contentsline#1#2#3#4{\oldcontentsline{#1}{#2}{#3}}
\global\let\oldnewlabel\newlabel
\gdef\newlabel#1#2{\newlabelxx{#1}#2}
\gdef\newlabelxx#1#2#3#4#5#6{\oldnewlabel{#1}{{#2}{#3}}}
\AtEndDocument{\ifx\hyper@anchor\@undefined
\let\contentsline\oldcontentsline
\let\newlabel\oldnewlabel
\fi}
\fi}
\global\let\hyper@last\relax 
\gdef\HyperFirstAtBeginDocument#1{#1}
\providecommand\HyField@AuxAddToFields[1]{}
\providecommand\HyField@AuxAddToCoFields[2]{}
\@writefile{lof}{\addvspace {10pt}}
\@writefile{lot}{\addvspace {10pt}}
\@writefile{toc}{\contentsline {chapter}{\chapternumberline {1}Clustering discussions}{1}{chapter.1}}
\@writefile{loa}{\addvspace {10\p@ }}
\@writefile{toc}{\contentsline {section}{\numberline {1.1}Tree edit distance}{1}{section.1.1}}
\@writefile{toc}{\contentsline {section}{\numberline {1.2}Pruning}{1}{section.1.2}}
\providecommand*\caption@xref[2]{\@setref\relax\@undefined{#1}}
\newlabel{fig_long_cascade}{{\M@TitleReference {1.1(a)}{Pruning}}{2}{Subfigure 1 1.1(a)}{subfigure.1.1.1}{}}
\newlabel{sub@fig_long_cascade}{{(a)}{1.1(a)}{Subfigure 1 1.1(a)\relax }{subfigure.1.1.1}{}}
\newlabel{fig_short_cascade}{{\M@TitleReference {1.1(b)}{Pruning}}{2}{Subfigure 1 1.1(b)}{subfigure.1.1.2}{}}
\newlabel{sub@fig_short_cascade}{{(b)}{1.1(b)}{Subfigure 1 1.1(b)\relax }{subfigure.1.1.2}{}}
\newlabel{fig_short_star}{{\M@TitleReference {1.1(c)}{Pruning}}{2}{Subfigure 1 1.1(c)}{subfigure.1.1.3}{}}
\newlabel{sub@fig_short_star}{{(c)}{1.1(c)}{Subfigure 1 1.1(c)\relax }{subfigure.1.1.3}{}}
\@writefile{lof}{\contentsline {figure}{\numberline {1.1}{\ignorespaces Illustration of how size can affect the edit distance. The edit distance between (a) and (b) is 3 (three insertions) and the edit distance between (b) and (c) is 2 (one deletion and one insertion)\relax }}{2}{figure.caption.1}}
\newlabel{fig:trees}{{\M@TitleReference {1.1}{Illustration of how size can affect the edit distance. The edit distance between (a) and (b) is 3 (three insertions) and the edit distance between (b) and (c) is 2 (one deletion and one insertion)\relax }}{2}{Illustration of how size can affect the edit distance. The edit distance between (a) and (b) is 3 (three insertions) and the edit distance between (b) and (c) is 2 (one deletion and one insertion)\relax }{figure.caption.1}{}}
\@writefile{lof}{\contentsline {subfigure}{\numberline{(a)}{\ignorespaces {long cascade}}}{2}{subfigure.1.1}}
\@writefile{lof}{\contentsline {subfigure}{\numberline{(b)}{\ignorespaces {short cascade}}}{2}{subfigure.1.2}}
\@writefile{lof}{\contentsline {subfigure}{\numberline{(c)}{\ignorespaces {short star}}}{2}{subfigure.1.3}}
\@writefile{toc}{\contentsline {section}{\numberline {1.3}Stochastic k-medoids}{2}{section.1.3}}
\newlabel{fig:short_cascade}{{\M@TitleReference {1.2(a)}{Pruning}}{3}{Subfigure 1 1.2(a)}{subfigure.1.2.1}{}}
\newlabel{sub@fig:short_cascade}{{(a)}{1.2(a)}{Subfigure 1 1.2(a)\relax }{subfigure.1.2.1}{}}
\newlabel{fig:short_star}{{\M@TitleReference {1.2(b)}{Pruning}}{3}{Subfigure 1 1.2(b)}{subfigure.1.2.2}{}}
\newlabel{sub@fig:short_star}{{(b)}{1.2(b)}{Subfigure 1 1.2(b)\relax }{subfigure.1.2.2}{}}
\@writefile{lof}{\contentsline {figure}{\numberline {1.2}{\ignorespaces Exemple of pruning\relax }}{3}{figure.caption.2}}
\newlabel{fig:pruning}{{\M@TitleReference {1.2}{Exemple of pruning\relax }}{3}{Exemple of pruning\relax }{figure.caption.2}{}}
\@writefile{lof}{\contentsline {subfigure}{\numberline{(a)}{\ignorespaces {original tree}}}{3}{subfigure.2.1}}
\@writefile{lof}{\contentsline {subfigure}{\numberline{(b)}{\ignorespaces {pruned tree}}}{3}{subfigure.2.2}}
\@writefile{toc}{\contentsline {section}{\numberline {1.4}Experiments}{3}{section.1.4}}
\@writefile{toc}{\contentsline {subsection}{Dataset}{3}{section*.5}}
\@writefile{lof}{\contentsline {figure}{\numberline {1.3}{\ignorespaces Effect of prunning in size of trees\relax }}{4}{figure.caption.3}}
\newlabel{fig:prunning_effects}{{\M@TitleReference {1.3}{Effect of prunning in size of trees\relax }}{4}{Effect of prunning in size of trees\relax }{figure.caption.3}{}}
\@writefile{loa}{\contentsline {algocf}{\numberline {1}{\ignorespaces Stochastic $k$-medoids\relax }}{5}{algocf.1}}
\memsetcounter{lastsheet}{5}
\memsetcounter{lastpage}{5}
