\BOOKMARK [2][]{Outline0.1}{Intro}{}% 1
\BOOKMARK [2][]{Outline0.2}{Regression, Binary regression and Bayesian binary regression}{}% 2
\BOOKMARK [2][]{Outline0.3}{Bayesian probit regression}{}% 3
\BOOKMARK [2][]{Outline0.4}{Experiment with synthetic data}{}% 4
