\relax 
\providecommand\hyper@newdestlabel[2]{}
\providecommand\HyperFirstAtBeginDocument{\AtBeginDocument}
\HyperFirstAtBeginDocument{\ifx\hyper@anchor\@undefined
\global\let\oldcontentsline\contentsline
\gdef\contentsline#1#2#3#4{\oldcontentsline{#1}{#2}{#3}}
\global\let\oldnewlabel\newlabel
\gdef\newlabel#1#2{\newlabelxx{#1}#2}
\gdef\newlabelxx#1#2#3#4#5#6{\oldnewlabel{#1}{{#2}{#3}}}
\AtEndDocument{\ifx\hyper@anchor\@undefined
\let\contentsline\oldcontentsline
\let\newlabel\oldnewlabel
\fi}
\fi}
\global\let\hyper@last\relax 
\gdef\HyperFirstAtBeginDocument#1{#1}
\providecommand\HyField@AuxAddToFields[1]{}
\providecommand\HyField@AuxAddToCoFields[2]{}
\pgfsyspdfmark {pgfid2}{0}{17900937}
\@writefile{toc}{\beamer@endinputifotherversion {3.36pt}}
\@writefile{nav}{\beamer@endinputifotherversion {3.36pt}}
\pgfsyspdfmark {pgfid1}{1864679}{10452204}
\@writefile{nav}{\headcommand {\slideentry {0}{0}{1}{1/1}{}{0}}}
\@writefile{nav}{\headcommand {\beamer@framepages {1}{1}}}
\pgfsyspdfmark {pgfid3}{0}{17900937}
\@writefile{nav}{\headcommand {\slideentry {0}{0}{2}{2/2}{}{0}}}
\@writefile{nav}{\headcommand {\beamer@framepages {2}{2}}}
\pgfsyspdfmark {pgfid4}{0}{17900937}
\@writefile{toc}{\beamer@sectionintoc {1}{Roles revisited}{3}{0}{1}}
\@writefile{nav}{\headcommand {\sectionentry {1}{Roles revisited}{3}{Roles revisited}{0}}}
\@writefile{nav}{\headcommand {\beamer@sectionpages {1}{2}}}
\@writefile{nav}{\headcommand {\beamer@subsectionpages {1}{2}}}
\@writefile{nav}{\headcommand {\slideentry {1}{0}{3}{3/3}{}{0}}}
\@writefile{nav}{\headcommand {\beamer@framepages {3}{3}}}
\pgfsyspdfmark {pgfid5}{0}{17900937}
\@writefile{nav}{\headcommand {\slideentry {1}{0}{4}{4/4}{}{0}}}
\@writefile{nav}{\headcommand {\beamer@framepages {4}{4}}}
\pgfsyspdfmark {pgfid6}{0}{17900937}
\@writefile{nav}{\headcommand {\slideentry {1}{0}{5}{5/5}{}{0}}}
\@writefile{nav}{\headcommand {\beamer@framepages {5}{5}}}
\pgfsyspdfmark {pgfid7}{0}{17900937}
\@writefile{nav}{\headcommand {\slideentry {1}{0}{6}{6/6}{}{0}}}
\@writefile{nav}{\headcommand {\beamer@framepages {6}{6}}}
\pgfsyspdfmark {pgfid8}{0}{17900937}
\@writefile{toc}{\beamer@sectionintoc {2}{Blockmodels}{7}{0}{2}}
\@writefile{nav}{\headcommand {\sectionentry {2}{Blockmodels}{7}{Blockmodels}{0}}}
\@writefile{nav}{\headcommand {\beamer@sectionpages {3}{6}}}
\@writefile{nav}{\headcommand {\beamer@subsectionpages {3}{6}}}
\@writefile{nav}{\headcommand {\slideentry {2}{0}{7}{7/7}{}{0}}}
\@writefile{nav}{\headcommand {\beamer@framepages {7}{7}}}
\pgfsyspdfmark {pgfid9}{0}{17900937}
\@writefile{toc}{\beamer@subsectionintoc {2}{1}{Overview}{8}{0}{2}}
\@writefile{nav}{\headcommand {\beamer@subsectionentry {0}{2}{1}{8}{Overview}}\headcommand {\beamer@subsectionpages {7}{7}}}
\@writefile{nav}{\headcommand {\slideentry {2}{1}{1}{8/8}{Overview}{0}}}
\@writefile{nav}{\headcommand {\beamer@framepages {8}{8}}}
\pgfsyspdfmark {pgfid10}{0}{17900937}
\@writefile{nav}{\headcommand {\slideentry {2}{1}{2}{9/9}{Overview}{0}}}
\@writefile{nav}{\headcommand {\beamer@framepages {9}{9}}}
\pgfsyspdfmark {pgfid11}{0}{17900937}
\@writefile{nav}{\headcommand {\slideentry {2}{1}{3}{10/10}{Overview}{0}}}
\@writefile{nav}{\headcommand {\beamer@framepages {10}{10}}}
\pgfsyspdfmark {pgfid12}{0}{17900937}
\@writefile{nav}{\headcommand {\slideentry {2}{1}{4}{11/11}{Overview}{0}}}
\@writefile{nav}{\headcommand {\beamer@framepages {11}{11}}}
\pgfsyspdfmark {pgfid13}{0}{17900937}
\@writefile{toc}{\beamer@subsectionintoc {2}{2}{Experiment 1}{12}{0}{2}}
\@writefile{nav}{\headcommand {\beamer@subsectionentry {0}{2}{2}{12}{Experiment 1}}\headcommand {\beamer@subsectionpages {8}{11}}}
\@writefile{nav}{\headcommand {\slideentry {2}{2}{1}{12/12}{Experiment 1}{0}}}
\@writefile{nav}{\headcommand {\beamer@framepages {12}{12}}}
\pgfsyspdfmark {pgfid14}{0}{17900937}
\@writefile{nav}{\headcommand {\slideentry {2}{2}{2}{13/13}{Experiment 1}{0}}}
\@writefile{nav}{\headcommand {\beamer@framepages {13}{13}}}
\pgfsyspdfmark {pgfid15}{0}{17900937}
\@writefile{nav}{\headcommand {\slideentry {2}{2}{3}{14/14}{Experiment 1}{0}}}
\@writefile{nav}{\headcommand {\beamer@framepages {14}{14}}}
\pgfsyspdfmark {pgfid16}{0}{17900937}
\@writefile{nav}{\headcommand {\slideentry {2}{2}{4}{15/15}{Experiment 1}{0}}}
\@writefile{nav}{\headcommand {\beamer@framepages {15}{15}}}
\pgfsyspdfmark {pgfid17}{0}{17900937}
\@writefile{nav}{\headcommand {\slideentry {2}{2}{5}{16/16}{Experiment 1}{0}}}
\@writefile{nav}{\headcommand {\beamer@framepages {16}{16}}}
\pgfsyspdfmark {pgfid18}{0}{17900937}
\@writefile{nav}{\headcommand {\slideentry {2}{2}{6}{17/17}{Experiment 1}{0}}}
\@writefile{nav}{\headcommand {\beamer@framepages {17}{17}}}
\pgfsyspdfmark {pgfid19}{0}{17900937}
\@writefile{toc}{\beamer@subsectionintoc {2}{3}{Experiment 2}{18}{0}{2}}
\@writefile{nav}{\headcommand {\beamer@subsectionentry {0}{2}{3}{18}{Experiment 2}}\headcommand {\beamer@subsectionpages {12}{17}}}
\@writefile{nav}{\headcommand {\slideentry {2}{3}{1}{18/18}{Experiment 2}{0}}}
\@writefile{nav}{\headcommand {\beamer@framepages {18}{18}}}
\pgfsyspdfmark {pgfid20}{0}{17900937}
\@writefile{nav}{\headcommand {\slideentry {2}{3}{2}{19/19}{Experiment 2}{0}}}
\@writefile{nav}{\headcommand {\beamer@framepages {19}{19}}}
\pgfsyspdfmark {pgfid21}{0}{17900937}
\@writefile{nav}{\headcommand {\slideentry {2}{3}{3}{20/20}{Experiment 2}{0}}}
\@writefile{nav}{\headcommand {\beamer@framepages {20}{20}}}
\pgfsyspdfmark {pgfid22}{0}{17900937}
\@writefile{nav}{\headcommand {\slideentry {2}{3}{4}{21/21}{Experiment 2}{0}}}
\@writefile{nav}{\headcommand {\beamer@framepages {21}{21}}}
\pgfsyspdfmark {pgfid23}{0}{17900937}
\@writefile{nav}{\headcommand {\slideentry {2}{3}{5}{22/22}{Experiment 2}{0}}}
\@writefile{nav}{\headcommand {\beamer@framepages {22}{22}}}
\pgfsyspdfmark {pgfid24}{0}{17900937}
\@writefile{toc}{\beamer@subsectionintoc {2}{4}{Experiment 3}{23}{0}{2}}
\@writefile{nav}{\headcommand {\beamer@subsectionentry {0}{2}{4}{23}{Experiment 3}}\headcommand {\beamer@subsectionpages {18}{22}}}
\@writefile{nav}{\headcommand {\slideentry {2}{4}{1}{23/23}{Experiment 3}{0}}}
\@writefile{nav}{\headcommand {\beamer@framepages {23}{23}}}
\pgfsyspdfmark {pgfid25}{0}{17900937}
\@writefile{nav}{\headcommand {\slideentry {2}{4}{2}{24/24}{Experiment 3}{0}}}
\@writefile{nav}{\headcommand {\beamer@framepages {24}{24}}}
\pgfsyspdfmark {pgfid26}{0}{17900937}
\@writefile{toc}{\beamer@sectionintoc {3}{Discussion}{25}{0}{3}}
\@writefile{nav}{\headcommand {\sectionentry {3}{Discussion}{25}{Discussion}{0}}}
\@writefile{nav}{\headcommand {\beamer@sectionpages {7}{24}}}
\@writefile{nav}{\headcommand {\beamer@subsectionpages {23}{24}}}
\@writefile{nav}{\headcommand {\slideentry {3}{0}{3}{25/25}{}{0}}}
\@writefile{nav}{\headcommand {\beamer@framepages {25}{25}}}
\pgfsyspdfmark {pgfid27}{0}{17900937}
\@writefile{nav}{\headcommand {\slideentry {3}{0}{4}{26/26}{}{0}}}
\@writefile{nav}{\headcommand {\beamer@framepages {26}{26}}}
\bibstyle{plain}
\bibdata{/Volumes/LLAVERO/Papers/Learning_to_rank}
\@writefile{nav}{\headcommand {\beamer@partpages {1}{26}}}
\@writefile{nav}{\headcommand {\beamer@subsectionpages {25}{26}}}
\@writefile{nav}{\headcommand {\beamer@sectionpages {25}{26}}}
\@writefile{nav}{\headcommand {\beamer@documentpages {26}}}
\@writefile{nav}{\headcommand {\def \inserttotalframenumber {25}}}
