\beamer@endinputifotherversion {3.36pt}
\beamer@sectionintoc {1}{Roles revisited}{3}{0}{1}
\beamer@sectionintoc {2}{Blockmodels}{7}{0}{2}
\beamer@subsectionintoc {2}{1}{Overview}{8}{0}{2}
\beamer@subsectionintoc {2}{2}{Experiment 1}{12}{0}{2}
\beamer@subsectionintoc {2}{3}{Experiment 2}{18}{0}{2}
\beamer@subsectionintoc {2}{4}{Experiment 3}{23}{0}{2}
\beamer@sectionintoc {3}{Discussion}{25}{0}{3}
