\relax 
\providecommand*{\memsetcounter}[2]{}
\providecommand\hyper@newdestlabel[2]{}
\providecommand\HyperFirstAtBeginDocument{\AtBeginDocument}
\HyperFirstAtBeginDocument{\ifx\hyper@anchor\@undefined
\global\let\oldcontentsline\contentsline
\gdef\contentsline#1#2#3#4{\oldcontentsline{#1}{#2}{#3}}
\global\let\oldnewlabel\newlabel
\gdef\newlabel#1#2{\newlabelxx{#1}#2}
\gdef\newlabelxx#1#2#3#4#5#6{\oldnewlabel{#1}{{#2}{#3}}}
\AtEndDocument{\ifx\hyper@anchor\@undefined
\let\contentsline\oldcontentsline
\let\newlabel\oldnewlabel
\fi}
\fi}
\global\let\hyper@last\relax 
\gdef\HyperFirstAtBeginDocument#1{#1}
\providecommand\HyField@AuxAddToFields[1]{}
\providecommand\HyField@AuxAddToCoFields[2]{}
\@writefile{lof}{\addvspace {10pt}}
\@writefile{lot}{\addvspace {10pt}}
\@writefile{toc}{\contentsline {chapter}{\chapternumberline {1}Predicting the success of a thread}{1}{chapter.1}}
\@writefile{loa}{\addvspace {10\p@ }}
\@writefile{toc}{\contentsline {section}{\numberline {1.1}Baseline predictions}{1}{section.1.1}}
\@writefile{toc}{\contentsline {subsection}{Metrics}{1}{section*.1}}
\@writefile{toc}{\contentsline {subsubsection}{Initial speed}{1}{section*.2}}
\@writefile{toc}{\contentsline {subsubsection}{Replies to root}{1}{section*.3}}
\citation{Meredith}
\@writefile{toc}{\contentsline {subsubsection}{Number of users}{2}{section*.4}}
\@writefile{toc}{\contentsline {subsubsection}{Posts length}{2}{section*.5}}
\@writefile{toc}{\contentsline {subsubsection}{Ramification ratio length}{2}{section*.6}}
\@writefile{toc}{\contentsline {subsection}{Experiments}{2}{section*.9}}
\@writefile{toc}{\contentsline {section}{\numberline {1.2}Role-based predictions}{2}{section.1.2}}
\@writefile{toc}{\contentsline {subsection}{Motivation}{2}{section*.14}}
\@writefile{lof}{\contentsline {figure}{\numberline {1.1}{\ignorespaces Scatter plots of proposed metrics against thread final length\relax }}{3}{figure.caption.7}}
\providecommand*\caption@xref[2]{\@setref\relax\@undefined{#1}}
\newlabel{metrics_scatter}{{\M@TitleReference {1.1}{Scatter plots of proposed metrics against thread final length\relax }}{3}{Scatter plots of proposed metrics against thread final length\relax }{figure.caption.7}{}}
\@writefile{toc}{\contentsline {subsection}{Naive model}{3}{section*.15}}
\newmarginnote{note.3.1}{{3}{10574288sp}}
\newmarginnote{note.3.2}{{3}{12410023sp}}
\newlabel{basic_belbin}{{1.1}{3}{Naive model}{equation.1.2.1}{}}
\@writefile{lof}{\contentsline {figure}{\numberline {1.2}{\ignorespaces Scatter plots of proposed metrics against thread final length\relax }}{4}{figure.caption.8}}
\newlabel{triads_scatter_1}{{\M@TitleReference {1.2}{Scatter plots of proposed metrics against thread final length\relax }}{4}{Scatter plots of proposed metrics against thread final length\relax }{figure.caption.8}{}}
\@writefile{lof}{\contentsline {figure}{\numberline {1.3}{\ignorespaces Sqqq\relax }}{4}{figure.caption.10}}
\newlabel{triads_scatter_1}{{\M@TitleReference {1.3}{Sqqq\relax }}{4}{Sqqq\relax }{figure.caption.10}{}}
\@writefile{lof}{\contentsline {figure}{\numberline {1.4}{\ignorespaces qqq\relax }}{5}{figure.caption.11}}
\newlabel{triads_scatter_1}{{\M@TitleReference {1.4}{qqq\relax }}{5}{qqq\relax }{figure.caption.11}{}}
\@writefile{lof}{\contentsline {figure}{\numberline {1.5}{\ignorespaces Scatter plots of proposed metrics against thread final length\relax }}{5}{figure.caption.12}}
\newlabel{triads_scatter_1}{{\M@TitleReference {1.5}{Scatter plots of proposed metrics against thread final length\relax }}{5}{Scatter plots of proposed metrics against thread final length\relax }{figure.caption.12}{}}
\@writefile{lof}{\contentsline {figure}{\numberline {1.6}{\ignorespaces Scatter plots of proposed metrics against thread final length\relax }}{5}{figure.caption.13}}
\newlabel{triads_scatter_1}{{\M@TitleReference {1.6}{Scatter plots of proposed metrics against thread final length\relax }}{5}{Scatter plots of proposed metrics against thread final length\relax }{figure.caption.13}{}}
\@writefile{toc}{\contentsline {subsection}{Generative model}{5}{section*.16}}
\@writefile{toc}{\contentsline {subsection}{Joint probability}{6}{section*.17}}
\newlabel{success_joint_prob}{{1.3}{7}{Joint probability}{equation.1.2.3}{}}
\@writefile{toc}{\contentsline {subsection}{Inference: Gibbs sampling}{7}{section*.18}}
\@writefile{toc}{\contentsline {subsubsection}{Conditional distribution of $\mathbf  {w}$}{8}{section*.19}}
\@writefile{toc}{\contentsline {subsubsection}{Conditional distribution of $\mathbf  {z_n}$}{10}{section*.20}}
\memsetcounter{lastsheet}{10}
\memsetcounter{lastpage}{10}
