%!PS-Adobe-3.0 EPSF-3.0
%%DocumentNeededResources: font Helvetica
%%+ font Helvetica-Bold
%%+ font Helvetica-Oblique
%%+ font Helvetica-BoldOblique
%%+ font Symbol
%%Title: R Graphics Output
%%Creator: R Software
%%Pages: (atend)
%%BoundingBox: 0 0 595 198
%%EndComments
%%BeginProlog
/bp  { gs sRGB gs } def
% begin .ps.prolog
/gs  { gsave } bind def
/gr  { grestore } bind def
/ep  { showpage gr gr } bind def
/m   { moveto } bind def
/l  { rlineto } bind def
/np  { newpath } bind def
/cp  { closepath } bind def
/f   { fill } bind def
/o   { stroke } bind def
/c   { newpath 0 360 arc } bind def
/r   { 4 2 roll moveto 1 copy 3 -1 roll exch 0 exch rlineto 0 rlineto -1 mul 0 exch rlineto closepath } bind def
/p1  { stroke } bind def
/p2  { gsave bg fill grestore newpath } bind def
/p3  { gsave bg fill grestore stroke } bind def
/p6  { gsave bg eofill grestore newpath } bind def
/p7  { gsave bg eofill grestore stroke } bind def
/t   { 5 -2 roll moveto gsave rotate
       1 index stringwidth pop
       mul neg 0 rmoveto show grestore } bind def
/ta  { 4 -2 roll moveto gsave rotate show } bind def
/tb  { 2 -1 roll 0 rmoveto show } bind def
/cl  { grestore gsave newpath 3 index 3 index moveto 1 index
       4 -1 roll lineto  exch 1 index lineto lineto
       closepath clip newpath } bind def
/rgb { setrgbcolor } bind def
/s   { scalefont setfont } bind def
% end   .ps.prolog
/sRGB { [ /CIEBasedABC
          << /DecodeLMN
               [ { dup 0.03928 le
                        {12.92321 div}
                        {0.055 add 1.055 div 2.4 exp }
                     ifelse
                 } bind dup dup
               ]
             /MatrixLMN [0.412457 0.212673 0.019334
                         0.357576 0.715152 0.119192
                         0.180437 0.072175 0.950301]
             /WhitePoint [0.9505 1.0 1.0890]
           >>
         ] setcolorspace } bind def
/srgb { setcolor } bind def
%%IncludeResource: font Helvetica
/Helvetica findfont
dup length dict begin
  {1 index /FID ne {def} {pop pop} ifelse} forall
  /Encoding ISOLatin1Encoding def
  currentdict
  end
/Font1 exch definefont pop
%%IncludeResource: font Helvetica-Bold
/Helvetica-Bold findfont
dup length dict begin
  {1 index /FID ne {def} {pop pop} ifelse} forall
  /Encoding ISOLatin1Encoding def
  currentdict
  end
/Font2 exch definefont pop
%%IncludeResource: font Helvetica-Oblique
/Helvetica-Oblique findfont
dup length dict begin
  {1 index /FID ne {def} {pop pop} ifelse} forall
  /Encoding ISOLatin1Encoding def
  currentdict
  end
/Font3 exch definefont pop
%%IncludeResource: font Helvetica-BoldOblique
/Helvetica-BoldOblique findfont
dup length dict begin
  {1 index /FID ne {def} {pop pop} ifelse} forall
  /Encoding ISOLatin1Encoding def
  currentdict
  end
/Font4 exch definefont pop
%%IncludeResource: font Symbol
/Symbol findfont
dup length dict begin
  {1 index /FID ne {def} {pop pop} ifelse} forall
  currentdict
  end
/Font5 exch definefont pop
%%EndProlog
%%Page: 1 1
bp
0.00 0.00 595.28 198.43 cl
0.00 0.00 595.28 198.43 cl
0.00 0.00 595.28 198.43 cl
0.00 0.00 595.28 198.43 cl
0.00 0.00 595.28 198.43 cl
0.00 0.00 595.28 198.43 cl
0.00 0.00 595.28 198.43 cl
0.00 0.00 595.28 198.43 cl
0.00 0.00 595.28 198.43 cl
0.00 0.00 595.28 198.43 cl
0.00 0.00 595.28 198.43 cl
0.00 0.00 595.28 198.43 cl
0.00 0.00 595.28 198.43 cl
0.00 0.00 595.28 198.43 cl
0.00 0.00 595.28 198.43 cl
0.00 0.00 595.28 198.43 cl
0.00 0.00 595.28 198.43 cl
0.00 15.69 595.28 182.74 cl
/bg { 1 1 1 srgb } def
1 1 1 srgb
1.07 setlinewidth
[] 0 setdash
1 setlinecap
1 setlinejoin
10.00 setmiterlimit
0.00 15.69 595.28 167.05 r p3
0.00 0.00 595.28 198.43 cl
50.50 157.63 153.48 176.76 cl
/bg { 1 1 1 srgb } def
0.4980 0.4980 0.4980 srgb
0.43 setlinewidth
[] 0 setdash
1 setlinecap
1 setlinejoin
10.00 setmiterlimit
50.50 157.63 102.98 19.14 r p3
/Font1 findfont 10 s
0.1020 0.1020 0.1020 srgb
88.09 163.60 (fr) 0 ta
-0.100 (ance) tb gr
50.50 157.63 153.48 176.76 cl
0.00 0.00 595.28 198.43 cl
159.45 157.63 262.43 176.76 cl
/bg { 1 1 1 srgb } def
0.4980 0.4980 0.4980 srgb
0.43 setlinewidth
[] 0 setdash
1 setlinecap
1 setlinejoin
10.00 setmiterlimit
159.45 157.63 102.98 19.14 r p3
/Font1 findfont 10 s
0.1020 0.1020 0.1020 srgb
210.94 163.60 (gameofthrones) .5 0 t
159.45 157.63 262.43 176.76 cl
0.00 0.00 595.28 198.43 cl
268.41 157.63 371.39 176.76 cl
/bg { 1 1 1 srgb } def
0.4980 0.4980 0.4980 srgb
0.43 setlinewidth
[] 0 setdash
1 setlinecap
1 setlinejoin
10.00 setmiterlimit
268.41 157.63 102.98 19.14 r p3
/Font1 findfont 10 s
0.1020 0.1020 0.1020 srgb
281.55 163.60 (MachineLear) 0 ta
0.250 (ning) tb gr
268.41 157.63 371.39 176.76 cl
0.00 0.00 595.28 198.43 cl
377.36 157.63 480.34 176.76 cl
/bg { 1 1 1 srgb } def
0.4980 0.4980 0.4980 srgb
0.43 setlinewidth
[] 0 setdash
1 setlinecap
1 setlinejoin
10.00 setmiterlimit
377.36 157.63 102.98 19.14 r p3
/Font1 findfont 10 s
0.1020 0.1020 0.1020 srgb
428.85 163.60 (podemos) .5 0 t
377.36 157.63 480.34 176.76 cl
0.00 0.00 595.28 198.43 cl
486.32 157.63 589.30 176.76 cl
/bg { 1 1 1 srgb } def
0.4980 0.4980 0.4980 srgb
0.43 setlinewidth
[] 0 setdash
1 setlinecap
1 setlinejoin
10.00 setmiterlimit
486.32 157.63 102.98 19.14 r p3
/Font1 findfont 10 s
0.1020 0.1020 0.1020 srgb
492.52 163.60 (T) 0 ta
-1.200 (w) tb
-0.100 (oXChromosomes) tb gr
486.32 157.63 589.30 176.76 cl
0.00 0.00 595.28 198.43 cl
50.50 54.65 153.48 157.63 cl
/bg { 1 1 1 srgb } def
50.50 54.65 102.98 102.98 r p2
0.9804 0.9804 0.9804 srgb
1.07 setlinewidth
[] 0 setdash
0 setlinecap
1 setlinejoin
10.00 setmiterlimit
np
50.50 71.03 m
102.98 0 l
o
np
50.50 94.43 m
102.98 0 l
o
np
50.50 117.84 m
102.98 0 l
o
np
50.50 141.24 m
102.98 0 l
o
np
59.45 54.65 m
0 102.98 l
o
np
80.92 54.65 m
0 102.98 l
o
np
102.39 54.65 m
0 102.98 l
o
np
123.86 54.65 m
0 102.98 l
o
np
145.33 54.65 m
0 102.98 l
o
0.8980 0.8980 0.8980 srgb
0.43 setlinewidth
[] 0 setdash
np
50.50 59.33 m
102.98 0 l
o
np
50.50 82.73 m
102.98 0 l
o
np
50.50 106.14 m
102.98 0 l
o
np
50.50 129.54 m
102.98 0 l
o
np
50.50 152.94 m
102.98 0 l
o
np
70.19 54.65 m
0 102.98 l
o
np
91.65 54.65 m
0 102.98 l
o
np
113.12 54.65 m
0 102.98 l
o
np
134.59 54.65 m
0 102.98 l
o
/bg { 0 0 0 srgb } def
0 0 0 srgb
0.71 setlinewidth
[] 0 setdash
1 setlinecap
115.37 59.33 0.57 c p3
114.01 59.33 0.57 c p3
113.52 59.34 0.57 c p3
113.16 59.34 0.57 c p3
112.74 59.34 0.57 c p3
112.62 59.34 0.57 c p3
112.53 59.34 0.57 c p3
112.26 59.35 0.57 c p3
112.14 59.35 0.57 c p3
111.97 59.35 0.57 c p3
111.82 59.35 0.57 c p3
111.72 59.36 0.57 c p3
111.68 59.36 0.57 c p3
111.67 59.36 0.57 c p3
111.65 59.36 0.57 c p3
111.60 59.37 0.57 c p3
111.42 59.37 0.57 c p3
111.07 59.37 0.57 c p3
111.04 59.37 0.57 c p3
111.00 59.38 0.57 c p3
110.96 59.38 0.57 c p3
110.88 59.38 0.57 c p3
110.87 59.38 0.57 c p3
110.75 59.39 0.57 c p3
110.73 59.39 0.57 c p3
110.65 59.39 0.57 c p3
110.51 59.39 0.57 c p3
110.37 59.39 0.57 c p3
110.29 59.40 0.57 c p3
110.21 59.40 0.57 c p3
110.19 59.40 0.57 c p3
110.18 59.41 0.57 c p3
110.15 59.41 0.57 c p3
110.14 59.41 0.57 c p3
110.09 59.41 0.57 c p3
110.01 59.42 0.57 c p3
110.00 59.42 0.57 c p3
109.93 59.42 0.57 c p3
109.92 59.42 0.57 c p3
109.90 59.43 0.57 c p3
109.88 59.43 0.57 c p3
109.82 59.43 0.57 c p3
109.76 59.43 0.57 c p3
109.74 59.44 0.57 c p3
109.73 59.44 0.57 c p3
109.70 59.44 0.57 c p3
109.69 59.45 0.57 c p3
109.68 59.45 0.57 c p3
109.65 59.45 0.57 c p3
109.58 59.45 0.57 c p3
109.57 59.46 0.57 c p3
109.55 59.46 0.57 c p3
109.53 59.47 0.57 c p3
109.50 59.47 0.57 c p3
109.47 59.48 0.57 c p3
109.44 59.48 0.57 c p3
109.42 59.48 0.57 c p3
109.40 59.49 0.57 c p3
109.38 59.49 0.57 c p3
109.36 59.49 0.57 c p3
109.35 59.50 0.57 c p3
109.32 59.50 0.57 c p3
109.29 59.50 0.57 c p3
109.21 59.50 0.57 c p3
109.16 59.51 0.57 c p3
109.12 59.51 0.57 c p3
109.09 59.51 0.57 c p3
109.08 59.52 0.57 c p3
109.05 59.52 0.57 c p3
109.03 59.53 0.57 c p3
109.02 59.53 0.57 c p3
109.01 59.54 0.57 c p3
108.99 59.54 0.57 c p3
108.96 59.54 0.57 c p3
108.93 59.54 0.57 c p3
108.90 59.55 0.57 c p3
108.89 59.55 0.57 c p3
108.87 59.55 0.57 c p3
108.86 59.55 0.57 c p3
108.80 59.56 0.57 c p3
108.74 59.56 0.57 c p3
108.71 59.56 0.57 c p3
108.70 59.57 0.57 c p3
108.64 59.57 0.57 c p3
108.56 59.58 0.57 c p3
108.50 59.59 0.57 c p3
108.47 59.59 0.57 c p3
108.42 59.60 0.57 c p3
108.41 59.60 0.57 c p3
108.36 59.60 0.57 c p3
108.34 59.60 0.57 c p3
108.33 59.61 0.57 c p3
108.28 59.61 0.57 c p3
108.27 59.62 0.57 c p3
108.23 59.62 0.57 c p3
108.17 59.62 0.57 c p3
108.14 59.62 0.57 c p3
108.12 59.63 0.57 c p3
108.11 59.63 0.57 c p3
108.09 59.63 0.57 c p3
108.04 59.63 0.57 c p3
108.03 59.64 0.57 c p3
108.01 59.64 0.57 c p3
108.00 59.65 0.57 c p3
107.98 59.65 0.57 c p3
107.95 59.65 0.57 c p3
107.91 59.66 0.57 c p3
107.88 59.66 0.57 c p3
107.85 59.66 0.57 c p3
107.83 59.66 0.57 c p3
107.82 59.67 0.57 c p3
107.80 59.67 0.57 c p3
107.77 59.67 0.57 c p3
107.75 59.69 0.57 c p3
107.73 59.69 0.57 c p3
107.72 59.69 0.57 c p3
107.68 59.70 0.57 c p3
107.67 59.70 0.57 c p3
107.65 59.70 0.57 c p3
107.62 59.71 0.57 c p3
107.60 59.71 0.57 c p3
107.51 59.71 0.57 c p3
107.50 59.72 0.57 c p3
107.48 59.72 0.57 c p3
107.46 59.72 0.57 c p3
107.45 59.73 0.57 c p3
107.43 59.73 0.57 c p3
107.41 59.74 0.57 c p3
107.39 59.74 0.57 c p3
107.38 59.74 0.57 c p3
107.36 59.74 0.57 c p3
107.34 59.75 0.57 c p3
107.33 59.75 0.57 c p3
107.29 59.75 0.57 c p3
107.22 59.75 0.57 c p3
107.19 59.76 0.57 c p3
107.08 59.77 0.57 c p3
107.06 59.78 0.57 c p3
106.99 59.78 0.57 c p3
106.97 59.79 0.57 c p3
106.95 59.79 0.57 c p3
106.92 59.80 0.57 c p3
106.88 59.80 0.57 c p3
106.86 59.80 0.57 c p3
106.83 59.81 0.57 c p3
106.81 59.81 0.57 c p3
106.79 59.82 0.57 c p3
106.75 59.82 0.57 c p3
106.73 59.83 0.57 c p3
106.70 59.83 0.57 c p3
106.68 59.83 0.57 c p3
106.62 59.84 0.57 c p3
106.60 59.84 0.57 c p3
106.57 59.85 0.57 c p3
106.55 59.85 0.57 c p3
106.53 59.85 0.57 c p3
106.51 59.85 0.57 c p3
106.49 59.86 0.57 c p3
106.47 59.86 0.57 c p3
106.45 59.86 0.57 c p3
106.43 59.87 0.57 c p3
106.41 59.87 0.57 c p3
106.40 59.87 0.57 c p3
106.38 59.88 0.57 c p3
106.34 59.88 0.57 c p3
106.32 59.89 0.57 c p3
106.28 59.89 0.57 c p3
106.24 59.90 0.57 c p3
106.22 59.90 0.57 c p3
106.18 59.90 0.57 c p3
106.12 59.90 0.57 c p3
106.10 59.91 0.57 c p3
106.08 59.91 0.57 c p3
106.06 59.91 0.57 c p3
106.04 59.91 0.57 c p3
105.98 59.92 0.57 c p3
105.92 59.92 0.57 c p3
105.90 59.93 0.57 c p3
105.84 59.93 0.57 c p3
105.80 59.94 0.57 c p3
105.78 59.94 0.57 c p3
105.76 59.95 0.57 c p3
105.74 59.96 0.57 c p3
105.72 59.96 0.57 c p3
105.70 59.96 0.57 c p3
105.68 59.97 0.57 c p3
105.64 59.97 0.57 c p3
105.55 59.98 0.57 c p3
105.51 59.98 0.57 c p3
105.49 59.98 0.57 c p3
105.45 59.99 0.57 c p3
105.43 59.99 0.57 c p3
105.40 60.00 0.57 c p3
105.38 60.00 0.57 c p3
105.36 60.01 0.57 c p3
105.34 60.01 0.57 c p3
105.32 60.01 0.57 c p3
105.30 60.02 0.57 c p3
105.25 60.03 0.57 c p3
105.23 60.03 0.57 c p3
105.21 60.04 0.57 c p3
105.17 60.04 0.57 c p3
105.14 60.05 0.57 c p3
105.12 60.05 0.57 c p3
104.97 60.06 0.57 c p3
104.92 60.06 0.57 c p3
104.90 60.06 0.57 c p3
104.88 60.07 0.57 c p3
104.86 60.07 0.57 c p3
104.81 60.08 0.57 c p3
104.79 60.08 0.57 c p3
104.76 60.08 0.57 c p3
104.74 60.08 0.57 c p3
104.72 60.09 0.57 c p3
104.70 60.10 0.57 c p3
104.67 60.10 0.57 c p3
104.58 60.10 0.57 c p3
104.53 60.10 0.57 c p3
104.46 60.11 0.57 c p3
104.44 60.11 0.57 c p3
104.42 60.11 0.57 c p3
104.39 60.12 0.57 c p3
104.37 60.12 0.57 c p3
104.32 60.12 0.57 c p3
104.30 60.12 0.57 c p3
104.27 60.13 0.57 c p3
104.22 60.13 0.57 c p3
104.17 60.13 0.57 c p3
104.15 60.13 0.57 c p3
104.10 60.14 0.57 c p3
104.03 60.14 0.57 c p3
104.00 60.15 0.57 c p3
103.93 60.15 0.57 c p3
103.83 60.16 0.57 c p3
103.80 60.16 0.57 c p3
103.78 60.17 0.57 c p3
103.70 60.17 0.57 c p3
103.67 60.18 0.57 c p3
103.62 60.18 0.57 c p3
103.55 60.18 0.57 c p3
103.52 60.19 0.57 c p3
103.41 60.19 0.57 c p3
103.39 60.20 0.57 c p3
103.33 60.20 0.57 c p3
103.28 60.21 0.57 c p3
103.25 60.21 0.57 c p3
103.15 60.21 0.57 c p3
103.12 60.22 0.57 c p3
103.09 60.22 0.57 c p3
103.06 60.22 0.57 c p3
103.04 60.23 0.57 c p3
103.01 60.23 0.57 c p3
102.95 60.23 0.57 c p3
102.93 60.24 0.57 c p3
102.90 60.24 0.57 c p3
102.87 60.25 0.57 c p3
102.84 60.25 0.57 c p3
102.79 60.26 0.57 c p3
102.67 60.26 0.57 c p3
102.61 60.26 0.57 c p3
102.59 60.27 0.57 c p3
102.56 60.27 0.57 c p3
102.53 60.27 0.57 c p3
102.50 60.27 0.57 c p3
102.47 60.28 0.57 c p3
102.41 60.28 0.57 c p3
102.38 60.29 0.57 c p3
102.35 60.29 0.57 c p3
102.29 60.30 0.57 c p3
102.26 60.30 0.57 c p3
102.20 60.30 0.57 c p3
102.17 60.31 0.57 c p3
102.11 60.31 0.57 c p3
102.08 60.32 0.57 c p3
102.02 60.32 0.57 c p3
101.99 60.33 0.57 c p3
101.96 60.33 0.57 c p3
101.80 60.34 0.57 c p3
101.77 60.34 0.57 c p3
101.74 60.34 0.57 c p3
101.71 60.35 0.57 c p3
101.68 60.36 0.57 c p3
101.65 60.37 0.57 c p3
101.61 60.37 0.57 c p3
101.58 60.38 0.57 c p3
101.55 60.38 0.57 c p3
101.52 60.39 0.57 c p3
101.48 60.39 0.57 c p3
101.39 60.40 0.57 c p3
101.35 60.41 0.57 c p3
101.32 60.41 0.57 c p3
101.29 60.42 0.57 c p3
101.25 60.43 0.57 c p3
101.22 60.44 0.57 c p3
101.15 60.45 0.57 c p3
101.12 60.45 0.57 c p3
101.09 60.47 0.57 c p3
101.05 60.48 0.57 c p3
101.02 60.49 0.57 c p3
100.98 60.49 0.57 c p3
100.95 60.50 0.57 c p3
100.91 60.50 0.57 c p3
100.88 60.51 0.57 c p3
100.85 60.51 0.57 c p3
100.81 60.52 0.57 c p3
100.78 60.52 0.57 c p3
100.74 60.52 0.57 c p3
100.71 60.54 0.57 c p3
100.67 60.55 0.57 c p3
100.63 60.56 0.57 c p3
100.60 60.56 0.57 c p3
100.56 60.57 0.57 c p3
100.53 60.58 0.57 c p3
100.49 60.59 0.57 c p3
100.45 60.60 0.57 c p3
100.42 60.61 0.57 c p3
100.38 60.61 0.57 c p3
100.27 60.62 0.57 c p3
100.23 60.62 0.57 c p3
100.20 60.63 0.57 c p3
100.16 60.64 0.57 c p3
100.08 60.65 0.57 c p3
100.05 60.65 0.57 c p3
100.01 60.66 0.57 c p3
99.97 60.67 0.57 c p3
99.93 60.67 0.57 c p3
99.89 60.68 0.57 c p3
99.86 60.69 0.57 c p3
99.82 60.70 0.57 c p3
99.78 60.71 0.57 c p3
99.74 60.73 0.57 c p3
99.70 60.73 0.57 c p3
99.66 60.73 0.57 c p3
99.62 60.74 0.57 c p3
99.58 60.76 0.57 c p3
99.54 60.77 0.57 c p3
99.50 60.78 0.57 c p3
99.46 60.79 0.57 c p3
99.42 60.80 0.57 c p3
99.38 60.81 0.57 c p3
99.34 60.82 0.57 c p3
99.30 60.84 0.57 c p3
99.26 60.84 0.57 c p3
99.22 60.85 0.57 c p3
99.17 60.86 0.57 c p3
99.13 60.87 0.57 c p3
99.09 60.88 0.57 c p3
99.05 60.88 0.57 c p3
99.01 60.89 0.57 c p3
98.96 60.90 0.57 c p3
98.92 60.91 0.57 c p3
98.88 60.92 0.57 c p3
98.83 60.93 0.57 c p3
98.79 60.94 0.57 c p3
98.75 60.95 0.57 c p3
98.70 60.95 0.57 c p3
98.66 60.96 0.57 c p3
98.62 60.98 0.57 c p3
98.57 60.99 0.57 c p3
98.53 61.00 0.57 c p3
98.48 61.01 0.57 c p3
98.44 61.02 0.57 c p3
98.39 61.03 0.57 c p3
98.35 61.03 0.57 c p3
98.30 61.04 0.57 c p3
98.26 61.05 0.57 c p3
98.21 61.06 0.57 c p3
98.16 61.07 0.57 c p3
98.12 61.09 0.57 c p3
98.07 61.10 0.57 c p3
98.02 61.11 0.57 c p3
97.98 61.11 0.57 c p3
97.93 61.12 0.57 c p3
97.88 61.14 0.57 c p3
97.83 61.15 0.57 c p3
97.78 61.17 0.57 c p3
97.74 61.18 0.57 c p3
97.69 61.20 0.57 c p3
97.64 61.22 0.57 c p3
97.59 61.23 0.57 c p3
97.54 61.24 0.57 c p3
97.49 61.26 0.57 c p3
97.44 61.28 0.57 c p3
97.39 61.29 0.57 c p3
97.34 61.31 0.57 c p3
97.29 61.32 0.57 c p3
97.24 61.33 0.57 c p3
97.19 61.34 0.57 c p3
97.13 61.36 0.57 c p3
97.08 61.38 0.57 c p3
97.03 61.39 0.57 c p3
96.98 61.40 0.57 c p3
96.92 61.42 0.57 c p3
96.87 61.43 0.57 c p3
96.82 61.44 0.57 c p3
96.76 61.45 0.57 c p3
96.71 61.46 0.57 c p3
96.66 61.47 0.57 c p3
96.60 61.49 0.57 c p3
96.55 61.51 0.57 c p3
96.49 61.53 0.57 c p3
96.44 61.55 0.57 c p3
96.38 61.56 0.57 c p3
96.32 61.58 0.57 c p3
96.27 61.61 0.57 c p3
96.21 61.62 0.57 c p3
96.15 61.63 0.57 c p3
96.09 61.66 0.57 c p3
96.04 61.67 0.57 c p3
95.98 61.69 0.57 c p3
95.92 61.71 0.57 c p3
95.86 61.73 0.57 c p3
95.80 61.75 0.57 c p3
95.74 61.78 0.57 c p3
95.68 61.80 0.57 c p3
95.62 61.84 0.57 c p3
95.56 61.86 0.57 c p3
95.50 61.87 0.57 c p3
95.43 61.89 0.57 c p3
95.37 61.91 0.57 c p3
95.31 61.93 0.57 c p3
95.25 61.96 0.57 c p3
95.18 61.97 0.57 c p3
95.12 62.00 0.57 c p3
95.05 62.01 0.57 c p3
94.99 62.04 0.57 c p3
94.92 62.06 0.57 c p3
94.86 62.11 0.57 c p3
94.79 62.12 0.57 c p3
94.72 62.16 0.57 c p3
94.66 62.20 0.57 c p3
94.59 62.22 0.57 c p3
94.52 62.25 0.57 c p3
94.45 62.27 0.57 c p3
94.38 62.29 0.57 c p3
94.31 62.33 0.57 c p3
94.24 62.36 0.57 c p3
94.17 62.38 0.57 c p3
94.10 62.40 0.57 c p3
94.03 62.44 0.57 c p3
93.96 62.48 0.57 c p3
93.88 62.52 0.57 c p3
93.81 62.57 0.57 c p3
93.73 62.60 0.57 c p3
93.66 62.63 0.57 c p3
93.58 62.65 0.57 c p3
93.51 62.67 0.57 c p3
93.43 62.71 0.57 c p3
93.35 62.74 0.57 c p3
93.28 62.79 0.57 c p3
93.20 62.83 0.57 c p3
93.12 62.84 0.57 c p3
93.04 62.89 0.57 c p3
92.96 62.93 0.57 c p3
92.88 62.98 0.57 c p3
92.79 63.01 0.57 c p3
92.71 63.06 0.57 c p3
92.63 63.09 0.57 c p3
92.54 63.16 0.57 c p3
92.46 63.20 0.57 c p3
92.37 63.25 0.57 c p3
92.28 63.32 0.57 c p3
92.20 63.36 0.57 c p3
92.11 63.40 0.57 c p3
92.02 63.46 0.57 c p3
91.93 63.50 0.57 c p3
91.84 63.55 0.57 c p3
91.75 63.61 0.57 c p3
91.65 63.67 0.57 c p3
91.56 63.72 0.57 c p3
91.47 63.79 0.57 c p3
91.37 63.84 0.57 c p3
91.27 63.90 0.57 c p3
91.18 63.96 0.57 c p3
91.08 64.01 0.57 c p3
90.98 64.08 0.57 c p3
90.88 64.17 0.57 c p3
90.77 64.24 0.57 c p3
90.67 64.32 0.57 c p3
90.57 64.42 0.57 c p3
90.46 64.48 0.57 c p3
90.36 64.55 0.57 c p3
90.25 64.64 0.57 c p3
90.14 64.73 0.57 c p3
90.03 64.82 0.57 c p3
89.92 64.91 0.57 c p3
89.80 64.99 0.57 c p3
89.69 65.06 0.57 c p3
89.57 65.15 0.57 c p3
89.46 65.23 0.57 c p3
89.34 65.32 0.57 c p3
89.22 65.45 0.57 c p3
89.10 65.55 0.57 c p3
88.97 65.66 0.57 c p3
88.85 65.76 0.57 c p3
88.72 65.87 0.57 c p3
88.59 65.99 0.57 c p3
88.46 66.11 0.57 c p3
88.33 66.22 0.57 c p3
88.19 66.35 0.57 c p3
88.06 66.51 0.57 c p3
87.92 66.63 0.57 c p3
87.78 66.81 0.57 c p3
87.64 66.94 0.57 c p3
87.49 67.09 0.57 c p3
87.35 67.22 0.57 c p3
87.20 67.37 0.57 c p3
87.05 67.51 0.57 c p3
86.89 67.71 0.57 c p3
86.73 67.87 0.57 c p3
86.58 68.03 0.57 c p3
86.41 68.23 0.57 c p3
86.25 68.46 0.57 c p3
86.08 68.67 0.57 c p3
85.91 68.88 0.57 c p3
85.73 69.09 0.57 c p3
85.56 69.32 0.57 c p3
85.38 69.56 0.57 c p3
85.19 69.83 0.57 c p3
85.00 70.09 0.57 c p3
84.81 70.38 0.57 c p3
84.61 70.64 0.57 c p3
84.41 70.95 0.57 c p3
84.21 71.25 0.57 c p3
84.00 71.55 0.57 c p3
83.79 71.89 0.57 c p3
83.57 72.27 0.57 c p3
83.34 72.67 0.57 c p3
83.11 73.00 0.57 c p3
82.87 73.41 0.57 c p3
82.63 73.78 0.57 c p3
82.38 74.22 0.57 c p3
82.13 74.60 0.57 c p3
81.87 75.07 0.57 c p3
81.60 75.61 0.57 c p3
81.32 76.15 0.57 c p3
81.03 76.74 0.57 c p3
80.73 77.31 0.57 c p3
80.43 77.95 0.57 c p3
80.11 78.65 0.57 c p3
79.79 79.34 0.57 c p3
79.45 80.13 0.57 c p3
79.09 80.92 0.57 c p3
78.73 81.77 0.57 c p3
78.35 82.58 0.57 c p3
77.95 83.54 0.57 c p3
77.54 84.56 0.57 c p3
77.10 85.63 0.57 c p3
76.65 86.71 0.57 c p3
76.17 87.86 0.57 c p3
75.67 89.10 0.57 c p3
75.13 90.57 0.57 c p3
74.57 92.05 0.57 c p3
73.97 93.78 0.57 c p3
73.32 95.78 0.57 c p3
72.63 97.72 0.57 c p3
71.89 100.05 0.57 c p3
71.07 102.50 0.57 c p3
70.19 105.22 0.57 c p3
69.20 108.24 0.57 c p3
68.10 111.73 0.57 c p3
66.86 115.76 0.57 c p3
65.42 120.36 0.57 c p3
63.72 125.73 0.57 c p3
61.64 132.10 0.57 c p3
58.96 140.27 0.57 c p3
55.18 152.94 0.57 c p3
0.4980 0.4980 0.4980 srgb
1.07 setlinewidth
[] 0 setdash
50.50 54.65 102.98 102.98 r p1
0.00 0.00 595.28 198.43 cl
159.45 54.65 262.43 157.63 cl
/bg { 1 1 1 srgb } def
159.45 54.65 102.98 102.98 r p2
0.9804 0.9804 0.9804 srgb
1.07 setlinewidth
[] 0 setdash
0 setlinecap
1 setlinejoin
10.00 setmiterlimit
np
159.45 71.03 m
102.98 0 l
o
np
159.45 94.43 m
102.98 0 l
o
np
159.45 117.84 m
102.98 0 l
o
np
159.45 141.24 m
102.98 0 l
o
np
168.41 54.65 m
0 102.98 l
o
np
189.88 54.65 m
0 102.98 l
o
np
211.34 54.65 m
0 102.98 l
o
np
232.81 54.65 m
0 102.98 l
o
np
254.28 54.65 m
0 102.98 l
o
0.8980 0.8980 0.8980 srgb
0.43 setlinewidth
[] 0 setdash
np
159.45 59.33 m
102.98 0 l
o
np
159.45 82.73 m
102.98 0 l
o
np
159.45 106.14 m
102.98 0 l
o
np
159.45 129.54 m
102.98 0 l
o
np
159.45 152.94 m
102.98 0 l
o
np
179.14 54.65 m
0 102.98 l
o
np
200.61 54.65 m
0 102.98 l
o
np
222.08 54.65 m
0 102.98 l
o
np
243.55 54.65 m
0 102.98 l
o
/bg { 0 0 0 srgb } def
0 0 0 srgb
0.71 setlinewidth
[] 0 setdash
1 setlinecap
250.11 59.33 0.57 c p3
249.56 59.33 0.57 c p3
247.87 59.33 0.57 c p3
246.81 59.33 0.57 c p3
246.68 59.33 0.57 c p3
246.53 59.33 0.57 c p3
246.17 59.33 0.57 c p3
245.76 59.33 0.57 c p3
245.37 59.33 0.57 c p3
245.36 59.33 0.57 c p3
245.34 59.33 0.57 c p3
245.21 59.34 0.57 c p3
245.10 59.34 0.57 c p3
243.13 59.34 0.57 c p3
242.64 59.34 0.57 c p3
241.96 59.34 0.57 c p3
241.83 59.34 0.57 c p3
241.61 59.34 0.57 c p3
241.32 59.34 0.57 c p3
241.04 59.34 0.57 c p3
240.68 59.34 0.57 c p3
240.51 59.34 0.57 c p3
240.46 59.34 0.57 c p3
240.33 59.34 0.57 c p3
240.24 59.34 0.57 c p3
239.93 59.34 0.57 c p3
239.82 59.34 0.57 c p3
239.03 59.34 0.57 c p3
238.85 59.35 0.57 c p3
237.99 59.35 0.57 c p3
237.98 59.35 0.57 c p3
237.90 59.35 0.57 c p3
237.67 59.35 0.57 c p3
237.62 59.35 0.57 c p3
237.49 59.35 0.57 c p3
237.41 59.35 0.57 c p3
237.09 59.35 0.57 c p3
237.02 59.35 0.57 c p3
236.66 59.35 0.57 c p3
236.60 59.35 0.57 c p3
235.27 59.35 0.57 c p3
235.03 59.35 0.57 c p3
234.94 59.35 0.57 c p3
234.28 59.35 0.57 c p3
233.75 59.36 0.57 c p3
233.64 59.36 0.57 c p3
233.55 59.36 0.57 c p3
233.43 59.36 0.57 c p3
233.42 59.36 0.57 c p3
232.76 59.36 0.57 c p3
232.35 59.36 0.57 c p3
232.25 59.36 0.57 c p3
231.68 59.36 0.57 c p3
231.66 59.36 0.57 c p3
231.52 59.36 0.57 c p3
231.50 59.36 0.57 c p3
231.44 59.36 0.57 c p3
231.39 59.36 0.57 c p3
230.99 59.36 0.57 c p3
230.66 59.36 0.57 c p3
230.25 59.36 0.57 c p3
230.21 59.37 0.57 c p3
230.12 59.37 0.57 c p3
229.99 59.37 0.57 c p3
229.64 59.37 0.57 c p3
229.64 59.37 0.57 c p3
229.00 59.37 0.57 c p3
228.76 59.37 0.57 c p3
228.23 59.37 0.57 c p3
228.05 59.37 0.57 c p3
227.73 59.37 0.57 c p3
227.63 59.37 0.57 c p3
227.59 59.37 0.57 c p3
227.51 59.37 0.57 c p3
227.33 59.37 0.57 c p3
227.32 59.37 0.57 c p3
227.12 59.37 0.57 c p3
227.04 59.38 0.57 c p3
226.98 59.38 0.57 c p3
226.94 59.38 0.57 c p3
226.74 59.38 0.57 c p3
226.72 59.38 0.57 c p3
226.39 59.38 0.57 c p3
226.34 59.38 0.57 c p3
226.24 59.38 0.57 c p3
226.24 59.38 0.57 c p3
226.17 59.38 0.57 c p3
225.96 59.38 0.57 c p3
225.95 59.38 0.57 c p3
225.93 59.38 0.57 c p3
225.87 59.38 0.57 c p3
225.65 59.38 0.57 c p3
225.62 59.38 0.57 c p3
225.40 59.39 0.57 c p3
225.34 59.39 0.57 c p3
225.31 59.39 0.57 c p3
225.24 59.39 0.57 c p3
225.16 59.39 0.57 c p3
225.01 59.39 0.57 c p3
224.97 59.39 0.57 c p3
224.92 59.39 0.57 c p3
224.90 59.39 0.57 c p3
224.83 59.39 0.57 c p3
224.73 59.39 0.57 c p3
224.71 59.39 0.57 c p3
224.57 59.39 0.57 c p3
224.56 59.39 0.57 c p3
224.50 59.40 0.57 c p3
224.41 59.40 0.57 c p3
224.40 59.40 0.57 c p3
224.39 59.40 0.57 c p3
224.36 59.40 0.57 c p3
224.34 59.40 0.57 c p3
224.34 59.40 0.57 c p3
224.29 59.40 0.57 c p3
224.28 59.40 0.57 c p3
224.26 59.40 0.57 c p3
224.19 59.40 0.57 c p3
224.05 59.40 0.57 c p3
223.96 59.40 0.57 c p3
223.93 59.40 0.57 c p3
223.92 59.40 0.57 c p3
223.90 59.40 0.57 c p3
223.86 59.41 0.57 c p3
223.85 59.41 0.57 c p3
223.82 59.41 0.57 c p3
223.78 59.41 0.57 c p3
223.75 59.41 0.57 c p3
223.72 59.41 0.57 c p3
223.68 59.41 0.57 c p3
223.67 59.41 0.57 c p3
223.59 59.41 0.57 c p3
223.58 59.41 0.57 c p3
223.48 59.41 0.57 c p3
223.45 59.41 0.57 c p3
223.41 59.41 0.57 c p3
223.41 59.41 0.57 c p3
223.29 59.42 0.57 c p3
223.20 59.42 0.57 c p3
223.17 59.42 0.57 c p3
223.14 59.42 0.57 c p3
223.09 59.42 0.57 c p3
223.04 59.42 0.57 c p3
223.02 59.42 0.57 c p3
222.97 59.42 0.57 c p3
222.88 59.42 0.57 c p3
222.87 59.42 0.57 c p3
222.85 59.42 0.57 c p3
222.84 59.42 0.57 c p3
222.82 59.42 0.57 c p3
222.80 59.42 0.57 c p3
222.78 59.43 0.57 c p3
222.76 59.43 0.57 c p3
222.73 59.43 0.57 c p3
222.62 59.43 0.57 c p3
222.59 59.43 0.57 c p3
222.57 59.43 0.57 c p3
222.56 59.43 0.57 c p3
222.51 59.43 0.57 c p3
222.48 59.43 0.57 c p3
222.41 59.43 0.57 c p3
222.39 59.43 0.57 c p3
222.34 59.43 0.57 c p3
222.33 59.43 0.57 c p3
222.27 59.43 0.57 c p3
222.25 59.43 0.57 c p3
222.24 59.44 0.57 c p3
222.19 59.44 0.57 c p3
222.06 59.44 0.57 c p3
222.02 59.44 0.57 c p3
222.00 59.44 0.57 c p3
221.98 59.44 0.57 c p3
221.96 59.44 0.57 c p3
221.95 59.44 0.57 c p3
221.93 59.44 0.57 c p3
221.90 59.44 0.57 c p3
221.77 59.44 0.57 c p3
221.76 59.44 0.57 c p3
221.71 59.44 0.57 c p3
221.69 59.44 0.57 c p3
221.64 59.44 0.57 c p3
221.58 59.44 0.57 c p3
221.56 59.44 0.57 c p3
221.54 59.45 0.57 c p3
221.52 59.45 0.57 c p3
221.51 59.45 0.57 c p3
221.50 59.45 0.57 c p3
221.48 59.45 0.57 c p3
221.46 59.45 0.57 c p3
221.43 59.45 0.57 c p3
221.41 59.45 0.57 c p3
221.37 59.45 0.57 c p3
221.33 59.45 0.57 c p3
221.27 59.45 0.57 c p3
221.26 59.45 0.57 c p3
221.17 59.45 0.57 c p3
221.14 59.45 0.57 c p3
221.12 59.45 0.57 c p3
221.05 59.46 0.57 c p3
220.99 59.46 0.57 c p3
220.97 59.46 0.57 c p3
220.92 59.46 0.57 c p3
220.91 59.46 0.57 c p3
220.89 59.46 0.57 c p3
220.88 59.46 0.57 c p3
220.84 59.46 0.57 c p3
220.83 59.46 0.57 c p3
220.79 59.46 0.57 c p3
220.76 59.46 0.57 c p3
220.75 59.46 0.57 c p3
220.74 59.47 0.57 c p3
220.73 59.47 0.57 c p3
220.72 59.47 0.57 c p3
220.68 59.47 0.57 c p3
220.66 59.47 0.57 c p3
220.65 59.47 0.57 c p3
220.64 59.47 0.57 c p3
220.63 59.47 0.57 c p3
220.60 59.47 0.57 c p3
220.55 59.47 0.57 c p3
220.54 59.47 0.57 c p3
220.51 59.48 0.57 c p3
220.50 59.48 0.57 c p3
220.49 59.48 0.57 c p3
220.47 59.48 0.57 c p3
220.45 59.48 0.57 c p3
220.44 59.48 0.57 c p3
220.43 59.48 0.57 c p3
220.37 59.48 0.57 c p3
220.33 59.48 0.57 c p3
220.32 59.48 0.57 c p3
220.31 59.48 0.57 c p3
220.30 59.48 0.57 c p3
220.26 59.49 0.57 c p3
220.19 59.49 0.57 c p3
220.15 59.49 0.57 c p3
220.11 59.49 0.57 c p3
220.08 59.49 0.57 c p3
220.07 59.49 0.57 c p3
220.03 59.49 0.57 c p3
220.01 59.49 0.57 c p3
219.99 59.49 0.57 c p3
219.97 59.49 0.57 c p3
219.94 59.49 0.57 c p3
219.93 59.49 0.57 c p3
219.92 59.49 0.57 c p3
219.90 59.49 0.57 c p3
219.89 59.50 0.57 c p3
219.86 59.50 0.57 c p3
219.85 59.50 0.57 c p3
219.82 59.50 0.57 c p3
219.81 59.50 0.57 c p3
219.80 59.50 0.57 c p3
219.77 59.50 0.57 c p3
219.71 59.50 0.57 c p3
219.69 59.50 0.57 c p3
219.67 59.50 0.57 c p3
219.65 59.50 0.57 c p3
219.64 59.51 0.57 c p3
219.63 59.51 0.57 c p3
219.61 59.51 0.57 c p3
219.58 59.51 0.57 c p3
219.56 59.51 0.57 c p3
219.54 59.51 0.57 c p3
219.53 59.51 0.57 c p3
219.52 59.51 0.57 c p3
219.51 59.51 0.57 c p3
219.48 59.51 0.57 c p3
219.46 59.51 0.57 c p3
219.43 59.51 0.57 c p3
219.42 59.52 0.57 c p3
219.38 59.52 0.57 c p3
219.37 59.52 0.57 c p3
219.30 59.52 0.57 c p3
219.26 59.52 0.57 c p3
219.18 59.52 0.57 c p3
219.17 59.52 0.57 c p3
219.16 59.52 0.57 c p3
219.14 59.52 0.57 c p3
219.13 59.52 0.57 c p3
219.12 59.53 0.57 c p3
219.11 59.53 0.57 c p3
219.08 59.53 0.57 c p3
219.05 59.53 0.57 c p3
219.03 59.53 0.57 c p3
219.02 59.53 0.57 c p3
219.00 59.53 0.57 c p3
218.99 59.53 0.57 c p3
218.95 59.53 0.57 c p3
218.94 59.53 0.57 c p3
218.91 59.54 0.57 c p3
218.90 59.54 0.57 c p3
218.89 59.54 0.57 c p3
218.87 59.54 0.57 c p3
218.86 59.54 0.57 c p3
218.85 59.54 0.57 c p3
218.83 59.54 0.57 c p3
218.81 59.54 0.57 c p3
218.79 59.54 0.57 c p3
218.78 59.54 0.57 c p3
218.75 59.54 0.57 c p3
218.74 59.54 0.57 c p3
218.73 59.54 0.57 c p3
218.69 59.54 0.57 c p3
218.67 59.55 0.57 c p3
218.66 59.55 0.57 c p3
218.63 59.55 0.57 c p3
218.62 59.55 0.57 c p3
218.61 59.55 0.57 c p3
218.59 59.55 0.57 c p3
218.58 59.55 0.57 c p3
218.56 59.55 0.57 c p3
218.55 59.55 0.57 c p3
218.52 59.55 0.57 c p3
218.51 59.55 0.57 c p3
218.50 59.55 0.57 c p3
218.46 59.55 0.57 c p3
218.44 59.56 0.57 c p3
218.40 59.56 0.57 c p3
218.39 59.56 0.57 c p3
218.37 59.56 0.57 c p3
218.36 59.56 0.57 c p3
218.32 59.56 0.57 c p3
218.30 59.56 0.57 c p3
218.29 59.56 0.57 c p3
218.27 59.57 0.57 c p3
218.26 59.57 0.57 c p3
218.25 59.57 0.57 c p3
218.20 59.57 0.57 c p3
218.19 59.57 0.57 c p3
218.13 59.57 0.57 c p3
218.10 59.57 0.57 c p3
218.06 59.57 0.57 c p3
218.03 59.57 0.57 c p3
218.02 59.57 0.57 c p3
218.00 59.57 0.57 c p3
217.98 59.58 0.57 c p3
217.93 59.58 0.57 c p3
217.90 59.58 0.57 c p3
217.87 59.58 0.57 c p3
217.86 59.58 0.57 c p3
217.84 59.58 0.57 c p3
217.83 59.58 0.57 c p3
217.80 59.59 0.57 c p3
217.79 59.59 0.57 c p3
217.76 59.59 0.57 c p3
217.74 59.59 0.57 c p3
217.71 59.59 0.57 c p3
217.68 59.59 0.57 c p3
217.67 59.59 0.57 c p3
217.62 59.59 0.57 c p3
217.61 59.59 0.57 c p3
217.59 59.59 0.57 c p3
217.58 59.60 0.57 c p3
217.56 59.60 0.57 c p3
217.53 59.60 0.57 c p3
217.52 59.60 0.57 c p3
217.50 59.60 0.57 c p3
217.48 59.60 0.57 c p3
217.45 59.60 0.57 c p3
217.39 59.60 0.57 c p3
217.36 59.60 0.57 c p3
217.35 59.60 0.57 c p3
217.33 59.61 0.57 c p3
217.28 59.61 0.57 c p3
217.25 59.61 0.57 c p3
217.24 59.61 0.57 c p3
217.22 59.61 0.57 c p3
217.19 59.61 0.57 c p3
217.17 59.61 0.57 c p3
217.16 59.61 0.57 c p3
217.14 59.61 0.57 c p3
217.13 59.61 0.57 c p3
217.11 59.62 0.57 c p3
217.10 59.62 0.57 c p3
217.08 59.62 0.57 c p3
217.06 59.62 0.57 c p3
217.03 59.62 0.57 c p3
217.02 59.62 0.57 c p3
217.00 59.62 0.57 c p3
216.98 59.63 0.57 c p3
216.95 59.63 0.57 c p3
216.92 59.63 0.57 c p3
216.87 59.63 0.57 c p3
216.84 59.63 0.57 c p3
216.82 59.64 0.57 c p3
216.80 59.64 0.57 c p3
216.79 59.64 0.57 c p3
216.77 59.64 0.57 c p3
216.74 59.64 0.57 c p3
216.72 59.64 0.57 c p3
216.69 59.64 0.57 c p3
216.67 59.64 0.57 c p3
216.66 59.65 0.57 c p3
216.64 59.65 0.57 c p3
216.61 59.65 0.57 c p3
216.57 59.65 0.57 c p3
216.50 59.65 0.57 c p3
216.49 59.65 0.57 c p3
216.47 59.65 0.57 c p3
216.44 59.66 0.57 c p3
216.42 59.66 0.57 c p3
216.40 59.66 0.57 c p3
216.38 59.66 0.57 c p3
216.37 59.66 0.57 c p3
216.35 59.66 0.57 c p3
216.33 59.66 0.57 c p3
216.30 59.67 0.57 c p3
216.28 59.67 0.57 c p3
216.26 59.67 0.57 c p3
216.25 59.67 0.57 c p3
216.23 59.67 0.57 c p3
216.21 59.67 0.57 c p3
216.19 59.67 0.57 c p3
216.18 59.67 0.57 c p3
216.16 59.67 0.57 c p3
216.14 59.68 0.57 c p3
216.12 59.68 0.57 c p3
216.11 59.68 0.57 c p3
216.09 59.68 0.57 c p3
216.07 59.68 0.57 c p3
216.05 59.68 0.57 c p3
216.03 59.68 0.57 c p3
216.02 59.68 0.57 c p3
215.98 59.69 0.57 c p3
215.96 59.69 0.57 c p3
215.95 59.69 0.57 c p3
215.93 59.69 0.57 c p3
215.91 59.69 0.57 c p3
215.89 59.70 0.57 c p3
215.87 59.70 0.57 c p3
215.85 59.70 0.57 c p3
215.84 59.70 0.57 c p3
215.82 59.70 0.57 c p3
215.80 59.71 0.57 c p3
215.78 59.71 0.57 c p3
215.76 59.71 0.57 c p3
215.75 59.71 0.57 c p3
215.73 59.71 0.57 c p3
215.71 59.72 0.57 c p3
215.67 59.72 0.57 c p3
215.65 59.72 0.57 c p3
215.63 59.72 0.57 c p3
215.62 59.72 0.57 c p3
215.60 59.72 0.57 c p3
215.56 59.72 0.57 c p3
215.54 59.73 0.57 c p3
215.52 59.73 0.57 c p3
215.50 59.73 0.57 c p3
215.48 59.73 0.57 c p3
215.47 59.73 0.57 c p3
215.45 59.73 0.57 c p3
215.43 59.73 0.57 c p3
215.41 59.73 0.57 c p3
215.39 59.73 0.57 c p3
215.37 59.74 0.57 c p3
215.35 59.74 0.57 c p3
215.33 59.74 0.57 c p3
215.31 59.74 0.57 c p3
215.29 59.74 0.57 c p3
215.27 59.75 0.57 c p3
215.25 59.75 0.57 c p3
215.23 59.75 0.57 c p3
215.22 59.75 0.57 c p3
215.20 59.75 0.57 c p3
215.18 59.75 0.57 c p3
215.16 59.75 0.57 c p3
215.14 59.76 0.57 c p3
215.12 59.76 0.57 c p3
215.08 59.76 0.57 c p3
215.06 59.77 0.57 c p3
215.04 59.77 0.57 c p3
215.02 59.77 0.57 c p3
215.00 59.77 0.57 c p3
214.98 59.77 0.57 c p3
214.96 59.78 0.57 c p3
214.94 59.78 0.57 c p3
214.92 59.78 0.57 c p3
214.90 59.78 0.57 c p3
214.88 59.78 0.57 c p3
214.86 59.79 0.57 c p3
214.84 59.79 0.57 c p3
214.82 59.79 0.57 c p3
214.80 59.79 0.57 c p3
214.78 59.80 0.57 c p3
214.76 59.80 0.57 c p3
214.74 59.80 0.57 c p3
214.72 59.80 0.57 c p3
214.70 59.80 0.57 c p3
214.67 59.80 0.57 c p3
214.65 59.81 0.57 c p3
214.63 59.81 0.57 c p3
214.59 59.81 0.57 c p3
214.57 59.81 0.57 c p3
214.55 59.81 0.57 c p3
214.53 59.81 0.57 c p3
214.51 59.81 0.57 c p3
214.49 59.82 0.57 c p3
214.47 59.82 0.57 c p3
214.44 59.82 0.57 c p3
214.42 59.82 0.57 c p3
214.40 59.82 0.57 c p3
214.38 59.83 0.57 c p3
214.36 59.83 0.57 c p3
214.34 59.83 0.57 c p3
214.32 59.83 0.57 c p3
214.30 59.83 0.57 c p3
214.27 59.83 0.57 c p3
214.25 59.83 0.57 c p3
214.23 59.84 0.57 c p3
214.21 59.84 0.57 c p3
214.19 59.84 0.57 c p3
214.17 59.84 0.57 c p3
214.14 59.85 0.57 c p3
214.12 59.85 0.57 c p3
214.10 59.85 0.57 c p3
214.08 59.85 0.57 c p3
214.06 59.85 0.57 c p3
214.03 59.86 0.57 c p3
214.01 59.86 0.57 c p3
213.99 59.86 0.57 c p3
213.97 59.86 0.57 c p3
213.95 59.86 0.57 c p3
213.92 59.86 0.57 c p3
213.90 59.86 0.57 c p3
213.88 59.87 0.57 c p3
213.86 59.87 0.57 c p3
213.83 59.88 0.57 c p3
213.81 59.88 0.57 c p3
213.79 59.88 0.57 c p3
213.77 59.89 0.57 c p3
213.74 59.89 0.57 c p3
213.72 59.89 0.57 c p3
213.70 59.89 0.57 c p3
213.67 59.89 0.57 c p3
213.65 59.90 0.57 c p3
213.63 59.90 0.57 c p3
213.60 59.90 0.57 c p3
213.58 59.90 0.57 c p3
213.56 59.91 0.57 c p3
213.54 59.91 0.57 c p3
213.51 59.91 0.57 c p3
213.49 59.91 0.57 c p3
213.46 59.91 0.57 c p3
213.44 59.92 0.57 c p3
213.42 59.92 0.57 c p3
213.39 59.92 0.57 c p3
213.37 59.93 0.57 c p3
213.35 59.93 0.57 c p3
213.32 59.93 0.57 c p3
213.30 59.93 0.57 c p3
213.28 59.94 0.57 c p3
213.25 59.94 0.57 c p3
213.23 59.94 0.57 c p3
213.20 59.95 0.57 c p3
213.18 59.95 0.57 c p3
213.15 59.95 0.57 c p3
213.13 59.96 0.57 c p3
213.11 59.96 0.57 c p3
213.08 59.96 0.57 c p3
213.06 59.96 0.57 c p3
213.03 59.97 0.57 c p3
213.01 59.97 0.57 c p3
212.98 59.97 0.57 c p3
212.96 59.98 0.57 c p3
212.93 59.98 0.57 c p3
212.91 59.98 0.57 c p3
212.88 59.98 0.57 c p3
212.86 59.99 0.57 c p3
212.83 59.99 0.57 c p3
212.81 59.99 0.57 c p3
212.78 59.99 0.57 c p3
212.76 59.99 0.57 c p3
212.73 60.00 0.57 c p3
212.71 60.00 0.57 c p3
212.68 60.00 0.57 c p3
212.66 60.01 0.57 c p3
212.63 60.01 0.57 c p3
212.60 60.02 0.57 c p3
212.58 60.02 0.57 c p3
212.55 60.02 0.57 c p3
212.53 60.02 0.57 c p3
212.50 60.03 0.57 c p3
212.47 60.03 0.57 c p3
212.45 60.04 0.57 c p3
212.42 60.04 0.57 c p3
212.40 60.04 0.57 c p3
212.37 60.04 0.57 c p3
212.34 60.05 0.57 c p3
212.32 60.05 0.57 c p3
212.29 60.05 0.57 c p3
212.26 60.06 0.57 c p3
212.24 60.06 0.57 c p3
212.21 60.06 0.57 c p3
212.18 60.07 0.57 c p3
212.16 60.07 0.57 c p3
212.13 60.08 0.57 c p3
212.10 60.08 0.57 c p3
212.07 60.08 0.57 c p3
212.05 60.09 0.57 c p3
212.02 60.09 0.57 c p3
211.99 60.10 0.57 c p3
211.96 60.10 0.57 c p3
211.94 60.10 0.57 c p3
211.91 60.10 0.57 c p3
211.88 60.11 0.57 c p3
211.85 60.11 0.57 c p3
211.83 60.12 0.57 c p3
211.80 60.12 0.57 c p3
211.77 60.12 0.57 c p3
211.74 60.12 0.57 c p3
211.71 60.13 0.57 c p3
211.68 60.13 0.57 c p3
211.66 60.14 0.57 c p3
211.63 60.14 0.57 c p3
211.60 60.14 0.57 c p3
211.57 60.15 0.57 c p3
211.54 60.15 0.57 c p3
211.51 60.16 0.57 c p3
211.48 60.16 0.57 c p3
211.45 60.16 0.57 c p3
211.43 60.17 0.57 c p3
211.40 60.17 0.57 c p3
211.37 60.18 0.57 c p3
211.34 60.18 0.57 c p3
211.31 60.18 0.57 c p3
211.28 60.18 0.57 c p3
211.25 60.19 0.57 c p3
211.22 60.19 0.57 c p3
211.19 60.19 0.57 c p3
211.16 60.20 0.57 c p3
211.13 60.20 0.57 c p3
211.10 60.20 0.57 c p3
211.07 60.21 0.57 c p3
211.04 60.21 0.57 c p3
211.01 60.22 0.57 c p3
210.98 60.22 0.57 c p3
210.95 60.23 0.57 c p3
210.91 60.23 0.57 c p3
210.88 60.24 0.57 c p3
210.85 60.24 0.57 c p3
210.82 60.25 0.57 c p3
210.79 60.25 0.57 c p3
210.76 60.26 0.57 c p3
210.73 60.26 0.57 c p3
210.70 60.26 0.57 c p3
210.66 60.27 0.57 c p3
210.63 60.28 0.57 c p3
210.60 60.28 0.57 c p3
210.57 60.29 0.57 c p3
210.54 60.30 0.57 c p3
210.50 60.30 0.57 c p3
210.47 60.31 0.57 c p3
210.44 60.31 0.57 c p3
210.41 60.32 0.57 c p3
210.37 60.32 0.57 c p3
210.34 60.32 0.57 c p3
210.31 60.33 0.57 c p3
210.28 60.33 0.57 c p3
210.24 60.33 0.57 c p3
210.21 60.34 0.57 c p3
210.18 60.34 0.57 c p3
210.14 60.35 0.57 c p3
210.11 60.35 0.57 c p3
210.08 60.36 0.57 c p3
210.04 60.36 0.57 c p3
210.01 60.37 0.57 c p3
209.97 60.38 0.57 c p3
209.94 60.38 0.57 c p3
209.90 60.39 0.57 c p3
209.87 60.40 0.57 c p3
209.84 60.40 0.57 c p3
209.80 60.41 0.57 c p3
209.77 60.41 0.57 c p3
209.73 60.42 0.57 c p3
209.70 60.42 0.57 c p3
209.66 60.43 0.57 c p3
209.63 60.44 0.57 c p3
209.59 60.44 0.57 c p3
209.55 60.44 0.57 c p3
209.52 60.45 0.57 c p3
209.48 60.45 0.57 c p3
209.45 60.46 0.57 c p3
209.41 60.47 0.57 c p3
209.37 60.47 0.57 c p3
209.34 60.48 0.57 c p3
209.30 60.48 0.57 c p3
209.26 60.49 0.57 c p3
209.23 60.50 0.57 c p3
209.19 60.50 0.57 c p3
209.15 60.51 0.57 c p3
209.12 60.51 0.57 c p3
209.08 60.52 0.57 c p3
209.04 60.53 0.57 c p3
209.00 60.53 0.57 c p3
208.96 60.54 0.57 c p3
208.93 60.55 0.57 c p3
208.89 60.55 0.57 c p3
208.85 60.56 0.57 c p3
208.81 60.56 0.57 c p3
208.77 60.57 0.57 c p3
208.73 60.58 0.57 c p3
208.69 60.58 0.57 c p3
208.65 60.59 0.57 c p3
208.62 60.60 0.57 c p3
208.58 60.60 0.57 c p3
208.54 60.61 0.57 c p3
208.50 60.62 0.57 c p3
208.46 60.62 0.57 c p3
208.42 60.63 0.57 c p3
208.38 60.64 0.57 c p3
208.33 60.65 0.57 c p3
208.29 60.65 0.57 c p3
208.25 60.66 0.57 c p3
208.21 60.66 0.57 c p3
208.17 60.67 0.57 c p3
208.13 60.68 0.57 c p3
208.09 60.69 0.57 c p3
208.05 60.70 0.57 c p3
208.00 60.71 0.57 c p3
207.96 60.71 0.57 c p3
207.92 60.72 0.57 c p3
207.88 60.73 0.57 c p3
207.83 60.74 0.57 c p3
207.79 60.74 0.57 c p3
207.75 60.76 0.57 c p3
207.70 60.76 0.57 c p3
207.66 60.77 0.57 c p3
207.62 60.78 0.57 c p3
207.57 60.79 0.57 c p3
207.53 60.80 0.57 c p3
207.48 60.81 0.57 c p3
207.44 60.82 0.57 c p3
207.39 60.83 0.57 c p3
207.35 60.84 0.57 c p3
207.30 60.85 0.57 c p3
207.26 60.86 0.57 c p3
207.21 60.87 0.57 c p3
207.17 60.88 0.57 c p3
207.12 60.88 0.57 c p3
207.07 60.90 0.57 c p3
207.03 60.90 0.57 c p3
206.98 60.91 0.57 c p3
206.93 60.92 0.57 c p3
206.88 60.93 0.57 c p3
206.84 60.94 0.57 c p3
206.79 60.95 0.57 c p3
206.74 60.95 0.57 c p3
206.69 60.96 0.57 c p3
206.64 60.97 0.57 c p3
206.59 60.98 0.57 c p3
206.54 61.00 0.57 c p3
206.50 61.01 0.57 c p3
206.45 61.02 0.57 c p3
206.40 61.03 0.57 c p3
206.35 61.04 0.57 c p3
206.29 61.05 0.57 c p3
206.24 61.06 0.57 c p3
206.19 61.07 0.57 c p3
206.14 61.08 0.57 c p3
206.09 61.09 0.57 c p3
206.04 61.11 0.57 c p3
205.99 61.12 0.57 c p3
205.93 61.13 0.57 c p3
205.88 61.15 0.57 c p3
205.83 61.16 0.57 c p3
205.77 61.17 0.57 c p3
205.72 61.18 0.57 c p3
205.67 61.19 0.57 c p3
205.61 61.21 0.57 c p3
205.56 61.22 0.57 c p3
205.50 61.23 0.57 c p3
205.45 61.25 0.57 c p3
205.39 61.27 0.57 c p3
205.34 61.28 0.57 c p3
205.28 61.29 0.57 c p3
205.22 61.30 0.57 c p3
205.16 61.32 0.57 c p3
205.11 61.34 0.57 c p3
205.05 61.35 0.57 c p3
204.99 61.37 0.57 c p3
204.93 61.39 0.57 c p3
204.87 61.40 0.57 c p3
204.82 61.42 0.57 c p3
204.76 61.43 0.57 c p3
204.70 61.44 0.57 c p3
204.64 61.46 0.57 c p3
204.57 61.47 0.57 c p3
204.51 61.49 0.57 c p3
204.45 61.50 0.57 c p3
204.39 61.52 0.57 c p3
204.33 61.54 0.57 c p3
204.26 61.56 0.57 c p3
204.20 61.57 0.57 c p3
204.14 61.58 0.57 c p3
204.07 61.60 0.57 c p3
204.01 61.63 0.57 c p3
203.94 61.64 0.57 c p3
203.88 61.66 0.57 c p3
203.81 61.68 0.57 c p3
203.75 61.70 0.57 c p3
203.68 61.71 0.57 c p3
203.61 61.73 0.57 c p3
203.54 61.75 0.57 c p3
203.48 61.77 0.57 c p3
203.41 61.78 0.57 c p3
203.34 61.80 0.57 c p3
203.27 61.82 0.57 c p3
203.20 61.84 0.57 c p3
203.13 61.85 0.57 c p3
203.06 61.88 0.57 c p3
202.98 61.90 0.57 c p3
202.91 61.93 0.57 c p3
202.84 61.95 0.57 c p3
202.76 61.97 0.57 c p3
202.69 62.00 0.57 c p3
202.62 62.02 0.57 c p3
202.54 62.04 0.57 c p3
202.46 62.07 0.57 c p3
202.39 62.09 0.57 c p3
202.31 62.11 0.57 c p3
202.23 62.14 0.57 c p3
202.15 62.17 0.57 c p3
202.07 62.20 0.57 c p3
201.99 62.23 0.57 c p3
201.91 62.26 0.57 c p3
201.83 62.28 0.57 c p3
201.75 62.31 0.57 c p3
201.67 62.33 0.57 c p3
201.58 62.36 0.57 c p3
201.50 62.38 0.57 c p3
201.41 62.41 0.57 c p3
201.33 62.44 0.57 c p3
201.24 62.47 0.57 c p3
201.15 62.50 0.57 c p3
201.06 62.53 0.57 c p3
200.98 62.57 0.57 c p3
200.89 62.59 0.57 c p3
200.79 62.63 0.57 c p3
200.70 62.66 0.57 c p3
200.61 62.70 0.57 c p3
200.52 62.73 0.57 c p3
200.42 62.77 0.57 c p3
200.33 62.81 0.57 c p3
200.23 62.85 0.57 c p3
200.13 62.88 0.57 c p3
200.03 62.91 0.57 c p3
199.93 62.94 0.57 c p3
199.83 62.98 0.57 c p3
199.73 63.02 0.57 c p3
199.63 63.06 0.57 c p3
199.52 63.11 0.57 c p3
199.42 63.15 0.57 c p3
199.31 63.19 0.57 c p3
199.20 63.23 0.57 c p3
199.09 63.27 0.57 c p3
198.98 63.32 0.57 c p3
198.87 63.37 0.57 c p3
198.76 63.42 0.57 c p3
198.64 63.47 0.57 c p3
198.53 63.52 0.57 c p3
198.41 63.57 0.57 c p3
198.29 63.62 0.57 c p3
198.17 63.67 0.57 c p3
198.05 63.72 0.57 c p3
197.93 63.78 0.57 c p3
197.80 63.85 0.57 c p3
197.68 63.89 0.57 c p3
197.55 63.96 0.57 c p3
197.42 64.01 0.57 c p3
197.28 64.08 0.57 c p3
197.15 64.14 0.57 c p3
197.01 64.21 0.57 c p3
196.88 64.28 0.57 c p3
196.74 64.35 0.57 c p3
196.59 64.43 0.57 c p3
196.45 64.49 0.57 c p3
196.30 64.56 0.57 c p3
196.15 64.64 0.57 c p3
196.00 64.72 0.57 c p3
195.85 64.80 0.57 c p3
195.69 64.88 0.57 c p3
195.53 64.97 0.57 c p3
195.37 65.05 0.57 c p3
195.20 65.15 0.57 c p3
195.04 65.23 0.57 c p3
194.86 65.33 0.57 c p3
194.69 65.43 0.57 c p3
194.51 65.53 0.57 c p3
194.33 65.65 0.57 c p3
194.15 65.76 0.57 c p3
193.96 65.87 0.57 c p3
193.77 66.00 0.57 c p3
193.57 66.12 0.57 c p3
193.37 66.26 0.57 c p3
193.16 66.39 0.57 c p3
192.95 66.54 0.57 c p3
192.74 66.69 0.57 c p3
192.52 66.84 0.57 c p3
192.30 67.00 0.57 c p3
192.07 67.16 0.57 c p3
191.83 67.34 0.57 c p3
191.59 67.49 0.57 c p3
191.34 67.69 0.57 c p3
191.08 67.87 0.57 c p3
190.82 68.08 0.57 c p3
190.55 68.31 0.57 c p3
190.27 68.56 0.57 c p3
189.99 68.80 0.57 c p3
189.69 69.06 0.57 c p3
189.38 69.33 0.57 c p3
189.07 69.61 0.57 c p3
188.74 69.91 0.57 c p3
188.40 70.23 0.57 c p3
188.05 70.61 0.57 c p3
187.68 70.99 0.57 c p3
187.30 71.45 0.57 c p3
186.91 71.91 0.57 c p3
186.49 72.40 0.57 c p3
186.06 72.96 0.57 c p3
185.60 73.54 0.57 c p3
185.13 74.14 0.57 c p3
184.62 74.87 0.57 c p3
184.09 75.67 0.57 c p3
183.52 76.55 0.57 c p3
182.92 77.58 0.57 c p3
182.28 78.65 0.57 c p3
181.59 79.90 0.57 c p3
180.84 81.38 0.57 c p3
180.03 83.03 0.57 c p3
179.14 84.93 0.57 c p3
178.16 87.17 0.57 c p3
177.06 89.81 0.57 c p3
175.82 92.98 0.57 c p3
174.38 96.71 0.57 c p3
172.68 101.45 0.57 c p3
170.60 107.58 0.57 c p3
167.92 116.89 0.57 c p3
164.13 152.94 0.57 c p3
0.4980 0.4980 0.4980 srgb
1.07 setlinewidth
[] 0 setdash
159.45 54.65 102.98 102.98 r p1
0.00 0.00 595.28 198.43 cl
268.41 54.65 371.39 157.63 cl
/bg { 1 1 1 srgb } def
268.41 54.65 102.98 102.98 r p2
0.9804 0.9804 0.9804 srgb
1.07 setlinewidth
[] 0 setdash
0 setlinecap
1 setlinejoin
10.00 setmiterlimit
np
268.41 71.03 m
102.98 0 l
o
np
268.41 94.43 m
102.98 0 l
o
np
268.41 117.84 m
102.98 0 l
o
np
268.41 141.24 m
102.98 0 l
o
np
277.36 54.65 m
0 102.98 l
o
np
298.83 54.65 m
0 102.98 l
o
np
320.30 54.65 m
0 102.98 l
o
np
341.77 54.65 m
0 102.98 l
o
np
363.24 54.65 m
0 102.98 l
o
0.8980 0.8980 0.8980 srgb
0.43 setlinewidth
[] 0 setdash
np
268.41 59.33 m
102.98 0 l
o
np
268.41 82.73 m
102.98 0 l
o
np
268.41 106.14 m
102.98 0 l
o
np
268.41 129.54 m
102.98 0 l
o
np
268.41 152.94 m
102.98 0 l
o
np
288.10 54.65 m
0 102.98 l
o
np
309.56 54.65 m
0 102.98 l
o
np
331.03 54.65 m
0 102.98 l
o
np
352.50 54.65 m
0 102.98 l
o
/bg { 0 0 0 srgb } def
0 0 0 srgb
0.71 setlinewidth
[] 0 setdash
1 setlinecap
321.96 59.34 0.57 c p3
320.73 59.35 0.57 c p3
320.08 59.35 0.57 c p3
319.93 59.36 0.57 c p3
319.84 59.37 0.57 c p3
319.75 59.38 0.57 c p3
319.71 59.39 0.57 c p3
319.33 59.40 0.57 c p3
319.00 59.41 0.57 c p3
317.96 59.41 0.57 c p3
317.13 59.42 0.57 c p3
316.87 59.43 0.57 c p3
316.17 59.44 0.57 c p3
313.95 59.45 0.57 c p3
313.89 59.46 0.57 c p3
313.65 59.47 0.57 c p3
313.53 59.48 0.57 c p3
313.28 59.48 0.57 c p3
313.03 59.50 0.57 c p3
312.90 59.51 0.57 c p3
312.43 59.53 0.57 c p3
311.79 59.54 0.57 c p3
311.72 59.54 0.57 c p3
311.57 59.55 0.57 c p3
311.03 59.56 0.57 c p3
310.87 59.57 0.57 c p3
310.70 59.59 0.57 c p3
310.62 59.60 0.57 c p3
310.54 59.61 0.57 c p3
309.93 59.61 0.57 c p3
309.75 59.62 0.57 c p3
309.28 59.63 0.57 c p3
309.18 59.64 0.57 c p3
308.79 59.65 0.57 c p3
308.69 59.67 0.57 c p3
308.58 59.68 0.57 c p3
308.48 59.69 0.57 c p3
308.37 59.70 0.57 c p3
308.27 59.71 0.57 c p3
308.16 59.72 0.57 c p3
308.05 59.74 0.57 c p3
307.94 59.75 0.57 c p3
307.71 59.76 0.57 c p3
307.60 59.77 0.57 c p3
307.48 59.78 0.57 c p3
307.37 59.79 0.57 c p3
307.25 59.80 0.57 c p3
307.13 59.84 0.57 c p3
307.01 59.87 0.57 c p3
306.88 59.88 0.57 c p3
306.76 59.92 0.57 c p3
306.50 59.93 0.57 c p3
306.37 59.95 0.57 c p3
306.24 59.96 0.57 c p3
306.11 59.97 0.57 c p3
305.97 60.03 0.57 c p3
305.83 60.06 0.57 c p3
305.69 60.06 0.57 c p3
305.55 60.08 0.57 c p3
305.40 60.11 0.57 c p3
305.26 60.14 0.57 c p3
305.11 60.19 0.57 c p3
304.96 60.20 0.57 c p3
304.80 60.24 0.57 c p3
304.65 60.27 0.57 c p3
304.49 60.30 0.57 c p3
304.32 60.32 0.57 c p3
304.16 60.37 0.57 c p3
303.99 60.41 0.57 c p3
303.82 60.46 0.57 c p3
303.65 60.49 0.57 c p3
303.47 60.59 0.57 c p3
303.29 60.63 0.57 c p3
303.10 60.70 0.57 c p3
302.91 60.75 0.57 c p3
302.72 60.78 0.57 c p3
302.53 60.84 0.57 c p3
302.32 60.96 0.57 c p3
302.12 61.09 0.57 c p3
301.91 61.17 0.57 c p3
301.70 61.25 0.57 c p3
301.48 61.33 0.57 c p3
301.25 61.46 0.57 c p3
301.02 61.56 0.57 c p3
300.79 61.65 0.57 c p3
300.54 61.74 0.57 c p3
300.29 61.90 0.57 c p3
300.04 62.08 0.57 c p3
299.78 62.28 0.57 c p3
299.51 62.43 0.57 c p3
299.23 62.68 0.57 c p3
298.94 62.91 0.57 c p3
298.65 63.21 0.57 c p3
298.34 63.48 0.57 c p3
298.02 63.82 0.57 c p3
297.70 64.19 0.57 c p3
297.36 64.62 0.57 c p3
297.01 65.03 0.57 c p3
296.64 65.49 0.57 c p3
296.26 66.02 0.57 c p3
295.86 66.52 0.57 c p3
295.45 67.23 0.57 c p3
295.01 67.93 0.57 c p3
294.56 68.74 0.57 c p3
294.08 69.65 0.57 c p3
293.58 70.80 0.57 c p3
293.04 72.23 0.57 c p3
292.48 73.41 0.57 c p3
291.88 74.80 0.57 c p3
291.23 76.63 0.57 c p3
290.54 78.91 0.57 c p3
289.80 81.53 0.57 c p3
288.98 84.35 0.57 c p3
288.10 88.04 0.57 c p3
287.11 92.26 0.57 c p3
286.02 97.57 0.57 c p3
284.77 103.54 0.57 c p3
283.33 110.48 0.57 c p3
281.63 118.46 0.57 c p3
279.55 127.70 0.57 c p3
276.87 139.03 0.57 c p3
273.09 152.94 0.57 c p3
0.4980 0.4980 0.4980 srgb
1.07 setlinewidth
[] 0 setdash
268.41 54.65 102.98 102.98 r p1
0.00 0.00 595.28 198.43 cl
377.36 54.65 480.34 157.63 cl
/bg { 1 1 1 srgb } def
377.36 54.65 102.98 102.98 r p2
0.9804 0.9804 0.9804 srgb
1.07 setlinewidth
[] 0 setdash
0 setlinecap
1 setlinejoin
10.00 setmiterlimit
np
377.36 71.03 m
102.98 0 l
o
np
377.36 94.43 m
102.98 0 l
o
np
377.36 117.84 m
102.98 0 l
o
np
377.36 141.24 m
102.98 0 l
o
np
386.32 54.65 m
0 102.98 l
o
np
407.79 54.65 m
0 102.98 l
o
np
429.25 54.65 m
0 102.98 l
o
np
450.72 54.65 m
0 102.98 l
o
np
472.19 54.65 m
0 102.98 l
o
0.8980 0.8980 0.8980 srgb
0.43 setlinewidth
[] 0 setdash
np
377.36 59.33 m
102.98 0 l
o
np
377.36 82.73 m
102.98 0 l
o
np
377.36 106.14 m
102.98 0 l
o
np
377.36 129.54 m
102.98 0 l
o
np
377.36 152.94 m
102.98 0 l
o
np
397.05 54.65 m
0 102.98 l
o
np
418.52 54.65 m
0 102.98 l
o
np
439.99 54.65 m
0 102.98 l
o
np
461.46 54.65 m
0 102.98 l
o
/bg { 0 0 0 srgb } def
0 0 0 srgb
0.71 setlinewidth
[] 0 setdash
1 setlinecap
475.66 59.33 0.57 c p3
469.75 59.33 0.57 c p3
465.71 59.33 0.57 c p3
451.39 59.33 0.57 c p3
450.46 59.33 0.57 c p3
441.62 59.33 0.57 c p3
441.41 59.34 0.57 c p3
441.02 59.34 0.57 c p3
440.20 59.34 0.57 c p3
438.97 59.34 0.57 c p3
438.79 59.34 0.57 c p3
438.56 59.34 0.57 c p3
438.37 59.34 0.57 c p3
438.35 59.34 0.57 c p3
438.02 59.34 0.57 c p3
436.98 59.35 0.57 c p3
436.77 59.35 0.57 c p3
436.49 59.35 0.57 c p3
436.31 59.35 0.57 c p3
436.14 59.35 0.57 c p3
435.68 59.35 0.57 c p3
434.47 59.35 0.57 c p3
434.42 59.35 0.57 c p3
434.30 59.35 0.57 c p3
434.28 59.36 0.57 c p3
434.10 59.36 0.57 c p3
433.84 59.36 0.57 c p3
433.69 59.36 0.57 c p3
433.51 59.36 0.57 c p3
433.39 59.36 0.57 c p3
433.34 59.36 0.57 c p3
433.05 59.36 0.57 c p3
433.01 59.36 0.57 c p3
432.81 59.36 0.57 c p3
432.50 59.37 0.57 c p3
432.38 59.37 0.57 c p3
432.36 59.37 0.57 c p3
432.31 59.37 0.57 c p3
432.18 59.37 0.57 c p3
432.14 59.37 0.57 c p3
432.05 59.37 0.57 c p3
432.03 59.37 0.57 c p3
432.01 59.38 0.57 c p3
431.99 59.38 0.57 c p3
431.97 59.38 0.57 c p3
431.90 59.38 0.57 c p3
431.88 59.38 0.57 c p3
431.86 59.38 0.57 c p3
431.83 59.38 0.57 c p3
431.65 59.38 0.57 c p3
431.54 59.39 0.57 c p3
431.52 59.39 0.57 c p3
431.47 59.39 0.57 c p3
431.42 59.39 0.57 c p3
431.38 59.39 0.57 c p3
431.30 59.39 0.57 c p3
431.21 59.39 0.57 c p3
431.16 59.40 0.57 c p3
431.11 59.40 0.57 c p3
431.09 59.40 0.57 c p3
430.79 59.40 0.57 c p3
430.74 59.40 0.57 c p3
430.49 59.40 0.57 c p3
430.46 59.40 0.57 c p3
430.39 59.41 0.57 c p3
430.31 59.41 0.57 c p3
430.28 59.41 0.57 c p3
430.25 59.41 0.57 c p3
430.15 59.41 0.57 c p3
430.12 59.42 0.57 c p3
430.09 59.42 0.57 c p3
430.01 59.42 0.57 c p3
429.99 59.42 0.57 c p3
429.93 59.42 0.57 c p3
429.90 59.42 0.57 c p3
429.76 59.42 0.57 c p3
429.74 59.43 0.57 c p3
429.71 59.43 0.57 c p3
429.68 59.43 0.57 c p3
429.65 59.43 0.57 c p3
429.62 59.43 0.57 c p3
429.54 59.43 0.57 c p3
429.48 59.43 0.57 c p3
429.31 59.43 0.57 c p3
429.25 59.44 0.57 c p3
429.22 59.44 0.57 c p3
429.16 59.44 0.57 c p3
429.13 59.44 0.57 c p3
429.07 59.44 0.57 c p3
429.04 59.44 0.57 c p3
428.98 59.44 0.57 c p3
428.95 59.45 0.57 c p3
428.92 59.45 0.57 c p3
428.89 59.45 0.57 c p3
428.86 59.45 0.57 c p3
428.76 59.45 0.57 c p3
428.73 59.46 0.57 c p3
428.70 59.46 0.57 c p3
428.58 59.46 0.57 c p3
428.54 59.46 0.57 c p3
428.45 59.46 0.57 c p3
428.38 59.47 0.57 c p3
428.35 59.47 0.57 c p3
428.32 59.47 0.57 c p3
428.29 59.47 0.57 c p3
428.25 59.47 0.57 c p3
428.22 59.47 0.57 c p3
428.19 59.48 0.57 c p3
428.15 59.48 0.57 c p3
428.12 59.48 0.57 c p3
428.09 59.49 0.57 c p3
428.02 59.49 0.57 c p3
427.99 59.49 0.57 c p3
427.95 59.50 0.57 c p3
427.92 59.50 0.57 c p3
427.88 59.50 0.57 c p3
427.85 59.50 0.57 c p3
427.82 59.50 0.57 c p3
427.78 59.50 0.57 c p3
427.75 59.51 0.57 c p3
427.71 59.51 0.57 c p3
427.68 59.51 0.57 c p3
427.64 59.52 0.57 c p3
427.61 59.52 0.57 c p3
427.50 59.52 0.57 c p3
427.47 59.52 0.57 c p3
427.43 59.52 0.57 c p3
427.36 59.52 0.57 c p3
427.32 59.52 0.57 c p3
427.25 59.53 0.57 c p3
427.21 59.53 0.57 c p3
427.17 59.53 0.57 c p3
427.14 59.53 0.57 c p3
427.10 59.53 0.57 c p3
427.06 59.54 0.57 c p3
427.03 59.54 0.57 c p3
426.99 59.54 0.57 c p3
426.95 59.54 0.57 c p3
426.91 59.54 0.57 c p3
426.88 59.55 0.57 c p3
426.84 59.55 0.57 c p3
426.80 59.55 0.57 c p3
426.76 59.55 0.57 c p3
426.72 59.55 0.57 c p3
426.68 59.56 0.57 c p3
426.64 59.56 0.57 c p3
426.61 59.56 0.57 c p3
426.57 59.57 0.57 c p3
426.53 59.57 0.57 c p3
426.49 59.57 0.57 c p3
426.45 59.57 0.57 c p3
426.41 59.58 0.57 c p3
426.37 59.58 0.57 c p3
426.33 59.58 0.57 c p3
426.29 59.58 0.57 c p3
426.25 59.58 0.57 c p3
426.20 59.59 0.57 c p3
426.16 59.59 0.57 c p3
426.12 59.60 0.57 c p3
426.04 59.60 0.57 c p3
426.00 59.60 0.57 c p3
425.96 59.61 0.57 c p3
425.91 59.61 0.57 c p3
425.87 59.61 0.57 c p3
425.83 59.62 0.57 c p3
425.79 59.62 0.57 c p3
425.74 59.62 0.57 c p3
425.70 59.62 0.57 c p3
425.66 59.63 0.57 c p3
425.61 59.63 0.57 c p3
425.57 59.64 0.57 c p3
425.53 59.64 0.57 c p3
425.48 59.64 0.57 c p3
425.44 59.65 0.57 c p3
425.39 59.65 0.57 c p3
425.35 59.66 0.57 c p3
425.30 59.66 0.57 c p3
425.26 59.66 0.57 c p3
425.21 59.66 0.57 c p3
425.17 59.67 0.57 c p3
425.12 59.67 0.57 c p3
425.08 59.68 0.57 c p3
424.98 59.68 0.57 c p3
424.94 59.68 0.57 c p3
424.89 59.69 0.57 c p3
424.84 59.69 0.57 c p3
424.79 59.69 0.57 c p3
424.75 59.70 0.57 c p3
424.70 59.70 0.57 c p3
424.65 59.71 0.57 c p3
424.60 59.71 0.57 c p3
424.55 59.72 0.57 c p3
424.50 59.72 0.57 c p3
424.46 59.73 0.57 c p3
424.41 59.73 0.57 c p3
424.36 59.74 0.57 c p3
424.31 59.74 0.57 c p3
424.26 59.74 0.57 c p3
424.21 59.75 0.57 c p3
424.15 59.75 0.57 c p3
424.10 59.77 0.57 c p3
424.05 59.77 0.57 c p3
424.00 59.78 0.57 c p3
423.95 59.79 0.57 c p3
423.90 59.79 0.57 c p3
423.84 59.80 0.57 c p3
423.79 59.80 0.57 c p3
423.74 59.81 0.57 c p3
423.68 59.81 0.57 c p3
423.63 59.82 0.57 c p3
423.58 59.82 0.57 c p3
423.52 59.83 0.57 c p3
423.47 59.84 0.57 c p3
423.41 59.84 0.57 c p3
423.36 59.85 0.57 c p3
423.30 59.85 0.57 c p3
423.25 59.86 0.57 c p3
423.19 59.87 0.57 c p3
423.13 59.87 0.57 c p3
423.08 59.88 0.57 c p3
423.02 59.89 0.57 c p3
422.96 59.89 0.57 c p3
422.90 59.90 0.57 c p3
422.84 59.91 0.57 c p3
422.79 59.91 0.57 c p3
422.73 59.92 0.57 c p3
422.67 59.93 0.57 c p3
422.61 59.94 0.57 c p3
422.55 59.94 0.57 c p3
422.49 59.95 0.57 c p3
422.42 59.96 0.57 c p3
422.36 59.96 0.57 c p3
422.30 59.97 0.57 c p3
422.24 59.98 0.57 c p3
422.18 59.99 0.57 c p3
422.11 59.99 0.57 c p3
422.05 60.00 0.57 c p3
421.98 60.01 0.57 c p3
421.92 60.02 0.57 c p3
421.86 60.03 0.57 c p3
421.79 60.04 0.57 c p3
421.72 60.06 0.57 c p3
421.66 60.07 0.57 c p3
421.59 60.09 0.57 c p3
421.52 60.10 0.57 c p3
421.46 60.11 0.57 c p3
421.39 60.13 0.57 c p3
421.32 60.14 0.57 c p3
421.25 60.15 0.57 c p3
421.18 60.16 0.57 c p3
421.11 60.17 0.57 c p3
421.04 60.18 0.57 c p3
420.97 60.19 0.57 c p3
420.89 60.21 0.57 c p3
420.82 60.22 0.57 c p3
420.75 60.24 0.57 c p3
420.68 60.25 0.57 c p3
420.60 60.26 0.57 c p3
420.53 60.27 0.57 c p3
420.45 60.29 0.57 c p3
420.37 60.31 0.57 c p3
420.30 60.33 0.57 c p3
420.22 60.34 0.57 c p3
420.14 60.37 0.57 c p3
420.06 60.38 0.57 c p3
419.98 60.40 0.57 c p3
419.90 60.41 0.57 c p3
419.82 60.43 0.57 c p3
419.74 60.45 0.57 c p3
419.66 60.47 0.57 c p3
419.58 60.49 0.57 c p3
419.49 60.51 0.57 c p3
419.41 60.54 0.57 c p3
419.32 60.56 0.57 c p3
419.24 60.58 0.57 c p3
419.15 60.60 0.57 c p3
419.06 60.62 0.57 c p3
418.98 60.65 0.57 c p3
418.89 60.67 0.57 c p3
418.80 60.68 0.57 c p3
418.71 60.71 0.57 c p3
418.61 60.74 0.57 c p3
418.52 60.77 0.57 c p3
418.43 60.80 0.57 c p3
418.33 60.83 0.57 c p3
418.24 60.86 0.57 c p3
418.14 60.89 0.57 c p3
418.04 60.92 0.57 c p3
417.94 60.95 0.57 c p3
417.84 60.98 0.57 c p3
417.74 61.01 0.57 c p3
417.64 61.05 0.57 c p3
417.54 61.09 0.57 c p3
417.43 61.13 0.57 c p3
417.33 61.17 0.57 c p3
417.22 61.20 0.57 c p3
417.11 61.24 0.57 c p3
417.01 61.27 0.57 c p3
416.89 61.32 0.57 c p3
416.78 61.36 0.57 c p3
416.67 61.40 0.57 c p3
416.56 61.45 0.57 c p3
416.44 61.51 0.57 c p3
416.32 61.55 0.57 c p3
416.20 61.60 0.57 c p3
416.08 61.67 0.57 c p3
415.96 61.72 0.57 c p3
415.84 61.78 0.57 c p3
415.71 61.84 0.57 c p3
415.59 61.90 0.57 c p3
415.46 61.98 0.57 c p3
415.33 62.04 0.57 c p3
415.19 62.11 0.57 c p3
415.06 62.17 0.57 c p3
414.92 62.24 0.57 c p3
414.79 62.32 0.57 c p3
414.65 62.40 0.57 c p3
414.50 62.48 0.57 c p3
414.36 62.59 0.57 c p3
414.21 62.68 0.57 c p3
414.06 62.77 0.57 c p3
413.91 62.86 0.57 c p3
413.76 62.97 0.57 c p3
413.60 63.06 0.57 c p3
413.44 63.17 0.57 c p3
413.28 63.27 0.57 c p3
413.11 63.38 0.57 c p3
412.95 63.50 0.57 c p3
412.78 63.62 0.57 c p3
412.60 63.75 0.57 c p3
412.42 63.90 0.57 c p3
412.24 64.04 0.57 c p3
412.06 64.17 0.57 c p3
411.87 64.33 0.57 c p3
411.68 64.48 0.57 c p3
411.48 64.63 0.57 c p3
411.28 64.82 0.57 c p3
411.08 65.00 0.57 c p3
410.87 65.20 0.57 c p3
410.65 65.40 0.57 c p3
410.43 65.64 0.57 c p3
410.21 65.88 0.57 c p3
409.98 66.14 0.57 c p3
409.74 66.36 0.57 c p3
409.50 66.62 0.57 c p3
409.25 66.93 0.57 c p3
408.99 67.25 0.57 c p3
408.73 67.57 0.57 c p3
408.46 67.93 0.57 c p3
408.18 68.29 0.57 c p3
407.90 68.71 0.57 c p3
407.60 69.13 0.57 c p3
407.29 69.58 0.57 c p3
406.98 70.05 0.57 c p3
406.65 70.55 0.57 c p3
406.31 71.13 0.57 c p3
405.96 71.70 0.57 c p3
405.59 72.33 0.57 c p3
405.21 73.04 0.57 c p3
404.82 73.72 0.57 c p3
404.40 74.55 0.57 c p3
403.97 75.44 0.57 c p3
403.51 76.42 0.57 c p3
403.04 77.52 0.57 c p3
402.53 78.71 0.57 c p3
402.00 79.96 0.57 c p3
401.43 81.40 0.57 c p3
400.83 82.95 0.57 c p3
400.19 84.78 0.57 c p3
399.50 86.85 0.57 c p3
398.75 89.09 0.57 c p3
397.94 91.64 0.57 c p3
397.05 94.65 0.57 c p3
396.07 98.09 0.57 c p3
394.97 102.16 0.57 c p3
393.73 106.85 0.57 c p3
392.29 112.46 0.57 c p3
390.59 119.38 0.57 c p3
388.51 127.90 0.57 c p3
385.83 139.01 0.57 c p3
382.05 152.94 0.57 c p3
0.4980 0.4980 0.4980 srgb
1.07 setlinewidth
[] 0 setdash
377.36 54.65 102.98 102.98 r p1
0.00 0.00 595.28 198.43 cl
486.32 54.65 589.30 157.63 cl
/bg { 1 1 1 srgb } def
486.32 54.65 102.98 102.98 r p2
0.9804 0.9804 0.9804 srgb
1.07 setlinewidth
[] 0 setdash
0 setlinecap
1 setlinejoin
10.00 setmiterlimit
np
486.32 71.03 m
102.98 0 l
o
np
486.32 94.43 m
102.98 0 l
o
np
486.32 117.84 m
102.98 0 l
o
np
486.32 141.24 m
102.98 0 l
o
np
495.27 54.65 m
0 102.98 l
o
np
516.74 54.65 m
0 102.98 l
o
np
538.21 54.65 m
0 102.98 l
o
np
559.68 54.65 m
0 102.98 l
o
np
581.15 54.65 m
0 102.98 l
o
0.8980 0.8980 0.8980 srgb
0.43 setlinewidth
[] 0 setdash
np
486.32 59.33 m
102.98 0 l
o
np
486.32 82.73 m
102.98 0 l
o
np
486.32 106.14 m
102.98 0 l
o
np
486.32 129.54 m
102.98 0 l
o
np
486.32 152.94 m
102.98 0 l
o
np
506.01 54.65 m
0 102.98 l
o
np
527.48 54.65 m
0 102.98 l
o
np
548.94 54.65 m
0 102.98 l
o
np
570.41 54.65 m
0 102.98 l
o
/bg { 0 0 0 srgb } def
0 0 0 srgb
0.71 setlinewidth
[] 0 setdash
1 setlinecap
568.08 59.33 0.57 c p3
564.05 59.33 0.57 c p3
563.91 59.33 0.57 c p3
563.54 59.33 0.57 c p3
562.72 59.33 0.57 c p3
562.30 59.33 0.57 c p3
561.91 59.33 0.57 c p3
561.75 59.33 0.57 c p3
561.06 59.34 0.57 c p3
560.50 59.34 0.57 c p3
560.50 59.34 0.57 c p3
560.05 59.34 0.57 c p3
559.97 59.34 0.57 c p3
559.80 59.34 0.57 c p3
559.66 59.34 0.57 c p3
559.23 59.34 0.57 c p3
559.07 59.34 0.57 c p3
559.01 59.34 0.57 c p3
558.64 59.34 0.57 c p3
558.62 59.34 0.57 c p3
558.11 59.34 0.57 c p3
558.10 59.35 0.57 c p3
558.02 59.35 0.57 c p3
557.88 59.35 0.57 c p3
557.88 59.35 0.57 c p3
557.82 59.35 0.57 c p3
557.12 59.35 0.57 c p3
556.98 59.35 0.57 c p3
556.96 59.35 0.57 c p3
556.87 59.35 0.57 c p3
556.83 59.35 0.57 c p3
556.78 59.35 0.57 c p3
556.73 59.35 0.57 c p3
556.72 59.36 0.57 c p3
556.70 59.36 0.57 c p3
556.65 59.36 0.57 c p3
556.64 59.36 0.57 c p3
556.59 59.36 0.57 c p3
556.58 59.36 0.57 c p3
556.55 59.36 0.57 c p3
556.49 59.36 0.57 c p3
556.49 59.36 0.57 c p3
556.45 59.36 0.57 c p3
556.43 59.36 0.57 c p3
556.37 59.36 0.57 c p3
556.30 59.37 0.57 c p3
556.15 59.37 0.57 c p3
556.13 59.37 0.57 c p3
555.99 59.37 0.57 c p3
555.90 59.37 0.57 c p3
555.87 59.37 0.57 c p3
555.87 59.37 0.57 c p3
555.85 59.37 0.57 c p3
555.76 59.37 0.57 c p3
555.66 59.37 0.57 c p3
555.30 59.37 0.57 c p3
555.23 59.37 0.57 c p3
555.19 59.37 0.57 c p3
555.13 59.38 0.57 c p3
555.12 59.38 0.57 c p3
555.04 59.38 0.57 c p3
555.00 59.38 0.57 c p3
554.99 59.38 0.57 c p3
554.91 59.38 0.57 c p3
554.90 59.38 0.57 c p3
554.86 59.38 0.57 c p3
554.80 59.38 0.57 c p3
554.74 59.38 0.57 c p3
554.70 59.38 0.57 c p3
554.60 59.39 0.57 c p3
554.58 59.39 0.57 c p3
554.49 59.39 0.57 c p3
554.40 59.39 0.57 c p3
554.39 59.39 0.57 c p3
554.26 59.39 0.57 c p3
554.24 59.39 0.57 c p3
554.19 59.39 0.57 c p3
554.18 59.39 0.57 c p3
554.17 59.39 0.57 c p3
554.15 59.39 0.57 c p3
553.98 59.39 0.57 c p3
553.94 59.40 0.57 c p3
553.90 59.40 0.57 c p3
553.88 59.40 0.57 c p3
553.86 59.40 0.57 c p3
553.85 59.40 0.57 c p3
553.78 59.40 0.57 c p3
553.74 59.40 0.57 c p3
553.70 59.40 0.57 c p3
553.66 59.40 0.57 c p3
553.55 59.40 0.57 c p3
553.53 59.40 0.57 c p3
553.51 59.40 0.57 c p3
553.50 59.41 0.57 c p3
553.49 59.41 0.57 c p3
553.47 59.41 0.57 c p3
553.46 59.41 0.57 c p3
553.45 59.41 0.57 c p3
553.33 59.41 0.57 c p3
553.32 59.41 0.57 c p3
553.30 59.41 0.57 c p3
553.27 59.41 0.57 c p3
553.27 59.41 0.57 c p3
553.24 59.41 0.57 c p3
553.22 59.41 0.57 c p3
553.20 59.42 0.57 c p3
553.13 59.42 0.57 c p3
553.13 59.42 0.57 c p3
553.12 59.42 0.57 c p3
553.10 59.42 0.57 c p3
553.07 59.42 0.57 c p3
553.06 59.42 0.57 c p3
553.04 59.42 0.57 c p3
553.01 59.42 0.57 c p3
552.98 59.42 0.57 c p3
552.98 59.42 0.57 c p3
552.86 59.43 0.57 c p3
552.81 59.43 0.57 c p3
552.81 59.43 0.57 c p3
552.80 59.43 0.57 c p3
552.79 59.43 0.57 c p3
552.76 59.43 0.57 c p3
552.73 59.43 0.57 c p3
552.68 59.43 0.57 c p3
552.67 59.43 0.57 c p3
552.66 59.43 0.57 c p3
552.65 59.44 0.57 c p3
552.61 59.44 0.57 c p3
552.58 59.44 0.57 c p3
552.55 59.44 0.57 c p3
552.53 59.44 0.57 c p3
552.50 59.44 0.57 c p3
552.49 59.44 0.57 c p3
552.47 59.44 0.57 c p3
552.46 59.44 0.57 c p3
552.45 59.44 0.57 c p3
552.34 59.45 0.57 c p3
552.34 59.45 0.57 c p3
552.32 59.45 0.57 c p3
552.21 59.45 0.57 c p3
552.18 59.45 0.57 c p3
552.17 59.45 0.57 c p3
552.14 59.45 0.57 c p3
552.13 59.45 0.57 c p3
552.04 59.45 0.57 c p3
552.00 59.45 0.57 c p3
551.99 59.45 0.57 c p3
551.98 59.46 0.57 c p3
551.85 59.46 0.57 c p3
551.84 59.46 0.57 c p3
551.83 59.46 0.57 c p3
551.81 59.46 0.57 c p3
551.79 59.46 0.57 c p3
551.76 59.46 0.57 c p3
551.73 59.46 0.57 c p3
551.69 59.46 0.57 c p3
551.68 59.46 0.57 c p3
551.58 59.46 0.57 c p3
551.54 59.46 0.57 c p3
551.48 59.47 0.57 c p3
551.47 59.47 0.57 c p3
551.44 59.47 0.57 c p3
551.38 59.47 0.57 c p3
551.38 59.47 0.57 c p3
551.37 59.47 0.57 c p3
551.33 59.47 0.57 c p3
551.30 59.47 0.57 c p3
551.30 59.47 0.57 c p3
551.29 59.47 0.57 c p3
551.28 59.47 0.57 c p3
551.22 59.47 0.57 c p3
551.20 59.48 0.57 c p3
551.18 59.48 0.57 c p3
551.17 59.48 0.57 c p3
551.11 59.48 0.57 c p3
551.08 59.48 0.57 c p3
551.05 59.48 0.57 c p3
551.03 59.48 0.57 c p3
551.00 59.48 0.57 c p3
550.99 59.48 0.57 c p3
550.94 59.48 0.57 c p3
550.91 59.49 0.57 c p3
550.90 59.49 0.57 c p3
550.87 59.49 0.57 c p3
550.85 59.49 0.57 c p3
550.83 59.49 0.57 c p3
550.73 59.49 0.57 c p3
550.71 59.49 0.57 c p3
550.69 59.49 0.57 c p3
550.68 59.49 0.57 c p3
550.66 59.50 0.57 c p3
550.62 59.50 0.57 c p3
550.61 59.50 0.57 c p3
550.59 59.50 0.57 c p3
550.56 59.50 0.57 c p3
550.55 59.50 0.57 c p3
550.52 59.50 0.57 c p3
550.46 59.50 0.57 c p3
550.45 59.50 0.57 c p3
550.44 59.50 0.57 c p3
550.38 59.51 0.57 c p3
550.35 59.51 0.57 c p3
550.26 59.51 0.57 c p3
550.26 59.51 0.57 c p3
550.24 59.51 0.57 c p3
550.23 59.51 0.57 c p3
550.22 59.51 0.57 c p3
550.19 59.52 0.57 c p3
550.18 59.52 0.57 c p3
550.16 59.52 0.57 c p3
550.13 59.52 0.57 c p3
550.12 59.52 0.57 c p3
550.10 59.52 0.57 c p3
550.08 59.52 0.57 c p3
550.05 59.52 0.57 c p3
550.03 59.52 0.57 c p3
549.96 59.52 0.57 c p3
549.93 59.53 0.57 c p3
549.91 59.53 0.57 c p3
549.90 59.53 0.57 c p3
549.89 59.53 0.57 c p3
549.87 59.53 0.57 c p3
549.86 59.53 0.57 c p3
549.85 59.53 0.57 c p3
549.83 59.53 0.57 c p3
549.78 59.53 0.57 c p3
549.64 59.53 0.57 c p3
549.63 59.54 0.57 c p3
549.59 59.54 0.57 c p3
549.58 59.54 0.57 c p3
549.57 59.54 0.57 c p3
549.54 59.54 0.57 c p3
549.52 59.54 0.57 c p3
549.51 59.54 0.57 c p3
549.50 59.54 0.57 c p3
549.49 59.55 0.57 c p3
549.48 59.55 0.57 c p3
549.47 59.55 0.57 c p3
549.45 59.55 0.57 c p3
549.44 59.55 0.57 c p3
549.42 59.55 0.57 c p3
549.40 59.55 0.57 c p3
549.38 59.55 0.57 c p3
549.37 59.56 0.57 c p3
549.36 59.56 0.57 c p3
549.35 59.56 0.57 c p3
549.34 59.56 0.57 c p3
549.31 59.56 0.57 c p3
549.28 59.56 0.57 c p3
549.27 59.56 0.57 c p3
549.27 59.56 0.57 c p3
549.26 59.56 0.57 c p3
549.25 59.57 0.57 c p3
549.19 59.57 0.57 c p3
549.18 59.57 0.57 c p3
549.17 59.57 0.57 c p3
549.16 59.57 0.57 c p3
549.13 59.57 0.57 c p3
549.12 59.57 0.57 c p3
549.11 59.57 0.57 c p3
549.08 59.57 0.57 c p3
549.07 59.58 0.57 c p3
549.06 59.58 0.57 c p3
548.99 59.58 0.57 c p3
548.96 59.58 0.57 c p3
548.94 59.58 0.57 c p3
548.90 59.58 0.57 c p3
548.89 59.58 0.57 c p3
548.83 59.58 0.57 c p3
548.80 59.58 0.57 c p3
548.78 59.58 0.57 c p3
548.73 59.58 0.57 c p3
548.70 59.59 0.57 c p3
548.69 59.59 0.57 c p3
548.67 59.59 0.57 c p3
548.66 59.59 0.57 c p3
548.65 59.59 0.57 c p3
548.64 59.59 0.57 c p3
548.63 59.59 0.57 c p3
548.59 59.59 0.57 c p3
548.55 59.60 0.57 c p3
548.53 59.60 0.57 c p3
548.52 59.60 0.57 c p3
548.48 59.60 0.57 c p3
548.46 59.60 0.57 c p3
548.40 59.60 0.57 c p3
548.39 59.60 0.57 c p3
548.38 59.60 0.57 c p3
548.36 59.60 0.57 c p3
548.35 59.60 0.57 c p3
548.34 59.61 0.57 c p3
548.32 59.61 0.57 c p3
548.31 59.61 0.57 c p3
548.30 59.61 0.57 c p3
548.29 59.61 0.57 c p3
548.28 59.61 0.57 c p3
548.26 59.61 0.57 c p3
548.24 59.61 0.57 c p3
548.19 59.61 0.57 c p3
548.17 59.61 0.57 c p3
548.16 59.62 0.57 c p3
548.15 59.62 0.57 c p3
548.14 59.62 0.57 c p3
548.11 59.62 0.57 c p3
548.10 59.62 0.57 c p3
548.09 59.62 0.57 c p3
548.05 59.62 0.57 c p3
548.03 59.63 0.57 c p3
548.02 59.63 0.57 c p3
547.97 59.63 0.57 c p3
547.96 59.63 0.57 c p3
547.94 59.63 0.57 c p3
547.92 59.63 0.57 c p3
547.91 59.64 0.57 c p3
547.89 59.64 0.57 c p3
547.88 59.64 0.57 c p3
547.87 59.64 0.57 c p3
547.86 59.64 0.57 c p3
547.82 59.64 0.57 c p3
547.78 59.64 0.57 c p3
547.75 59.64 0.57 c p3
547.73 59.64 0.57 c p3
547.71 59.64 0.57 c p3
547.70 59.65 0.57 c p3
547.69 59.65 0.57 c p3
547.68 59.65 0.57 c p3
547.66 59.65 0.57 c p3
547.65 59.65 0.57 c p3
547.64 59.65 0.57 c p3
547.59 59.65 0.57 c p3
547.58 59.65 0.57 c p3
547.57 59.65 0.57 c p3
547.55 59.65 0.57 c p3
547.54 59.66 0.57 c p3
547.52 59.66 0.57 c p3
547.51 59.66 0.57 c p3
547.49 59.66 0.57 c p3
547.48 59.66 0.57 c p3
547.46 59.66 0.57 c p3
547.44 59.66 0.57 c p3
547.43 59.66 0.57 c p3
547.42 59.67 0.57 c p3
547.41 59.67 0.57 c p3
547.40 59.67 0.57 c p3
547.39 59.67 0.57 c p3
547.37 59.67 0.57 c p3
547.35 59.67 0.57 c p3
547.32 59.67 0.57 c p3
547.31 59.68 0.57 c p3
547.30 59.68 0.57 c p3
547.29 59.68 0.57 c p3
547.27 59.68 0.57 c p3
547.26 59.68 0.57 c p3
547.25 59.68 0.57 c p3
547.24 59.68 0.57 c p3
547.21 59.68 0.57 c p3
547.18 59.69 0.57 c p3
547.16 59.69 0.57 c p3
547.15 59.69 0.57 c p3
547.14 59.69 0.57 c p3
547.13 59.69 0.57 c p3
547.12 59.69 0.57 c p3
547.09 59.69 0.57 c p3
547.08 59.69 0.57 c p3
547.07 59.69 0.57 c p3
547.06 59.69 0.57 c p3
547.05 59.69 0.57 c p3
547.04 59.70 0.57 c p3
547.01 59.70 0.57 c p3
546.99 59.70 0.57 c p3
546.96 59.70 0.57 c p3
546.95 59.70 0.57 c p3
546.93 59.70 0.57 c p3
546.92 59.70 0.57 c p3
546.90 59.70 0.57 c p3
546.89 59.71 0.57 c p3
546.86 59.71 0.57 c p3
546.85 59.71 0.57 c p3
546.77 59.71 0.57 c p3
546.75 59.71 0.57 c p3
546.73 59.71 0.57 c p3
546.72 59.71 0.57 c p3
546.70 59.71 0.57 c p3
546.69 59.71 0.57 c p3
546.68 59.72 0.57 c p3
546.66 59.72 0.57 c p3
546.65 59.72 0.57 c p3
546.63 59.72 0.57 c p3
546.62 59.72 0.57 c p3
546.60 59.72 0.57 c p3
546.59 59.72 0.57 c p3
546.58 59.72 0.57 c p3
546.57 59.72 0.57 c p3
546.56 59.73 0.57 c p3
546.54 59.73 0.57 c p3
546.53 59.73 0.57 c p3
546.51 59.73 0.57 c p3
546.50 59.73 0.57 c p3
546.45 59.73 0.57 c p3
546.43 59.73 0.57 c p3
546.42 59.74 0.57 c p3
546.41 59.74 0.57 c p3
546.40 59.74 0.57 c p3
546.39 59.74 0.57 c p3
546.37 59.74 0.57 c p3
546.35 59.74 0.57 c p3
546.32 59.74 0.57 c p3
546.31 59.74 0.57 c p3
546.27 59.74 0.57 c p3
546.26 59.74 0.57 c p3
546.25 59.75 0.57 c p3
546.24 59.75 0.57 c p3
546.20 59.75 0.57 c p3
546.19 59.75 0.57 c p3
546.17 59.75 0.57 c p3
546.16 59.75 0.57 c p3
546.15 59.75 0.57 c p3
546.14 59.75 0.57 c p3
546.10 59.76 0.57 c p3
546.09 59.76 0.57 c p3
546.07 59.76 0.57 c p3
546.06 59.76 0.57 c p3
546.05 59.76 0.57 c p3
546.04 59.76 0.57 c p3
546.00 59.76 0.57 c p3
545.98 59.76 0.57 c p3
545.96 59.77 0.57 c p3
545.91 59.77 0.57 c p3
545.88 59.77 0.57 c p3
545.87 59.77 0.57 c p3
545.83 59.77 0.57 c p3
545.82 59.77 0.57 c p3
545.79 59.77 0.57 c p3
545.78 59.78 0.57 c p3
545.75 59.78 0.57 c p3
545.74 59.78 0.57 c p3
545.72 59.78 0.57 c p3
545.70 59.78 0.57 c p3
545.69 59.78 0.57 c p3
545.67 59.78 0.57 c p3
545.66 59.78 0.57 c p3
545.63 59.78 0.57 c p3
545.62 59.79 0.57 c p3
545.61 59.79 0.57 c p3
545.58 59.79 0.57 c p3
545.57 59.79 0.57 c p3
545.55 59.79 0.57 c p3
545.54 59.79 0.57 c p3
545.53 59.79 0.57 c p3
545.50 59.79 0.57 c p3
545.47 59.80 0.57 c p3
545.46 59.80 0.57 c p3
545.44 59.80 0.57 c p3
545.43 59.80 0.57 c p3
545.42 59.80 0.57 c p3
545.40 59.80 0.57 c p3
545.39 59.80 0.57 c p3
545.36 59.80 0.57 c p3
545.35 59.81 0.57 c p3
545.34 59.81 0.57 c p3
545.32 59.81 0.57 c p3
545.31 59.81 0.57 c p3
545.29 59.81 0.57 c p3
545.27 59.82 0.57 c p3
545.25 59.82 0.57 c p3
545.22 59.82 0.57 c p3
545.21 59.82 0.57 c p3
545.20 59.82 0.57 c p3
545.18 59.82 0.57 c p3
545.17 59.82 0.57 c p3
545.15 59.83 0.57 c p3
545.14 59.83 0.57 c p3
545.07 59.83 0.57 c p3
545.06 59.83 0.57 c p3
545.04 59.83 0.57 c p3
545.03 59.84 0.57 c p3
545.00 59.84 0.57 c p3
544.97 59.84 0.57 c p3
544.96 59.84 0.57 c p3
544.94 59.84 0.57 c p3
544.93 59.84 0.57 c p3
544.90 59.84 0.57 c p3
544.88 59.85 0.57 c p3
544.87 59.85 0.57 c p3
544.84 59.85 0.57 c p3
544.81 59.86 0.57 c p3
544.75 59.86 0.57 c p3
544.73 59.86 0.57 c p3
544.71 59.86 0.57 c p3
544.70 59.86 0.57 c p3
544.67 59.86 0.57 c p3
544.65 59.87 0.57 c p3
544.64 59.87 0.57 c p3
544.62 59.87 0.57 c p3
544.61 59.87 0.57 c p3
544.59 59.87 0.57 c p3
544.58 59.87 0.57 c p3
544.56 59.88 0.57 c p3
544.55 59.88 0.57 c p3
544.53 59.88 0.57 c p3
544.50 59.88 0.57 c p3
544.49 59.88 0.57 c p3
544.47 59.88 0.57 c p3
544.46 59.89 0.57 c p3
544.44 59.89 0.57 c p3
544.40 59.89 0.57 c p3
544.38 59.89 0.57 c p3
544.35 59.89 0.57 c p3
544.32 59.89 0.57 c p3
544.31 59.90 0.57 c p3
544.29 59.90 0.57 c p3
544.27 59.90 0.57 c p3
544.26 59.90 0.57 c p3
544.24 59.90 0.57 c p3
544.23 59.90 0.57 c p3
544.21 59.91 0.57 c p3
544.17 59.91 0.57 c p3
544.14 59.91 0.57 c p3
544.12 59.91 0.57 c p3
544.10 59.91 0.57 c p3
544.09 59.91 0.57 c p3
544.07 59.91 0.57 c p3
544.06 59.91 0.57 c p3
544.04 59.92 0.57 c p3
544.01 59.92 0.57 c p3
543.98 59.92 0.57 c p3
543.96 59.92 0.57 c p3
543.95 59.92 0.57 c p3
543.93 59.92 0.57 c p3
543.90 59.93 0.57 c p3
543.88 59.93 0.57 c p3
543.87 59.93 0.57 c p3
543.85 59.93 0.57 c p3
543.82 59.93 0.57 c p3
543.80 59.94 0.57 c p3
543.78 59.94 0.57 c p3
543.77 59.94 0.57 c p3
543.75 59.94 0.57 c p3
543.74 59.95 0.57 c p3
543.72 59.95 0.57 c p3
543.70 59.95 0.57 c p3
543.69 59.95 0.57 c p3
543.67 59.95 0.57 c p3
543.65 59.95 0.57 c p3
543.64 59.95 0.57 c p3
543.62 59.95 0.57 c p3
543.60 59.96 0.57 c p3
543.59 59.96 0.57 c p3
543.57 59.96 0.57 c p3
543.56 59.97 0.57 c p3
543.54 59.97 0.57 c p3
543.52 59.97 0.57 c p3
543.49 59.97 0.57 c p3
543.47 59.97 0.57 c p3
543.44 59.97 0.57 c p3
543.42 59.98 0.57 c p3
543.40 59.98 0.57 c p3
543.35 59.98 0.57 c p3
543.34 59.98 0.57 c p3
543.30 59.99 0.57 c p3
543.29 59.99 0.57 c p3
543.27 59.99 0.57 c p3
543.23 59.99 0.57 c p3
543.22 59.99 0.57 c p3
543.20 60.00 0.57 c p3
543.18 60.00 0.57 c p3
543.16 60.00 0.57 c p3
543.15 60.00 0.57 c p3
543.13 60.01 0.57 c p3
543.11 60.01 0.57 c p3
543.10 60.01 0.57 c p3
543.08 60.01 0.57 c p3
543.06 60.01 0.57 c p3
543.04 60.01 0.57 c p3
543.03 60.02 0.57 c p3
543.01 60.02 0.57 c p3
542.99 60.02 0.57 c p3
542.97 60.02 0.57 c p3
542.94 60.02 0.57 c p3
542.92 60.03 0.57 c p3
542.90 60.03 0.57 c p3
542.88 60.03 0.57 c p3
542.87 60.03 0.57 c p3
542.85 60.03 0.57 c p3
542.83 60.04 0.57 c p3
542.81 60.04 0.57 c p3
542.79 60.04 0.57 c p3
542.78 60.04 0.57 c p3
542.74 60.05 0.57 c p3
542.72 60.05 0.57 c p3
542.70 60.05 0.57 c p3
542.68 60.06 0.57 c p3
542.67 60.06 0.57 c p3
542.63 60.06 0.57 c p3
542.61 60.06 0.57 c p3
542.59 60.06 0.57 c p3
542.57 60.07 0.57 c p3
542.56 60.07 0.57 c p3
542.54 60.07 0.57 c p3
542.50 60.07 0.57 c p3
542.48 60.08 0.57 c p3
542.46 60.08 0.57 c p3
542.44 60.08 0.57 c p3
542.43 60.08 0.57 c p3
542.41 60.08 0.57 c p3
542.39 60.08 0.57 c p3
542.37 60.09 0.57 c p3
542.35 60.09 0.57 c p3
542.33 60.09 0.57 c p3
542.31 60.09 0.57 c p3
542.29 60.10 0.57 c p3
542.27 60.10 0.57 c p3
542.26 60.10 0.57 c p3
542.24 60.11 0.57 c p3
542.22 60.11 0.57 c p3
542.20 60.11 0.57 c p3
542.18 60.11 0.57 c p3
542.14 60.12 0.57 c p3
542.12 60.12 0.57 c p3
542.10 60.12 0.57 c p3
542.08 60.12 0.57 c p3
542.06 60.13 0.57 c p3
542.04 60.13 0.57 c p3
542.02 60.13 0.57 c p3
542.00 60.13 0.57 c p3
541.98 60.14 0.57 c p3
541.96 60.14 0.57 c p3
541.94 60.14 0.57 c p3
541.92 60.15 0.57 c p3
541.90 60.15 0.57 c p3
541.89 60.15 0.57 c p3
541.87 60.15 0.57 c p3
541.85 60.16 0.57 c p3
541.83 60.16 0.57 c p3
541.81 60.16 0.57 c p3
541.79 60.17 0.57 c p3
541.77 60.17 0.57 c p3
541.74 60.17 0.57 c p3
541.70 60.17 0.57 c p3
541.68 60.17 0.57 c p3
541.66 60.18 0.57 c p3
541.64 60.18 0.57 c p3
541.60 60.18 0.57 c p3
541.58 60.18 0.57 c p3
541.56 60.18 0.57 c p3
541.54 60.19 0.57 c p3
541.52 60.19 0.57 c p3
541.50 60.19 0.57 c p3
541.48 60.19 0.57 c p3
541.46 60.20 0.57 c p3
541.44 60.20 0.57 c p3
541.42 60.20 0.57 c p3
541.40 60.20 0.57 c p3
541.37 60.20 0.57 c p3
541.33 60.20 0.57 c p3
541.31 60.21 0.57 c p3
541.29 60.21 0.57 c p3
541.27 60.21 0.57 c p3
541.23 60.22 0.57 c p3
541.20 60.22 0.57 c p3
541.18 60.22 0.57 c p3
541.16 60.22 0.57 c p3
541.14 60.23 0.57 c p3
541.12 60.23 0.57 c p3
541.10 60.23 0.57 c p3
541.08 60.24 0.57 c p3
541.05 60.24 0.57 c p3
541.03 60.24 0.57 c p3
541.01 60.24 0.57 c p3
540.99 60.24 0.57 c p3
540.97 60.25 0.57 c p3
540.94 60.25 0.57 c p3
540.92 60.25 0.57 c p3
540.90 60.25 0.57 c p3
540.88 60.25 0.57 c p3
540.86 60.26 0.57 c p3
540.83 60.26 0.57 c p3
540.81 60.26 0.57 c p3
540.79 60.26 0.57 c p3
540.77 60.26 0.57 c p3
540.74 60.27 0.57 c p3
540.72 60.27 0.57 c p3
540.70 60.27 0.57 c p3
540.68 60.27 0.57 c p3
540.65 60.28 0.57 c p3
540.63 60.28 0.57 c p3
540.61 60.28 0.57 c p3
540.59 60.28 0.57 c p3
540.56 60.28 0.57 c p3
540.54 60.29 0.57 c p3
540.52 60.29 0.57 c p3
540.49 60.30 0.57 c p3
540.47 60.30 0.57 c p3
540.45 60.30 0.57 c p3
540.40 60.31 0.57 c p3
540.38 60.31 0.57 c p3
540.35 60.32 0.57 c p3
540.33 60.32 0.57 c p3
540.31 60.33 0.57 c p3
540.28 60.33 0.57 c p3
540.26 60.33 0.57 c p3
540.24 60.34 0.57 c p3
540.21 60.34 0.57 c p3
540.19 60.34 0.57 c p3
540.17 60.34 0.57 c p3
540.14 60.35 0.57 c p3
540.12 60.35 0.57 c p3
540.09 60.36 0.57 c p3
540.07 60.36 0.57 c p3
540.04 60.36 0.57 c p3
540.02 60.37 0.57 c p3
540.00 60.37 0.57 c p3
539.97 60.37 0.57 c p3
539.95 60.38 0.57 c p3
539.92 60.38 0.57 c p3
539.90 60.39 0.57 c p3
539.87 60.39 0.57 c p3
539.85 60.39 0.57 c p3
539.82 60.40 0.57 c p3
539.80 60.40 0.57 c p3
539.77 60.40 0.57 c p3
539.75 60.41 0.57 c p3
539.72 60.41 0.57 c p3
539.70 60.41 0.57 c p3
539.67 60.42 0.57 c p3
539.65 60.43 0.57 c p3
539.62 60.43 0.57 c p3
539.60 60.43 0.57 c p3
539.57 60.43 0.57 c p3
539.55 60.44 0.57 c p3
539.52 60.45 0.57 c p3
539.50 60.45 0.57 c p3
539.47 60.45 0.57 c p3
539.44 60.46 0.57 c p3
539.42 60.46 0.57 c p3
539.39 60.47 0.57 c p3
539.37 60.47 0.57 c p3
539.34 60.47 0.57 c p3
539.31 60.48 0.57 c p3
539.29 60.48 0.57 c p3
539.26 60.48 0.57 c p3
539.24 60.49 0.57 c p3
539.21 60.49 0.57 c p3
539.18 60.50 0.57 c p3
539.16 60.50 0.57 c p3
539.13 60.51 0.57 c p3
539.10 60.51 0.57 c p3
539.08 60.52 0.57 c p3
539.05 60.52 0.57 c p3
539.02 60.53 0.57 c p3
539.00 60.54 0.57 c p3
538.97 60.54 0.57 c p3
538.94 60.55 0.57 c p3
538.91 60.55 0.57 c p3
538.89 60.55 0.57 c p3
538.86 60.56 0.57 c p3
538.83 60.56 0.57 c p3
538.80 60.57 0.57 c p3
538.78 60.57 0.57 c p3
538.75 60.58 0.57 c p3
538.72 60.58 0.57 c p3
538.69 60.59 0.57 c p3
538.66 60.59 0.57 c p3
538.64 60.59 0.57 c p3
538.61 60.60 0.57 c p3
538.58 60.60 0.57 c p3
538.55 60.61 0.57 c p3
538.52 60.61 0.57 c p3
538.49 60.62 0.57 c p3
538.47 60.62 0.57 c p3
538.44 60.63 0.57 c p3
538.41 60.63 0.57 c p3
538.38 60.64 0.57 c p3
538.35 60.64 0.57 c p3
538.32 60.64 0.57 c p3
538.29 60.65 0.57 c p3
538.26 60.65 0.57 c p3
538.23 60.66 0.57 c p3
538.20 60.66 0.57 c p3
538.17 60.67 0.57 c p3
538.14 60.67 0.57 c p3
538.11 60.68 0.57 c p3
538.08 60.68 0.57 c p3
538.05 60.69 0.57 c p3
538.02 60.70 0.57 c p3
537.99 60.70 0.57 c p3
537.96 60.70 0.57 c p3
537.93 60.71 0.57 c p3
537.90 60.71 0.57 c p3
537.87 60.72 0.57 c p3
537.84 60.73 0.57 c p3
537.81 60.73 0.57 c p3
537.78 60.74 0.57 c p3
537.75 60.75 0.57 c p3
537.72 60.75 0.57 c p3
537.69 60.76 0.57 c p3
537.66 60.77 0.57 c p3
537.63 60.77 0.57 c p3
537.59 60.78 0.57 c p3
537.56 60.78 0.57 c p3
537.53 60.79 0.57 c p3
537.50 60.80 0.57 c p3
537.47 60.81 0.57 c p3
537.44 60.81 0.57 c p3
537.40 60.82 0.57 c p3
537.37 60.82 0.57 c p3
537.34 60.83 0.57 c p3
537.31 60.83 0.57 c p3
537.27 60.84 0.57 c p3
537.24 60.84 0.57 c p3
537.21 60.85 0.57 c p3
537.18 60.85 0.57 c p3
537.14 60.86 0.57 c p3
537.11 60.87 0.57 c p3
537.08 60.87 0.57 c p3
537.04 60.89 0.57 c p3
537.01 60.90 0.57 c p3
536.98 60.90 0.57 c p3
536.94 60.90 0.57 c p3
536.91 60.91 0.57 c p3
536.87 60.91 0.57 c p3
536.84 60.92 0.57 c p3
536.81 60.93 0.57 c p3
536.77 60.93 0.57 c p3
536.74 60.94 0.57 c p3
536.70 60.94 0.57 c p3
536.67 60.95 0.57 c p3
536.63 60.96 0.57 c p3
536.60 60.96 0.57 c p3
536.56 60.97 0.57 c p3
536.53 60.98 0.57 c p3
536.49 60.99 0.57 c p3
536.46 60.99 0.57 c p3
536.42 61.00 0.57 c p3
536.38 61.00 0.57 c p3
536.35 61.01 0.57 c p3
536.31 61.02 0.57 c p3
536.28 61.02 0.57 c p3
536.24 61.03 0.57 c p3
536.20 61.05 0.57 c p3
536.17 61.05 0.57 c p3
536.13 61.06 0.57 c p3
536.09 61.06 0.57 c p3
536.06 61.08 0.57 c p3
536.02 61.08 0.57 c p3
535.98 61.09 0.57 c p3
535.94 61.09 0.57 c p3
535.91 61.10 0.57 c p3
535.87 61.11 0.57 c p3
535.83 61.12 0.57 c p3
535.79 61.12 0.57 c p3
535.75 61.13 0.57 c p3
535.72 61.14 0.57 c p3
535.68 61.14 0.57 c p3
535.64 61.15 0.57 c p3
535.60 61.16 0.57 c p3
535.56 61.17 0.57 c p3
535.52 61.18 0.57 c p3
535.48 61.18 0.57 c p3
535.44 61.19 0.57 c p3
535.40 61.21 0.57 c p3
535.36 61.22 0.57 c p3
535.32 61.22 0.57 c p3
535.28 61.24 0.57 c p3
535.24 61.25 0.57 c p3
535.20 61.25 0.57 c p3
535.16 61.27 0.57 c p3
535.12 61.28 0.57 c p3
535.08 61.28 0.57 c p3
535.04 61.29 0.57 c p3
535.00 61.30 0.57 c p3
534.95 61.31 0.57 c p3
534.91 61.32 0.57 c p3
534.87 61.33 0.57 c p3
534.83 61.34 0.57 c p3
534.78 61.35 0.57 c p3
534.74 61.36 0.57 c p3
534.70 61.37 0.57 c p3
534.66 61.38 0.57 c p3
534.61 61.39 0.57 c p3
534.57 61.41 0.57 c p3
534.53 61.42 0.57 c p3
534.48 61.43 0.57 c p3
534.44 61.44 0.57 c p3
534.39 61.44 0.57 c p3
534.35 61.45 0.57 c p3
534.30 61.46 0.57 c p3
534.26 61.47 0.57 c p3
534.21 61.48 0.57 c p3
534.17 61.49 0.57 c p3
534.12 61.50 0.57 c p3
534.08 61.52 0.57 c p3
534.03 61.53 0.57 c p3
533.99 61.54 0.57 c p3
533.94 61.55 0.57 c p3
533.89 61.57 0.57 c p3
533.84 61.58 0.57 c p3
533.80 61.60 0.57 c p3
533.75 61.61 0.57 c p3
533.70 61.62 0.57 c p3
533.65 61.64 0.57 c p3
533.61 61.65 0.57 c p3
533.56 61.67 0.57 c p3
533.51 61.68 0.57 c p3
533.46 61.69 0.57 c p3
533.41 61.71 0.57 c p3
533.36 61.72 0.57 c p3
533.31 61.73 0.57 c p3
533.26 61.74 0.57 c p3
533.21 61.75 0.57 c p3
533.16 61.76 0.57 c p3
533.11 61.78 0.57 c p3
533.06 61.79 0.57 c p3
533.01 61.81 0.57 c p3
532.96 61.82 0.57 c p3
532.90 61.83 0.57 c p3
532.85 61.85 0.57 c p3
532.80 61.86 0.57 c p3
532.75 61.88 0.57 c p3
532.69 61.89 0.57 c p3
532.64 61.90 0.57 c p3
532.59 61.92 0.57 c p3
532.53 61.93 0.57 c p3
532.48 61.95 0.57 c p3
532.42 61.96 0.57 c p3
532.37 61.98 0.57 c p3
532.31 62.00 0.57 c p3
532.26 62.02 0.57 c p3
532.20 62.03 0.57 c p3
532.14 62.05 0.57 c p3
532.09 62.07 0.57 c p3
532.03 62.09 0.57 c p3
531.97 62.10 0.57 c p3
531.92 62.12 0.57 c p3
531.86 62.14 0.57 c p3
531.80 62.16 0.57 c p3
531.74 62.18 0.57 c p3
531.68 62.20 0.57 c p3
531.62 62.22 0.57 c p3
531.56 62.24 0.57 c p3
531.50 62.25 0.57 c p3
531.44 62.27 0.57 c p3
531.38 62.29 0.57 c p3
531.32 62.31 0.57 c p3
531.26 62.32 0.57 c p3
531.19 62.34 0.57 c p3
531.13 62.36 0.57 c p3
531.07 62.37 0.57 c p3
531.00 62.39 0.57 c p3
530.94 62.41 0.57 c p3
530.88 62.43 0.57 c p3
530.81 62.46 0.57 c p3
530.75 62.47 0.57 c p3
530.68 62.50 0.57 c p3
530.61 62.52 0.57 c p3
530.55 62.55 0.57 c p3
530.48 62.57 0.57 c p3
530.41 62.61 0.57 c p3
530.34 62.63 0.57 c p3
530.27 62.65 0.57 c p3
530.20 62.67 0.57 c p3
530.13 62.70 0.57 c p3
530.06 62.72 0.57 c p3
529.99 62.76 0.57 c p3
529.92 62.79 0.57 c p3
529.85 62.82 0.57 c p3
529.78 62.85 0.57 c p3
529.70 62.89 0.57 c p3
529.63 62.91 0.57 c p3
529.56 62.95 0.57 c p3
529.48 62.97 0.57 c p3
529.41 63.01 0.57 c p3
529.33 63.03 0.57 c p3
529.25 63.08 0.57 c p3
529.18 63.11 0.57 c p3
529.10 63.14 0.57 c p3
529.02 63.17 0.57 c p3
528.94 63.20 0.57 c p3
528.86 63.23 0.57 c p3
528.78 63.28 0.57 c p3
528.70 63.31 0.57 c p3
528.62 63.35 0.57 c p3
528.53 63.38 0.57 c p3
528.45 63.43 0.57 c p3
528.36 63.47 0.57 c p3
528.28 63.50 0.57 c p3
528.19 63.55 0.57 c p3
528.11 63.59 0.57 c p3
528.02 63.62 0.57 c p3
527.93 63.67 0.57 c p3
527.84 63.72 0.57 c p3
527.75 63.77 0.57 c p3
527.66 63.81 0.57 c p3
527.57 63.86 0.57 c p3
527.48 63.92 0.57 c p3
527.38 63.99 0.57 c p3
527.29 64.03 0.57 c p3
527.19 64.08 0.57 c p3
527.10 64.13 0.57 c p3
527.00 64.19 0.57 c p3
526.90 64.25 0.57 c p3
526.80 64.33 0.57 c p3
526.70 64.38 0.57 c p3
526.60 64.45 0.57 c p3
526.49 64.51 0.57 c p3
526.39 64.57 0.57 c p3
526.28 64.64 0.57 c p3
526.18 64.71 0.57 c p3
526.07 64.78 0.57 c p3
525.96 64.84 0.57 c p3
525.85 64.92 0.57 c p3
525.74 64.98 0.57 c p3
525.63 65.06 0.57 c p3
525.51 65.13 0.57 c p3
525.40 65.20 0.57 c p3
525.28 65.27 0.57 c p3
525.16 65.35 0.57 c p3
525.04 65.45 0.57 c p3
524.92 65.54 0.57 c p3
524.79 65.63 0.57 c p3
524.67 65.75 0.57 c p3
524.54 65.83 0.57 c p3
524.41 65.93 0.57 c p3
524.28 66.03 0.57 c p3
524.15 66.14 0.57 c p3
524.02 66.24 0.57 c p3
523.88 66.36 0.57 c p3
523.74 66.46 0.57 c p3
523.60 66.59 0.57 c p3
523.46 66.71 0.57 c p3
523.31 66.82 0.57 c p3
523.17 66.96 0.57 c p3
523.02 67.08 0.57 c p3
522.87 67.23 0.57 c p3
522.71 67.37 0.57 c p3
522.56 67.52 0.57 c p3
522.40 67.68 0.57 c p3
522.23 67.84 0.57 c p3
522.07 68.01 0.57 c p3
521.90 68.21 0.57 c p3
521.73 68.40 0.57 c p3
521.56 68.62 0.57 c p3
521.38 68.83 0.57 c p3
521.20 69.07 0.57 c p3
521.01 69.27 0.57 c p3
520.82 69.49 0.57 c p3
520.63 69.73 0.57 c p3
520.44 69.98 0.57 c p3
520.24 70.23 0.57 c p3
520.03 70.50 0.57 c p3
519.82 70.81 0.57 c p3
519.61 71.12 0.57 c p3
519.39 71.46 0.57 c p3
519.16 71.79 0.57 c p3
518.93 72.14 0.57 c p3
518.70 72.50 0.57 c p3
518.45 72.86 0.57 c p3
518.21 73.26 0.57 c p3
517.95 73.69 0.57 c p3
517.69 74.15 0.57 c p3
517.42 74.60 0.57 c p3
517.14 75.06 0.57 c p3
516.85 75.60 0.57 c p3
516.56 76.15 0.57 c p3
516.25 76.72 0.57 c p3
515.93 77.38 0.57 c p3
515.61 78.07 0.57 c p3
515.27 78.80 0.57 c p3
514.92 79.58 0.57 c p3
514.55 80.33 0.57 c p3
514.17 81.21 0.57 c p3
513.77 82.15 0.57 c p3
513.36 83.20 0.57 c p3
512.92 84.34 0.57 c p3
512.47 85.56 0.57 c p3
511.99 86.88 0.57 c p3
511.49 88.34 0.57 c p3
510.95 89.85 0.57 c p3
510.39 91.65 0.57 c p3
509.79 93.55 0.57 c p3
509.14 95.61 0.57 c p3
508.45 97.92 0.57 c p3
507.71 100.32 0.57 c p3
506.90 103.16 0.57 c p3
506.01 106.11 0.57 c p3
505.02 109.54 0.57 c p3
503.93 113.20 0.57 c p3
502.68 117.40 0.57 c p3
501.24 121.91 0.57 c p3
499.54 127.20 0.57 c p3
497.46 132.85 0.57 c p3
494.78 140.04 0.57 c p3
491.00 152.94 0.57 c p3
0.4980 0.4980 0.4980 srgb
1.07 setlinewidth
[] 0 setdash
486.32 54.65 102.98 102.98 r p1
0.00 0.00 595.28 198.43 cl
0.00 0.00 595.28 198.43 cl
0.00 0.00 595.28 198.43 cl
0.00 0.00 595.28 198.43 cl
0.00 0.00 595.28 198.43 cl
0.00 0.00 595.28 198.43 cl
/Font1 findfont 12 s
0 0 0 srgb
45.12 55.02 (0.00) 1 0 t
45.12 78.42 (0.25) 1 0 t
45.12 101.83 (0.50) 1 0 t
45.12 125.23 (0.75) 1 0 t
45.12 148.64 (1.00) 1 0 t
0.00 0.00 595.28 198.43 cl
0.00 0.00 595.28 198.43 cl
0 0 0 srgb
1.07 setlinewidth
[] 0 setdash
0 setlinecap
1 setlinejoin
10.00 setmiterlimit
np
47.51 59.33 m
2.99 0 l
o
np
47.51 82.73 m
2.99 0 l
o
np
47.51 106.14 m
2.99 0 l
o
np
47.51 129.54 m
2.99 0 l
o
np
47.51 152.94 m
2.99 0 l
o
0.00 0.00 595.28 198.43 cl
0.00 0.00 595.28 198.43 cl
0.00 0.00 595.28 198.43 cl
0.00 0.00 595.28 198.43 cl
0.00 0.00 595.28 198.43 cl
0.00 0.00 595.28 198.43 cl
0.00 0.00 595.28 198.43 cl
0.00 0.00 595.28 198.43 cl
0 0 0 srgb
1.07 setlinewidth
[] 0 setdash
0 setlinecap
1 setlinejoin
10.00 setmiterlimit
np
70.19 51.66 m
0 2.99 l
o
np
91.65 51.66 m
0 2.99 l
o
np
113.12 51.66 m
0 2.99 l
o
np
134.59 51.66 m
0 2.99 l
o
0.00 0.00 595.28 198.43 cl
0.00 0.00 595.28 198.43 cl
/Font1 findfont 12 s
0 0 0 srgb
61.29 37.68 (10) 0 0 t
/Font1 findfont 8 s
74.63 43.64 (1) 0 0 t
/Font1 findfont 12 s
82.76 37.68 (10) 0 0 t
/Font1 findfont 8 s
96.10 43.64 (2) 0 0 t
/Font1 findfont 12 s
104.23 37.68 (10) 0 0 t
/Font1 findfont 8 s
117.57 43.64 (3) 0 0 t
/Font1 findfont 12 s
125.70 37.68 (10) 0 0 t
/Font1 findfont 8 s
139.04 43.64 (4) 0 0 t
0.00 0.00 595.28 198.43 cl
0.00 0.00 595.28 198.43 cl
0.00 0.00 595.28 198.43 cl
0.00 0.00 595.28 198.43 cl
0.00 0.00 595.28 198.43 cl
0.00 0.00 595.28 198.43 cl
0.00 0.00 595.28 198.43 cl
0.00 0.00 595.28 198.43 cl
0 0 0 srgb
1.07 setlinewidth
[] 0 setdash
0 setlinecap
1 setlinejoin
10.00 setmiterlimit
np
179.14 51.66 m
0 2.99 l
o
np
200.61 51.66 m
0 2.99 l
o
np
222.08 51.66 m
0 2.99 l
o
np
243.55 51.66 m
0 2.99 l
o
0.00 0.00 595.28 198.43 cl
0.00 0.00 595.28 198.43 cl
/Font1 findfont 12 s
0 0 0 srgb
170.24 37.68 (10) 0 0 t
/Font1 findfont 8 s
183.59 43.64 (1) 0 0 t
/Font1 findfont 12 s
191.71 37.68 (10) 0 0 t
/Font1 findfont 8 s
205.06 43.64 (2) 0 0 t
/Font1 findfont 12 s
213.18 37.68 (10) 0 0 t
/Font1 findfont 8 s
226.53 43.64 (3) 0 0 t
/Font1 findfont 12 s
234.65 37.68 (10) 0 0 t
/Font1 findfont 8 s
248.00 43.64 (4) 0 0 t
0.00 0.00 595.28 198.43 cl
0.00 0.00 595.28 198.43 cl
0.00 0.00 595.28 198.43 cl
0.00 0.00 595.28 198.43 cl
0.00 0.00 595.28 198.43 cl
0.00 0.00 595.28 198.43 cl
0.00 0.00 595.28 198.43 cl
0.00 0.00 595.28 198.43 cl
0 0 0 srgb
1.07 setlinewidth
[] 0 setdash
0 setlinecap
1 setlinejoin
10.00 setmiterlimit
np
288.10 51.66 m
0 2.99 l
o
np
309.56 51.66 m
0 2.99 l
o
np
331.03 51.66 m
0 2.99 l
o
np
352.50 51.66 m
0 2.99 l
o
0.00 0.00 595.28 198.43 cl
0.00 0.00 595.28 198.43 cl
/Font1 findfont 12 s
0 0 0 srgb
279.20 37.68 (10) 0 0 t
/Font1 findfont 8 s
292.54 43.64 (1) 0 0 t
/Font1 findfont 12 s
300.67 37.68 (10) 0 0 t
/Font1 findfont 8 s
314.01 43.64 (2) 0 0 t
/Font1 findfont 12 s
322.14 37.68 (10) 0 0 t
/Font1 findfont 8 s
335.48 43.64 (3) 0 0 t
/Font1 findfont 12 s
343.61 37.68 (10) 0 0 t
/Font1 findfont 8 s
356.95 43.64 (4) 0 0 t
0.00 0.00 595.28 198.43 cl
0.00 0.00 595.28 198.43 cl
0.00 0.00 595.28 198.43 cl
0.00 0.00 595.28 198.43 cl
0.00 0.00 595.28 198.43 cl
0.00 0.00 595.28 198.43 cl
0.00 0.00 595.28 198.43 cl
0.00 0.00 595.28 198.43 cl
0 0 0 srgb
1.07 setlinewidth
[] 0 setdash
0 setlinecap
1 setlinejoin
10.00 setmiterlimit
np
397.05 51.66 m
0 2.99 l
o
np
418.52 51.66 m
0 2.99 l
o
np
439.99 51.66 m
0 2.99 l
o
np
461.46 51.66 m
0 2.99 l
o
0.00 0.00 595.28 198.43 cl
0.00 0.00 595.28 198.43 cl
/Font1 findfont 12 s
0 0 0 srgb
388.16 37.68 (10) 0 0 t
/Font1 findfont 8 s
401.50 43.64 (1) 0 0 t
/Font1 findfont 12 s
409.62 37.68 (10) 0 0 t
/Font1 findfont 8 s
422.97 43.64 (2) 0 0 t
/Font1 findfont 12 s
431.09 37.68 (10) 0 0 t
/Font1 findfont 8 s
444.44 43.64 (3) 0 0 t
/Font1 findfont 12 s
452.56 37.68 (10) 0 0 t
/Font1 findfont 8 s
465.91 43.64 (4) 0 0 t
0.00 0.00 595.28 198.43 cl
0.00 0.00 595.28 198.43 cl
0.00 0.00 595.28 198.43 cl
0.00 0.00 595.28 198.43 cl
0.00 0.00 595.28 198.43 cl
0.00 0.00 595.28 198.43 cl
0.00 0.00 595.28 198.43 cl
0.00 0.00 595.28 198.43 cl
0 0 0 srgb
1.07 setlinewidth
[] 0 setdash
0 setlinecap
1 setlinejoin
10.00 setmiterlimit
np
506.01 51.66 m
0 2.99 l
o
np
527.48 51.66 m
0 2.99 l
o
np
548.94 51.66 m
0 2.99 l
o
np
570.41 51.66 m
0 2.99 l
o
0.00 0.00 595.28 198.43 cl
0.00 0.00 595.28 198.43 cl
/Font1 findfont 12 s
0 0 0 srgb
497.11 37.68 (10) 0 0 t
/Font1 findfont 8 s
510.46 43.64 (1) 0 0 t
/Font1 findfont 12 s
518.58 37.68 (10) 0 0 t
/Font1 findfont 8 s
531.92 43.64 (2) 0 0 t
/Font1 findfont 12 s
540.05 37.68 (10) 0 0 t
/Font1 findfont 8 s
553.39 43.64 (3) 0 0 t
/Font1 findfont 12 s
561.52 37.68 (10) 0 0 t
/Font1 findfont 8 s
574.86 43.64 (4) 0 0 t
0.00 0.00 595.28 198.43 cl
0.00 0.00 595.28 198.43 cl
0.00 0.00 595.28 198.43 cl
0.00 0.00 595.28 198.43 cl
/Font1 findfont 12 s
0 0 0 srgb
309.23 24.06 (siz) 0 ta
-0.180 (e) tb gr
0.00 0.00 595.28 198.43 cl
0.00 0.00 595.28 198.43 cl
/Font1 findfont 12 s
0 0 0 srgb
16.98 106.14 (ccdf) .5 90 t
0.00 0.00 595.28 198.43 cl
0.00 0.00 595.28 198.43 cl
0.00 0.00 595.28 198.43 cl
0.00 0.00 595.28 198.43 cl
ep
%%Trailer
%%Pages: 1
%%EOF
