%!PS-Adobe-3.0 EPSF-3.0
%%DocumentNeededResources: font Helvetica
%%+ font Helvetica-Bold
%%+ font Helvetica-Oblique
%%+ font Helvetica-BoldOblique
%%+ font Symbol
%%Title: R Graphics Output
%%Creator: R Software
%%Pages: (atend)
%%BoundingBox: 0 0 595 496
%%EndComments
%%BeginProlog
/bp  { gs sRGB gs } def
% begin .ps.prolog
/gs  { gsave } bind def
/gr  { grestore } bind def
/ep  { showpage gr gr } bind def
/m   { moveto } bind def
/l  { rlineto } bind def
/np  { newpath } bind def
/cp  { closepath } bind def
/f   { fill } bind def
/o   { stroke } bind def
/c   { newpath 0 360 arc } bind def
/r   { 4 2 roll moveto 1 copy 3 -1 roll exch 0 exch rlineto 0 rlineto -1 mul 0 exch rlineto closepath } bind def
/p1  { stroke } bind def
/p2  { gsave bg fill grestore newpath } bind def
/p3  { gsave bg fill grestore stroke } bind def
/p6  { gsave bg eofill grestore newpath } bind def
/p7  { gsave bg eofill grestore stroke } bind def
/t   { 5 -2 roll moveto gsave rotate
       1 index stringwidth pop
       mul neg 0 rmoveto show grestore } bind def
/ta  { 4 -2 roll moveto gsave rotate show } bind def
/tb  { 2 -1 roll 0 rmoveto show } bind def
/cl  { grestore gsave newpath 3 index 3 index moveto 1 index
       4 -1 roll lineto  exch 1 index lineto lineto
       closepath clip newpath } bind def
/rgb { setrgbcolor } bind def
/s   { scalefont setfont } bind def
% end   .ps.prolog
/sRGB { [ /CIEBasedABC
          << /DecodeLMN
               [ { dup 0.03928 le
                        {12.92321 div}
                        {0.055 add 1.055 div 2.4 exp }
                     ifelse
                 } bind dup dup
               ]
             /MatrixLMN [0.412457 0.212673 0.019334
                         0.357576 0.715152 0.119192
                         0.180437 0.072175 0.950301]
             /WhitePoint [0.9505 1.0 1.0890]
           >>
         ] setcolorspace } bind def
/srgb { setcolor } bind def
%%IncludeResource: font Helvetica
/Helvetica findfont
dup length dict begin
  {1 index /FID ne {def} {pop pop} ifelse} forall
  /Encoding ISOLatin1Encoding def
  currentdict
  end
/Font1 exch definefont pop
%%IncludeResource: font Helvetica-Bold
/Helvetica-Bold findfont
dup length dict begin
  {1 index /FID ne {def} {pop pop} ifelse} forall
  /Encoding ISOLatin1Encoding def
  currentdict
  end
/Font2 exch definefont pop
%%IncludeResource: font Helvetica-Oblique
/Helvetica-Oblique findfont
dup length dict begin
  {1 index /FID ne {def} {pop pop} ifelse} forall
  /Encoding ISOLatin1Encoding def
  currentdict
  end
/Font3 exch definefont pop
%%IncludeResource: font Helvetica-BoldOblique
/Helvetica-BoldOblique findfont
dup length dict begin
  {1 index /FID ne {def} {pop pop} ifelse} forall
  /Encoding ISOLatin1Encoding def
  currentdict
  end
/Font4 exch definefont pop
%%IncludeResource: font Symbol
/Symbol findfont
dup length dict begin
  {1 index /FID ne {def} {pop pop} ifelse} forall
  currentdict
  end
/Font5 exch definefont pop
%%EndProlog
%%Page: 1 1
bp
0.00 0.00 595.28 496.06 cl
0.00 0.00 595.28 496.06 cl
0.00 0.00 595.28 496.06 cl
0.00 0.00 595.28 496.06 cl
0.00 0.00 595.28 496.06 cl
0.00 0.00 595.28 496.06 cl
0.00 0.00 595.28 496.06 cl
0.00 0.00 595.28 496.06 cl
0.00 0.00 595.28 496.06 cl
0.00 0.00 595.28 496.06 cl
0.00 0.00 595.28 496.06 cl
0.00 0.00 595.28 496.06 cl
0.00 0.00 595.28 496.06 cl
0.00 0.00 595.28 496.06 cl
0.00 0.00 595.28 496.06 cl
0.00 0.00 595.28 496.06 cl
0.00 0.00 595.28 496.06 cl
0.00 0.00 595.28 496.06 cl
/bg { 1 1 1 srgb } def
1 1 1 srgb
1.07 setlinewidth
[] 0 setdash
1 setlinecap
1 setlinejoin
10.00 setmiterlimit
0.00 -0.00 595.28 496.06 r p3
0.00 0.00 595.28 496.06 cl
42.71 409.45 571.60 490.09 cl
/bg { 1 1 1 srgb } def
42.71 409.45 528.88 80.64 r p2
0.9804 0.9804 0.9804 srgb
1.07 setlinewidth
[] 0 setdash
0 setlinecap
1 setlinejoin
10.00 setmiterlimit
np
42.71 421.71 m
528.89 0 l
o
np
42.71 440.20 m
528.89 0 l
o
np
42.71 458.69 m
528.89 0 l
o
np
42.71 477.18 m
528.89 0 l
o
np
48.37 409.45 m
0 80.64 l
o
np
60.63 409.45 m
0 80.64 l
o
np
72.88 409.45 m
0 80.64 l
o
np
84.55 409.45 m
0 80.64 l
o
np
96.21 409.45 m
0 80.64 l
o
np
108.27 409.45 m
0 80.64 l
o
np
120.33 409.45 m
0 80.64 l
o
np
132.39 409.45 m
0 80.64 l
o
np
144.45 409.45 m
0 80.64 l
o
np
156.71 409.45 m
0 80.64 l
o
np
168.77 409.45 m
0 80.64 l
o
np
180.83 409.45 m
0 80.64 l
o
np
192.89 409.45 m
0 80.64 l
o
np
204.95 409.45 m
0 80.64 l
o
np
217.20 409.45 m
0 80.64 l
o
np
228.87 409.45 m
0 80.64 l
o
np
240.53 409.45 m
0 80.64 l
o
np
252.59 409.45 m
0 80.64 l
o
np
264.65 409.45 m
0 80.64 l
o
np
276.71 409.45 m
0 80.64 l
o
np
288.77 409.45 m
0 80.64 l
o
np
301.03 409.45 m
0 80.64 l
o
np
313.09 409.45 m
0 80.64 l
o
np
325.15 409.45 m
0 80.64 l
o
np
337.21 409.45 m
0 80.64 l
o
np
349.27 409.45 m
0 80.64 l
o
np
361.52 409.45 m
0 80.64 l
o
np
373.19 409.45 m
0 80.64 l
o
np
384.85 409.45 m
0 80.64 l
o
np
396.91 409.45 m
0 80.64 l
o
np
408.97 409.45 m
0 80.64 l
o
np
421.03 409.45 m
0 80.64 l
o
np
433.09 409.45 m
0 80.64 l
o
np
445.35 409.45 m
0 80.64 l
o
np
457.41 409.45 m
0 80.64 l
o
np
469.47 409.45 m
0 80.64 l
o
np
481.53 409.45 m
0 80.64 l
o
np
493.59 409.45 m
0 80.64 l
o
np
505.84 409.45 m
0 80.64 l
o
np
517.71 409.45 m
0 80.64 l
o
np
529.57 409.45 m
0 80.64 l
o
np
541.63 409.45 m
0 80.64 l
o
np
553.69 409.45 m
0 80.64 l
o
np
565.94 409.45 m
0 80.64 l
o
0.8980 0.8980 0.8980 srgb
0.43 setlinewidth
[] 0 setdash
np
42.71 412.46 m
528.89 0 l
o
np
42.71 430.95 m
528.89 0 l
o
np
42.71 449.44 m
528.89 0 l
o
np
42.71 467.93 m
528.89 0 l
o
np
42.71 486.42 m
528.89 0 l
o
np
54.50 409.45 m
0 80.64 l
o
np
66.75 409.45 m
0 80.64 l
o
np
79.01 409.45 m
0 80.64 l
o
np
90.08 409.45 m
0 80.64 l
o
np
102.34 409.45 m
0 80.64 l
o
np
114.20 409.45 m
0 80.64 l
o
np
126.46 409.45 m
0 80.64 l
o
np
138.32 409.45 m
0 80.64 l
o
np
150.58 409.45 m
0 80.64 l
o
np
162.84 409.45 m
0 80.64 l
o
np
174.70 409.45 m
0 80.64 l
o
np
186.96 409.45 m
0 80.64 l
o
np
198.82 409.45 m
0 80.64 l
o
np
211.07 409.45 m
0 80.64 l
o
np
223.33 409.45 m
0 80.64 l
o
np
234.40 409.45 m
0 80.64 l
o
np
246.66 409.45 m
0 80.64 l
o
np
258.52 409.45 m
0 80.64 l
o
np
270.78 409.45 m
0 80.64 l
o
np
282.64 409.45 m
0 80.64 l
o
np
294.90 409.45 m
0 80.64 l
o
np
307.16 409.45 m
0 80.64 l
o
np
319.02 409.45 m
0 80.64 l
o
np
331.28 409.45 m
0 80.64 l
o
np
343.14 409.45 m
0 80.64 l
o
np
355.40 409.45 m
0 80.64 l
o
np
367.65 409.45 m
0 80.64 l
o
np
378.72 409.45 m
0 80.64 l
o
np
390.98 409.45 m
0 80.64 l
o
np
402.84 409.45 m
0 80.64 l
o
np
415.10 409.45 m
0 80.64 l
o
np
426.96 409.45 m
0 80.64 l
o
np
439.22 409.45 m
0 80.64 l
o
np
451.48 409.45 m
0 80.64 l
o
np
463.34 409.45 m
0 80.64 l
o
np
475.60 409.45 m
0 80.64 l
o
np
487.46 409.45 m
0 80.64 l
o
np
499.72 409.45 m
0 80.64 l
o
np
511.97 409.45 m
0 80.64 l
o
np
523.44 409.45 m
0 80.64 l
o
np
535.70 409.45 m
0 80.64 l
o
np
547.56 409.45 m
0 80.64 l
o
np
559.82 409.45 m
0 80.64 l
o
/bg { 0 0 0 srgb } def
0 0 0 srgb
0.71 setlinewidth
[] 0 setdash
1 setlinecap
66.75 486.42 1.95 c p3
79.01 430.18 1.95 c p3
90.08 431.09 1.95 c p3
102.34 429.61 1.95 c p3
114.20 425.32 1.95 c p3
126.46 421.17 1.95 c p3
138.32 420.48 1.95 c p3
150.58 420.77 1.95 c p3
162.84 420.01 1.95 c p3
174.70 420.84 1.95 c p3
186.96 422.56 1.95 c p3
198.82 422.76 1.95 c p3
211.07 421.84 1.95 c p3
223.33 421.72 1.95 c p3
234.40 420.49 1.95 c p3
246.66 422.30 1.95 c p3
258.52 423.19 1.95 c p3
270.78 421.72 1.95 c p3
282.64 422.55 1.95 c p3
294.90 422.90 1.95 c p3
307.16 419.85 1.95 c p3
319.02 418.98 1.95 c p3
331.28 418.98 1.95 c p3
343.14 417.70 1.95 c p3
355.40 424.06 1.95 c p3
367.65 417.92 1.95 c p3
378.72 416.62 1.95 c p3
390.98 417.10 1.95 c p3
402.84 416.69 1.95 c p3
415.10 417.41 1.95 c p3
426.96 418.93 1.95 c p3
439.22 417.59 1.95 c p3
451.48 416.47 1.95 c p3
463.34 416.36 1.95 c p3
475.60 420.05 1.95 c p3
487.46 417.76 1.95 c p3
499.72 417.25 1.95 c p3
511.97 416.80 1.95 c p3
523.44 414.25 1.95 c p3
535.70 418.92 1.95 c p3
547.56 417.26 1.95 c p3
1.07 setlinewidth
[] 0 setdash
0 setlinecap
1.00 setmiterlimit
np
66.75 486.42 m
12.26 -56.24 l
11.07 0.91 l
12.26 -1.48 l
11.86 -4.29 l
12.26 -4.15 l
11.86 -0.69 l
12.26 0.29 l
12.26 -0.76 l
11.86 0.83 l
12.26 1.72 l
11.86 0.20 l
12.25 -0.92 l
12.26 -0.12 l
11.07 -1.23 l
12.26 1.81 l
11.86 0.89 l
12.26 -1.47 l
11.86 0.83 l
12.26 0.35 l
12.26 -3.05 l
11.86 -0.87 l
12.26 0 l
11.86 -1.28 l
12.26 6.36 l
12.25 -6.14 l
11.07 -1.30 l
12.26 0.48 l
11.86 -0.41 l
12.26 0.72 l
11.86 1.52 l
12.26 -1.34 l
12.26 -1.12 l
11.86 -0.11 l
12.26 3.69 l
11.86 -2.29 l
12.26 -0.51 l
12.25 -0.45 l
11.47 -2.55 l
12.26 4.67 l
11.86 -1.66 l
o
0.4980 0.4980 0.4980 srgb
1 setlinecap
10.00 setmiterlimit
42.71 409.45 528.88 80.64 r p1
0.00 0.00 595.28 496.06 cl
42.71 322.83 571.60 403.47 cl
/bg { 1 1 1 srgb } def
42.71 322.83 528.88 80.64 r p2
0.9804 0.9804 0.9804 srgb
1.07 setlinewidth
[] 0 setdash
0 setlinecap
1 setlinejoin
10.00 setmiterlimit
np
42.71 335.09 m
528.89 0 l
o
np
42.71 353.58 m
528.89 0 l
o
np
42.71 372.07 m
528.89 0 l
o
np
42.71 390.56 m
528.89 0 l
o
np
48.37 322.83 m
0 80.64 l
o
np
60.63 322.83 m
0 80.64 l
o
np
72.88 322.83 m
0 80.64 l
o
np
84.55 322.83 m
0 80.64 l
o
np
96.21 322.83 m
0 80.64 l
o
np
108.27 322.83 m
0 80.64 l
o
np
120.33 322.83 m
0 80.64 l
o
np
132.39 322.83 m
0 80.64 l
o
np
144.45 322.83 m
0 80.64 l
o
np
156.71 322.83 m
0 80.64 l
o
np
168.77 322.83 m
0 80.64 l
o
np
180.83 322.83 m
0 80.64 l
o
np
192.89 322.83 m
0 80.64 l
o
np
204.95 322.83 m
0 80.64 l
o
np
217.20 322.83 m
0 80.64 l
o
np
228.87 322.83 m
0 80.64 l
o
np
240.53 322.83 m
0 80.64 l
o
np
252.59 322.83 m
0 80.64 l
o
np
264.65 322.83 m
0 80.64 l
o
np
276.71 322.83 m
0 80.64 l
o
np
288.77 322.83 m
0 80.64 l
o
np
301.03 322.83 m
0 80.64 l
o
np
313.09 322.83 m
0 80.64 l
o
np
325.15 322.83 m
0 80.64 l
o
np
337.21 322.83 m
0 80.64 l
o
np
349.27 322.83 m
0 80.64 l
o
np
361.52 322.83 m
0 80.64 l
o
np
373.19 322.83 m
0 80.64 l
o
np
384.85 322.83 m
0 80.64 l
o
np
396.91 322.83 m
0 80.64 l
o
np
408.97 322.83 m
0 80.64 l
o
np
421.03 322.83 m
0 80.64 l
o
np
433.09 322.83 m
0 80.64 l
o
np
445.35 322.83 m
0 80.64 l
o
np
457.41 322.83 m
0 80.64 l
o
np
469.47 322.83 m
0 80.64 l
o
np
481.53 322.83 m
0 80.64 l
o
np
493.59 322.83 m
0 80.64 l
o
np
505.84 322.83 m
0 80.64 l
o
np
517.71 322.83 m
0 80.64 l
o
np
529.57 322.83 m
0 80.64 l
o
np
541.63 322.83 m
0 80.64 l
o
np
553.69 322.83 m
0 80.64 l
o
np
565.94 322.83 m
0 80.64 l
o
0.8980 0.8980 0.8980 srgb
0.43 setlinewidth
[] 0 setdash
np
42.71 325.85 m
528.89 0 l
o
np
42.71 344.34 m
528.89 0 l
o
np
42.71 362.82 m
528.89 0 l
o
np
42.71 381.31 m
528.89 0 l
o
np
42.71 399.80 m
528.89 0 l
o
np
54.50 322.83 m
0 80.64 l
o
np
66.75 322.83 m
0 80.64 l
o
np
79.01 322.83 m
0 80.64 l
o
np
90.08 322.83 m
0 80.64 l
o
np
102.34 322.83 m
0 80.64 l
o
np
114.20 322.83 m
0 80.64 l
o
np
126.46 322.83 m
0 80.64 l
o
np
138.32 322.83 m
0 80.64 l
o
np
150.58 322.83 m
0 80.64 l
o
np
162.84 322.83 m
0 80.64 l
o
np
174.70 322.83 m
0 80.64 l
o
np
186.96 322.83 m
0 80.64 l
o
np
198.82 322.83 m
0 80.64 l
o
np
211.07 322.83 m
0 80.64 l
o
np
223.33 322.83 m
0 80.64 l
o
np
234.40 322.83 m
0 80.64 l
o
np
246.66 322.83 m
0 80.64 l
o
np
258.52 322.83 m
0 80.64 l
o
np
270.78 322.83 m
0 80.64 l
o
np
282.64 322.83 m
0 80.64 l
o
np
294.90 322.83 m
0 80.64 l
o
np
307.16 322.83 m
0 80.64 l
o
np
319.02 322.83 m
0 80.64 l
o
np
331.28 322.83 m
0 80.64 l
o
np
343.14 322.83 m
0 80.64 l
o
np
355.40 322.83 m
0 80.64 l
o
np
367.65 322.83 m
0 80.64 l
o
np
378.72 322.83 m
0 80.64 l
o
np
390.98 322.83 m
0 80.64 l
o
np
402.84 322.83 m
0 80.64 l
o
np
415.10 322.83 m
0 80.64 l
o
np
426.96 322.83 m
0 80.64 l
o
np
439.22 322.83 m
0 80.64 l
o
np
451.48 322.83 m
0 80.64 l
o
np
463.34 322.83 m
0 80.64 l
o
np
475.60 322.83 m
0 80.64 l
o
np
487.46 322.83 m
0 80.64 l
o
np
499.72 322.83 m
0 80.64 l
o
np
511.97 322.83 m
0 80.64 l
o
np
523.44 322.83 m
0 80.64 l
o
np
535.70 322.83 m
0 80.64 l
o
np
547.56 322.83 m
0 80.64 l
o
np
559.82 322.83 m
0 80.64 l
o
/bg { 0 0 0 srgb } def
0 0 0 srgb
0.71 setlinewidth
[] 0 setdash
1 setlinecap
66.75 399.80 1.95 c p3
79.01 353.22 1.95 c p3
90.08 349.93 1.95 c p3
102.34 350.17 1.95 c p3
114.20 340.15 1.95 c p3
126.46 344.52 1.95 c p3
138.32 339.17 1.95 c p3
150.58 339.37 1.95 c p3
162.84 338.87 1.95 c p3
174.70 339.75 1.95 c p3
186.96 340.65 1.95 c p3
198.82 338.82 1.95 c p3
211.07 339.81 1.95 c p3
223.33 338.23 1.95 c p3
234.40 339.10 1.95 c p3
246.66 345.93 1.95 c p3
258.52 338.70 1.95 c p3
270.78 340.21 1.95 c p3
282.64 336.40 1.95 c p3
294.90 336.25 1.95 c p3
307.16 335.69 1.95 c p3
319.02 337.14 1.95 c p3
331.28 339.54 1.95 c p3
343.14 340.44 1.95 c p3
355.40 340.74 1.95 c p3
367.65 339.49 1.95 c p3
378.72 339.31 1.95 c p3
390.98 342.80 1.95 c p3
402.84 340.39 1.95 c p3
415.10 341.46 1.95 c p3
426.96 335.86 1.95 c p3
439.22 335.40 1.95 c p3
451.48 334.00 1.95 c p3
463.34 335.02 1.95 c p3
475.60 335.46 1.95 c p3
487.46 336.57 1.95 c p3
499.72 337.30 1.95 c p3
511.97 336.99 1.95 c p3
523.44 333.42 1.95 c p3
535.70 345.44 1.95 c p3
547.56 343.66 1.95 c p3
1.07 setlinewidth
[] 0 setdash
0 setlinecap
1.00 setmiterlimit
np
66.75 399.80 m
12.26 -46.58 l
11.07 -3.29 l
12.26 0.24 l
11.86 -10.02 l
12.26 4.37 l
11.86 -5.35 l
12.26 0.20 l
12.26 -0.50 l
11.86 0.88 l
12.26 0.90 l
11.86 -1.83 l
12.25 0.99 l
12.26 -1.58 l
11.07 0.87 l
12.26 6.83 l
11.86 -7.23 l
12.26 1.51 l
11.86 -3.81 l
12.26 -0.15 l
12.26 -0.56 l
11.86 1.45 l
12.26 2.40 l
11.86 0.90 l
12.26 0.30 l
12.25 -1.25 l
11.07 -0.18 l
12.26 3.49 l
11.86 -2.41 l
12.26 1.07 l
11.86 -5.60 l
12.26 -0.46 l
12.26 -1.40 l
11.86 1.02 l
12.26 0.44 l
11.86 1.11 l
12.26 0.73 l
12.25 -0.31 l
11.47 -3.57 l
12.26 12.02 l
11.86 -1.78 l
o
0.4980 0.4980 0.4980 srgb
1 setlinecap
10.00 setmiterlimit
42.71 322.83 528.88 80.64 r p1
0.00 0.00 595.28 496.06 cl
42.71 236.21 571.60 316.85 cl
/bg { 1 1 1 srgb } def
42.71 236.21 528.88 80.64 r p2
0.9804 0.9804 0.9804 srgb
1.07 setlinewidth
[] 0 setdash
0 setlinecap
1 setlinejoin
10.00 setmiterlimit
np
42.71 248.47 m
528.89 0 l
o
np
42.71 266.96 m
528.89 0 l
o
np
42.71 285.45 m
528.89 0 l
o
np
42.71 303.94 m
528.89 0 l
o
np
48.37 236.21 m
0 80.64 l
o
np
60.63 236.21 m
0 80.64 l
o
np
72.88 236.21 m
0 80.64 l
o
np
84.55 236.21 m
0 80.64 l
o
np
96.21 236.21 m
0 80.64 l
o
np
108.27 236.21 m
0 80.64 l
o
np
120.33 236.21 m
0 80.64 l
o
np
132.39 236.21 m
0 80.64 l
o
np
144.45 236.21 m
0 80.64 l
o
np
156.71 236.21 m
0 80.64 l
o
np
168.77 236.21 m
0 80.64 l
o
np
180.83 236.21 m
0 80.64 l
o
np
192.89 236.21 m
0 80.64 l
o
np
204.95 236.21 m
0 80.64 l
o
np
217.20 236.21 m
0 80.64 l
o
np
228.87 236.21 m
0 80.64 l
o
np
240.53 236.21 m
0 80.64 l
o
np
252.59 236.21 m
0 80.64 l
o
np
264.65 236.21 m
0 80.64 l
o
np
276.71 236.21 m
0 80.64 l
o
np
288.77 236.21 m
0 80.64 l
o
np
301.03 236.21 m
0 80.64 l
o
np
313.09 236.21 m
0 80.64 l
o
np
325.15 236.21 m
0 80.64 l
o
np
337.21 236.21 m
0 80.64 l
o
np
349.27 236.21 m
0 80.64 l
o
np
361.52 236.21 m
0 80.64 l
o
np
373.19 236.21 m
0 80.64 l
o
np
384.85 236.21 m
0 80.64 l
o
np
396.91 236.21 m
0 80.64 l
o
np
408.97 236.21 m
0 80.64 l
o
np
421.03 236.21 m
0 80.64 l
o
np
433.09 236.21 m
0 80.64 l
o
np
445.35 236.21 m
0 80.64 l
o
np
457.41 236.21 m
0 80.64 l
o
np
469.47 236.21 m
0 80.64 l
o
np
481.53 236.21 m
0 80.64 l
o
np
493.59 236.21 m
0 80.64 l
o
np
505.84 236.21 m
0 80.64 l
o
np
517.71 236.21 m
0 80.64 l
o
np
529.57 236.21 m
0 80.64 l
o
np
541.63 236.21 m
0 80.64 l
o
np
553.69 236.21 m
0 80.64 l
o
np
565.94 236.21 m
0 80.64 l
o
0.8980 0.8980 0.8980 srgb
0.43 setlinewidth
[] 0 setdash
np
42.71 239.23 m
528.89 0 l
o
np
42.71 257.72 m
528.89 0 l
o
np
42.71 276.21 m
528.89 0 l
o
np
42.71 294.70 m
528.89 0 l
o
np
42.71 313.19 m
528.89 0 l
o
np
54.50 236.21 m
0 80.64 l
o
np
66.75 236.21 m
0 80.64 l
o
np
79.01 236.21 m
0 80.64 l
o
np
90.08 236.21 m
0 80.64 l
o
np
102.34 236.21 m
0 80.64 l
o
np
114.20 236.21 m
0 80.64 l
o
np
126.46 236.21 m
0 80.64 l
o
np
138.32 236.21 m
0 80.64 l
o
np
150.58 236.21 m
0 80.64 l
o
np
162.84 236.21 m
0 80.64 l
o
np
174.70 236.21 m
0 80.64 l
o
np
186.96 236.21 m
0 80.64 l
o
np
198.82 236.21 m
0 80.64 l
o
np
211.07 236.21 m
0 80.64 l
o
np
223.33 236.21 m
0 80.64 l
o
np
234.40 236.21 m
0 80.64 l
o
np
246.66 236.21 m
0 80.64 l
o
np
258.52 236.21 m
0 80.64 l
o
np
270.78 236.21 m
0 80.64 l
o
np
282.64 236.21 m
0 80.64 l
o
np
294.90 236.21 m
0 80.64 l
o
np
307.16 236.21 m
0 80.64 l
o
np
319.02 236.21 m
0 80.64 l
o
np
331.28 236.21 m
0 80.64 l
o
np
343.14 236.21 m
0 80.64 l
o
np
355.40 236.21 m
0 80.64 l
o
np
367.65 236.21 m
0 80.64 l
o
np
378.72 236.21 m
0 80.64 l
o
np
390.98 236.21 m
0 80.64 l
o
np
402.84 236.21 m
0 80.64 l
o
np
415.10 236.21 m
0 80.64 l
o
np
426.96 236.21 m
0 80.64 l
o
np
439.22 236.21 m
0 80.64 l
o
np
451.48 236.21 m
0 80.64 l
o
np
463.34 236.21 m
0 80.64 l
o
np
475.60 236.21 m
0 80.64 l
o
np
487.46 236.21 m
0 80.64 l
o
np
499.72 236.21 m
0 80.64 l
o
np
511.97 236.21 m
0 80.64 l
o
np
523.44 236.21 m
0 80.64 l
o
np
535.70 236.21 m
0 80.64 l
o
np
547.56 236.21 m
0 80.64 l
o
np
559.82 236.21 m
0 80.64 l
o
/bg { 0 0 0 srgb } def
0 0 0 srgb
0.71 setlinewidth
[] 0 setdash
1 setlinecap
66.75 313.19 1.95 c p3
79.01 279.23 1.95 c p3
90.08 272.31 1.95 c p3
102.34 271.90 1.95 c p3
114.20 269.30 1.95 c p3
126.46 267.67 1.95 c p3
138.32 261.44 1.95 c p3
150.58 257.17 1.95 c p3
162.84 262.24 1.95 c p3
174.70 265.06 1.95 c p3
186.96 256.56 1.95 c p3
198.82 258.01 1.95 c p3
211.07 262.98 1.95 c p3
223.33 265.94 1.95 c p3
234.40 260.95 1.95 c p3
246.66 259.40 1.95 c p3
258.52 262.28 1.95 c p3
270.78 259.91 1.95 c p3
282.64 257.68 1.95 c p3
294.90 260.01 1.95 c p3
307.16 259.87 1.95 c p3
319.02 256.42 1.95 c p3
331.28 259.75 1.95 c p3
343.14 257.20 1.95 c p3
355.40 257.50 1.95 c p3
367.65 255.32 1.95 c p3
378.72 254.98 1.95 c p3
390.98 263.30 1.95 c p3
402.84 256.61 1.95 c p3
415.10 259.33 1.95 c p3
426.96 257.23 1.95 c p3
439.22 256.91 1.95 c p3
451.48 259.16 1.95 c p3
463.34 256.18 1.95 c p3
475.60 255.35 1.95 c p3
487.46 258.10 1.95 c p3
499.72 256.65 1.95 c p3
511.97 254.41 1.95 c p3
523.44 252.88 1.95 c p3
535.70 259.97 1.95 c p3
547.56 255.86 1.95 c p3
1.07 setlinewidth
[] 0 setdash
0 setlinecap
1.00 setmiterlimit
np
66.75 313.19 m
12.26 -33.96 l
11.07 -6.92 l
12.26 -0.41 l
11.86 -2.60 l
12.26 -1.63 l
11.86 -6.23 l
12.26 -4.27 l
12.26 5.07 l
11.86 2.82 l
12.26 -8.50 l
11.86 1.45 l
12.25 4.97 l
12.26 2.96 l
11.07 -4.99 l
12.26 -1.55 l
11.86 2.88 l
12.26 -2.37 l
11.86 -2.23 l
12.26 2.33 l
12.26 -0.14 l
11.86 -3.45 l
12.26 3.33 l
11.86 -2.55 l
12.26 0.30 l
12.25 -2.18 l
11.07 -0.34 l
12.26 8.32 l
11.86 -6.69 l
12.26 2.72 l
11.86 -2.10 l
12.26 -0.32 l
12.26 2.25 l
11.86 -2.98 l
12.26 -0.83 l
11.86 2.75 l
12.26 -1.45 l
12.25 -2.24 l
11.47 -1.53 l
12.26 7.09 l
11.86 -4.11 l
o
0.4980 0.4980 0.4980 srgb
1 setlinecap
10.00 setmiterlimit
42.71 236.21 528.88 80.64 r p1
0.00 0.00 595.28 496.06 cl
42.71 149.59 571.60 230.23 cl
/bg { 1 1 1 srgb } def
42.71 149.59 528.88 80.64 r p2
0.9804 0.9804 0.9804 srgb
1.07 setlinewidth
[] 0 setdash
0 setlinecap
1 setlinejoin
10.00 setmiterlimit
np
42.71 161.86 m
528.89 0 l
o
np
42.71 180.35 m
528.89 0 l
o
np
42.71 198.83 m
528.89 0 l
o
np
42.71 217.32 m
528.89 0 l
o
np
48.37 149.59 m
0 80.64 l
o
np
60.63 149.59 m
0 80.64 l
o
np
72.88 149.59 m
0 80.64 l
o
np
84.55 149.59 m
0 80.64 l
o
np
96.21 149.59 m
0 80.64 l
o
np
108.27 149.59 m
0 80.64 l
o
np
120.33 149.59 m
0 80.64 l
o
np
132.39 149.59 m
0 80.64 l
o
np
144.45 149.59 m
0 80.64 l
o
np
156.71 149.59 m
0 80.64 l
o
np
168.77 149.59 m
0 80.64 l
o
np
180.83 149.59 m
0 80.64 l
o
np
192.89 149.59 m
0 80.64 l
o
np
204.95 149.59 m
0 80.64 l
o
np
217.20 149.59 m
0 80.64 l
o
np
228.87 149.59 m
0 80.64 l
o
np
240.53 149.59 m
0 80.64 l
o
np
252.59 149.59 m
0 80.64 l
o
np
264.65 149.59 m
0 80.64 l
o
np
276.71 149.59 m
0 80.64 l
o
np
288.77 149.59 m
0 80.64 l
o
np
301.03 149.59 m
0 80.64 l
o
np
313.09 149.59 m
0 80.64 l
o
np
325.15 149.59 m
0 80.64 l
o
np
337.21 149.59 m
0 80.64 l
o
np
349.27 149.59 m
0 80.64 l
o
np
361.52 149.59 m
0 80.64 l
o
np
373.19 149.59 m
0 80.64 l
o
np
384.85 149.59 m
0 80.64 l
o
np
396.91 149.59 m
0 80.64 l
o
np
408.97 149.59 m
0 80.64 l
o
np
421.03 149.59 m
0 80.64 l
o
np
433.09 149.59 m
0 80.64 l
o
np
445.35 149.59 m
0 80.64 l
o
np
457.41 149.59 m
0 80.64 l
o
np
469.47 149.59 m
0 80.64 l
o
np
481.53 149.59 m
0 80.64 l
o
np
493.59 149.59 m
0 80.64 l
o
np
505.84 149.59 m
0 80.64 l
o
np
517.71 149.59 m
0 80.64 l
o
np
529.57 149.59 m
0 80.64 l
o
np
541.63 149.59 m
0 80.64 l
o
np
553.69 149.59 m
0 80.64 l
o
np
565.94 149.59 m
0 80.64 l
o
0.8980 0.8980 0.8980 srgb
0.43 setlinewidth
[] 0 setdash
np
42.71 152.61 m
528.89 0 l
o
np
42.71 171.10 m
528.89 0 l
o
np
42.71 189.59 m
528.89 0 l
o
np
42.71 208.08 m
528.89 0 l
o
np
42.71 226.57 m
528.89 0 l
o
np
54.50 149.59 m
0 80.64 l
o
np
66.75 149.59 m
0 80.64 l
o
np
79.01 149.59 m
0 80.64 l
o
np
90.08 149.59 m
0 80.64 l
o
np
102.34 149.59 m
0 80.64 l
o
np
114.20 149.59 m
0 80.64 l
o
np
126.46 149.59 m
0 80.64 l
o
np
138.32 149.59 m
0 80.64 l
o
np
150.58 149.59 m
0 80.64 l
o
np
162.84 149.59 m
0 80.64 l
o
np
174.70 149.59 m
0 80.64 l
o
np
186.96 149.59 m
0 80.64 l
o
np
198.82 149.59 m
0 80.64 l
o
np
211.07 149.59 m
0 80.64 l
o
np
223.33 149.59 m
0 80.64 l
o
np
234.40 149.59 m
0 80.64 l
o
np
246.66 149.59 m
0 80.64 l
o
np
258.52 149.59 m
0 80.64 l
o
np
270.78 149.59 m
0 80.64 l
o
np
282.64 149.59 m
0 80.64 l
o
np
294.90 149.59 m
0 80.64 l
o
np
307.16 149.59 m
0 80.64 l
o
np
319.02 149.59 m
0 80.64 l
o
np
331.28 149.59 m
0 80.64 l
o
np
343.14 149.59 m
0 80.64 l
o
np
355.40 149.59 m
0 80.64 l
o
np
367.65 149.59 m
0 80.64 l
o
np
378.72 149.59 m
0 80.64 l
o
np
390.98 149.59 m
0 80.64 l
o
np
402.84 149.59 m
0 80.64 l
o
np
415.10 149.59 m
0 80.64 l
o
np
426.96 149.59 m
0 80.64 l
o
np
439.22 149.59 m
0 80.64 l
o
np
451.48 149.59 m
0 80.64 l
o
np
463.34 149.59 m
0 80.64 l
o
np
475.60 149.59 m
0 80.64 l
o
np
487.46 149.59 m
0 80.64 l
o
np
499.72 149.59 m
0 80.64 l
o
np
511.97 149.59 m
0 80.64 l
o
np
523.44 149.59 m
0 80.64 l
o
np
535.70 149.59 m
0 80.64 l
o
np
547.56 149.59 m
0 80.64 l
o
np
559.82 149.59 m
0 80.64 l
o
/bg { 0 0 0 srgb } def
0 0 0 srgb
0.71 setlinewidth
[] 0 setdash
1 setlinecap
246.66 226.57 1.95 c p3
258.52 186.23 1.95 c p3
270.78 222.16 1.95 c p3
282.64 207.19 1.95 c p3
294.90 185.88 1.95 c p3
307.16 168.81 1.95 c p3
319.02 166.51 1.95 c p3
331.28 165.51 1.95 c p3
343.14 161.45 1.95 c p3
355.40 158.60 1.95 c p3
367.65 164.67 1.95 c p3
378.72 158.80 1.95 c p3
390.98 156.70 1.95 c p3
402.84 157.84 1.95 c p3
415.10 155.75 1.95 c p3
426.96 159.26 1.95 c p3
439.22 159.37 1.95 c p3
451.48 156.58 1.95 c p3
463.34 158.31 1.95 c p3
475.60 155.18 1.95 c p3
487.46 155.08 1.95 c p3
499.72 158.03 1.95 c p3
511.97 154.61 1.95 c p3
523.44 153.26 1.95 c p3
535.70 156.47 1.95 c p3
547.56 153.79 1.95 c p3
1.07 setlinewidth
[] 0 setdash
0 setlinecap
1.00 setmiterlimit
np
246.66 226.57 m
11.86 -40.34 l
12.26 35.93 l
11.86 -14.97 l
12.26 -21.31 l
12.26 -17.07 l
11.86 -2.30 l
12.26 -1.00 l
11.86 -4.06 l
12.26 -2.85 l
12.25 6.07 l
11.07 -5.87 l
12.26 -2.10 l
11.86 1.14 l
12.26 -2.09 l
11.86 3.51 l
12.26 0.11 l
12.26 -2.79 l
11.86 1.73 l
12.26 -3.13 l
11.86 -0.10 l
12.26 2.95 l
12.25 -3.42 l
11.47 -1.35 l
12.26 3.21 l
11.86 -2.68 l
o
0.4980 0.4980 0.4980 srgb
1 setlinecap
10.00 setmiterlimit
42.71 149.59 528.88 80.64 r p1
0.00 0.00 595.28 496.06 cl
42.71 62.98 571.60 143.62 cl
/bg { 1 1 1 srgb } def
42.71 62.98 528.88 80.64 r p2
0.9804 0.9804 0.9804 srgb
1.07 setlinewidth
[] 0 setdash
0 setlinecap
1 setlinejoin
10.00 setmiterlimit
np
42.71 75.24 m
528.89 0 l
o
np
42.71 93.73 m
528.89 0 l
o
np
42.71 112.22 m
528.89 0 l
o
np
42.71 130.71 m
528.89 0 l
o
np
48.37 62.98 m
0 80.64 l
o
np
60.63 62.98 m
0 80.64 l
o
np
72.88 62.98 m
0 80.64 l
o
np
84.55 62.98 m
0 80.64 l
o
np
96.21 62.98 m
0 80.64 l
o
np
108.27 62.98 m
0 80.64 l
o
np
120.33 62.98 m
0 80.64 l
o
np
132.39 62.98 m
0 80.64 l
o
np
144.45 62.98 m
0 80.64 l
o
np
156.71 62.98 m
0 80.64 l
o
np
168.77 62.98 m
0 80.64 l
o
np
180.83 62.98 m
0 80.64 l
o
np
192.89 62.98 m
0 80.64 l
o
np
204.95 62.98 m
0 80.64 l
o
np
217.20 62.98 m
0 80.64 l
o
np
228.87 62.98 m
0 80.64 l
o
np
240.53 62.98 m
0 80.64 l
o
np
252.59 62.98 m
0 80.64 l
o
np
264.65 62.98 m
0 80.64 l
o
np
276.71 62.98 m
0 80.64 l
o
np
288.77 62.98 m
0 80.64 l
o
np
301.03 62.98 m
0 80.64 l
o
np
313.09 62.98 m
0 80.64 l
o
np
325.15 62.98 m
0 80.64 l
o
np
337.21 62.98 m
0 80.64 l
o
np
349.27 62.98 m
0 80.64 l
o
np
361.52 62.98 m
0 80.64 l
o
np
373.19 62.98 m
0 80.64 l
o
np
384.85 62.98 m
0 80.64 l
o
np
396.91 62.98 m
0 80.64 l
o
np
408.97 62.98 m
0 80.64 l
o
np
421.03 62.98 m
0 80.64 l
o
np
433.09 62.98 m
0 80.64 l
o
np
445.35 62.98 m
0 80.64 l
o
np
457.41 62.98 m
0 80.64 l
o
np
469.47 62.98 m
0 80.64 l
o
np
481.53 62.98 m
0 80.64 l
o
np
493.59 62.98 m
0 80.64 l
o
np
505.84 62.98 m
0 80.64 l
o
np
517.71 62.98 m
0 80.64 l
o
np
529.57 62.98 m
0 80.64 l
o
np
541.63 62.98 m
0 80.64 l
o
np
553.69 62.98 m
0 80.64 l
o
np
565.94 62.98 m
0 80.64 l
o
0.8980 0.8980 0.8980 srgb
0.43 setlinewidth
[] 0 setdash
np
42.71 66.00 m
528.89 0 l
o
np
42.71 84.48 m
528.89 0 l
o
np
42.71 102.97 m
528.89 0 l
o
np
42.71 121.46 m
528.89 0 l
o
np
42.71 139.95 m
528.89 0 l
o
np
54.50 62.98 m
0 80.64 l
o
np
66.75 62.98 m
0 80.64 l
o
np
79.01 62.98 m
0 80.64 l
o
np
90.08 62.98 m
0 80.64 l
o
np
102.34 62.98 m
0 80.64 l
o
np
114.20 62.98 m
0 80.64 l
o
np
126.46 62.98 m
0 80.64 l
o
np
138.32 62.98 m
0 80.64 l
o
np
150.58 62.98 m
0 80.64 l
o
np
162.84 62.98 m
0 80.64 l
o
np
174.70 62.98 m
0 80.64 l
o
np
186.96 62.98 m
0 80.64 l
o
np
198.82 62.98 m
0 80.64 l
o
np
211.07 62.98 m
0 80.64 l
o
np
223.33 62.98 m
0 80.64 l
o
np
234.40 62.98 m
0 80.64 l
o
np
246.66 62.98 m
0 80.64 l
o
np
258.52 62.98 m
0 80.64 l
o
np
270.78 62.98 m
0 80.64 l
o
np
282.64 62.98 m
0 80.64 l
o
np
294.90 62.98 m
0 80.64 l
o
np
307.16 62.98 m
0 80.64 l
o
np
319.02 62.98 m
0 80.64 l
o
np
331.28 62.98 m
0 80.64 l
o
np
343.14 62.98 m
0 80.64 l
o
np
355.40 62.98 m
0 80.64 l
o
np
367.65 62.98 m
0 80.64 l
o
np
378.72 62.98 m
0 80.64 l
o
np
390.98 62.98 m
0 80.64 l
o
np
402.84 62.98 m
0 80.64 l
o
np
415.10 62.98 m
0 80.64 l
o
np
426.96 62.98 m
0 80.64 l
o
np
439.22 62.98 m
0 80.64 l
o
np
451.48 62.98 m
0 80.64 l
o
np
463.34 62.98 m
0 80.64 l
o
np
475.60 62.98 m
0 80.64 l
o
np
487.46 62.98 m
0 80.64 l
o
np
499.72 62.98 m
0 80.64 l
o
np
511.97 62.98 m
0 80.64 l
o
np
523.44 62.98 m
0 80.64 l
o
np
535.70 62.98 m
0 80.64 l
o
np
547.56 62.98 m
0 80.64 l
o
np
559.82 62.98 m
0 80.64 l
o
/bg { 0 0 0 srgb } def
0 0 0 srgb
0.71 setlinewidth
[] 0 setdash
1 setlinecap
66.75 139.95 1.95 c p3
79.01 83.93 1.95 c p3
90.08 80.75 1.95 c p3
102.34 79.31 1.95 c p3
114.20 79.29 1.95 c p3
126.46 78.55 1.95 c p3
138.32 77.90 1.95 c p3
150.58 77.86 1.95 c p3
162.84 76.78 1.95 c p3
174.70 77.47 1.95 c p3
186.96 77.09 1.95 c p3
198.82 77.36 1.95 c p3
211.07 78.80 1.95 c p3
223.33 76.88 1.95 c p3
234.40 77.41 1.95 c p3
246.66 76.48 1.95 c p3
258.52 91.00 1.95 c p3
270.78 83.74 1.95 c p3
282.64 83.50 1.95 c p3
294.90 83.69 1.95 c p3
307.16 82.35 1.95 c p3
319.02 82.43 1.95 c p3
331.28 82.66 1.95 c p3
343.14 82.27 1.95 c p3
355.40 81.80 1.95 c p3
367.65 84.56 1.95 c p3
378.72 82.23 1.95 c p3
390.98 83.52 1.95 c p3
402.84 84.16 1.95 c p3
415.10 83.01 1.95 c p3
426.96 84.42 1.95 c p3
439.22 84.95 1.95 c p3
451.48 82.91 1.95 c p3
463.34 84.16 1.95 c p3
475.60 84.18 1.95 c p3
487.46 85.00 1.95 c p3
499.72 83.85 1.95 c p3
511.97 82.89 1.95 c p3
523.44 79.06 1.95 c p3
535.70 86.36 1.95 c p3
547.56 83.73 1.95 c p3
1.07 setlinewidth
[] 0 setdash
0 setlinecap
1.00 setmiterlimit
np
66.75 139.95 m
12.26 -56.02 l
11.07 -3.18 l
12.26 -1.44 l
11.86 -0.02 l
12.26 -0.74 l
11.86 -0.65 l
12.26 -0.04 l
12.26 -1.08 l
11.86 0.69 l
12.26 -0.38 l
11.86 0.27 l
12.25 1.44 l
12.26 -1.92 l
11.07 0.53 l
12.26 -0.93 l
11.86 14.52 l
12.26 -7.26 l
11.86 -0.24 l
12.26 0.19 l
12.26 -1.34 l
11.86 0.08 l
12.26 0.23 l
11.86 -0.39 l
12.26 -0.47 l
12.25 2.76 l
11.07 -2.33 l
12.26 1.29 l
11.86 0.64 l
12.26 -1.15 l
11.86 1.41 l
12.26 0.53 l
12.26 -2.04 l
11.86 1.25 l
12.26 0.02 l
11.86 0.82 l
12.26 -1.15 l
12.25 -0.96 l
11.47 -3.83 l
12.26 7.30 l
11.86 -2.63 l
o
0.4980 0.4980 0.4980 srgb
1 setlinecap
10.00 setmiterlimit
42.71 62.98 528.88 80.64 r p1
0.00 0.00 595.28 496.06 cl
0.00 0.00 595.28 496.06 cl
0.00 0.00 595.28 496.06 cl
0.00 0.00 595.28 496.06 cl
0.00 0.00 595.28 496.06 cl
0.00 0.00 595.28 496.06 cl
/Font1 findfont 8 s
0 0 0 srgb
37.33 409.59 (0.00) 1 0 t
37.33 428.08 (0.25) 1 0 t
37.33 446.57 (0.50) 1 0 t
37.33 465.06 (0.75) 1 0 t
37.33 483.55 (1.00) 1 0 t
0.00 0.00 595.28 496.06 cl
0.00 0.00 595.28 496.06 cl
0 0 0 srgb
1.07 setlinewidth
[] 0 setdash
0 setlinecap
1 setlinejoin
10.00 setmiterlimit
np
39.73 412.46 m
2.98 0 l
o
np
39.73 430.95 m
2.98 0 l
o
np
39.73 449.44 m
2.98 0 l
o
np
39.73 467.93 m
2.98 0 l
o
np
39.73 486.42 m
2.98 0 l
o
0.00 0.00 595.28 496.06 cl
0.00 0.00 595.28 496.06 cl
0.00 0.00 595.28 496.06 cl
0.00 0.00 595.28 496.06 cl
0.00 0.00 595.28 496.06 cl
0.00 0.00 595.28 496.06 cl
0.00 0.00 595.28 496.06 cl
0.00 0.00 595.28 496.06 cl
/Font1 findfont 8 s
0 0 0 srgb
37.33 322.97 (0.00) 1 0 t
37.33 341.46 (0.25) 1 0 t
37.33 359.95 (0.50) 1 0 t
37.33 378.44 (0.75) 1 0 t
37.33 396.93 (1.00) 1 0 t
0.00 0.00 595.28 496.06 cl
0.00 0.00 595.28 496.06 cl
0 0 0 srgb
1.07 setlinewidth
[] 0 setdash
0 setlinecap
1 setlinejoin
10.00 setmiterlimit
np
39.73 325.85 m
2.98 0 l
o
np
39.73 344.34 m
2.98 0 l
o
np
39.73 362.82 m
2.98 0 l
o
np
39.73 381.31 m
2.98 0 l
o
np
39.73 399.80 m
2.98 0 l
o
0.00 0.00 595.28 496.06 cl
0.00 0.00 595.28 496.06 cl
0.00 0.00 595.28 496.06 cl
0.00 0.00 595.28 496.06 cl
0.00 0.00 595.28 496.06 cl
0.00 0.00 595.28 496.06 cl
0.00 0.00 595.28 496.06 cl
0.00 0.00 595.28 496.06 cl
/Font1 findfont 8 s
0 0 0 srgb
37.33 236.36 (0.00) 1 0 t
37.33 254.85 (0.25) 1 0 t
37.33 273.34 (0.50) 1 0 t
37.33 291.82 (0.75) 1 0 t
37.33 310.31 (1.00) 1 0 t
0.00 0.00 595.28 496.06 cl
0.00 0.00 595.28 496.06 cl
0 0 0 srgb
1.07 setlinewidth
[] 0 setdash
0 setlinecap
1 setlinejoin
10.00 setmiterlimit
np
39.73 239.23 m
2.98 0 l
o
np
39.73 257.72 m
2.98 0 l
o
np
39.73 276.21 m
2.98 0 l
o
np
39.73 294.70 m
2.98 0 l
o
np
39.73 313.19 m
2.98 0 l
o
0.00 0.00 595.28 496.06 cl
0.00 0.00 595.28 496.06 cl
0.00 0.00 595.28 496.06 cl
0.00 0.00 595.28 496.06 cl
0.00 0.00 595.28 496.06 cl
0.00 0.00 595.28 496.06 cl
0.00 0.00 595.28 496.06 cl
0.00 0.00 595.28 496.06 cl
/Font1 findfont 8 s
0 0 0 srgb
37.33 149.74 (0.00) 1 0 t
37.33 168.23 (0.25) 1 0 t
37.33 186.72 (0.50) 1 0 t
37.33 205.21 (0.75) 1 0 t
37.33 223.70 (1.00) 1 0 t
0.00 0.00 595.28 496.06 cl
0.00 0.00 595.28 496.06 cl
0 0 0 srgb
1.07 setlinewidth
[] 0 setdash
0 setlinecap
1 setlinejoin
10.00 setmiterlimit
np
39.73 152.61 m
2.98 0 l
o
np
39.73 171.10 m
2.98 0 l
o
np
39.73 189.59 m
2.98 0 l
o
np
39.73 208.08 m
2.98 0 l
o
np
39.73 226.57 m
2.98 0 l
o
0.00 0.00 595.28 496.06 cl
0.00 0.00 595.28 496.06 cl
0.00 0.00 595.28 496.06 cl
0.00 0.00 595.28 496.06 cl
0.00 0.00 595.28 496.06 cl
0.00 0.00 595.28 496.06 cl
0.00 0.00 595.28 496.06 cl
0.00 0.00 595.28 496.06 cl
/Font1 findfont 8 s
0 0 0 srgb
37.33 63.12 (0.00) 1 0 t
37.33 81.61 (0.25) 1 0 t
37.33 100.10 (0.50) 1 0 t
37.33 118.59 (0.75) 1 0 t
37.33 137.08 (1.00) 1 0 t
0.00 0.00 595.28 496.06 cl
0.00 0.00 595.28 496.06 cl
0 0 0 srgb
1.07 setlinewidth
[] 0 setdash
0 setlinecap
1 setlinejoin
10.00 setmiterlimit
np
39.73 66.00 m
2.98 0 l
o
np
39.73 84.48 m
2.98 0 l
o
np
39.73 102.97 m
2.98 0 l
o
np
39.73 121.46 m
2.98 0 l
o
np
39.73 139.95 m
2.98 0 l
o
0.00 0.00 595.28 496.06 cl
0.00 0.00 595.28 496.06 cl
0.00 0.00 595.28 496.06 cl
571.60 409.45 589.30 490.09 cl
/bg { 1 1 1 srgb } def
0.4980 0.4980 0.4980 srgb
0.43 setlinewidth
[] 0 setdash
1 setlinecap
1 setlinejoin
10.00 setmiterlimit
571.60 409.45 17.70 80.64 r p3
/Font1 findfont 8 s
0.1020 0.1020 0.1020 srgb
577.58 460.88 (fr) -90.00 ta
-0.080 (ance) tb gr
571.60 409.45 589.30 490.09 cl
0.00 0.00 595.28 496.06 cl
571.60 322.83 589.30 403.47 cl
/bg { 1 1 1 srgb } def
0.4980 0.4980 0.4980 srgb
0.43 setlinewidth
[] 0 setdash
1 setlinecap
1 setlinejoin
10.00 setmiterlimit
571.60 322.83 17.70 80.64 r p3
/Font1 findfont 8 s
0.1020 0.1020 0.1020 srgb
577.58 363.15 (gameofthrones) .5 -90.00 t
571.60 322.83 589.30 403.47 cl
0.00 0.00 595.28 496.06 cl
571.60 236.21 589.30 316.85 cl
/bg { 1 1 1 srgb } def
0.4980 0.4980 0.4980 srgb
0.43 setlinewidth
[] 0 setdash
1 setlinecap
1 setlinejoin
10.00 setmiterlimit
571.60 236.21 17.70 80.64 r p3
/Font1 findfont 8 s
0.1020 0.1020 0.1020 srgb
577.58 307.21 (MachineLear) -90.00 ta
0.200 (ning) tb gr
571.60 236.21 589.30 316.85 cl
0.00 0.00 595.28 496.06 cl
571.60 149.59 589.30 230.23 cl
/bg { 1 1 1 srgb } def
0.4980 0.4980 0.4980 srgb
0.43 setlinewidth
[] 0 setdash
1 setlinecap
1 setlinejoin
10.00 setmiterlimit
571.60 149.59 17.70 80.64 r p3
/Font1 findfont 8 s
0.1020 0.1020 0.1020 srgb
577.58 189.91 (podemos) .5 -90.00 t
571.60 149.59 589.30 230.23 cl
0.00 0.00 595.28 496.06 cl
571.60 62.98 589.30 143.62 cl
/bg { 1 1 1 srgb } def
0.4980 0.4980 0.4980 srgb
0.43 setlinewidth
[] 0 setdash
1 setlinecap
1 setlinejoin
10.00 setmiterlimit
571.60 62.98 17.70 80.64 r p3
/Font1 findfont 8 s
0.1020 0.1020 0.1020 srgb
577.58 139.52 (T) -90.00 ta
-0.960 (w) tb
-0.080 (oXChromosomes) tb gr
571.60 62.98 589.30 143.62 cl
0.00 0.00 595.28 496.06 cl
0.00 0.00 595.28 496.06 cl
0.00 0.00 595.28 496.06 cl
0.00 0.00 595.28 496.06 cl
0.00 0.00 595.28 496.06 cl
0.00 0.00 595.28 496.06 cl
0 0 0 srgb
1.07 setlinewidth
[] 0 setdash
0 setlinecap
1 setlinejoin
10.00 setmiterlimit
np
54.50 59.99 m
0 2.99 l
o
np
66.75 59.99 m
0 2.99 l
o
np
79.01 59.99 m
0 2.99 l
o
np
90.08 59.99 m
0 2.99 l
o
np
102.34 59.99 m
0 2.99 l
o
np
114.20 59.99 m
0 2.99 l
o
np
126.46 59.99 m
0 2.99 l
o
np
138.32 59.99 m
0 2.99 l
o
np
150.58 59.99 m
0 2.99 l
o
np
162.84 59.99 m
0 2.99 l
o
np
174.70 59.99 m
0 2.99 l
o
np
186.96 59.99 m
0 2.99 l
o
np
198.82 59.99 m
0 2.99 l
o
np
211.07 59.99 m
0 2.99 l
o
np
223.33 59.99 m
0 2.99 l
o
np
234.40 59.99 m
0 2.99 l
o
np
246.66 59.99 m
0 2.99 l
o
np
258.52 59.99 m
0 2.99 l
o
np
270.78 59.99 m
0 2.99 l
o
np
282.64 59.99 m
0 2.99 l
o
np
294.90 59.99 m
0 2.99 l
o
np
307.16 59.99 m
0 2.99 l
o
np
319.02 59.99 m
0 2.99 l
o
np
331.28 59.99 m
0 2.99 l
o
np
343.14 59.99 m
0 2.99 l
o
np
355.40 59.99 m
0 2.99 l
o
np
367.65 59.99 m
0 2.99 l
o
np
378.72 59.99 m
0 2.99 l
o
np
390.98 59.99 m
0 2.99 l
o
np
402.84 59.99 m
0 2.99 l
o
np
415.10 59.99 m
0 2.99 l
o
np
426.96 59.99 m
0 2.99 l
o
np
439.22 59.99 m
0 2.99 l
o
np
451.48 59.99 m
0 2.99 l
o
np
463.34 59.99 m
0 2.99 l
o
np
475.60 59.99 m
0 2.99 l
o
np
487.46 59.99 m
0 2.99 l
o
np
499.72 59.99 m
0 2.99 l
o
np
511.97 59.99 m
0 2.99 l
o
np
523.44 59.99 m
0 2.99 l
o
np
535.70 59.99 m
0 2.99 l
o
np
547.56 59.99 m
0 2.99 l
o
np
559.82 59.99 m
0 2.99 l
o
0.00 0.00 595.28 496.06 cl
0.00 0.00 595.28 496.06 cl
/Font1 findfont 8 s
0 0 0 srgb
58.56 53.54 (2012-12-01) 1 45.00 t
70.82 53.54 (2013-01-01) 1 45.00 t
83.07 53.54 (2013-02-01) 1 45.00 t
94.14 53.54 (2013-03-01) 1 45.00 t
106.40 53.54 (2013-04-01) 1 45.00 t
118.26 53.54 (2013-05-01) 1 45.00 t
130.52 53.54 (2013-06-01) 1 45.00 t
142.38 53.54 (2013-07-01) 1 45.00 t
154.64 53.54 (2013-08-01) 1 45.00 t
166.90 53.54 (2013-09-01) 1 45.00 t
178.76 53.54 (2013-10-01) 1 45.00 t
191.02 53.54 (2013-11-01) 1 45.00 t
202.88 53.54 (2013-12-01) 1 45.00 t
215.14 53.54 (2014-01-01) 1 45.00 t
227.39 53.54 (2014-02-01) 1 45.00 t
238.47 53.54 (2014-03-01) 1 45.00 t
250.72 53.54 (2014-04-01) 1 45.00 t
262.58 53.54 (2014-05-01) 1 45.00 t
274.84 53.54 (2014-06-01) 1 45.00 t
286.70 53.54 (2014-07-01) 1 45.00 t
298.96 53.54 (2014-08-01) 1 45.00 t
311.22 53.54 (2014-09-01) 1 45.00 t
323.08 53.54 (2014-10-01) 1 45.00 t
335.34 53.54 (2014-11-01) 1 45.00 t
347.20 53.54 (2014-12-01) 1 45.00 t
359.46 53.54 (2015-01-01) 1 45.00 t
371.71 53.54 (2015-02-01) 1 45.00 t
382.79 53.54 (2015-03-01) 1 45.00 t
395.04 53.54 (2015-04-01) 1 45.00 t
406.90 53.54 (2015-05-01) 1 45.00 t
419.16 53.54 (2015-06-01) 1 45.00 t
431.02 53.54 (2015-07-01) 1 45.00 t
443.28 53.54 (2015-08-01) 1 45.00 t
455.54 53.54 (2015-09-01) 1 45.00 t
467.40 53.54 (2015-10-01) 1 45.00 t
479.66 53.54 (2015-11-01) 1 45.00 t
491.52 53.54 (2015-12-01) 1 45.00 t
503.78 53.54 (2016-01-01) 1 45.00 t
516.03 53.54 (2016-02-01) 1 45.00 t
527.50 53.54 (2016-03-01) 1 45.00 t
539.76 53.54 (2016-04-01) 1 45.00 t
551.62 53.54 (2016-05-01) 1 45.00 t
563.88 53.54 (2016-06-01) 1 45.00 t
0.00 0.00 595.28 496.06 cl
0.00 0.00 595.28 496.06 cl
0.00 0.00 595.28 496.06 cl
0.00 0.00 595.28 496.06 cl
/Font1 findfont 12 s
0 0 0 srgb
307.16 8.37 (date) .5 0 t
0.00 0.00 595.28 496.06 cl
0.00 0.00 595.28 496.06 cl
/Font1 findfont 12 s
0 0 0 srgb
16.98 245.52 (contr) 90 ta
0.180 (ib) tb
-0.240 (ution) tb gr
0.00 0.00 595.28 496.06 cl
0.00 0.00 595.28 496.06 cl
0.00 0.00 595.28 496.06 cl
0.00 0.00 595.28 496.06 cl
ep
%%Trailer
%%Pages: 1
%%EOF
