%!PS-Adobe-3.0 EPSF-3.0
%%DocumentNeededResources: font Helvetica
%%+ font Helvetica-Bold
%%+ font Helvetica-Oblique
%%+ font Helvetica-BoldOblique
%%+ font Symbol
%%Title: R Graphics Output
%%Creator: R Software
%%Pages: (atend)
%%BoundingBox: 0 0 595 213
%%EndComments
%%BeginProlog
/bp  { gs sRGB gs } def
% begin .ps.prolog
/gs  { gsave } bind def
/gr  { grestore } bind def
/ep  { showpage gr gr } bind def
/m   { moveto } bind def
/l  { rlineto } bind def
/np  { newpath } bind def
/cp  { closepath } bind def
/f   { fill } bind def
/o   { stroke } bind def
/c   { newpath 0 360 arc } bind def
/r   { 4 2 roll moveto 1 copy 3 -1 roll exch 0 exch rlineto 0 rlineto -1 mul 0 exch rlineto closepath } bind def
/p1  { stroke } bind def
/p2  { gsave bg fill grestore newpath } bind def
/p3  { gsave bg fill grestore stroke } bind def
/p6  { gsave bg eofill grestore newpath } bind def
/p7  { gsave bg eofill grestore stroke } bind def
/t   { 5 -2 roll moveto gsave rotate
       1 index stringwidth pop
       mul neg 0 rmoveto show grestore } bind def
/ta  { 4 -2 roll moveto gsave rotate show } bind def
/tb  { 2 -1 roll 0 rmoveto show } bind def
/cl  { grestore gsave newpath 3 index 3 index moveto 1 index
       4 -1 roll lineto  exch 1 index lineto lineto
       closepath clip newpath } bind def
/rgb { setrgbcolor } bind def
/s   { scalefont setfont } bind def
% end   .ps.prolog
/sRGB { [ /CIEBasedABC
          << /DecodeLMN
               [ { dup 0.03928 le
                        {12.92321 div}
                        {0.055 add 1.055 div 2.4 exp }
                     ifelse
                 } bind dup dup
               ]
             /MatrixLMN [0.412457 0.212673 0.019334
                         0.357576 0.715152 0.119192
                         0.180437 0.072175 0.950301]
             /WhitePoint [0.9505 1.0 1.0890]
           >>
         ] setcolorspace } bind def
/srgb { setcolor } bind def
%%IncludeResource: font Helvetica
/Helvetica findfont
dup length dict begin
  {1 index /FID ne {def} {pop pop} ifelse} forall
  /Encoding ISOLatin1Encoding def
  currentdict
  end
/Font1 exch definefont pop
%%IncludeResource: font Helvetica-Bold
/Helvetica-Bold findfont
dup length dict begin
  {1 index /FID ne {def} {pop pop} ifelse} forall
  /Encoding ISOLatin1Encoding def
  currentdict
  end
/Font2 exch definefont pop
%%IncludeResource: font Helvetica-Oblique
/Helvetica-Oblique findfont
dup length dict begin
  {1 index /FID ne {def} {pop pop} ifelse} forall
  /Encoding ISOLatin1Encoding def
  currentdict
  end
/Font3 exch definefont pop
%%IncludeResource: font Helvetica-BoldOblique
/Helvetica-BoldOblique findfont
dup length dict begin
  {1 index /FID ne {def} {pop pop} ifelse} forall
  /Encoding ISOLatin1Encoding def
  currentdict
  end
/Font4 exch definefont pop
%%IncludeResource: font Symbol
/Symbol findfont
dup length dict begin
  {1 index /FID ne {def} {pop pop} ifelse} forall
  currentdict
  end
/Font5 exch definefont pop
%%EndProlog
%%Page: 1 1
bp
0.00 0.00 595.28 212.60 cl
0.00 0.00 595.28 212.60 cl
0.00 0.00 595.28 212.60 cl
0.00 0.00 595.28 212.60 cl
0.00 0.00 595.28 212.60 cl
0.00 0.00 595.28 212.60 cl
0.00 0.00 595.28 212.60 cl
0.00 0.00 595.28 212.60 cl
0.00 0.00 595.28 212.60 cl
0.00 0.00 595.28 212.60 cl
/bg { 1 1 1 srgb } def
1 1 1 srgb
1.07 setlinewidth
[] 0 setdash
1 setlinecap
1 setlinejoin
10.00 setmiterlimit
0.00 0.00 595.28 212.60 r p3
0.00 0.00 595.28 212.60 cl
0.00 0.00 595.28 212.60 cl
0.00 0.00 595.28 212.60 cl
38.27 53.38 589.30 163.83 cl
/bg { 1 1 1 srgb } def
38.27 53.38 551.03 110.45 r p2
0.9804 0.9804 0.9804 srgb
1.07 setlinewidth
[] 0 setdash
0 setlinecap
1 setlinejoin
10.00 setmiterlimit
np
38.27 73.24 m
551.03 0 l
o
np
38.27 102.91 m
551.03 0 l
o
np
38.27 132.59 m
551.03 0 l
o
np
38.27 162.26 m
551.03 0 l
o
np
44.16 53.38 m
0 110.45 l
o
np
56.93 53.38 m
0 110.45 l
o
np
69.70 53.38 m
0 110.45 l
o
np
81.85 53.38 m
0 110.45 l
o
np
94.00 53.38 m
0 110.45 l
o
np
106.57 53.38 m
0 110.45 l
o
np
119.13 53.38 m
0 110.45 l
o
np
131.70 53.38 m
0 110.45 l
o
np
144.26 53.38 m
0 110.45 l
o
np
157.03 53.38 m
0 110.45 l
o
np
169.60 53.38 m
0 110.45 l
o
np
182.16 53.38 m
0 110.45 l
o
np
194.73 53.38 m
0 110.45 l
o
np
207.29 53.38 m
0 110.45 l
o
np
220.06 53.38 m
0 110.45 l
o
np
232.22 53.38 m
0 110.45 l
o
np
244.37 53.38 m
0 110.45 l
o
np
256.93 53.38 m
0 110.45 l
o
np
269.50 53.38 m
0 110.45 l
o
np
282.06 53.38 m
0 110.45 l
o
np
294.63 53.38 m
0 110.45 l
o
np
307.40 53.38 m
0 110.45 l
o
np
319.96 53.38 m
0 110.45 l
o
np
332.53 53.38 m
0 110.45 l
o
np
345.09 53.38 m
0 110.45 l
o
np
357.66 53.38 m
0 110.45 l
o
np
370.43 53.38 m
0 110.45 l
o
np
382.58 53.38 m
0 110.45 l
o
np
394.73 53.38 m
0 110.45 l
o
np
407.30 53.38 m
0 110.45 l
o
np
419.86 53.38 m
0 110.45 l
o
np
432.43 53.38 m
0 110.45 l
o
np
444.99 53.38 m
0 110.45 l
o
np
457.76 53.38 m
0 110.45 l
o
np
470.33 53.38 m
0 110.45 l
o
np
482.89 53.38 m
0 110.45 l
o
np
495.45 53.38 m
0 110.45 l
o
np
508.02 53.38 m
0 110.45 l
o
np
520.79 53.38 m
0 110.45 l
o
np
533.15 53.38 m
0 110.45 l
o
np
545.51 53.38 m
0 110.45 l
o
np
558.07 53.38 m
0 110.45 l
o
np
570.64 53.38 m
0 110.45 l
o
np
583.41 53.38 m
0 110.45 l
o
0.8980 0.8980 0.8980 srgb
0.43 setlinewidth
[] 0 setdash
np
38.27 58.40 m
551.03 0 l
o
np
38.27 88.08 m
551.03 0 l
o
np
38.27 117.75 m
551.03 0 l
o
np
38.27 147.42 m
551.03 0 l
o
np
50.54 53.38 m
0 110.45 l
o
np
63.31 53.38 m
0 110.45 l
o
np
76.08 53.38 m
0 110.45 l
o
np
87.62 53.38 m
0 110.45 l
o
np
100.39 53.38 m
0 110.45 l
o
np
112.75 53.38 m
0 110.45 l
o
np
125.52 53.38 m
0 110.45 l
o
np
137.88 53.38 m
0 110.45 l
o
np
150.65 53.38 m
0 110.45 l
o
np
163.42 53.38 m
0 110.45 l
o
np
175.78 53.38 m
0 110.45 l
o
np
188.55 53.38 m
0 110.45 l
o
np
200.91 53.38 m
0 110.45 l
o
np
213.68 53.38 m
0 110.45 l
o
np
226.45 53.38 m
0 110.45 l
o
np
237.98 53.38 m
0 110.45 l
o
np
250.75 53.38 m
0 110.45 l
o
np
263.11 53.38 m
0 110.45 l
o
np
275.88 53.38 m
0 110.45 l
o
np
288.24 53.38 m
0 110.45 l
o
np
301.01 53.38 m
0 110.45 l
o
np
313.78 53.38 m
0 110.45 l
o
np
326.14 53.38 m
0 110.45 l
o
np
338.91 53.38 m
0 110.45 l
o
np
351.27 53.38 m
0 110.45 l
o
np
364.04 53.38 m
0 110.45 l
o
np
376.81 53.38 m
0 110.45 l
o
np
388.35 53.38 m
0 110.45 l
o
np
401.12 53.38 m
0 110.45 l
o
np
413.48 53.38 m
0 110.45 l
o
np
426.25 53.38 m
0 110.45 l
o
np
438.60 53.38 m
0 110.45 l
o
np
451.38 53.38 m
0 110.45 l
o
np
464.15 53.38 m
0 110.45 l
o
np
476.50 53.38 m
0 110.45 l
o
np
489.28 53.38 m
0 110.45 l
o
np
501.63 53.38 m
0 110.45 l
o
np
514.40 53.38 m
0 110.45 l
o
np
527.18 53.38 m
0 110.45 l
o
np
539.12 53.38 m
0 110.45 l
o
np
551.89 53.38 m
0 110.45 l
o
np
564.25 53.38 m
0 110.45 l
o
np
577.02 53.38 m
0 110.45 l
o
/bg { 0 0 0 srgb } def
63.31 155.13 2.49 c p2
76.08 156.25 2.49 c p2
87.62 149.29 2.49 c p2
100.39 147.90 2.49 c p2
112.75 158.12 2.49 c p2
125.52 154.11 2.49 c p2
137.88 140.25 2.49 c p2
150.65 151.88 2.49 c p2
163.42 153.53 2.49 c p2
175.78 143.91 2.49 c p2
188.55 133.46 2.49 c p2
200.91 132.78 2.49 c p2
213.68 158.81 2.49 c p2
226.45 127.78 2.49 c p2
237.98 146.00 2.49 c p2
250.75 141.20 2.49 c p2
263.11 102.19 2.49 c p2
275.88 148.44 2.49 c p2
288.24 149.27 2.49 c p2
301.01 147.79 2.49 c p2
313.78 148.92 2.49 c p2
326.14 150.39 2.49 c p2
338.91 104.27 2.49 c p2
351.27 136.17 2.49 c p2
364.04 138.20 2.49 c p2
376.81 137.46 2.49 c p2
388.35 128.39 2.49 c p2
401.12 137.25 2.49 c p2
413.48 135.52 2.49 c p2
426.25 136.71 2.49 c p2
438.60 139.32 2.49 c p2
451.38 141.27 2.49 c p2
464.15 139.50 2.49 c p2
476.50 138.66 2.49 c p2
489.28 131.38 2.49 c p2
501.63 138.46 2.49 c p2
514.40 133.60 2.49 c p2
527.18 136.14 2.49 c p2
539.12 143.66 2.49 c p2
551.89 136.44 2.49 c p2
564.25 135.87 2.49 c p2
np
 63.31 120.00 m
3.35 -5.80 l
-6.70 0 l
cp p2
np
 76.08 118.73 m
3.36 -5.80 l
-6.71 0 l
cp p2
np
 87.62 119.23 m
3.35 -5.80 l
-6.70 0 l
cp p2
np
 100.39 118.87 m
3.35 -5.80 l
-6.70 0 l
cp p2
np
 112.75 112.18 m
3.35 -5.80 l
-6.70 0 l
cp p2
np
 125.52 111.85 m
3.35 -5.81 l
-6.70 0 l
cp p2
np
 137.88 106.29 m
3.35 -5.80 l
-6.70 0 l
cp p2
np
 150.65 110.01 m
3.35 -5.80 l
-6.70 0 l
cp p2
np
 163.42 108.46 m
3.35 -5.80 l
-6.70 0 l
cp p2
np
 175.78 101.59 m
3.35 -5.81 l
-6.70 0 l
cp p2
np
 188.55 105.97 m
3.35 -5.80 l
-6.70 0 l
cp p2
np
 200.91 106.67 m
3.35 -5.80 l
-6.70 0 l
cp p2
np
 213.68 100.13 m
3.35 -5.80 l
-6.70 0 l
cp p2
np
 226.45 114.88 m
3.35 -5.81 l
-6.70 0 l
cp p2
np
 237.98 104.35 m
3.35 -5.81 l
-6.70 0 l
cp p2
np
 250.75 98.17 m
3.35 -5.80 l
-6.70 0 l
cp p2
np
 263.11 103.30 m
3.35 -5.81 l
-6.70 0 l
cp p2
np
 275.88 97.15 m
3.35 -5.81 l
-6.70 0 l
cp p2
np
 288.24 99.08 m
3.35 -5.80 l
-6.70 0 l
cp p2
np
 301.01 100.29 m
3.35 -5.81 l
-6.70 0 l
cp p2
np
 313.78 96.90 m
3.35 -5.80 l
-6.70 0 l
cp p2
np
 326.14 92.72 m
3.35 -5.81 l
-6.70 0 l
cp p2
np
 338.91 95.20 m
3.35 -5.81 l
-6.70 0 l
cp p2
np
 351.27 89.34 m
3.35 -5.80 l
-6.70 0 l
cp p2
np
 364.04 123.29 m
3.35 -5.80 l
-6.70 0 l
cp p2
np
 376.81 91.58 m
3.35 -5.80 l
-6.70 0 l
cp p2
np
 388.35 88.46 m
3.35 -5.80 l
-6.70 0 l
cp p2
np
 401.12 93.34 m
3.35 -5.80 l
-6.70 0 l
cp p2
np
 413.48 87.89 m
3.35 -5.80 l
-6.71 0 l
cp p2
np
 426.25 88.80 m
3.35 -5.80 l
-6.71 0 l
cp p2
np
 438.60 87.98 m
3.36 -5.81 l
-6.71 0 l
cp p2
np
 451.38 89.77 m
3.35 -5.80 l
-6.71 0 l
cp p2
np
 464.15 88.70 m
3.35 -5.81 l
-6.71 0 l
cp p2
np
 476.50 89.17 m
3.36 -5.80 l
-6.71 0 l
cp p2
np
 489.28 129.18 m
3.35 -5.80 l
-6.71 0 l
cp p2
np
 501.63 89.51 m
3.36 -5.81 l
-6.71 0 l
cp p2
np
 514.40 93.96 m
3.36 -5.80 l
-6.71 0 l
cp p2
np
 527.18 93.33 m
3.35 -5.80 l
-6.71 0 l
cp p2
np
 539.12 108.53 m
3.35 -5.81 l
-6.70 0 l
cp p2
np
 551.89 89.07 m
3.35 -5.81 l
-6.70 0 l
cp p2
np
 564.25 92.38 m
3.35 -5.80 l
-6.70 0 l
cp p2
np
 248.26 55.91 m
4.98 0 l
0 4.98 l
-4.98 0 l
cp p2
np
 260.62 66.51 m
4.98 0 l
0 4.98 l
-4.98 0 l
cp p2
np
 273.39 65.13 m
4.98 0 l
0 4.98 l
-4.98 0 l
cp p2
np
 285.75 80.74 m
4.98 0 l
0 4.97 l
-4.98 0 l
cp p2
np
 298.52 115.94 m
4.98 0 l
0 4.97 l
-4.98 0 l
cp p2
np
 311.29 104.04 m
4.98 0 l
0 4.97 l
-4.98 0 l
cp p2
np
 323.65 95.34 m
4.98 0 l
0 4.97 l
-4.98 0 l
cp p2
np
 336.42 96.87 m
4.98 0 l
0 4.98 l
-4.98 0 l
cp p2
np
 348.78 94.04 m
4.98 0 l
0 4.98 l
-4.98 0 l
cp p2
np
 361.55 88.80 m
4.98 0 l
0 4.98 l
-4.98 0 l
cp p2
np
 374.32 92.28 m
4.98 0 l
0 4.98 l
-4.98 0 l
cp p2
np
 385.86 88.08 m
4.97 0 l
0 4.98 l
-4.97 0 l
cp p2
np
 398.63 84.55 m
4.98 0 l
0 4.98 l
-4.98 0 l
cp p2
np
 410.99 82.85 m
4.97 0 l
0 4.98 l
-4.97 0 l
cp p2
np
 423.76 81.60 m
4.97 0 l
0 4.97 l
-4.97 0 l
cp p2
np
 436.12 82.73 m
4.97 0 l
0 4.98 l
-4.97 0 l
cp p2
np
 448.89 94.18 m
4.97 0 l
0 4.97 l
-4.97 0 l
cp p2
np
 461.66 88.90 m
4.97 0 l
0 4.97 l
-4.97 0 l
cp p2
np
 474.02 77.56 m
4.97 0 l
0 4.98 l
-4.97 0 l
cp p2
np
 486.79 74.14 m
4.97 0 l
0 4.98 l
-4.97 0 l
cp p2
np
 499.15 55.91 m
4.97 0 l
0 4.98 l
-4.97 0 l
cp p2
np
 511.92 72.68 m
4.97 0 l
0 4.98 l
-4.97 0 l
cp p2
np
 524.69 73.55 m
4.97 0 l
0 4.98 l
-4.97 0 l
cp p2
np
 536.63 101.22 m
4.98 0 l
0 4.97 l
-4.98 0 l
cp p2
np
 549.40 78.56 m
4.98 0 l
0 4.98 l
-4.98 0 l
cp p2
np
 561.76 79.20 m
4.98 0 l
0 4.97 l
-4.98 0 l
cp p2
0 0 0 srgb
1.07 setlinewidth
[] 0 setdash
1.00 setmiterlimit
np
63.31 155.13 m
12.77 1.12 l
11.54 -6.96 l
12.77 -1.39 l
12.36 10.22 l
12.77 -4.01 l
12.36 -13.86 l
12.77 11.63 l
12.77 1.65 l
12.36 -9.62 l
12.77 -10.45 l
12.36 -0.68 l
12.77 26.03 l
12.77 -31.03 l
11.53 18.22 l
12.77 -4.80 l
12.36 -39.01 l
12.77 46.25 l
12.36 0.83 l
12.77 -1.48 l
12.77 1.13 l
12.36 1.47 l
12.77 -46.12 l
12.36 31.90 l
12.77 2.03 l
12.77 -0.74 l
11.54 -9.07 l
12.77 8.86 l
12.36 -1.73 l
12.77 1.19 l
12.35 2.61 l
12.78 1.95 l
12.77 -1.77 l
12.35 -0.84 l
12.78 -7.28 l
12.35 7.08 l
12.77 -4.86 l
12.78 2.54 l
11.94 7.52 l
12.77 -7.22 l
12.36 -0.57 l
o
1.07 setlinewidth
[ 2.13 2.13] 0 setdash
np
63.31 116.13 m
12.77 -1.27 l
11.54 0.51 l
12.77 -0.37 l
12.36 -6.69 l
12.77 -0.33 l
12.36 -5.56 l
12.77 3.72 l
12.77 -1.55 l
12.36 -6.87 l
12.77 4.38 l
12.36 0.70 l
12.77 -6.54 l
12.77 14.75 l
11.53 -10.53 l
12.77 -6.18 l
12.36 5.13 l
12.77 -6.15 l
12.36 1.93 l
12.77 1.21 l
12.77 -3.39 l
12.36 -4.18 l
12.77 2.48 l
12.36 -5.86 l
12.77 33.95 l
12.77 -31.71 l
11.54 -3.12 l
12.77 4.88 l
12.36 -5.45 l
12.77 0.91 l
12.35 -0.82 l
12.78 1.80 l
12.77 -1.08 l
12.35 0.48 l
12.78 40.00 l
12.35 -39.67 l
12.77 4.45 l
12.78 -0.63 l
11.94 15.20 l
12.77 -19.46 l
12.36 3.31 l
o
1.07 setlinewidth
[ 4.27 2.13] 0 setdash
np
250.75 58.40 m
12.36 10.60 l
12.77 -1.38 l
12.36 15.61 l
12.77 35.20 l
12.77 -11.90 l
12.36 -8.71 l
12.77 1.54 l
12.36 -2.83 l
12.77 -5.24 l
12.77 3.48 l
11.54 -4.20 l
12.77 -3.53 l
12.36 -1.70 l
12.77 -1.25 l
12.35 1.13 l
12.78 11.45 l
12.77 -5.29 l
12.35 -11.33 l
12.78 -3.42 l
12.35 -18.23 l
12.77 16.77 l
12.78 0.87 l
11.94 27.67 l
12.77 -22.66 l
12.36 0.63 l
o
0.4980 0.4980 0.4980 srgb
1.07 setlinewidth
[] 0 setdash
1 setlinecap
10.00 setmiterlimit
38.27 53.38 551.03 110.45 r p1
0.00 0.00 595.28 212.60 cl
0.00 0.00 595.28 212.60 cl
0.00 0.00 595.28 212.60 cl
0.00 0.00 595.28 212.60 cl
0.00 0.00 595.28 212.60 cl
0.00 0.00 595.28 212.60 cl
/Font1 findfont 8 s
0 0 0 srgb
32.89 55.53 (0.0) 1 0 t
32.89 85.21 (0.2) 1 0 t
32.89 114.88 (0.4) 1 0 t
32.89 144.55 (0.6) 1 0 t
0.00 0.00 595.28 212.60 cl
0.00 0.00 595.28 212.60 cl
0 0 0 srgb
1.07 setlinewidth
[] 0 setdash
0 setlinecap
1 setlinejoin
10.00 setmiterlimit
np
35.28 58.40 m
2.99 0 l
o
np
35.28 88.08 m
2.99 0 l
o
np
35.28 117.75 m
2.99 0 l
o
np
35.28 147.42 m
2.99 0 l
o
0.00 0.00 595.28 212.60 cl
0.00 0.00 595.28 212.60 cl
0.00 0.00 595.28 212.60 cl
0.00 0.00 595.28 212.60 cl
0.00 0.00 595.28 212.60 cl
0.00 0.00 595.28 212.60 cl
0.00 0.00 595.28 212.60 cl
0.00 0.00 595.28 212.60 cl
0 0 0 srgb
1.07 setlinewidth
[] 0 setdash
0 setlinecap
1 setlinejoin
10.00 setmiterlimit
np
50.54 50.39 m
0 2.99 l
o
np
63.31 50.39 m
0 2.99 l
o
np
76.08 50.39 m
0 2.99 l
o
np
87.62 50.39 m
0 2.99 l
o
np
100.39 50.39 m
0 2.99 l
o
np
112.75 50.39 m
0 2.99 l
o
np
125.52 50.39 m
0 2.99 l
o
np
137.88 50.39 m
0 2.99 l
o
np
150.65 50.39 m
0 2.99 l
o
np
163.42 50.39 m
0 2.99 l
o
np
175.78 50.39 m
0 2.99 l
o
np
188.55 50.39 m
0 2.99 l
o
np
200.91 50.39 m
0 2.99 l
o
np
213.68 50.39 m
0 2.99 l
o
np
226.45 50.39 m
0 2.99 l
o
np
237.98 50.39 m
0 2.99 l
o
np
250.75 50.39 m
0 2.99 l
o
np
263.11 50.39 m
0 2.99 l
o
np
275.88 50.39 m
0 2.99 l
o
np
288.24 50.39 m
0 2.99 l
o
np
301.01 50.39 m
0 2.99 l
o
np
313.78 50.39 m
0 2.99 l
o
np
326.14 50.39 m
0 2.99 l
o
np
338.91 50.39 m
0 2.99 l
o
np
351.27 50.39 m
0 2.99 l
o
np
364.04 50.39 m
0 2.99 l
o
np
376.81 50.39 m
0 2.99 l
o
np
388.35 50.39 m
0 2.99 l
o
np
401.12 50.39 m
0 2.99 l
o
np
413.48 50.39 m
0 2.99 l
o
np
426.25 50.39 m
0 2.99 l
o
np
438.60 50.39 m
0 2.99 l
o
np
451.38 50.39 m
0 2.99 l
o
np
464.15 50.39 m
0 2.99 l
o
np
476.50 50.39 m
0 2.99 l
o
np
489.28 50.39 m
0 2.99 l
o
np
501.63 50.39 m
0 2.99 l
o
np
514.40 50.39 m
0 2.99 l
o
np
527.18 50.39 m
0 2.99 l
o
np
539.12 50.39 m
0 2.99 l
o
np
551.89 50.39 m
0 2.99 l
o
np
564.25 50.39 m
0 2.99 l
o
np
577.02 50.39 m
0 2.99 l
o
0.00 0.00 595.28 212.60 cl
0.00 0.00 595.28 212.60 cl
/Font1 findfont 8 s
0 0 0 srgb
54.60 43.94 (2012-12) 1 45.00 t
67.38 43.94 (2013-01) 1 45.00 t
80.15 43.94 (2013-02) 1 45.00 t
91.68 43.94 (2013-03) 1 45.00 t
104.45 43.94 (2013-04) 1 45.00 t
116.81 43.94 (2013-05) 1 45.00 t
129.58 43.94 (2013-06) 1 45.00 t
141.94 43.94 (2013-07) 1 45.00 t
154.71 43.94 (2013-08) 1 45.00 t
167.48 43.94 (2013-09) 1 45.00 t
179.84 43.94 (2013-10) 1 45.00 t
192.61 43.94 (2013-11) 1 45.00 t
204.97 43.94 (2013-12) 1 45.00 t
217.74 43.94 (2014-01) 1 45.00 t
230.51 43.94 (2014-02) 1 45.00 t
242.04 43.94 (2014-03) 1 45.00 t
254.81 43.94 (2014-04) 1 45.00 t
267.17 43.94 (2014-05) 1 45.00 t
279.94 43.94 (2014-06) 1 45.00 t
292.30 43.94 (2014-07) 1 45.00 t
305.07 43.94 (2014-08) 1 45.00 t
317.84 43.94 (2014-09) 1 45.00 t
330.20 43.94 (2014-10) 1 45.00 t
342.97 43.94 (2014-11) 1 45.00 t
355.33 43.94 (2014-12) 1 45.00 t
368.10 43.94 (2015-01) 1 45.00 t
380.87 43.94 (2015-02) 1 45.00 t
392.41 43.94 (2015-03) 1 45.00 t
405.18 43.94 (2015-04) 1 45.00 t
417.54 43.94 (2015-05) 1 45.00 t
430.31 43.94 (2015-06) 1 45.00 t
442.67 43.94 (2015-07) 1 45.00 t
455.44 43.94 (2015-08) 1 45.00 t
468.21 43.94 (2015-09) 1 45.00 t
480.57 43.94 (2015-10) 1 45.00 t
493.34 43.94 (2015-11) 1 45.00 t
505.70 43.94 (2015-12) 1 45.00 t
518.47 43.94 (2016-01) 1 45.00 t
531.24 43.94 (2016-02) 1 45.00 t
543.18 43.94 (2016-03) 1 45.00 t
555.95 43.94 (2016-04) 1 45.00 t
568.31 43.94 (2016-05) 1 45.00 t
581.08 43.94 (2016-06) 1 45.00 t
0.00 0.00 595.28 212.60 cl
0.00 0.00 595.28 212.60 cl
0.00 0.00 595.28 212.60 cl
0.00 0.00 595.28 212.60 cl
/Font1 findfont 12 s
0 0 0 srgb
313.78 8.37 (date) .5 0 t
0.00 0.00 595.28 212.60 cl
0.00 0.00 595.28 212.60 cl
/Font1 findfont 12 s
0 0 0 srgb
16.98 80.93 (modular) 90 ta
0.180 (ity) tb gr
0.00 0.00 595.28 212.60 cl
0.00 0.00 595.28 212.60 cl
0.00 0.00 595.28 212.60 cl
0.00 0.00 595.28 212.60 cl
/bg { 1 1 1 srgb } def
203.17 172.33 221.23 25.78 r p2
0.00 0.00 595.28 212.60 cl
0.00 0.00 595.28 212.60 cl
0.00 0.00 595.28 212.60 cl
0.00 0.00 595.28 212.60 cl
0.00 0.00 595.28 212.60 cl
0.00 0.00 595.28 212.60 cl
/bg { 0 0 0 srgb } def
220.38 185.22 2.49 c p2
0.00 0.00 595.28 212.60 cl
0.00 0.00 595.28 212.60 cl
0 0 0 srgb
1.07 setlinewidth
[] 0 setdash
0 setlinecap
1 setlinejoin
10.00 setmiterlimit
np
213.47 185.22 m
13.82 0 l
o
0.00 0.00 595.28 212.60 cl
0.00 0.00 595.28 212.60 cl
0.00 0.00 595.28 212.60 cl
0.00 0.00 595.28 212.60 cl
/bg { 0 0 0 srgb } def
np
 318.93 189.09 m
3.35 -5.80 l
-6.70 0 l
cp p2
0.00 0.00 595.28 212.60 cl
0.00 0.00 595.28 212.60 cl
0 0 0 srgb
1.07 setlinewidth
[ 2.13 2.13] 0 setdash
0 setlinecap
1 setlinejoin
10.00 setmiterlimit
np
312.02 185.22 m
13.82 0 l
o
0.00 0.00 595.28 212.60 cl
0.00 0.00 595.28 212.60 cl
0.00 0.00 595.28 212.60 cl
0.00 0.00 595.28 212.60 cl
/bg { 0 0 0 srgb } def
np
 365.73 182.74 m
4.98 0 l
0 4.97 l
-4.98 0 l
cp p2
0.00 0.00 595.28 212.60 cl
0.00 0.00 595.28 212.60 cl
0 0 0 srgb
1.07 setlinewidth
[ 4.27 2.13] 0 setdash
0 setlinecap
1 setlinejoin
10.00 setmiterlimit
np
361.31 185.22 m
13.82 0 l
o
0.00 0.00 595.28 212.60 cl
0.00 0.00 595.28 212.60 cl
/Font1 findfont 10 s
0 0 0 srgb
231.18 181.63 (MachineLear) 0 ta
0.250 (ning) tb gr
0.00 0.00 595.28 212.60 cl
0.00 0.00 595.28 212.60 cl
/Font1 findfont 10 s
0 0 0 srgb
329.73 181.63 (fr) 0 ta
-0.100 (ance) tb gr
0.00 0.00 595.28 212.60 cl
0.00 0.00 595.28 212.60 cl
/Font1 findfont 10 s
0 0 0 srgb
379.02 181.63 (podemos) 0 0 t
0.00 0.00 595.28 212.60 cl
0.00 0.00 595.28 212.60 cl
0.00 0.00 595.28 212.60 cl
0.00 0.00 595.28 212.60 cl
0.00 0.00 595.28 212.60 cl
0.00 0.00 595.28 212.60 cl
ep
%%Trailer
%%Pages: 1
%%EOF
