%!PS-Adobe-3.0 EPSF-3.0
%%DocumentNeededResources: font Helvetica
%%+ font Helvetica-Bold
%%+ font Helvetica-Oblique
%%+ font Helvetica-BoldOblique
%%+ font Symbol
%%Title: R Graphics Output
%%Creator: R Software
%%Pages: (atend)
%%BoundingBox: 0 0 595 496
%%EndComments
%%BeginProlog
/bp  { gs sRGB gs } def
% begin .ps.prolog
/gs  { gsave } bind def
/gr  { grestore } bind def
/ep  { showpage gr gr } bind def
/m   { moveto } bind def
/l  { rlineto } bind def
/np  { newpath } bind def
/cp  { closepath } bind def
/f   { fill } bind def
/o   { stroke } bind def
/c   { newpath 0 360 arc } bind def
/r   { 4 2 roll moveto 1 copy 3 -1 roll exch 0 exch rlineto 0 rlineto -1 mul 0 exch rlineto closepath } bind def
/p1  { stroke } bind def
/p2  { gsave bg fill grestore newpath } bind def
/p3  { gsave bg fill grestore stroke } bind def
/p6  { gsave bg eofill grestore newpath } bind def
/p7  { gsave bg eofill grestore stroke } bind def
/t   { 5 -2 roll moveto gsave rotate
       1 index stringwidth pop
       mul neg 0 rmoveto show grestore } bind def
/ta  { 4 -2 roll moveto gsave rotate show } bind def
/tb  { 2 -1 roll 0 rmoveto show } bind def
/cl  { grestore gsave newpath 3 index 3 index moveto 1 index
       4 -1 roll lineto  exch 1 index lineto lineto
       closepath clip newpath } bind def
/rgb { setrgbcolor } bind def
/s   { scalefont setfont } bind def
% end   .ps.prolog
/sRGB { [ /CIEBasedABC
          << /DecodeLMN
               [ { dup 0.03928 le
                        {12.92321 div}
                        {0.055 add 1.055 div 2.4 exp }
                     ifelse
                 } bind dup dup
               ]
             /MatrixLMN [0.412457 0.212673 0.019334
                         0.357576 0.715152 0.119192
                         0.180437 0.072175 0.950301]
             /WhitePoint [0.9505 1.0 1.0890]
           >>
         ] setcolorspace } bind def
/srgb { setcolor } bind def
%%IncludeResource: font Helvetica
/Helvetica findfont
dup length dict begin
  {1 index /FID ne {def} {pop pop} ifelse} forall
  /Encoding ISOLatin1Encoding def
  currentdict
  end
/Font1 exch definefont pop
%%IncludeResource: font Helvetica-Bold
/Helvetica-Bold findfont
dup length dict begin
  {1 index /FID ne {def} {pop pop} ifelse} forall
  /Encoding ISOLatin1Encoding def
  currentdict
  end
/Font2 exch definefont pop
%%IncludeResource: font Helvetica-Oblique
/Helvetica-Oblique findfont
dup length dict begin
  {1 index /FID ne {def} {pop pop} ifelse} forall
  /Encoding ISOLatin1Encoding def
  currentdict
  end
/Font3 exch definefont pop
%%IncludeResource: font Helvetica-BoldOblique
/Helvetica-BoldOblique findfont
dup length dict begin
  {1 index /FID ne {def} {pop pop} ifelse} forall
  /Encoding ISOLatin1Encoding def
  currentdict
  end
/Font4 exch definefont pop
%%IncludeResource: font Symbol
/Symbol findfont
dup length dict begin
  {1 index /FID ne {def} {pop pop} ifelse} forall
  currentdict
  end
/Font5 exch definefont pop
%%EndProlog
%%Page: 1 1
bp
0.00 0.00 595.28 496.06 cl
0.00 0.00 595.28 496.06 cl
0.00 0.00 595.28 496.06 cl
0.00 0.00 595.28 496.06 cl
0.00 0.00 595.28 496.06 cl
0.00 0.00 595.28 496.06 cl
0.00 0.00 595.28 496.06 cl
0.00 0.00 595.28 496.06 cl
0.00 0.00 595.28 496.06 cl
0.00 0.00 595.28 496.06 cl
0.00 0.00 595.28 496.06 cl
0.00 0.00 595.28 496.06 cl
0.00 0.00 595.28 496.06 cl
0.00 0.00 595.28 496.06 cl
0.00 0.00 595.28 496.06 cl
0.00 0.00 595.28 496.06 cl
0.00 0.00 595.28 496.06 cl
0.00 0.00 595.28 496.06 cl
/bg { 1 1 1 srgb } def
1 1 1 srgb
1.07 setlinewidth
[] 0 setdash
1 setlinecap
1 setlinejoin
10.00 setmiterlimit
0.00 -0.00 595.28 496.06 r p3
0.00 0.00 595.28 496.06 cl
49.39 409.45 571.60 490.09 cl
/bg { 1 1 1 srgb } def
49.39 409.45 522.21 80.64 r p2
0.9804 0.9804 0.9804 srgb
1.07 setlinewidth
[] 0 setdash
0 setlinecap
1 setlinejoin
10.00 setmiterlimit
np
49.39 419.91 m
522.21 0 l
o
np
49.39 439.22 m
522.21 0 l
o
np
49.39 458.53 m
522.21 0 l
o
np
49.39 477.85 m
522.21 0 l
o
np
54.85 409.45 m
0 80.64 l
o
np
67.03 409.45 m
0 80.64 l
o
np
78.63 409.45 m
0 80.64 l
o
np
90.22 409.45 m
0 80.64 l
o
np
102.21 409.45 m
0 80.64 l
o
np
114.19 409.45 m
0 80.64 l
o
np
126.18 409.45 m
0 80.64 l
o
np
138.16 409.45 m
0 80.64 l
o
np
150.35 409.45 m
0 80.64 l
o
np
162.33 409.45 m
0 80.64 l
o
np
174.32 409.45 m
0 80.64 l
o
np
186.31 409.45 m
0 80.64 l
o
np
198.29 409.45 m
0 80.64 l
o
np
210.48 409.45 m
0 80.64 l
o
np
222.07 409.45 m
0 80.64 l
o
np
233.66 409.45 m
0 80.64 l
o
np
245.65 409.45 m
0 80.64 l
o
np
257.63 409.45 m
0 80.64 l
o
np
269.62 409.45 m
0 80.64 l
o
np
281.61 409.45 m
0 80.64 l
o
np
293.79 409.45 m
0 80.64 l
o
np
305.78 409.45 m
0 80.64 l
o
np
317.76 409.45 m
0 80.64 l
o
np
329.75 409.45 m
0 80.64 l
o
np
341.74 409.45 m
0 80.64 l
o
np
353.92 409.45 m
0 80.64 l
o
np
365.51 409.45 m
0 80.64 l
o
np
377.11 409.45 m
0 80.64 l
o
np
389.09 409.45 m
0 80.64 l
o
np
401.08 409.45 m
0 80.64 l
o
np
413.06 409.45 m
0 80.64 l
o
np
425.05 409.45 m
0 80.64 l
o
np
437.23 409.45 m
0 80.64 l
o
np
449.22 409.45 m
0 80.64 l
o
np
461.21 409.45 m
0 80.64 l
o
np
473.19 409.45 m
0 80.64 l
o
np
485.18 409.45 m
0 80.64 l
o
np
497.36 409.45 m
0 80.64 l
o
np
509.15 409.45 m
0 80.64 l
o
np
520.94 409.45 m
0 80.64 l
o
np
532.93 409.45 m
0 80.64 l
o
np
544.91 409.45 m
0 80.64 l
o
np
556.90 409.45 m
0 80.64 l
o
np
568.89 409.45 m
0 80.64 l
o
0.8980 0.8980 0.8980 srgb
0.43 setlinewidth
[] 0 setdash
np
49.39 410.25 m
522.21 0 l
o
np
49.39 429.57 m
522.21 0 l
o
np
49.39 448.88 m
522.21 0 l
o
np
49.39 468.19 m
522.21 0 l
o
np
49.39 487.50 m
522.21 0 l
o
np
60.94 409.45 m
0 80.64 l
o
np
73.12 409.45 m
0 80.64 l
o
np
84.13 409.45 m
0 80.64 l
o
np
96.31 409.45 m
0 80.64 l
o
np
108.10 409.45 m
0 80.64 l
o
np
120.28 409.45 m
0 80.64 l
o
np
132.07 409.45 m
0 80.64 l
o
np
144.26 409.45 m
0 80.64 l
o
np
156.44 409.45 m
0 80.64 l
o
np
168.23 409.45 m
0 80.64 l
o
np
180.41 409.45 m
0 80.64 l
o
np
192.20 409.45 m
0 80.64 l
o
np
204.38 409.45 m
0 80.64 l
o
np
216.57 409.45 m
0 80.64 l
o
np
227.57 409.45 m
0 80.64 l
o
np
239.75 409.45 m
0 80.64 l
o
np
251.54 409.45 m
0 80.64 l
o
np
263.73 409.45 m
0 80.64 l
o
np
275.52 409.45 m
0 80.64 l
o
np
287.70 409.45 m
0 80.64 l
o
np
299.88 409.45 m
0 80.64 l
o
np
311.67 409.45 m
0 80.64 l
o
np
323.85 409.45 m
0 80.64 l
o
np
335.64 409.45 m
0 80.64 l
o
np
347.83 409.45 m
0 80.64 l
o
np
360.01 409.45 m
0 80.64 l
o
np
371.01 409.45 m
0 80.64 l
o
np
383.20 409.45 m
0 80.64 l
o
np
394.99 409.45 m
0 80.64 l
o
np
407.17 409.45 m
0 80.64 l
o
np
418.96 409.45 m
0 80.64 l
o
np
431.14 409.45 m
0 80.64 l
o
np
443.33 409.45 m
0 80.64 l
o
np
455.11 409.45 m
0 80.64 l
o
np
467.30 409.45 m
0 80.64 l
o
np
479.09 409.45 m
0 80.64 l
o
np
491.27 409.45 m
0 80.64 l
o
np
503.45 409.45 m
0 80.64 l
o
np
514.85 409.45 m
0 80.64 l
o
np
527.03 409.45 m
0 80.64 l
o
np
538.82 409.45 m
0 80.64 l
o
np
551.01 409.45 m
0 80.64 l
o
np
562.80 409.45 m
0 80.64 l
o
/bg { 0 0 0 srgb } def
73.12 435.51 2.49 c p2
84.13 421.18 2.49 c p2
96.31 425.74 2.49 c p2
108.10 432.62 2.49 c p2
120.28 423.04 2.49 c p2
132.07 421.65 2.49 c p2
144.26 419.95 2.49 c p2
156.44 419.21 2.49 c p2
168.23 418.94 2.49 c p2
180.41 420.18 2.49 c p2
192.20 421.07 2.49 c p2
204.38 421.88 2.49 c p2
216.57 423.69 2.49 c p2
227.57 420.57 2.49 c p2
239.75 422.07 2.49 c p2
251.54 422.38 2.49 c p2
263.73 424.85 2.49 c p2
275.52 423.50 2.49 c p2
287.70 430.26 2.49 c p2
299.88 430.07 2.49 c p2
311.67 427.21 2.49 c p2
323.85 429.06 2.49 c p2
335.64 430.99 2.49 c p2
347.83 429.14 2.49 c p2
360.01 477.85 2.49 c p2
371.01 433.43 2.49 c p2
383.20 433.78 2.49 c p2
394.99 433.93 2.49 c p2
407.17 435.94 2.49 c p2
418.96 437.64 2.49 c p2
431.14 442.81 2.49 c p2
443.33 437.17 2.49 c p2
455.11 432.93 2.49 c p2
467.30 434.39 2.49 c p2
479.09 486.42 2.49 c p2
491.27 439.65 2.49 c p2
503.45 443.66 2.49 c p2
514.85 439.96 2.49 c p2
527.03 413.11 2.49 c p2
538.82 443.89 2.49 c p2
0 0 0 srgb
1.07 setlinewidth
[] 0 setdash
1.00 setmiterlimit
np
73.12 435.51 m
11.01 -14.33 l
12.18 4.56 l
11.79 6.88 l
12.18 -9.58 l
11.79 -1.39 l
12.19 -1.70 l
12.18 -0.74 l
11.79 -0.27 l
12.18 1.24 l
11.79 0.89 l
12.18 0.81 l
12.19 1.81 l
11.00 -3.12 l
12.18 1.50 l
11.79 0.31 l
12.19 2.47 l
11.79 -1.35 l
12.18 6.76 l
12.18 -0.19 l
11.79 -2.86 l
12.18 1.85 l
11.79 1.93 l
12.19 -1.85 l
12.18 48.71 l
11.00 -44.42 l
12.19 0.35 l
11.79 0.15 l
12.18 2.01 l
11.79 1.70 l
12.18 5.17 l
12.19 -5.64 l
11.78 -4.24 l
12.19 1.46 l
11.79 52.03 l
12.18 -46.77 l
12.18 4.01 l
11.40 -3.70 l
12.18 -26.85 l
11.79 30.78 l
o
0.4980 0.4980 0.4980 srgb
1 setlinecap
10.00 setmiterlimit
49.39 409.45 522.21 80.64 r p1
0.00 0.00 595.28 496.06 cl
49.39 322.83 571.60 403.47 cl
/bg { 1 1 1 srgb } def
49.39 322.83 522.21 80.64 r p2
0.9804 0.9804 0.9804 srgb
1.07 setlinewidth
[] 0 setdash
0 setlinecap
1 setlinejoin
10.00 setmiterlimit
np
49.39 340.21 m
522.21 0 l
o
np
49.39 368.69 m
522.21 0 l
o
np
49.39 397.17 m
522.21 0 l
o
np
54.85 322.83 m
0 80.64 l
o
np
67.03 322.83 m
0 80.64 l
o
np
78.63 322.83 m
0 80.64 l
o
np
90.22 322.83 m
0 80.64 l
o
np
102.21 322.83 m
0 80.64 l
o
np
114.19 322.83 m
0 80.64 l
o
np
126.18 322.83 m
0 80.64 l
o
np
138.16 322.83 m
0 80.64 l
o
np
150.35 322.83 m
0 80.64 l
o
np
162.33 322.83 m
0 80.64 l
o
np
174.32 322.83 m
0 80.64 l
o
np
186.31 322.83 m
0 80.64 l
o
np
198.29 322.83 m
0 80.64 l
o
np
210.48 322.83 m
0 80.64 l
o
np
222.07 322.83 m
0 80.64 l
o
np
233.66 322.83 m
0 80.64 l
o
np
245.65 322.83 m
0 80.64 l
o
np
257.63 322.83 m
0 80.64 l
o
np
269.62 322.83 m
0 80.64 l
o
np
281.61 322.83 m
0 80.64 l
o
np
293.79 322.83 m
0 80.64 l
o
np
305.78 322.83 m
0 80.64 l
o
np
317.76 322.83 m
0 80.64 l
o
np
329.75 322.83 m
0 80.64 l
o
np
341.74 322.83 m
0 80.64 l
o
np
353.92 322.83 m
0 80.64 l
o
np
365.51 322.83 m
0 80.64 l
o
np
377.11 322.83 m
0 80.64 l
o
np
389.09 322.83 m
0 80.64 l
o
np
401.08 322.83 m
0 80.64 l
o
np
413.06 322.83 m
0 80.64 l
o
np
425.05 322.83 m
0 80.64 l
o
np
437.23 322.83 m
0 80.64 l
o
np
449.22 322.83 m
0 80.64 l
o
np
461.21 322.83 m
0 80.64 l
o
np
473.19 322.83 m
0 80.64 l
o
np
485.18 322.83 m
0 80.64 l
o
np
497.36 322.83 m
0 80.64 l
o
np
509.15 322.83 m
0 80.64 l
o
np
520.94 322.83 m
0 80.64 l
o
np
532.93 322.83 m
0 80.64 l
o
np
544.91 322.83 m
0 80.64 l
o
np
556.90 322.83 m
0 80.64 l
o
np
568.89 322.83 m
0 80.64 l
o
0.8980 0.8980 0.8980 srgb
0.43 setlinewidth
[] 0 setdash
np
49.39 325.98 m
522.21 0 l
o
np
49.39 354.45 m
522.21 0 l
o
np
49.39 382.93 m
522.21 0 l
o
np
60.94 322.83 m
0 80.64 l
o
np
73.12 322.83 m
0 80.64 l
o
np
84.13 322.83 m
0 80.64 l
o
np
96.31 322.83 m
0 80.64 l
o
np
108.10 322.83 m
0 80.64 l
o
np
120.28 322.83 m
0 80.64 l
o
np
132.07 322.83 m
0 80.64 l
o
np
144.26 322.83 m
0 80.64 l
o
np
156.44 322.83 m
0 80.64 l
o
np
168.23 322.83 m
0 80.64 l
o
np
180.41 322.83 m
0 80.64 l
o
np
192.20 322.83 m
0 80.64 l
o
np
204.38 322.83 m
0 80.64 l
o
np
216.57 322.83 m
0 80.64 l
o
np
227.57 322.83 m
0 80.64 l
o
np
239.75 322.83 m
0 80.64 l
o
np
251.54 322.83 m
0 80.64 l
o
np
263.73 322.83 m
0 80.64 l
o
np
275.52 322.83 m
0 80.64 l
o
np
287.70 322.83 m
0 80.64 l
o
np
299.88 322.83 m
0 80.64 l
o
np
311.67 322.83 m
0 80.64 l
o
np
323.85 322.83 m
0 80.64 l
o
np
335.64 322.83 m
0 80.64 l
o
np
347.83 322.83 m
0 80.64 l
o
np
360.01 322.83 m
0 80.64 l
o
np
371.01 322.83 m
0 80.64 l
o
np
383.20 322.83 m
0 80.64 l
o
np
394.99 322.83 m
0 80.64 l
o
np
407.17 322.83 m
0 80.64 l
o
np
418.96 322.83 m
0 80.64 l
o
np
431.14 322.83 m
0 80.64 l
o
np
443.33 322.83 m
0 80.64 l
o
np
455.11 322.83 m
0 80.64 l
o
np
467.30 322.83 m
0 80.64 l
o
np
479.09 322.83 m
0 80.64 l
o
np
491.27 322.83 m
0 80.64 l
o
np
503.45 322.83 m
0 80.64 l
o
np
514.85 322.83 m
0 80.64 l
o
np
527.03 322.83 m
0 80.64 l
o
np
538.82 322.83 m
0 80.64 l
o
np
551.01 322.83 m
0 80.64 l
o
np
562.80 322.83 m
0 80.64 l
o
/bg { 0 0 0 srgb } def
73.12 345.25 2.49 c p2
84.13 339.71 2.49 c p2
96.31 345.35 2.49 c p2
108.10 368.87 2.49 c p2
120.28 355.62 2.49 c p2
132.07 377.14 2.49 c p2
144.26 339.03 2.49 c p2
156.44 335.42 2.49 c p2
168.23 332.58 2.49 c p2
180.41 333.09 2.49 c p2
192.20 333.75 2.49 c p2
204.38 331.51 2.49 c p2
216.57 334.45 2.49 c p2
227.57 333.47 2.49 c p2
239.75 335.42 2.49 c p2
251.54 377.02 2.49 c p2
263.73 365.59 2.49 c p2
275.52 391.10 2.49 c p2
287.70 340.43 2.49 c p2
299.88 334.40 2.49 c p2
311.67 331.86 2.49 c p2
323.85 331.05 2.49 c p2
335.64 330.62 2.49 c p2
347.83 331.31 2.49 c p2
360.01 331.92 2.49 c p2
371.01 331.31 2.49 c p2
383.20 333.37 2.49 c p2
394.99 348.98 2.49 c p2
407.17 363.75 2.49 c p2
418.96 399.80 2.49 c p2
431.14 340.26 2.49 c p2
443.33 334.39 2.49 c p2
455.11 331.04 2.49 c p2
467.30 330.52 2.49 c p2
479.09 330.20 2.49 c p2
491.27 330.54 2.49 c p2
503.45 331.04 2.49 c p2
514.85 331.94 2.49 c p2
527.03 326.49 2.49 c p2
538.82 360.03 2.49 c p2
0 0 0 srgb
1.07 setlinewidth
[] 0 setdash
1.00 setmiterlimit
np
73.12 345.25 m
11.01 -5.54 l
12.18 5.64 l
11.79 23.52 l
12.18 -13.25 l
11.79 21.52 l
12.19 -38.11 l
12.18 -3.61 l
11.79 -2.84 l
12.18 0.51 l
11.79 0.66 l
12.18 -2.24 l
12.19 2.94 l
11.00 -0.98 l
12.18 1.95 l
11.79 41.60 l
12.19 -11.43 l
11.79 25.51 l
12.18 -50.67 l
12.18 -6.03 l
11.79 -2.54 l
12.18 -0.81 l
11.79 -0.43 l
12.19 0.69 l
12.18 0.61 l
11.00 -0.61 l
12.19 2.06 l
11.79 15.61 l
12.18 14.77 l
11.79 36.05 l
12.18 -59.54 l
12.19 -5.87 l
11.78 -3.35 l
12.19 -0.52 l
11.79 -0.32 l
12.18 0.34 l
12.18 0.50 l
11.40 0.90 l
12.18 -5.45 l
11.79 33.54 l
o
0.4980 0.4980 0.4980 srgb
1 setlinecap
10.00 setmiterlimit
49.39 322.83 522.21 80.64 r p1
0.00 0.00 595.28 496.06 cl
49.39 236.21 571.60 316.85 cl
/bg { 1 1 1 srgb } def
49.39 236.21 522.21 80.64 r p2
0.9804 0.9804 0.9804 srgb
1.07 setlinewidth
[] 0 setdash
0 setlinecap
1 setlinejoin
10.00 setmiterlimit
np
49.39 243.75 m
522.21 0 l
o
np
49.39 266.80 m
522.21 0 l
o
np
49.39 289.86 m
522.21 0 l
o
np
49.39 312.91 m
522.21 0 l
o
np
54.85 236.21 m
0 80.64 l
o
np
67.03 236.21 m
0 80.64 l
o
np
78.63 236.21 m
0 80.64 l
o
np
90.22 236.21 m
0 80.64 l
o
np
102.21 236.21 m
0 80.64 l
o
np
114.19 236.21 m
0 80.64 l
o
np
126.18 236.21 m
0 80.64 l
o
np
138.16 236.21 m
0 80.64 l
o
np
150.35 236.21 m
0 80.64 l
o
np
162.33 236.21 m
0 80.64 l
o
np
174.32 236.21 m
0 80.64 l
o
np
186.31 236.21 m
0 80.64 l
o
np
198.29 236.21 m
0 80.64 l
o
np
210.48 236.21 m
0 80.64 l
o
np
222.07 236.21 m
0 80.64 l
o
np
233.66 236.21 m
0 80.64 l
o
np
245.65 236.21 m
0 80.64 l
o
np
257.63 236.21 m
0 80.64 l
o
np
269.62 236.21 m
0 80.64 l
o
np
281.61 236.21 m
0 80.64 l
o
np
293.79 236.21 m
0 80.64 l
o
np
305.78 236.21 m
0 80.64 l
o
np
317.76 236.21 m
0 80.64 l
o
np
329.75 236.21 m
0 80.64 l
o
np
341.74 236.21 m
0 80.64 l
o
np
353.92 236.21 m
0 80.64 l
o
np
365.51 236.21 m
0 80.64 l
o
np
377.11 236.21 m
0 80.64 l
o
np
389.09 236.21 m
0 80.64 l
o
np
401.08 236.21 m
0 80.64 l
o
np
413.06 236.21 m
0 80.64 l
o
np
425.05 236.21 m
0 80.64 l
o
np
437.23 236.21 m
0 80.64 l
o
np
449.22 236.21 m
0 80.64 l
o
np
461.21 236.21 m
0 80.64 l
o
np
473.19 236.21 m
0 80.64 l
o
np
485.18 236.21 m
0 80.64 l
o
np
497.36 236.21 m
0 80.64 l
o
np
509.15 236.21 m
0 80.64 l
o
np
520.94 236.21 m
0 80.64 l
o
np
532.93 236.21 m
0 80.64 l
o
np
544.91 236.21 m
0 80.64 l
o
np
556.90 236.21 m
0 80.64 l
o
np
568.89 236.21 m
0 80.64 l
o
0.8980 0.8980 0.8980 srgb
0.43 setlinewidth
[] 0 setdash
np
49.39 255.28 m
522.21 0 l
o
np
49.39 278.33 m
522.21 0 l
o
np
49.39 301.38 m
522.21 0 l
o
np
60.94 236.21 m
0 80.64 l
o
np
73.12 236.21 m
0 80.64 l
o
np
84.13 236.21 m
0 80.64 l
o
np
96.31 236.21 m
0 80.64 l
o
np
108.10 236.21 m
0 80.64 l
o
np
120.28 236.21 m
0 80.64 l
o
np
132.07 236.21 m
0 80.64 l
o
np
144.26 236.21 m
0 80.64 l
o
np
156.44 236.21 m
0 80.64 l
o
np
168.23 236.21 m
0 80.64 l
o
np
180.41 236.21 m
0 80.64 l
o
np
192.20 236.21 m
0 80.64 l
o
np
204.38 236.21 m
0 80.64 l
o
np
216.57 236.21 m
0 80.64 l
o
np
227.57 236.21 m
0 80.64 l
o
np
239.75 236.21 m
0 80.64 l
o
np
251.54 236.21 m
0 80.64 l
o
np
263.73 236.21 m
0 80.64 l
o
np
275.52 236.21 m
0 80.64 l
o
np
287.70 236.21 m
0 80.64 l
o
np
299.88 236.21 m
0 80.64 l
o
np
311.67 236.21 m
0 80.64 l
o
np
323.85 236.21 m
0 80.64 l
o
np
335.64 236.21 m
0 80.64 l
o
np
347.83 236.21 m
0 80.64 l
o
np
360.01 236.21 m
0 80.64 l
o
np
371.01 236.21 m
0 80.64 l
o
np
383.20 236.21 m
0 80.64 l
o
np
394.99 236.21 m
0 80.64 l
o
np
407.17 236.21 m
0 80.64 l
o
np
418.96 236.21 m
0 80.64 l
o
np
431.14 236.21 m
0 80.64 l
o
np
443.33 236.21 m
0 80.64 l
o
np
455.11 236.21 m
0 80.64 l
o
np
467.30 236.21 m
0 80.64 l
o
np
479.09 236.21 m
0 80.64 l
o
np
491.27 236.21 m
0 80.64 l
o
np
503.45 236.21 m
0 80.64 l
o
np
514.85 236.21 m
0 80.64 l
o
np
527.03 236.21 m
0 80.64 l
o
np
538.82 236.21 m
0 80.64 l
o
np
551.01 236.21 m
0 80.64 l
o
np
562.80 236.21 m
0 80.64 l
o
/bg { 0 0 0 srgb } def
73.12 255.37 2.49 c p2
84.13 247.81 2.49 c p2
96.31 250.85 2.49 c p2
108.10 253.43 2.49 c p2
120.28 249.47 2.49 c p2
132.07 251.13 2.49 c p2
144.26 246.42 2.49 c p2
156.44 243.38 2.49 c p2
168.23 246.42 2.49 c p2
180.41 249.74 2.49 c p2
192.20 251.59 2.49 c p2
204.38 248.08 2.49 c p2
216.57 252.23 2.49 c p2
227.57 254.17 2.49 c p2
239.75 249.84 2.49 c p2
251.54 253.25 2.49 c p2
263.73 259.89 2.49 c p2
275.52 247.81 2.49 c p2
287.70 248.27 2.49 c p2
299.88 250.20 2.49 c p2
311.67 263.21 2.49 c p2
323.85 253.99 2.49 c p2
335.64 258.96 2.49 c p2
347.83 259.15 2.49 c p2
360.01 261.82 2.49 c p2
371.01 259.79 2.49 c p2
383.20 264.68 2.49 c p2
394.99 292.07 2.49 c p2
407.17 269.75 2.49 c p2
418.96 289.76 2.49 c p2
431.14 285.43 2.49 c p2
443.33 273.53 2.49 c p2
455.11 273.07 2.49 c p2
467.30 271.14 2.49 c p2
479.09 278.14 2.49 c p2
491.27 292.90 2.49 c p2
503.45 300.55 2.49 c p2
514.85 287.64 2.49 c p2
527.03 239.88 2.49 c p2
538.82 313.19 2.49 c p2
0 0 0 srgb
1.07 setlinewidth
[] 0 setdash
1.00 setmiterlimit
np
73.12 255.37 m
11.01 -7.56 l
12.18 3.04 l
11.79 2.58 l
12.18 -3.96 l
11.79 1.66 l
12.19 -4.71 l
12.18 -3.04 l
11.79 3.04 l
12.18 3.32 l
11.79 1.85 l
12.18 -3.51 l
12.19 4.15 l
11.00 1.94 l
12.18 -4.33 l
11.79 3.41 l
12.19 6.64 l
11.79 -12.08 l
12.18 0.46 l
12.18 1.93 l
11.79 13.01 l
12.18 -9.22 l
11.79 4.97 l
12.19 0.19 l
12.18 2.67 l
11.00 -2.03 l
12.19 4.89 l
11.79 27.39 l
12.18 -22.32 l
11.79 20.01 l
12.18 -4.33 l
12.19 -11.90 l
11.78 -0.46 l
12.19 -1.93 l
11.79 7.00 l
12.18 14.76 l
12.18 7.65 l
11.40 -12.91 l
12.18 -47.76 l
11.79 73.31 l
o
0.4980 0.4980 0.4980 srgb
1 setlinecap
10.00 setmiterlimit
49.39 236.21 522.21 80.64 r p1
0.00 0.00 595.28 496.06 cl
49.39 149.59 571.60 230.23 cl
/bg { 1 1 1 srgb } def
49.39 149.59 522.21 80.64 r p2
0.9804 0.9804 0.9804 srgb
1.07 setlinewidth
[] 0 setdash
0 setlinecap
1 setlinejoin
10.00 setmiterlimit
np
49.39 163.66 m
522.21 0 l
o
np
49.39 184.51 m
522.21 0 l
o
np
49.39 205.37 m
522.21 0 l
o
np
49.39 226.22 m
522.21 0 l
o
np
54.85 149.59 m
0 80.64 l
o
np
67.03 149.59 m
0 80.64 l
o
np
78.63 149.59 m
0 80.64 l
o
np
90.22 149.59 m
0 80.64 l
o
np
102.21 149.59 m
0 80.64 l
o
np
114.19 149.59 m
0 80.64 l
o
np
126.18 149.59 m
0 80.64 l
o
np
138.16 149.59 m
0 80.64 l
o
np
150.35 149.59 m
0 80.64 l
o
np
162.33 149.59 m
0 80.64 l
o
np
174.32 149.59 m
0 80.64 l
o
np
186.31 149.59 m
0 80.64 l
o
np
198.29 149.59 m
0 80.64 l
o
np
210.48 149.59 m
0 80.64 l
o
np
222.07 149.59 m
0 80.64 l
o
np
233.66 149.59 m
0 80.64 l
o
np
245.65 149.59 m
0 80.64 l
o
np
257.63 149.59 m
0 80.64 l
o
np
269.62 149.59 m
0 80.64 l
o
np
281.61 149.59 m
0 80.64 l
o
np
293.79 149.59 m
0 80.64 l
o
np
305.78 149.59 m
0 80.64 l
o
np
317.76 149.59 m
0 80.64 l
o
np
329.75 149.59 m
0 80.64 l
o
np
341.74 149.59 m
0 80.64 l
o
np
353.92 149.59 m
0 80.64 l
o
np
365.51 149.59 m
0 80.64 l
o
np
377.11 149.59 m
0 80.64 l
o
np
389.09 149.59 m
0 80.64 l
o
np
401.08 149.59 m
0 80.64 l
o
np
413.06 149.59 m
0 80.64 l
o
np
425.05 149.59 m
0 80.64 l
o
np
437.23 149.59 m
0 80.64 l
o
np
449.22 149.59 m
0 80.64 l
o
np
461.21 149.59 m
0 80.64 l
o
np
473.19 149.59 m
0 80.64 l
o
np
485.18 149.59 m
0 80.64 l
o
np
497.36 149.59 m
0 80.64 l
o
np
509.15 149.59 m
0 80.64 l
o
np
520.94 149.59 m
0 80.64 l
o
np
532.93 149.59 m
0 80.64 l
o
np
544.91 149.59 m
0 80.64 l
o
np
556.90 149.59 m
0 80.64 l
o
np
568.89 149.59 m
0 80.64 l
o
0.8980 0.8980 0.8980 srgb
0.43 setlinewidth
[] 0 setdash
np
49.39 153.23 m
522.21 0 l
o
np
49.39 174.08 m
522.21 0 l
o
np
49.39 194.94 m
522.21 0 l
o
np
49.39 215.80 m
522.21 0 l
o
np
60.94 149.59 m
0 80.64 l
o
np
73.12 149.59 m
0 80.64 l
o
np
84.13 149.59 m
0 80.64 l
o
np
96.31 149.59 m
0 80.64 l
o
np
108.10 149.59 m
0 80.64 l
o
np
120.28 149.59 m
0 80.64 l
o
np
132.07 149.59 m
0 80.64 l
o
np
144.26 149.59 m
0 80.64 l
o
np
156.44 149.59 m
0 80.64 l
o
np
168.23 149.59 m
0 80.64 l
o
np
180.41 149.59 m
0 80.64 l
o
np
192.20 149.59 m
0 80.64 l
o
np
204.38 149.59 m
0 80.64 l
o
np
216.57 149.59 m
0 80.64 l
o
np
227.57 149.59 m
0 80.64 l
o
np
239.75 149.59 m
0 80.64 l
o
np
251.54 149.59 m
0 80.64 l
o
np
263.73 149.59 m
0 80.64 l
o
np
275.52 149.59 m
0 80.64 l
o
np
287.70 149.59 m
0 80.64 l
o
np
299.88 149.59 m
0 80.64 l
o
np
311.67 149.59 m
0 80.64 l
o
np
323.85 149.59 m
0 80.64 l
o
np
335.64 149.59 m
0 80.64 l
o
np
347.83 149.59 m
0 80.64 l
o
np
360.01 149.59 m
0 80.64 l
o
np
371.01 149.59 m
0 80.64 l
o
np
383.20 149.59 m
0 80.64 l
o
np
394.99 149.59 m
0 80.64 l
o
np
407.17 149.59 m
0 80.64 l
o
np
418.96 149.59 m
0 80.64 l
o
np
431.14 149.59 m
0 80.64 l
o
np
443.33 149.59 m
0 80.64 l
o
np
455.11 149.59 m
0 80.64 l
o
np
467.30 149.59 m
0 80.64 l
o
np
479.09 149.59 m
0 80.64 l
o
np
491.27 149.59 m
0 80.64 l
o
np
503.45 149.59 m
0 80.64 l
o
np
514.85 149.59 m
0 80.64 l
o
np
527.03 149.59 m
0 80.64 l
o
np
538.82 149.59 m
0 80.64 l
o
np
551.01 149.59 m
0 80.64 l
o
np
562.80 149.59 m
0 80.64 l
o
/bg { 0 0 0 srgb } def
260.58 153.26 2.49 c p2
272.77 153.49 2.49 c p2
284.55 180.24 2.49 c p2
296.74 226.57 2.49 c p2
308.92 184.75 2.49 c p2
320.71 182.18 2.49 c p2
332.89 185.28 2.49 c p2
344.68 172.09 2.49 c p2
356.87 163.48 2.49 c p2
369.05 175.68 2.49 c p2
380.05 161.73 2.49 c p2
392.24 164.58 2.49 c p2
404.03 159.18 2.49 c p2
416.21 161.66 2.49 c p2
428.00 160.86 2.49 c p2
440.18 162.20 2.49 c p2
452.36 158.77 2.49 c p2
464.15 157.20 2.49 c p2
476.34 155.71 2.49 c p2
488.13 153.80 2.49 c p2
500.31 155.54 2.49 c p2
512.49 154.80 2.49 c p2
523.89 153.72 2.49 c p2
536.07 154.96 2.49 c p2
547.86 155.14 2.49 c p2
0 0 0 srgb
1.07 setlinewidth
[] 0 setdash
1.00 setmiterlimit
np
260.58 153.26 m
12.19 0.23 l
11.78 26.75 l
12.19 46.33 l
12.18 -41.82 l
11.79 -2.57 l
12.18 3.10 l
11.79 -13.19 l
12.19 -8.61 l
12.18 12.20 l
11.00 -13.95 l
12.19 2.85 l
11.79 -5.40 l
12.18 2.48 l
11.79 -0.80 l
12.18 1.34 l
12.18 -3.43 l
11.79 -1.57 l
12.19 -1.49 l
11.79 -1.91 l
12.18 1.74 l
12.18 -0.74 l
11.40 -1.08 l
12.18 1.24 l
11.79 0.18 l
o
0.4980 0.4980 0.4980 srgb
1 setlinecap
10.00 setmiterlimit
49.39 149.59 522.21 80.64 r p1
0.00 0.00 595.28 496.06 cl
49.39 62.98 571.60 143.62 cl
/bg { 1 1 1 srgb } def
49.39 62.98 522.21 80.64 r p2
0.9804 0.9804 0.9804 srgb
1.07 setlinewidth
[] 0 setdash
0 setlinecap
1 setlinejoin
10.00 setmiterlimit
np
49.39 74.92 m
522.21 0 l
o
np
49.39 97.88 m
522.21 0 l
o
np
49.39 120.85 m
522.21 0 l
o
np
54.85 62.98 m
0 80.64 l
o
np
67.03 62.98 m
0 80.64 l
o
np
78.63 62.98 m
0 80.64 l
o
np
90.22 62.98 m
0 80.64 l
o
np
102.21 62.98 m
0 80.64 l
o
np
114.19 62.98 m
0 80.64 l
o
np
126.18 62.98 m
0 80.64 l
o
np
138.16 62.98 m
0 80.64 l
o
np
150.35 62.98 m
0 80.64 l
o
np
162.33 62.98 m
0 80.64 l
o
np
174.32 62.98 m
0 80.64 l
o
np
186.31 62.98 m
0 80.64 l
o
np
198.29 62.98 m
0 80.64 l
o
np
210.48 62.98 m
0 80.64 l
o
np
222.07 62.98 m
0 80.64 l
o
np
233.66 62.98 m
0 80.64 l
o
np
245.65 62.98 m
0 80.64 l
o
np
257.63 62.98 m
0 80.64 l
o
np
269.62 62.98 m
0 80.64 l
o
np
281.61 62.98 m
0 80.64 l
o
np
293.79 62.98 m
0 80.64 l
o
np
305.78 62.98 m
0 80.64 l
o
np
317.76 62.98 m
0 80.64 l
o
np
329.75 62.98 m
0 80.64 l
o
np
341.74 62.98 m
0 80.64 l
o
np
353.92 62.98 m
0 80.64 l
o
np
365.51 62.98 m
0 80.64 l
o
np
377.11 62.98 m
0 80.64 l
o
np
389.09 62.98 m
0 80.64 l
o
np
401.08 62.98 m
0 80.64 l
o
np
413.06 62.98 m
0 80.64 l
o
np
425.05 62.98 m
0 80.64 l
o
np
437.23 62.98 m
0 80.64 l
o
np
449.22 62.98 m
0 80.64 l
o
np
461.21 62.98 m
0 80.64 l
o
np
473.19 62.98 m
0 80.64 l
o
np
485.18 62.98 m
0 80.64 l
o
np
497.36 62.98 m
0 80.64 l
o
np
509.15 62.98 m
0 80.64 l
o
np
520.94 62.98 m
0 80.64 l
o
np
532.93 62.98 m
0 80.64 l
o
np
544.91 62.98 m
0 80.64 l
o
np
556.90 62.98 m
0 80.64 l
o
np
568.89 62.98 m
0 80.64 l
o
0.8980 0.8980 0.8980 srgb
0.43 setlinewidth
[] 0 setdash
np
49.39 63.44 m
522.21 0 l
o
np
49.39 86.40 m
522.21 0 l
o
np
49.39 109.36 m
522.21 0 l
o
np
49.39 132.33 m
522.21 0 l
o
np
60.94 62.98 m
0 80.64 l
o
np
73.12 62.98 m
0 80.64 l
o
np
84.13 62.98 m
0 80.64 l
o
np
96.31 62.98 m
0 80.64 l
o
np
108.10 62.98 m
0 80.64 l
o
np
120.28 62.98 m
0 80.64 l
o
np
132.07 62.98 m
0 80.64 l
o
np
144.26 62.98 m
0 80.64 l
o
np
156.44 62.98 m
0 80.64 l
o
np
168.23 62.98 m
0 80.64 l
o
np
180.41 62.98 m
0 80.64 l
o
np
192.20 62.98 m
0 80.64 l
o
np
204.38 62.98 m
0 80.64 l
o
np
216.57 62.98 m
0 80.64 l
o
np
227.57 62.98 m
0 80.64 l
o
np
239.75 62.98 m
0 80.64 l
o
np
251.54 62.98 m
0 80.64 l
o
np
263.73 62.98 m
0 80.64 l
o
np
275.52 62.98 m
0 80.64 l
o
np
287.70 62.98 m
0 80.64 l
o
np
299.88 62.98 m
0 80.64 l
o
np
311.67 62.98 m
0 80.64 l
o
np
323.85 62.98 m
0 80.64 l
o
np
335.64 62.98 m
0 80.64 l
o
np
347.83 62.98 m
0 80.64 l
o
np
360.01 62.98 m
0 80.64 l
o
np
371.01 62.98 m
0 80.64 l
o
np
383.20 62.98 m
0 80.64 l
o
np
394.99 62.98 m
0 80.64 l
o
np
407.17 62.98 m
0 80.64 l
o
np
418.96 62.98 m
0 80.64 l
o
np
431.14 62.98 m
0 80.64 l
o
np
443.33 62.98 m
0 80.64 l
o
np
455.11 62.98 m
0 80.64 l
o
np
467.30 62.98 m
0 80.64 l
o
np
479.09 62.98 m
0 80.64 l
o
np
491.27 62.98 m
0 80.64 l
o
np
503.45 62.98 m
0 80.64 l
o
np
514.85 62.98 m
0 80.64 l
o
np
527.03 62.98 m
0 80.64 l
o
np
538.82 62.98 m
0 80.64 l
o
np
551.01 62.98 m
0 80.64 l
o
np
562.80 62.98 m
0 80.64 l
o
/bg { 0 0 0 srgb } def
73.12 115.30 2.49 c p2
84.13 90.32 2.49 c p2
96.31 86.65 2.49 c p2
108.10 84.20 2.49 c p2
120.28 83.18 2.49 c p2
132.07 81.16 2.49 c p2
144.26 78.32 2.49 c p2
156.44 78.15 2.49 c p2
168.23 74.74 2.49 c p2
180.41 75.92 2.49 c p2
192.20 75.28 2.49 c p2
204.38 74.88 2.49 c p2
216.57 77.39 2.49 c p2
227.57 75.32 2.49 c p2
239.75 75.91 2.49 c p2
251.54 74.60 2.49 c p2
263.73 139.95 2.49 c p2
275.52 119.72 2.49 c p2
287.70 118.44 2.49 c p2
299.88 116.28 2.49 c p2
311.67 116.38 2.49 c p2
323.85 127.47 2.49 c p2
335.64 115.80 2.49 c p2
347.83 115.13 2.49 c p2
360.01 107.62 2.49 c p2
371.01 108.85 2.49 c p2
383.20 111.47 2.49 c p2
394.99 108.14 2.49 c p2
407.17 113.04 2.49 c p2
418.96 104.61 2.49 c p2
431.14 113.24 2.49 c p2
443.33 119.72 2.49 c p2
455.11 105.88 2.49 c p2
467.30 111.28 2.49 c p2
479.09 110.28 2.49 c p2
491.27 118.71 2.49 c p2
503.45 112.19 2.49 c p2
514.85 109.59 2.49 c p2
527.03 66.64 2.49 c p2
538.82 113.12 2.49 c p2
0 0 0 srgb
1.07 setlinewidth
[] 0 setdash
1.00 setmiterlimit
np
73.12 115.30 m
11.01 -24.98 l
12.18 -3.67 l
11.79 -2.45 l
12.18 -1.02 l
11.79 -2.02 l
12.19 -2.84 l
12.18 -0.17 l
11.79 -3.41 l
12.18 1.18 l
11.79 -0.64 l
12.18 -0.40 l
12.19 2.51 l
11.00 -2.07 l
12.18 0.59 l
11.79 -1.31 l
12.19 65.35 l
11.79 -20.23 l
12.18 -1.28 l
12.18 -2.16 l
11.79 0.10 l
12.18 11.09 l
11.79 -11.67 l
12.19 -0.67 l
12.18 -7.51 l
11.00 1.23 l
12.19 2.62 l
11.79 -3.33 l
12.18 4.90 l
11.79 -8.43 l
12.18 8.63 l
12.19 6.48 l
11.78 -13.84 l
12.19 5.40 l
11.79 -1.00 l
12.18 8.43 l
12.18 -6.52 l
11.40 -2.60 l
12.18 -42.95 l
11.79 46.48 l
o
0.4980 0.4980 0.4980 srgb
1 setlinecap
10.00 setmiterlimit
49.39 62.98 522.21 80.64 r p1
0.00 0.00 595.28 496.06 cl
0.00 0.00 595.28 496.06 cl
0.00 0.00 595.28 496.06 cl
0.00 0.00 595.28 496.06 cl
0.00 0.00 595.28 496.06 cl
0.00 0.00 595.28 496.06 cl
/Font1 findfont 8 s
0 0 0 srgb
44.01 407.38 (0) 1 0 t
44.01 426.69 (500) 1 0 t
44.01 446.01 (1000) 1 0 t
44.01 465.32 (1500) 1 0 t
44.01 484.63 (2000) 1 0 t
0.00 0.00 595.28 496.06 cl
0.00 0.00 595.28 496.06 cl
0 0 0 srgb
1.07 setlinewidth
[] 0 setdash
0 setlinecap
1 setlinejoin
10.00 setmiterlimit
np
46.40 410.25 m
2.99 0 l
o
np
46.40 429.57 m
2.99 0 l
o
np
46.40 448.88 m
2.99 0 l
o
np
46.40 468.19 m
2.99 0 l
o
np
46.40 487.50 m
2.99 0 l
o
0.00 0.00 595.28 496.06 cl
0.00 0.00 595.28 496.06 cl
0.00 0.00 595.28 496.06 cl
0.00 0.00 595.28 496.06 cl
0.00 0.00 595.28 496.06 cl
0.00 0.00 595.28 496.06 cl
0.00 0.00 595.28 496.06 cl
0.00 0.00 595.28 496.06 cl
/Font1 findfont 8 s
0 0 0 srgb
44.01 323.10 (0) 1 0 t
44.01 351.58 (10000) 1 0 t
44.01 380.06 (20000) 1 0 t
0.00 0.00 595.28 496.06 cl
0.00 0.00 595.28 496.06 cl
0 0 0 srgb
1.07 setlinewidth
[] 0 setdash
0 setlinecap
1 setlinejoin
10.00 setmiterlimit
np
46.40 325.98 m
2.99 0 l
o
np
46.40 354.45 m
2.99 0 l
o
np
46.40 382.93 m
2.99 0 l
o
0.00 0.00 595.28 496.06 cl
0.00 0.00 595.28 496.06 cl
0.00 0.00 595.28 496.06 cl
0.00 0.00 595.28 496.06 cl
0.00 0.00 595.28 496.06 cl
0.00 0.00 595.28 496.06 cl
0.00 0.00 595.28 496.06 cl
0.00 0.00 595.28 496.06 cl
/Font1 findfont 8 s
0 0 0 srgb
44.01 252.40 (250) 1 0 t
44.01 275.46 (500) 1 0 t
44.01 298.51 (750) 1 0 t
0.00 0.00 595.28 496.06 cl
0.00 0.00 595.28 496.06 cl
0 0 0 srgb
1.07 setlinewidth
[] 0 setdash
0 setlinecap
1 setlinejoin
10.00 setmiterlimit
np
46.40 255.28 m
2.99 0 l
o
np
46.40 278.33 m
2.99 0 l
o
np
46.40 301.38 m
2.99 0 l
o
0.00 0.00 595.28 496.06 cl
0.00 0.00 595.28 496.06 cl
0.00 0.00 595.28 496.06 cl
0.00 0.00 595.28 496.06 cl
0.00 0.00 595.28 496.06 cl
0.00 0.00 595.28 496.06 cl
0.00 0.00 595.28 496.06 cl
0.00 0.00 595.28 496.06 cl
/Font1 findfont 8 s
0 0 0 srgb
44.01 150.36 (0) 1 0 t
44.01 171.21 (2000) 1 0 t
44.01 192.07 (4000) 1 0 t
44.01 212.92 (6000) 1 0 t
0.00 0.00 595.28 496.06 cl
0.00 0.00 595.28 496.06 cl
0 0 0 srgb
1.07 setlinewidth
[] 0 setdash
0 setlinecap
1 setlinejoin
10.00 setmiterlimit
np
46.40 153.23 m
2.99 0 l
o
np
46.40 174.08 m
2.99 0 l
o
np
46.40 194.94 m
2.99 0 l
o
np
46.40 215.80 m
2.99 0 l
o
0.00 0.00 595.28 496.06 cl
0.00 0.00 595.28 496.06 cl
0.00 0.00 595.28 496.06 cl
0.00 0.00 595.28 496.06 cl
0.00 0.00 595.28 496.06 cl
0.00 0.00 595.28 496.06 cl
0.00 0.00 595.28 496.06 cl
0.00 0.00 595.28 496.06 cl
/Font1 findfont 8 s
0 0 0 srgb
44.01 60.56 (0) 1 0 t
44.01 83.53 (5000) 1 0 t
44.01 106.49 (10000) 1 0 t
44.01 129.46 (15000) 1 0 t
0.00 0.00 595.28 496.06 cl
0.00 0.00 595.28 496.06 cl
0 0 0 srgb
1.07 setlinewidth
[] 0 setdash
0 setlinecap
1 setlinejoin
10.00 setmiterlimit
np
46.40 63.44 m
2.99 0 l
o
np
46.40 86.40 m
2.99 0 l
o
np
46.40 109.36 m
2.99 0 l
o
np
46.40 132.33 m
2.99 0 l
o
0.00 0.00 595.28 496.06 cl
0.00 0.00 595.28 496.06 cl
0.00 0.00 595.28 496.06 cl
571.60 409.45 589.30 490.09 cl
/bg { 1 1 1 srgb } def
0.4980 0.4980 0.4980 srgb
0.43 setlinewidth
[] 0 setdash
1 setlinecap
1 setlinejoin
10.00 setmiterlimit
571.60 409.45 17.70 80.64 r p3
/Font1 findfont 8 s
0.1020 0.1020 0.1020 srgb
577.58 460.88 (fr) -90.00 ta
-0.080 (ance) tb gr
571.60 409.45 589.30 490.09 cl
0.00 0.00 595.28 496.06 cl
571.60 322.83 589.30 403.47 cl
/bg { 1 1 1 srgb } def
0.4980 0.4980 0.4980 srgb
0.43 setlinewidth
[] 0 setdash
1 setlinecap
1 setlinejoin
10.00 setmiterlimit
571.60 322.83 17.70 80.64 r p3
/Font1 findfont 8 s
0.1020 0.1020 0.1020 srgb
577.58 363.15 (gameofthrones) .5 -90.00 t
571.60 322.83 589.30 403.47 cl
0.00 0.00 595.28 496.06 cl
571.60 236.21 589.30 316.85 cl
/bg { 1 1 1 srgb } def
0.4980 0.4980 0.4980 srgb
0.43 setlinewidth
[] 0 setdash
1 setlinecap
1 setlinejoin
10.00 setmiterlimit
571.60 236.21 17.70 80.64 r p3
/Font1 findfont 8 s
0.1020 0.1020 0.1020 srgb
577.58 307.21 (MachineLear) -90.00 ta
0.200 (ning) tb gr
571.60 236.21 589.30 316.85 cl
0.00 0.00 595.28 496.06 cl
571.60 149.59 589.30 230.23 cl
/bg { 1 1 1 srgb } def
0.4980 0.4980 0.4980 srgb
0.43 setlinewidth
[] 0 setdash
1 setlinecap
1 setlinejoin
10.00 setmiterlimit
571.60 149.59 17.70 80.64 r p3
/Font1 findfont 8 s
0.1020 0.1020 0.1020 srgb
577.58 189.91 (podemos) .5 -90.00 t
571.60 149.59 589.30 230.23 cl
0.00 0.00 595.28 496.06 cl
571.60 62.98 589.30 143.62 cl
/bg { 1 1 1 srgb } def
0.4980 0.4980 0.4980 srgb
0.43 setlinewidth
[] 0 setdash
1 setlinecap
1 setlinejoin
10.00 setmiterlimit
571.60 62.98 17.70 80.64 r p3
/Font1 findfont 8 s
0.1020 0.1020 0.1020 srgb
577.58 139.52 (T) -90.00 ta
-0.960 (w) tb
-0.080 (oXChromosomes) tb gr
571.60 62.98 589.30 143.62 cl
0.00 0.00 595.28 496.06 cl
0.00 0.00 595.28 496.06 cl
0.00 0.00 595.28 496.06 cl
0.00 0.00 595.28 496.06 cl
0.00 0.00 595.28 496.06 cl
0.00 0.00 595.28 496.06 cl
0 0 0 srgb
1.07 setlinewidth
[] 0 setdash
0 setlinecap
1 setlinejoin
10.00 setmiterlimit
np
60.94 59.99 m
0 2.99 l
o
np
73.12 59.99 m
0 2.99 l
o
np
84.13 59.99 m
0 2.99 l
o
np
96.31 59.99 m
0 2.99 l
o
np
108.10 59.99 m
0 2.99 l
o
np
120.28 59.99 m
0 2.99 l
o
np
132.07 59.99 m
0 2.99 l
o
np
144.26 59.99 m
0 2.99 l
o
np
156.44 59.99 m
0 2.99 l
o
np
168.23 59.99 m
0 2.99 l
o
np
180.41 59.99 m
0 2.99 l
o
np
192.20 59.99 m
0 2.99 l
o
np
204.38 59.99 m
0 2.99 l
o
np
216.57 59.99 m
0 2.99 l
o
np
227.57 59.99 m
0 2.99 l
o
np
239.75 59.99 m
0 2.99 l
o
np
251.54 59.99 m
0 2.99 l
o
np
263.73 59.99 m
0 2.99 l
o
np
275.52 59.99 m
0 2.99 l
o
np
287.70 59.99 m
0 2.99 l
o
np
299.88 59.99 m
0 2.99 l
o
np
311.67 59.99 m
0 2.99 l
o
np
323.85 59.99 m
0 2.99 l
o
np
335.64 59.99 m
0 2.99 l
o
np
347.83 59.99 m
0 2.99 l
o
np
360.01 59.99 m
0 2.99 l
o
np
371.01 59.99 m
0 2.99 l
o
np
383.20 59.99 m
0 2.99 l
o
np
394.99 59.99 m
0 2.99 l
o
np
407.17 59.99 m
0 2.99 l
o
np
418.96 59.99 m
0 2.99 l
o
np
431.14 59.99 m
0 2.99 l
o
np
443.33 59.99 m
0 2.99 l
o
np
455.11 59.99 m
0 2.99 l
o
np
467.30 59.99 m
0 2.99 l
o
np
479.09 59.99 m
0 2.99 l
o
np
491.27 59.99 m
0 2.99 l
o
np
503.45 59.99 m
0 2.99 l
o
np
514.85 59.99 m
0 2.99 l
o
np
527.03 59.99 m
0 2.99 l
o
np
538.82 59.99 m
0 2.99 l
o
np
551.01 59.99 m
0 2.99 l
o
np
562.80 59.99 m
0 2.99 l
o
0.00 0.00 595.28 496.06 cl
0.00 0.00 595.28 496.06 cl
/Font1 findfont 8 s
0 0 0 srgb
65.00 53.54 (2013-01-01) 1 45.00 t
77.19 53.54 (2013-02-01) 1 45.00 t
88.19 53.54 (2013-03-01) 1 45.00 t
100.37 53.54 (2013-04-01) 1 45.00 t
112.16 53.54 (2013-05-01) 1 45.00 t
124.34 53.54 (2013-06-01) 1 45.00 t
136.13 53.54 (2013-07-01) 1 45.00 t
148.32 53.54 (2013-08-01) 1 45.00 t
160.50 53.54 (2013-09-01) 1 45.00 t
172.29 53.54 (2013-10-01) 1 45.00 t
184.47 53.54 (2013-11-01) 1 45.00 t
196.26 53.54 (2013-12-01) 1 45.00 t
208.45 53.54 (2014-01-01) 1 45.00 t
220.63 53.54 (2014-02-01) 1 45.00 t
231.63 53.54 (2014-03-01) 1 45.00 t
243.82 53.54 (2014-04-01) 1 45.00 t
255.60 53.54 (2014-05-01) 1 45.00 t
267.79 53.54 (2014-06-01) 1 45.00 t
279.58 53.54 (2014-07-01) 1 45.00 t
291.76 53.54 (2014-08-01) 1 45.00 t
303.94 53.54 (2014-09-01) 1 45.00 t
315.73 53.54 (2014-10-01) 1 45.00 t
327.92 53.54 (2014-11-01) 1 45.00 t
339.71 53.54 (2014-12-01) 1 45.00 t
351.89 53.54 (2015-01-01) 1 45.00 t
364.07 53.54 (2015-02-01) 1 45.00 t
375.08 53.54 (2015-03-01) 1 45.00 t
387.26 53.54 (2015-04-01) 1 45.00 t
399.05 53.54 (2015-05-01) 1 45.00 t
411.23 53.54 (2015-06-01) 1 45.00 t
423.02 53.54 (2015-07-01) 1 45.00 t
435.20 53.54 (2015-08-01) 1 45.00 t
447.39 53.54 (2015-09-01) 1 45.00 t
459.18 53.54 (2015-10-01) 1 45.00 t
471.36 53.54 (2015-11-01) 1 45.00 t
483.15 53.54 (2015-12-01) 1 45.00 t
495.33 53.54 (2016-01-01) 1 45.00 t
507.52 53.54 (2016-02-01) 1 45.00 t
518.91 53.54 (2016-03-01) 1 45.00 t
531.09 53.54 (2016-04-01) 1 45.00 t
542.88 53.54 (2016-05-01) 1 45.00 t
555.07 53.54 (2016-06-01) 1 45.00 t
566.86 53.54 (2016-07-01) 1 45.00 t
0.00 0.00 595.28 496.06 cl
0.00 0.00 595.28 496.06 cl
0.00 0.00 595.28 496.06 cl
0.00 0.00 595.28 496.06 cl
/Font1 findfont 12 s
0 0 0 srgb
310.49 8.37 (date) .5 0 t
0.00 0.00 595.28 496.06 cl
0.00 0.00 595.28 496.06 cl
/Font1 findfont 12 s
0 0 0 srgb
16.98 276.53 (users) .5 90 t
0.00 0.00 595.28 496.06 cl
0.00 0.00 595.28 496.06 cl
0.00 0.00 595.28 496.06 cl
0.00 0.00 595.28 496.06 cl
ep
%%Trailer
%%Pages: 1
%%EOF
