%!PS-Adobe-3.0 EPSF-3.0
%%DocumentNeededResources: font Helvetica
%%+ font Helvetica-Bold
%%+ font Helvetica-Oblique
%%+ font Helvetica-BoldOblique
%%+ font Symbol
%%Title: R Graphics Output
%%Creator: R Software
%%Pages: (atend)
%%BoundingBox: 0 0 595 198
%%EndComments
%%BeginProlog
/bp  { gs sRGB gs } def
% begin .ps.prolog
/gs  { gsave } bind def
/gr  { grestore } bind def
/ep  { showpage gr gr } bind def
/m   { moveto } bind def
/l  { rlineto } bind def
/np  { newpath } bind def
/cp  { closepath } bind def
/f   { fill } bind def
/o   { stroke } bind def
/c   { newpath 0 360 arc } bind def
/r   { 4 2 roll moveto 1 copy 3 -1 roll exch 0 exch rlineto 0 rlineto -1 mul 0 exch rlineto closepath } bind def
/p1  { stroke } bind def
/p2  { gsave bg fill grestore newpath } bind def
/p3  { gsave bg fill grestore stroke } bind def
/p6  { gsave bg eofill grestore newpath } bind def
/p7  { gsave bg eofill grestore stroke } bind def
/t   { 5 -2 roll moveto gsave rotate
       1 index stringwidth pop
       mul neg 0 rmoveto show grestore } bind def
/ta  { 4 -2 roll moveto gsave rotate show } bind def
/tb  { 2 -1 roll 0 rmoveto show } bind def
/cl  { grestore gsave newpath 3 index 3 index moveto 1 index
       4 -1 roll lineto  exch 1 index lineto lineto
       closepath clip newpath } bind def
/rgb { setrgbcolor } bind def
/s   { scalefont setfont } bind def
% end   .ps.prolog
/sRGB { [ /CIEBasedABC
          << /DecodeLMN
               [ { dup 0.03928 le
                        {12.92321 div}
                        {0.055 add 1.055 div 2.4 exp }
                     ifelse
                 } bind dup dup
               ]
             /MatrixLMN [0.412457 0.212673 0.019334
                         0.357576 0.715152 0.119192
                         0.180437 0.072175 0.950301]
             /WhitePoint [0.9505 1.0 1.0890]
           >>
         ] setcolorspace } bind def
/srgb { setcolor } bind def
%%IncludeResource: font Helvetica
/Helvetica findfont
dup length dict begin
  {1 index /FID ne {def} {pop pop} ifelse} forall
  /Encoding ISOLatin1Encoding def
  currentdict
  end
/Font1 exch definefont pop
%%IncludeResource: font Helvetica-Bold
/Helvetica-Bold findfont
dup length dict begin
  {1 index /FID ne {def} {pop pop} ifelse} forall
  /Encoding ISOLatin1Encoding def
  currentdict
  end
/Font2 exch definefont pop
%%IncludeResource: font Helvetica-Oblique
/Helvetica-Oblique findfont
dup length dict begin
  {1 index /FID ne {def} {pop pop} ifelse} forall
  /Encoding ISOLatin1Encoding def
  currentdict
  end
/Font3 exch definefont pop
%%IncludeResource: font Helvetica-BoldOblique
/Helvetica-BoldOblique findfont
dup length dict begin
  {1 index /FID ne {def} {pop pop} ifelse} forall
  /Encoding ISOLatin1Encoding def
  currentdict
  end
/Font4 exch definefont pop
%%IncludeResource: font Symbol
/Symbol findfont
dup length dict begin
  {1 index /FID ne {def} {pop pop} ifelse} forall
  currentdict
  end
/Font5 exch definefont pop
%%EndProlog
%%Page: 1 1
bp
0.00 0.00 595.28 198.43 cl
0.00 0.00 595.28 198.43 cl
0.00 0.00 595.28 198.43 cl
0.00 0.00 595.28 198.43 cl
0.00 0.00 595.28 198.43 cl
0.00 0.00 595.28 198.43 cl
0.00 0.00 595.28 198.43 cl
0.00 0.00 595.28 198.43 cl
0.00 0.00 595.28 198.43 cl
0.00 0.00 595.28 198.43 cl
0.00 0.00 595.28 198.43 cl
0.00 0.00 595.28 198.43 cl
0.00 0.00 595.28 198.43 cl
0.00 0.00 595.28 198.43 cl
0.00 0.00 595.28 198.43 cl
0.00 0.00 595.28 198.43 cl
0.00 0.00 595.28 198.43 cl
0.00 15.60 595.28 182.83 cl
/bg { 1 1 1 srgb } def
1 1 1 srgb
1.07 setlinewidth
[] 0 setdash
1 setlinecap
1 setlinejoin
10.00 setmiterlimit
0.00 15.60 595.28 167.23 r p3
0.00 0.00 595.28 198.43 cl
49.61 157.71 152.77 176.85 cl
/bg { 1 1 1 srgb } def
0.4980 0.4980 0.4980 srgb
0.43 setlinewidth
[] 0 setdash
1 setlinecap
1 setlinejoin
10.00 setmiterlimit
49.61 157.71 103.16 19.14 r p3
/Font1 findfont 10 s
0.1020 0.1020 0.1020 srgb
87.29 163.69 (fr) 0 ta
-0.100 (ance) tb gr
49.61 157.71 152.77 176.85 cl
0.00 0.00 595.28 198.43 cl
158.74 157.71 261.90 176.85 cl
/bg { 1 1 1 srgb } def
0.4980 0.4980 0.4980 srgb
0.43 setlinewidth
[] 0 setdash
1 setlinecap
1 setlinejoin
10.00 setmiterlimit
158.74 157.71 103.16 19.14 r p3
/Font1 findfont 10 s
0.1020 0.1020 0.1020 srgb
210.32 163.69 (gameofthrones) .5 0 t
158.74 157.71 261.90 176.85 cl
0.00 0.00 595.28 198.43 cl
267.88 157.71 371.03 176.85 cl
/bg { 1 1 1 srgb } def
0.4980 0.4980 0.4980 srgb
0.43 setlinewidth
[] 0 setdash
1 setlinecap
1 setlinejoin
10.00 setmiterlimit
267.88 157.71 103.16 19.14 r p3
/Font1 findfont 10 s
0.1020 0.1020 0.1020 srgb
281.10 163.69 (MachineLear) 0 ta
0.250 (ning) tb gr
267.88 157.71 371.03 176.85 cl
0.00 0.00 595.28 198.43 cl
377.01 157.71 480.16 176.85 cl
/bg { 1 1 1 srgb } def
0.4980 0.4980 0.4980 srgb
0.43 setlinewidth
[] 0 setdash
1 setlinecap
1 setlinejoin
10.00 setmiterlimit
377.01 157.71 103.16 19.14 r p3
/Font1 findfont 10 s
0.1020 0.1020 0.1020 srgb
428.59 163.69 (podemos) .5 0 t
377.01 157.71 480.16 176.85 cl
0.00 0.00 595.28 198.43 cl
486.14 157.71 589.30 176.85 cl
/bg { 1 1 1 srgb } def
0.4980 0.4980 0.4980 srgb
0.43 setlinewidth
[] 0 setdash
1 setlinecap
1 setlinejoin
10.00 setmiterlimit
486.14 157.71 103.16 19.14 r p3
/Font1 findfont 10 s
0.1020 0.1020 0.1020 srgb
492.44 163.69 (T) 0 ta
-1.200 (w) tb
-0.100 (oXChromosomes) tb gr
486.14 157.71 589.30 176.85 cl
0.00 0.00 595.28 198.43 cl
49.61 54.56 152.77 157.71 cl
/bg { 1 1 1 srgb } def
49.61 54.56 103.16 103.16 r p2
0.9804 0.9804 0.9804 srgb
1.07 setlinewidth
[] 0 setdash
0 setlinecap
1 setlinejoin
10.00 setmiterlimit
np
49.61 62.66 m
103.16 0 l
o
np
49.61 98.81 m
103.16 0 l
o
np
49.61 134.95 m
103.16 0 l
o
np
58.58 54.56 m
0 103.15 l
o
np
80.08 54.56 m
0 103.15 l
o
np
101.59 54.56 m
0 103.15 l
o
np
123.10 54.56 m
0 103.15 l
o
np
144.60 54.56 m
0 103.15 l
o
0.8980 0.8980 0.8980 srgb
0.43 setlinewidth
[] 0 setdash
np
49.61 80.73 m
103.16 0 l
o
np
49.61 116.88 m
103.16 0 l
o
np
49.61 153.03 m
103.16 0 l
o
np
69.33 54.56 m
0 103.15 l
o
np
90.84 54.56 m
0 103.15 l
o
np
112.34 54.56 m
0 103.15 l
o
np
133.85 54.56 m
0 103.15 l
o
/bg { 0 0 0 srgb } def
0 0 0 srgb
0.71 setlinewidth
[] 0 setdash
1 setlinecap
114.60 70.04 0.57 c p3
113.23 75.48 0.57 c p3
112.75 78.66 0.57 c p3
112.38 80.92 0.57 c p3
111.96 82.67 0.57 c p3
111.83 84.10 0.57 c p3
111.75 85.31 0.57 c p3
111.48 86.36 0.57 c p3
111.36 87.29 0.57 c p3
111.19 88.11 0.57 c p3
111.04 88.86 0.57 c p3
110.93 89.54 0.57 c p3
110.90 90.17 0.57 c p3
110.89 90.75 0.57 c p3
110.87 91.30 0.57 c p3
110.81 91.80 0.57 c p3
110.64 92.28 0.57 c p3
110.28 92.73 0.57 c p3
110.26 93.15 0.57 c p3
110.21 93.55 0.57 c p3
110.18 93.94 0.57 c p3
110.09 94.30 0.57 c p3
110.08 94.65 0.57 c p3
109.96 94.99 0.57 c p3
109.95 95.31 0.57 c p3
109.87 95.61 0.57 c p3
109.73 95.91 0.57 c p3
109.58 96.20 0.57 c p3
109.51 96.47 0.57 c p3
109.43 96.74 0.57 c p3
109.40 97.24 0.57 c p3
109.39 97.49 0.57 c p3
109.37 97.72 0.57 c p3
109.35 97.95 0.57 c p3
109.30 98.17 0.57 c p3
109.22 98.38 0.57 c p3
109.21 98.59 0.57 c p3
109.14 98.80 0.57 c p3
109.13 98.99 0.57 c p3
109.12 99.19 0.57 c p3
109.09 99.38 0.57 c p3
109.04 99.56 0.57 c p3
108.97 99.74 0.57 c p3
108.96 99.92 0.57 c p3
108.94 100.09 0.57 c p3
108.92 100.26 0.57 c p3
108.90 100.75 0.57 c p3
108.89 100.90 0.57 c p3
108.86 101.05 0.57 c p3
108.80 101.20 0.57 c p3
108.78 101.49 0.57 c p3
108.77 101.77 0.57 c p3
108.74 101.91 0.57 c p3
108.71 102.18 0.57 c p3
108.69 102.43 0.57 c p3
108.66 102.56 0.57 c p3
108.63 102.68 0.57 c p3
108.62 102.93 0.57 c p3
108.59 103.16 0.57 c p3
108.57 103.27 0.57 c p3
108.56 103.39 0.57 c p3
108.53 103.50 0.57 c p3
108.50 103.61 0.57 c p3
108.42 103.72 0.57 c p3
108.38 103.93 0.57 c p3
108.33 104.14 0.57 c p3
108.31 104.24 0.57 c p3
108.29 104.53 0.57 c p3
108.26 104.63 0.57 c p3
108.25 104.72 0.57 c p3
108.23 104.91 0.57 c p3
108.22 105.09 0.57 c p3
108.20 105.18 0.57 c p3
108.17 105.27 0.57 c p3
108.15 105.36 0.57 c p3
108.12 105.45 0.57 c p3
108.10 105.53 0.57 c p3
108.09 105.62 0.57 c p3
108.07 105.70 0.57 c p3
108.01 105.78 0.57 c p3
107.95 105.95 0.57 c p3
107.92 106.03 0.57 c p3
107.91 106.27 0.57 c p3
107.85 106.34 0.57 c p3
107.77 106.64 0.57 c p3
107.71 106.79 0.57 c p3
107.68 106.94 0.57 c p3
107.63 107.08 0.57 c p3
107.62 107.15 0.57 c p3
107.57 107.22 0.57 c p3
107.56 107.28 0.57 c p3
107.54 107.35 0.57 c p3
107.49 107.49 0.57 c p3
107.48 107.62 0.57 c p3
107.45 107.68 0.57 c p3
107.38 107.75 0.57 c p3
107.35 107.81 0.57 c p3
107.34 107.94 0.57 c p3
107.32 108.00 0.57 c p3
107.30 108.06 0.57 c p3
107.26 108.12 0.57 c p3
107.24 108.31 0.57 c p3
107.22 108.37 0.57 c p3
107.21 108.43 0.57 c p3
107.19 108.48 0.57 c p3
107.16 108.54 0.57 c p3
107.13 108.66 0.57 c p3
107.09 108.72 0.57 c p3
107.06 108.77 0.57 c p3
107.04 108.83 0.57 c p3
107.03 108.94 0.57 c p3
107.01 108.99 0.57 c p3
106.98 109.05 0.57 c p3
106.96 109.32 0.57 c p3
106.94 109.42 0.57 c p3
106.93 109.52 0.57 c p3
106.89 109.63 0.57 c p3
106.88 109.68 0.57 c p3
106.86 109.73 0.57 c p3
106.83 109.83 0.57 c p3
106.81 109.88 0.57 c p3
106.73 109.92 0.57 c p3
106.71 109.97 0.57 c p3
106.69 110.07 0.57 c p3
106.67 110.12 0.57 c p3
106.66 110.16 0.57 c p3
106.64 110.26 0.57 c p3
106.62 110.35 0.57 c p3
106.61 110.40 0.57 c p3
106.59 110.44 0.57 c p3
106.57 110.49 0.57 c p3
106.55 110.53 0.57 c p3
106.54 110.58 0.57 c p3
106.50 110.62 0.57 c p3
106.43 110.71 0.57 c p3
106.40 110.80 0.57 c p3
106.29 110.93 0.57 c p3
106.27 111.10 0.57 c p3
106.20 111.14 0.57 c p3
106.18 111.27 0.57 c p3
106.16 111.39 0.57 c p3
106.13 111.47 0.57 c p3
106.09 111.51 0.57 c p3
106.07 111.59 0.57 c p3
106.04 111.67 0.57 c p3
106.02 111.71 0.57 c p3
106.00 111.78 0.57 c p3
105.96 111.90 0.57 c p3
105.94 111.97 0.57 c p3
105.91 112.01 0.57 c p3
105.89 112.05 0.57 c p3
105.83 112.08 0.57 c p3
105.81 112.12 0.57 c p3
105.78 112.23 0.57 c p3
105.76 112.27 0.57 c p3
105.74 112.30 0.57 c p3
105.72 112.34 0.57 c p3
105.70 112.38 0.57 c p3
105.68 112.41 0.57 c p3
105.66 112.48 0.57 c p3
105.64 112.59 0.57 c p3
105.62 112.62 0.57 c p3
105.60 112.66 0.57 c p3
105.58 112.69 0.57 c p3
105.55 112.76 0.57 c p3
105.53 112.86 0.57 c p3
105.49 112.89 0.57 c p3
105.45 112.96 0.57 c p3
105.43 112.99 0.57 c p3
105.39 113.03 0.57 c p3
105.33 113.06 0.57 c p3
105.31 113.09 0.57 c p3
105.29 113.12 0.57 c p3
105.27 113.16 0.57 c p3
105.25 113.19 0.57 c p3
105.19 113.32 0.57 c p3
105.13 113.35 0.57 c p3
105.11 113.41 0.57 c p3
105.05 113.44 0.57 c p3
105.01 113.50 0.57 c p3
104.99 113.60 0.57 c p3
104.97 113.72 0.57 c p3
104.95 113.75 0.57 c p3
104.93 113.81 0.57 c p3
104.91 113.84 0.57 c p3
104.88 113.90 0.57 c p3
104.84 113.92 0.57 c p3
104.76 113.98 0.57 c p3
104.72 114.04 0.57 c p3
104.70 114.10 0.57 c p3
104.65 114.16 0.57 c p3
104.63 114.21 0.57 c p3
104.61 114.24 0.57 c p3
104.59 114.32 0.57 c p3
104.57 114.35 0.57 c p3
104.55 114.38 0.57 c p3
104.53 114.43 0.57 c p3
104.50 114.46 0.57 c p3
104.46 114.57 0.57 c p3
104.44 114.62 0.57 c p3
104.42 114.70 0.57 c p3
104.37 114.78 0.57 c p3
104.35 114.84 0.57 c p3
104.33 114.89 0.57 c p3
104.17 114.94 0.57 c p3
104.13 114.97 0.57 c p3
104.11 114.99 0.57 c p3
104.08 115.04 0.57 c p3
104.06 115.07 0.57 c p3
104.02 115.12 0.57 c p3
103.99 115.14 0.57 c p3
103.97 115.17 0.57 c p3
103.95 115.19 0.57 c p3
103.92 115.24 0.57 c p3
103.90 115.32 0.57 c p3
103.88 115.34 0.57 c p3
103.78 115.37 0.57 c p3
103.74 115.41 0.57 c p3
103.67 115.44 0.57 c p3
103.64 115.46 0.57 c p3
103.62 115.51 0.57 c p3
103.60 115.53 0.57 c p3
103.57 115.56 0.57 c p3
103.52 115.58 0.57 c p3
103.50 115.61 0.57 c p3
103.48 115.63 0.57 c p3
103.43 115.65 0.57 c p3
103.38 115.68 0.57 c p3
103.35 115.70 0.57 c p3
103.31 115.75 0.57 c p3
103.23 115.79 0.57 c p3
103.21 115.84 0.57 c p3
103.13 115.88 0.57 c p3
103.03 115.93 0.57 c p3
103.01 115.97 0.57 c p3
102.98 116.02 0.57 c p3
102.90 116.06 0.57 c p3
102.88 116.11 0.57 c p3
102.83 116.13 0.57 c p3
102.75 116.15 0.57 c p3
102.72 116.20 0.57 c p3
102.62 116.22 0.57 c p3
102.59 116.28 0.57 c p3
102.54 116.35 0.57 c p3
102.48 116.37 0.57 c p3
102.46 116.41 0.57 c p3
102.35 116.46 0.57 c p3
102.32 116.50 0.57 c p3
102.29 116.52 0.57 c p3
102.27 116.54 0.57 c p3
102.24 116.56 0.57 c p3
102.21 116.58 0.57 c p3
102.16 116.62 0.57 c p3
102.13 116.64 0.57 c p3
102.10 116.71 0.57 c p3
102.07 116.75 0.57 c p3
102.04 116.77 0.57 c p3
101.99 116.81 0.57 c p3
101.87 116.83 0.57 c p3
101.82 116.85 0.57 c p3
101.79 116.89 0.57 c p3
101.76 116.93 0.57 c p3
101.73 116.95 0.57 c p3
101.70 116.97 0.57 c p3
101.67 116.99 0.57 c p3
101.61 117.03 0.57 c p3
101.58 117.07 0.57 c p3
101.55 117.11 0.57 c p3
101.49 117.15 0.57 c p3
101.46 117.18 0.57 c p3
101.40 117.20 0.57 c p3
101.37 117.24 0.57 c p3
101.31 117.28 0.57 c p3
101.28 117.30 0.57 c p3
101.22 117.32 0.57 c p3
101.19 117.39 0.57 c p3
101.16 117.43 0.57 c p3
101.00 117.47 0.57 c p3
100.97 117.51 0.57 c p3
100.94 117.53 0.57 c p3
100.91 117.60 0.57 c p3
100.88 117.67 0.57 c p3
100.85 117.69 0.57 c p3
100.81 117.73 0.57 c p3
100.78 117.76 0.57 c p3
100.75 117.78 0.57 c p3
100.72 117.85 0.57 c p3
100.68 117.90 0.57 c p3
100.59 117.92 0.57 c p3
100.55 117.99 0.57 c p3
100.52 118.03 0.57 c p3
100.49 118.11 0.57 c p3
100.45 118.15 0.57 c p3
100.42 118.22 0.57 c p3
100.35 118.27 0.57 c p3
100.32 118.32 0.57 c p3
100.29 118.43 0.57 c p3
100.25 118.52 0.57 c p3
100.22 118.55 0.57 c p3
100.18 118.60 0.57 c p3
100.15 118.63 0.57 c p3
100.11 118.64 0.57 c p3
100.08 118.69 0.57 c p3
100.04 118.71 0.57 c p3
100.01 118.76 0.57 c p3
99.97 118.79 0.57 c p3
99.94 118.80 0.57 c p3
99.90 118.91 0.57 c p3
99.87 118.99 0.57 c p3
99.83 119.01 0.57 c p3
99.80 119.04 0.57 c p3
99.76 119.10 0.57 c p3
99.73 119.16 0.57 c p3
99.69 119.20 0.57 c p3
99.65 119.29 0.57 c p3
99.62 119.32 0.57 c p3
99.58 119.34 0.57 c p3
99.47 119.38 0.57 c p3
99.43 119.44 0.57 c p3
99.40 119.47 0.57 c p3
99.36 119.55 0.57 c p3
99.28 119.57 0.57 c p3
99.24 119.61 0.57 c p3
99.21 119.64 0.57 c p3
99.17 119.68 0.57 c p3
99.13 119.72 0.57 c p3
99.09 119.78 0.57 c p3
99.05 119.83 0.57 c p3
99.01 119.90 0.57 c p3
98.97 119.96 0.57 c p3
98.94 120.02 0.57 c p3
98.90 120.05 0.57 c p3
98.86 120.07 0.57 c p3
98.82 120.11 0.57 c p3
98.78 120.21 0.57 c p3
98.74 120.28 0.57 c p3
98.70 120.34 0.57 c p3
98.66 120.38 0.57 c p3
98.62 120.42 0.57 c p3
98.58 120.48 0.57 c p3
98.53 120.56 0.57 c p3
98.49 120.62 0.57 c p3
98.45 120.66 0.57 c p3
98.41 120.70 0.57 c p3
98.37 120.76 0.57 c p3
98.33 120.79 0.57 c p3
98.29 120.84 0.57 c p3
98.24 120.87 0.57 c p3
98.20 120.90 0.57 c p3
98.16 120.93 0.57 c p3
98.12 121.00 0.57 c p3
98.07 121.05 0.57 c p3
98.03 121.10 0.57 c p3
97.99 121.13 0.57 c p3
97.94 121.20 0.57 c p3
97.90 121.21 0.57 c p3
97.86 121.26 0.57 c p3
97.81 121.34 0.57 c p3
97.77 121.39 0.57 c p3
97.72 121.44 0.57 c p3
97.68 121.47 0.57 c p3
97.63 121.53 0.57 c p3
97.59 121.58 0.57 c p3
97.54 121.59 0.57 c p3
97.50 121.60 0.57 c p3
97.45 121.66 0.57 c p3
97.40 121.71 0.57 c p3
97.36 121.77 0.57 c p3
97.31 121.84 0.57 c p3
97.26 121.89 0.57 c p3
97.22 121.92 0.57 c p3
97.17 121.93 0.57 c p3
97.12 121.99 0.57 c p3
97.07 122.04 0.57 c p3
97.03 122.12 0.57 c p3
96.98 122.18 0.57 c p3
96.93 122.22 0.57 c p3
96.88 122.31 0.57 c p3
96.83 122.39 0.57 c p3
96.78 122.46 0.57 c p3
96.73 122.49 0.57 c p3
96.68 122.58 0.57 c p3
96.63 122.64 0.57 c p3
96.58 122.69 0.57 c p3
96.53 122.78 0.57 c p3
96.48 122.80 0.57 c p3
96.43 122.85 0.57 c p3
96.38 122.89 0.57 c p3
96.33 122.95 0.57 c p3
96.27 123.05 0.57 c p3
96.22 123.09 0.57 c p3
96.17 123.13 0.57 c p3
96.12 123.18 0.57 c p3
96.06 123.23 0.57 c p3
96.01 123.27 0.57 c p3
95.96 123.29 0.57 c p3
95.90 123.33 0.57 c p3
95.85 123.36 0.57 c p3
95.79 123.45 0.57 c p3
95.74 123.53 0.57 c p3
95.68 123.61 0.57 c p3
95.63 123.67 0.57 c p3
95.57 123.70 0.57 c p3
95.51 123.76 0.57 c p3
95.46 123.86 0.57 c p3
95.40 123.90 0.57 c p3
95.34 123.96 0.57 c p3
95.29 124.05 0.57 c p3
95.23 124.08 0.57 c p3
95.17 124.14 0.57 c p3
95.11 124.21 0.57 c p3
95.05 124.27 0.57 c p3
94.99 124.33 0.57 c p3
94.93 124.42 0.57 c p3
94.87 124.51 0.57 c p3
94.81 124.61 0.57 c p3
94.75 124.68 0.57 c p3
94.69 124.72 0.57 c p3
94.62 124.78 0.57 c p3
94.56 124.83 0.57 c p3
94.50 124.90 0.57 c p3
94.44 124.98 0.57 c p3
94.37 125.03 0.57 c p3
94.31 125.10 0.57 c p3
94.24 125.15 0.57 c p3
94.18 125.23 0.57 c p3
94.11 125.30 0.57 c p3
94.05 125.42 0.57 c p3
93.98 125.46 0.57 c p3
93.91 125.57 0.57 c p3
93.85 125.66 0.57 c p3
93.78 125.74 0.57 c p3
93.71 125.81 0.57 c p3
93.64 125.88 0.57 c p3
93.57 125.92 0.57 c p3
93.50 126.02 0.57 c p3
93.43 126.11 0.57 c p3
93.36 126.15 0.57 c p3
93.29 126.22 0.57 c p3
93.22 126.31 0.57 c p3
93.14 126.40 0.57 c p3
93.07 126.50 0.57 c p3
93.00 126.62 0.57 c p3
92.92 126.70 0.57 c p3
92.85 126.77 0.57 c p3
92.77 126.83 0.57 c p3
92.69 126.87 0.57 c p3
92.62 126.96 0.57 c p3
92.54 127.04 0.57 c p3
92.46 127.15 0.57 c p3
92.38 127.23 0.57 c p3
92.30 127.27 0.57 c p3
92.22 127.36 0.57 c p3
92.14 127.45 0.57 c p3
92.06 127.56 0.57 c p3
91.98 127.63 0.57 c p3
91.90 127.74 0.57 c p3
91.81 127.80 0.57 c p3
91.73 127.93 0.57 c p3
91.64 128.02 0.57 c p3
91.56 128.12 0.57 c p3
91.47 128.26 0.57 c p3
91.38 128.34 0.57 c p3
91.29 128.42 0.57 c p3
91.20 128.53 0.57 c p3
91.11 128.60 0.57 c p3
91.02 128.70 0.57 c p3
90.93 128.82 0.57 c p3
90.84 128.92 0.57 c p3
90.74 129.02 0.57 c p3
90.65 129.14 0.57 c p3
90.55 129.23 0.57 c p3
90.46 129.33 0.57 c p3
90.36 129.44 0.57 c p3
90.26 129.52 0.57 c p3
90.16 129.64 0.57 c p3
90.06 129.78 0.57 c p3
89.96 129.89 0.57 c p3
89.85 130.01 0.57 c p3
89.75 130.17 0.57 c p3
89.64 130.26 0.57 c p3
89.54 130.38 0.57 c p3
89.43 130.51 0.57 c p3
89.32 130.64 0.57 c p3
89.21 130.77 0.57 c p3
89.10 130.89 0.57 c p3
88.98 131.00 0.57 c p3
88.87 131.11 0.57 c p3
88.75 131.23 0.57 c p3
88.64 131.33 0.57 c p3
88.52 131.46 0.57 c p3
88.40 131.61 0.57 c p3
88.27 131.74 0.57 c p3
88.15 131.89 0.57 c p3
88.02 132.01 0.57 c p3
87.90 132.14 0.57 c p3
87.77 132.29 0.57 c p3
87.64 132.42 0.57 c p3
87.51 132.55 0.57 c p3
87.37 132.70 0.57 c p3
87.24 132.87 0.57 c p3
87.10 133.01 0.57 c p3
86.96 133.19 0.57 c p3
86.81 133.33 0.57 c p3
86.67 133.48 0.57 c p3
86.52 133.61 0.57 c p3
86.37 133.76 0.57 c p3
86.22 133.90 0.57 c p3
86.07 134.08 0.57 c p3
85.91 134.24 0.57 c p3
85.75 134.37 0.57 c p3
85.59 134.56 0.57 c p3
85.42 134.75 0.57 c p3
85.25 134.93 0.57 c p3
85.08 135.11 0.57 c p3
84.91 135.28 0.57 c p3
84.73 135.47 0.57 c p3
84.55 135.65 0.57 c p3
84.36 135.86 0.57 c p3
84.17 136.05 0.57 c p3
83.98 136.26 0.57 c p3
83.79 136.44 0.57 c p3
83.58 136.65 0.57 c p3
83.38 136.85 0.57 c p3
83.17 137.04 0.57 c p3
82.95 137.26 0.57 c p3
82.73 137.50 0.57 c p3
82.51 137.73 0.57 c p3
82.28 137.93 0.57 c p3
82.04 138.15 0.57 c p3
81.80 138.36 0.57 c p3
81.55 138.59 0.57 c p3
81.30 138.79 0.57 c p3
81.03 139.03 0.57 c p3
80.76 139.30 0.57 c p3
80.48 139.55 0.57 c p3
80.19 139.83 0.57 c p3
79.90 140.08 0.57 c p3
79.59 140.35 0.57 c p3
79.28 140.64 0.57 c p3
78.95 140.92 0.57 c p3
78.61 141.22 0.57 c p3
78.26 141.51 0.57 c p3
77.89 141.81 0.57 c p3
77.51 142.09 0.57 c p3
77.11 142.41 0.57 c p3
76.70 142.73 0.57 c p3
76.26 143.06 0.57 c p3
75.81 143.38 0.57 c p3
75.33 143.70 0.57 c p3
74.82 144.03 0.57 c p3
74.29 144.41 0.57 c p3
73.72 144.77 0.57 c p3
73.12 145.18 0.57 c p3
72.47 145.62 0.57 c p3
71.78 146.03 0.57 c p3
71.03 146.49 0.57 c p3
70.22 146.95 0.57 c p3
69.33 147.43 0.57 c p3
68.35 147.93 0.57 c p3
67.25 148.47 0.57 c p3
66.00 149.05 0.57 c p3
64.56 149.67 0.57 c p3
62.86 150.33 0.57 c p3
60.77 151.05 0.57 c p3
58.09 151.88 0.57 c p3
54.30 153.03 0.57 c p3
0.4980 0.4980 0.4980 srgb
1.07 setlinewidth
[] 0 setdash
49.61 54.56 103.16 103.16 r p1
0.00 0.00 595.28 198.43 cl
158.74 54.56 261.90 157.71 cl
/bg { 1 1 1 srgb } def
158.74 54.56 103.16 103.16 r p2
0.9804 0.9804 0.9804 srgb
1.07 setlinewidth
[] 0 setdash
0 setlinecap
1 setlinejoin
10.00 setmiterlimit
np
158.74 62.66 m
103.16 0 l
o
np
158.74 98.81 m
103.16 0 l
o
np
158.74 134.95 m
103.16 0 l
o
np
167.71 54.56 m
0 103.15 l
o
np
189.22 54.56 m
0 103.15 l
o
np
210.72 54.56 m
0 103.15 l
o
np
232.23 54.56 m
0 103.15 l
o
np
253.73 54.56 m
0 103.15 l
o
0.8980 0.8980 0.8980 srgb
0.43 setlinewidth
[] 0 setdash
np
158.74 80.73 m
103.16 0 l
o
np
158.74 116.88 m
103.16 0 l
o
np
158.74 153.03 m
103.16 0 l
o
np
178.46 54.56 m
0 103.15 l
o
np
199.97 54.56 m
0 103.15 l
o
np
221.48 54.56 m
0 103.15 l
o
np
242.98 54.56 m
0 103.15 l
o
/bg { 0 0 0 srgb } def
0 0 0 srgb
0.71 setlinewidth
[] 0 setdash
1 setlinecap
249.56 59.25 0.57 c p3
249.00 64.69 0.57 c p3
247.31 67.87 0.57 c p3
246.25 70.13 0.57 c p3
246.13 71.88 0.57 c p3
245.97 73.31 0.57 c p3
245.60 74.52 0.57 c p3
245.20 75.57 0.57 c p3
244.81 76.49 0.57 c p3
244.80 77.32 0.57 c p3
244.77 78.07 0.57 c p3
244.65 78.75 0.57 c p3
244.54 79.38 0.57 c p3
242.57 79.96 0.57 c p3
242.07 80.50 0.57 c p3
241.39 81.01 0.57 c p3
241.26 81.49 0.57 c p3
241.04 81.93 0.57 c p3
240.75 82.36 0.57 c p3
240.47 82.76 0.57 c p3
240.11 83.14 0.57 c p3
239.94 83.51 0.57 c p3
239.89 83.86 0.57 c p3
239.76 84.19 0.57 c p3
239.67 84.51 0.57 c p3
239.36 84.82 0.57 c p3
239.25 85.12 0.57 c p3
238.46 85.40 0.57 c p3
238.28 85.68 0.57 c p3
237.42 85.94 0.57 c p3
237.41 86.20 0.57 c p3
237.33 86.45 0.57 c p3
237.09 86.69 0.57 c p3
237.05 86.93 0.57 c p3
236.92 87.15 0.57 c p3
236.83 87.37 0.57 c p3
236.52 87.59 0.57 c p3
236.44 87.80 0.57 c p3
236.09 88.00 0.57 c p3
236.02 88.20 0.57 c p3
234.69 88.40 0.57 c p3
234.45 88.58 0.57 c p3
234.36 88.77 0.57 c p3
233.70 88.95 0.57 c p3
233.17 89.13 0.57 c p3
233.06 89.30 0.57 c p3
232.97 89.47 0.57 c p3
232.85 89.63 0.57 c p3
232.83 89.79 0.57 c p3
232.17 89.95 0.57 c p3
231.76 90.11 0.57 c p3
231.66 90.26 0.57 c p3
231.10 90.41 0.57 c p3
231.08 90.56 0.57 c p3
230.94 90.70 0.57 c p3
230.91 90.84 0.57 c p3
230.85 90.98 0.57 c p3
230.81 91.12 0.57 c p3
230.40 91.25 0.57 c p3
230.07 91.38 0.57 c p3
229.66 91.51 0.57 c p3
229.62 91.64 0.57 c p3
229.53 91.77 0.57 c p3
229.40 91.89 0.57 c p3
229.05 92.01 0.57 c p3
229.05 92.13 0.57 c p3
228.41 92.25 0.57 c p3
228.17 92.37 0.57 c p3
227.64 92.48 0.57 c p3
227.46 92.59 0.57 c p3
227.14 92.71 0.57 c p3
227.04 92.82 0.57 c p3
227.00 92.92 0.57 c p3
226.91 93.03 0.57 c p3
226.74 93.14 0.57 c p3
226.72 93.24 0.57 c p3
226.53 93.34 0.57 c p3
226.45 93.44 0.57 c p3
226.38 93.54 0.57 c p3
226.34 93.64 0.57 c p3
226.14 93.74 0.57 c p3
226.13 93.84 0.57 c p3
225.80 93.93 0.57 c p3
225.75 94.03 0.57 c p3
225.65 94.12 0.57 c p3
225.64 94.21 0.57 c p3
225.58 94.30 0.57 c p3
225.36 94.39 0.57 c p3
225.35 94.48 0.57 c p3
225.33 94.65 0.57 c p3
225.28 94.74 0.57 c p3
225.06 94.82 0.57 c p3
225.02 94.91 0.57 c p3
224.80 94.99 0.57 c p3
224.74 95.07 0.57 c p3
224.71 95.15 0.57 c p3
224.64 95.24 0.57 c p3
224.56 95.31 0.57 c p3
224.41 95.39 0.57 c p3
224.37 95.47 0.57 c p3
224.33 95.55 0.57 c p3
224.30 95.63 0.57 c p3
224.24 95.78 0.57 c p3
224.13 95.85 0.57 c p3
224.11 95.92 0.57 c p3
223.98 96.07 0.57 c p3
223.96 96.14 0.57 c p3
223.90 96.21 0.57 c p3
223.81 96.28 0.57 c p3
223.80 96.35 0.57 c p3
223.80 96.42 0.57 c p3
223.76 96.49 0.57 c p3
223.75 96.56 0.57 c p3
223.74 96.63 0.57 c p3
223.69 96.69 0.57 c p3
223.68 96.76 0.57 c p3
223.66 96.82 0.57 c p3
223.59 96.89 0.57 c p3
223.45 96.95 0.57 c p3
223.36 97.02 0.57 c p3
223.33 97.08 0.57 c p3
223.32 97.15 0.57 c p3
223.30 97.21 0.57 c p3
223.26 97.39 0.57 c p3
223.25 97.45 0.57 c p3
223.22 97.51 0.57 c p3
223.18 97.57 0.57 c p3
223.16 97.63 0.57 c p3
223.12 97.69 0.57 c p3
223.08 97.75 0.57 c p3
223.07 97.81 0.57 c p3
222.99 97.86 0.57 c p3
222.98 97.92 0.57 c p3
222.88 97.98 0.57 c p3
222.85 98.03 0.57 c p3
222.81 98.09 0.57 c p3
222.81 98.15 0.57 c p3
222.69 98.31 0.57 c p3
222.60 98.36 0.57 c p3
222.57 98.42 0.57 c p3
222.54 98.47 0.57 c p3
222.49 98.52 0.57 c p3
222.44 98.58 0.57 c p3
222.42 98.63 0.57 c p3
222.37 98.68 0.57 c p3
222.28 98.73 0.57 c p3
222.27 98.78 0.57 c p3
222.25 98.88 0.57 c p3
222.24 98.93 0.57 c p3
222.22 99.03 0.57 c p3
222.20 99.08 0.57 c p3
222.18 99.13 0.57 c p3
222.16 99.18 0.57 c p3
222.13 99.23 0.57 c p3
222.02 99.28 0.57 c p3
221.98 99.32 0.57 c p3
221.97 99.37 0.57 c p3
221.96 99.42 0.57 c p3
221.90 99.47 0.57 c p3
221.88 99.51 0.57 c p3
221.81 99.56 0.57 c p3
221.79 99.60 0.57 c p3
221.74 99.65 0.57 c p3
221.72 99.70 0.57 c p3
221.67 99.74 0.57 c p3
221.65 99.83 0.57 c p3
221.64 99.88 0.57 c p3
221.59 99.92 0.57 c p3
221.46 99.96 0.57 c p3
221.42 100.01 0.57 c p3
221.40 100.05 0.57 c p3
221.38 100.09 0.57 c p3
221.35 100.14 0.57 c p3
221.34 100.18 0.57 c p3
221.33 100.22 0.57 c p3
221.30 100.26 0.57 c p3
221.16 100.31 0.57 c p3
221.15 100.35 0.57 c p3
221.10 100.39 0.57 c p3
221.08 100.43 0.57 c p3
221.04 100.47 0.57 c p3
220.98 100.51 0.57 c p3
220.96 100.55 0.57 c p3
220.94 100.60 0.57 c p3
220.92 100.64 0.57 c p3
220.91 100.68 0.57 c p3
220.90 100.72 0.57 c p3
220.88 100.76 0.57 c p3
220.86 100.79 0.57 c p3
220.83 100.83 0.57 c p3
220.81 100.91 0.57 c p3
220.77 100.95 0.57 c p3
220.73 100.99 0.57 c p3
220.67 101.03 0.57 c p3
220.66 101.07 0.57 c p3
220.56 101.10 0.57 c p3
220.53 101.14 0.57 c p3
220.51 101.18 0.57 c p3
220.45 101.22 0.57 c p3
220.39 101.29 0.57 c p3
220.37 101.33 0.57 c p3
220.31 101.37 0.57 c p3
220.30 101.44 0.57 c p3
220.28 101.51 0.57 c p3
220.27 101.55 0.57 c p3
220.24 101.58 0.57 c p3
220.23 101.65 0.57 c p3
220.19 101.69 0.57 c p3
220.15 101.76 0.57 c p3
220.14 101.79 0.57 c p3
220.13 101.83 0.57 c p3
220.12 101.86 0.57 c p3
220.11 101.90 0.57 c p3
220.08 101.93 0.57 c p3
220.06 102.00 0.57 c p3
220.05 102.07 0.57 c p3
220.03 102.10 0.57 c p3
220.02 102.17 0.57 c p3
219.99 102.23 0.57 c p3
219.95 102.30 0.57 c p3
219.94 102.33 0.57 c p3
219.90 102.36 0.57 c p3
219.89 102.46 0.57 c p3
219.88 102.52 0.57 c p3
219.87 102.55 0.57 c p3
219.85 102.59 0.57 c p3
219.84 102.62 0.57 c p3
219.83 102.65 0.57 c p3
219.77 102.68 0.57 c p3
219.72 102.74 0.57 c p3
219.71 102.77 0.57 c p3
219.70 102.83 0.57 c p3
219.69 102.86 0.57 c p3
219.66 102.89 0.57 c p3
219.59 102.92 0.57 c p3
219.54 102.95 0.57 c p3
219.51 102.98 0.57 c p3
219.47 103.01 0.57 c p3
219.46 103.04 0.57 c p3
219.43 103.07 0.57 c p3
219.40 103.10 0.57 c p3
219.38 103.13 0.57 c p3
219.37 103.16 0.57 c p3
219.33 103.22 0.57 c p3
219.32 103.28 0.57 c p3
219.31 103.31 0.57 c p3
219.30 103.33 0.57 c p3
219.29 103.39 0.57 c p3
219.25 103.42 0.57 c p3
219.24 103.48 0.57 c p3
219.22 103.53 0.57 c p3
219.20 103.56 0.57 c p3
219.19 103.59 0.57 c p3
219.17 103.61 0.57 c p3
219.11 103.67 0.57 c p3
219.08 103.70 0.57 c p3
219.06 103.75 0.57 c p3
219.05 103.78 0.57 c p3
219.03 103.83 0.57 c p3
219.02 103.86 0.57 c p3
219.00 103.91 0.57 c p3
218.97 103.96 0.57 c p3
218.95 103.99 0.57 c p3
218.94 104.02 0.57 c p3
218.93 104.04 0.57 c p3
218.91 104.07 0.57 c p3
218.90 104.09 0.57 c p3
218.88 104.12 0.57 c p3
218.85 104.20 0.57 c p3
218.83 104.22 0.57 c p3
218.81 104.25 0.57 c p3
218.78 104.30 0.57 c p3
218.76 104.32 0.57 c p3
218.69 104.42 0.57 c p3
218.65 104.47 0.57 c p3
218.57 104.50 0.57 c p3
218.56 104.57 0.57 c p3
218.55 104.60 0.57 c p3
218.54 104.62 0.57 c p3
218.52 104.65 0.57 c p3
218.51 104.67 0.57 c p3
218.50 104.69 0.57 c p3
218.47 104.72 0.57 c p3
218.45 104.76 0.57 c p3
218.42 104.84 0.57 c p3
218.41 104.86 0.57 c p3
218.39 104.91 0.57 c p3
218.38 104.93 0.57 c p3
218.34 104.95 0.57 c p3
218.33 105.02 0.57 c p3
218.30 105.05 0.57 c p3
218.29 105.09 0.57 c p3
218.28 105.11 0.57 c p3
218.26 105.14 0.57 c p3
218.25 105.16 0.57 c p3
218.24 105.18 0.57 c p3
218.22 105.23 0.57 c p3
218.20 105.25 0.57 c p3
218.18 105.27 0.57 c p3
218.17 105.29 0.57 c p3
218.14 105.34 0.57 c p3
218.13 105.36 0.57 c p3
218.12 105.38 0.57 c p3
218.08 105.40 0.57 c p3
218.06 105.43 0.57 c p3
218.05 105.45 0.57 c p3
218.02 105.49 0.57 c p3
218.01 105.51 0.57 c p3
218.00 105.53 0.57 c p3
217.98 105.56 0.57 c p3
217.97 105.60 0.57 c p3
217.96 105.62 0.57 c p3
217.94 105.64 0.57 c p3
217.92 105.66 0.57 c p3
217.90 105.68 0.57 c p3
217.89 105.71 0.57 c p3
217.85 105.73 0.57 c p3
217.83 105.77 0.57 c p3
217.79 105.83 0.57 c p3
217.78 105.87 0.57 c p3
217.76 105.93 0.57 c p3
217.75 105.95 0.57 c p3
217.71 106.02 0.57 c p3
217.69 106.04 0.57 c p3
217.68 106.06 0.57 c p3
217.67 106.12 0.57 c p3
217.65 106.14 0.57 c p3
217.64 106.16 0.57 c p3
217.60 106.20 0.57 c p3
217.58 106.24 0.57 c p3
217.52 106.26 0.57 c p3
217.50 106.27 0.57 c p3
217.45 106.31 0.57 c p3
217.42 106.35 0.57 c p3
217.41 106.37 0.57 c p3
217.39 106.39 0.57 c p3
217.37 106.43 0.57 c p3
217.32 106.51 0.57 c p3
217.29 106.58 0.57 c p3
217.26 106.62 0.57 c p3
217.25 106.66 0.57 c p3
217.23 106.68 0.57 c p3
217.22 106.70 0.57 c p3
217.19 106.75 0.57 c p3
217.18 106.79 0.57 c p3
217.15 106.81 0.57 c p3
217.13 106.82 0.57 c p3
217.10 106.84 0.57 c p3
217.07 106.86 0.57 c p3
217.06 106.88 0.57 c p3
217.01 106.90 0.57 c p3
217.00 106.93 0.57 c p3
216.98 107.01 0.57 c p3
216.97 107.06 0.57 c p3
216.95 107.08 0.57 c p3
216.92 107.11 0.57 c p3
216.91 107.13 0.57 c p3
216.89 107.15 0.57 c p3
216.87 107.16 0.57 c p3
216.84 107.20 0.57 c p3
216.78 107.22 0.57 c p3
216.75 107.25 0.57 c p3
216.74 107.32 0.57 c p3
216.72 107.35 0.57 c p3
216.67 107.39 0.57 c p3
216.64 107.41 0.57 c p3
216.63 107.42 0.57 c p3
216.61 107.44 0.57 c p3
216.58 107.47 0.57 c p3
216.56 107.49 0.57 c p3
216.55 107.54 0.57 c p3
216.53 107.57 0.57 c p3
216.52 107.59 0.57 c p3
216.50 107.62 0.57 c p3
216.48 107.67 0.57 c p3
216.47 107.69 0.57 c p3
216.45 107.72 0.57 c p3
216.42 107.82 0.57 c p3
216.40 107.85 0.57 c p3
216.39 107.87 0.57 c p3
216.37 107.93 0.57 c p3
216.34 107.98 0.57 c p3
216.31 108.04 0.57 c p3
216.26 108.06 0.57 c p3
216.23 108.09 0.57 c p3
216.21 108.14 0.57 c p3
216.19 108.17 0.57 c p3
216.18 108.20 0.57 c p3
216.16 108.21 0.57 c p3
216.13 108.24 0.57 c p3
216.11 108.27 0.57 c p3
216.08 108.33 0.57 c p3
216.06 108.38 0.57 c p3
216.04 108.45 0.57 c p3
216.03 108.48 0.57 c p3
215.99 108.50 0.57 c p3
215.96 108.53 0.57 c p3
215.89 108.54 0.57 c p3
215.88 108.59 0.57 c p3
215.86 108.60 0.57 c p3
215.82 108.63 0.57 c p3
215.81 108.67 0.57 c p3
215.79 108.70 0.57 c p3
215.77 108.72 0.57 c p3
215.76 108.73 0.57 c p3
215.74 108.80 0.57 c p3
215.72 108.85 0.57 c p3
215.69 108.90 0.57 c p3
215.67 108.94 0.57 c p3
215.65 108.96 0.57 c p3
215.63 109.00 0.57 c p3
215.62 109.01 0.57 c p3
215.60 109.03 0.57 c p3
215.58 109.05 0.57 c p3
215.56 109.07 0.57 c p3
215.55 109.08 0.57 c p3
215.53 109.11 0.57 c p3
215.51 109.15 0.57 c p3
215.49 109.16 0.57 c p3
215.48 109.18 0.57 c p3
215.46 109.19 0.57 c p3
215.44 109.26 0.57 c p3
215.42 109.30 0.57 c p3
215.40 109.31 0.57 c p3
215.37 109.34 0.57 c p3
215.35 109.35 0.57 c p3
215.33 109.42 0.57 c p3
215.31 109.50 0.57 c p3
215.30 109.51 0.57 c p3
215.28 109.54 0.57 c p3
215.26 109.63 0.57 c p3
215.24 109.65 0.57 c p3
215.22 109.68 0.57 c p3
215.21 109.74 0.57 c p3
215.19 109.78 0.57 c p3
215.17 109.85 0.57 c p3
215.15 109.88 0.57 c p3
215.13 109.90 0.57 c p3
215.11 109.91 0.57 c p3
215.09 109.95 0.57 c p3
215.06 109.98 0.57 c p3
215.04 110.00 0.57 c p3
215.02 110.02 0.57 c p3
215.00 110.05 0.57 c p3
214.98 110.07 0.57 c p3
214.95 110.10 0.57 c p3
214.93 110.16 0.57 c p3
214.91 110.18 0.57 c p3
214.89 110.22 0.57 c p3
214.87 110.24 0.57 c p3
214.85 110.25 0.57 c p3
214.83 110.28 0.57 c p3
214.81 110.29 0.57 c p3
214.79 110.32 0.57 c p3
214.78 110.34 0.57 c p3
214.76 110.36 0.57 c p3
214.74 110.39 0.57 c p3
214.72 110.44 0.57 c p3
214.70 110.49 0.57 c p3
214.68 110.53 0.57 c p3
214.66 110.54 0.57 c p3
214.64 110.58 0.57 c p3
214.62 110.60 0.57 c p3
214.60 110.63 0.57 c p3
214.58 110.68 0.57 c p3
214.56 110.70 0.57 c p3
214.54 110.71 0.57 c p3
214.52 110.73 0.57 c p3
214.50 110.79 0.57 c p3
214.46 110.82 0.57 c p3
214.44 110.93 0.57 c p3
214.42 110.98 0.57 c p3
214.40 111.03 0.57 c p3
214.38 111.04 0.57 c p3
214.36 111.07 0.57 c p3
214.34 111.11 0.57 c p3
214.32 111.14 0.57 c p3
214.30 111.15 0.57 c p3
214.28 111.19 0.57 c p3
214.26 111.23 0.57 c p3
214.24 111.28 0.57 c p3
214.22 111.35 0.57 c p3
214.20 111.36 0.57 c p3
214.18 111.37 0.57 c p3
214.16 111.43 0.57 c p3
214.14 111.45 0.57 c p3
214.12 111.48 0.57 c p3
214.10 111.49 0.57 c p3
214.08 111.54 0.57 c p3
214.06 111.56 0.57 c p3
214.04 111.61 0.57 c p3
214.02 111.62 0.57 c p3
213.98 111.63 0.57 c p3
213.96 111.69 0.57 c p3
213.93 111.71 0.57 c p3
213.91 111.72 0.57 c p3
213.89 111.74 0.57 c p3
213.87 111.78 0.57 c p3
213.85 111.80 0.57 c p3
213.83 111.84 0.57 c p3
213.81 111.86 0.57 c p3
213.79 111.89 0.57 c p3
213.77 111.92 0.57 c p3
213.74 111.93 0.57 c p3
213.72 111.96 0.57 c p3
213.70 111.98 0.57 c p3
213.68 112.03 0.57 c p3
213.66 112.04 0.57 c p3
213.64 112.06 0.57 c p3
213.62 112.09 0.57 c p3
213.59 112.13 0.57 c p3
213.57 112.17 0.57 c p3
213.55 112.18 0.57 c p3
213.53 112.23 0.57 c p3
213.51 112.26 0.57 c p3
213.48 112.27 0.57 c p3
213.46 112.28 0.57 c p3
213.44 112.33 0.57 c p3
213.42 112.37 0.57 c p3
213.40 112.40 0.57 c p3
213.37 112.41 0.57 c p3
213.35 112.44 0.57 c p3
213.33 112.45 0.57 c p3
213.31 112.46 0.57 c p3
213.28 112.51 0.57 c p3
213.26 112.58 0.57 c p3
213.24 112.63 0.57 c p3
213.22 112.69 0.57 c p3
213.19 112.74 0.57 c p3
213.17 112.78 0.57 c p3
213.15 112.83 0.57 c p3
213.13 112.85 0.57 c p3
213.10 112.89 0.57 c p3
213.08 112.90 0.57 c p3
213.06 112.94 0.57 c p3
213.03 112.97 0.57 c p3
213.01 113.01 0.57 c p3
212.99 113.02 0.57 c p3
212.96 113.06 0.57 c p3
212.94 113.09 0.57 c p3
212.92 113.14 0.57 c p3
212.89 113.15 0.57 c p3
212.87 113.17 0.57 c p3
212.85 113.19 0.57 c p3
212.82 113.26 0.57 c p3
212.80 113.28 0.57 c p3
212.78 113.32 0.57 c p3
212.75 113.36 0.57 c p3
212.73 113.39 0.57 c p3
212.71 113.42 0.57 c p3
212.68 113.46 0.57 c p3
212.66 113.52 0.57 c p3
212.63 113.55 0.57 c p3
212.61 113.61 0.57 c p3
212.59 113.63 0.57 c p3
212.56 113.66 0.57 c p3
212.54 113.71 0.57 c p3
212.51 113.76 0.57 c p3
212.49 113.77 0.57 c p3
212.46 113.81 0.57 c p3
212.44 113.85 0.57 c p3
212.41 113.89 0.57 c p3
212.39 113.92 0.57 c p3
212.36 113.98 0.57 c p3
212.34 114.00 0.57 c p3
212.32 114.02 0.57 c p3
212.29 114.03 0.57 c p3
212.27 114.08 0.57 c p3
212.24 114.11 0.57 c p3
212.21 114.14 0.57 c p3
212.19 114.14 0.57 c p3
212.16 114.20 0.57 c p3
212.14 114.21 0.57 c p3
212.11 114.24 0.57 c p3
212.09 114.29 0.57 c p3
212.06 114.33 0.57 c p3
212.04 114.36 0.57 c p3
212.01 114.41 0.57 c p3
211.99 114.45 0.57 c p3
211.96 114.49 0.57 c p3
211.93 114.51 0.57 c p3
211.91 114.56 0.57 c p3
211.88 114.60 0.57 c p3
211.86 114.63 0.57 c p3
211.83 114.69 0.57 c p3
211.80 114.71 0.57 c p3
211.78 114.73 0.57 c p3
211.75 114.77 0.57 c p3
211.72 114.83 0.57 c p3
211.70 114.83 0.57 c p3
211.67 114.87 0.57 c p3
211.64 114.90 0.57 c p3
211.62 114.92 0.57 c p3
211.59 114.99 0.57 c p3
211.56 115.03 0.57 c p3
211.54 115.06 0.57 c p3
211.51 115.12 0.57 c p3
211.48 115.15 0.57 c p3
211.45 115.20 0.57 c p3
211.43 115.22 0.57 c p3
211.40 115.28 0.57 c p3
211.37 115.33 0.57 c p3
211.34 115.36 0.57 c p3
211.32 115.38 0.57 c p3
211.29 115.41 0.57 c p3
211.26 115.47 0.57 c p3
211.23 115.50 0.57 c p3
211.21 115.53 0.57 c p3
211.18 115.57 0.57 c p3
211.15 115.59 0.57 c p3
211.12 115.62 0.57 c p3
211.09 115.63 0.57 c p3
211.06 115.68 0.57 c p3
211.04 115.73 0.57 c p3
211.01 115.76 0.57 c p3
210.98 115.79 0.57 c p3
210.95 115.82 0.57 c p3
210.92 115.87 0.57 c p3
210.89 115.94 0.57 c p3
210.86 115.95 0.57 c p3
210.83 116.00 0.57 c p3
210.80 116.03 0.57 c p3
210.78 116.06 0.57 c p3
210.75 116.11 0.57 c p3
210.72 116.14 0.57 c p3
210.69 116.16 0.57 c p3
210.66 116.17 0.57 c p3
210.63 116.21 0.57 c p3
210.60 116.24 0.57 c p3
210.57 116.27 0.57 c p3
210.54 116.29 0.57 c p3
210.51 116.31 0.57 c p3
210.48 116.36 0.57 c p3
210.45 116.39 0.57 c p3
210.42 116.43 0.57 c p3
210.39 116.48 0.57 c p3
210.35 116.51 0.57 c p3
210.32 116.56 0.57 c p3
210.29 116.59 0.57 c p3
210.26 116.65 0.57 c p3
210.23 116.69 0.57 c p3
210.20 116.73 0.57 c p3
210.17 116.78 0.57 c p3
210.14 116.83 0.57 c p3
210.11 116.86 0.57 c p3
210.07 116.89 0.57 c p3
210.04 116.93 0.57 c p3
210.01 117.00 0.57 c p3
209.98 117.05 0.57 c p3
209.95 117.09 0.57 c p3
209.91 117.15 0.57 c p3
209.88 117.21 0.57 c p3
209.85 117.25 0.57 c p3
209.82 117.28 0.57 c p3
209.78 117.33 0.57 c p3
209.75 117.33 0.57 c p3
209.72 117.36 0.57 c p3
209.69 117.39 0.57 c p3
209.65 117.41 0.57 c p3
209.62 117.44 0.57 c p3
209.59 117.48 0.57 c p3
209.55 117.52 0.57 c p3
209.52 117.54 0.57 c p3
209.49 117.57 0.57 c p3
209.45 117.64 0.57 c p3
209.42 117.68 0.57 c p3
209.38 117.75 0.57 c p3
209.35 117.79 0.57 c p3
209.32 117.83 0.57 c p3
209.28 117.87 0.57 c p3
209.25 117.93 0.57 c p3
209.21 117.97 0.57 c p3
209.18 118.01 0.57 c p3
209.14 118.04 0.57 c p3
209.11 118.08 0.57 c p3
209.07 118.11 0.57 c p3
209.04 118.15 0.57 c p3
209.00 118.20 0.57 c p3
208.97 118.23 0.57 c p3
208.93 118.26 0.57 c p3
208.89 118.30 0.57 c p3
208.86 118.32 0.57 c p3
208.82 118.39 0.57 c p3
208.79 118.42 0.57 c p3
208.75 118.45 0.57 c p3
208.71 118.48 0.57 c p3
208.68 118.53 0.57 c p3
208.64 118.58 0.57 c p3
208.60 118.62 0.57 c p3
208.57 118.66 0.57 c p3
208.53 118.72 0.57 c p3
208.49 118.74 0.57 c p3
208.45 118.78 0.57 c p3
208.42 118.82 0.57 c p3
208.38 118.87 0.57 c p3
208.34 118.90 0.57 c p3
208.30 118.94 0.57 c p3
208.26 118.98 0.57 c p3
208.22 119.00 0.57 c p3
208.19 119.05 0.57 c p3
208.15 119.09 0.57 c p3
208.11 119.14 0.57 c p3
208.07 119.19 0.57 c p3
208.03 119.22 0.57 c p3
207.99 119.26 0.57 c p3
207.95 119.30 0.57 c p3
207.91 119.34 0.57 c p3
207.87 119.39 0.57 c p3
207.83 119.44 0.57 c p3
207.79 119.48 0.57 c p3
207.75 119.52 0.57 c p3
207.71 119.57 0.57 c p3
207.67 119.59 0.57 c p3
207.63 119.62 0.57 c p3
207.59 119.67 0.57 c p3
207.54 119.72 0.57 c p3
207.50 119.77 0.57 c p3
207.46 119.83 0.57 c p3
207.42 119.86 0.57 c p3
207.38 119.92 0.57 c p3
207.33 119.95 0.57 c p3
207.29 119.98 0.57 c p3
207.25 120.02 0.57 c p3
207.21 120.09 0.57 c p3
207.16 120.13 0.57 c p3
207.12 120.21 0.57 c p3
207.08 120.24 0.57 c p3
207.03 120.30 0.57 c p3
206.99 120.35 0.57 c p3
206.94 120.40 0.57 c p3
206.90 120.43 0.57 c p3
206.86 120.50 0.57 c p3
206.81 120.56 0.57 c p3
206.77 120.60 0.57 c p3
206.72 120.65 0.57 c p3
206.67 120.68 0.57 c p3
206.63 120.73 0.57 c p3
206.58 120.78 0.57 c p3
206.54 120.83 0.57 c p3
206.49 120.87 0.57 c p3
206.44 120.93 0.57 c p3
206.40 120.97 0.57 c p3
206.35 121.01 0.57 c p3
206.30 121.06 0.57 c p3
206.26 121.11 0.57 c p3
206.21 121.14 0.57 c p3
206.16 121.18 0.57 c p3
206.11 121.21 0.57 c p3
206.06 121.24 0.57 c p3
206.01 121.28 0.57 c p3
205.96 121.36 0.57 c p3
205.92 121.42 0.57 c p3
205.87 121.46 0.57 c p3
205.82 121.50 0.57 c p3
205.77 121.56 0.57 c p3
205.72 121.61 0.57 c p3
205.67 121.66 0.57 c p3
205.61 121.72 0.57 c p3
205.56 121.76 0.57 c p3
205.51 121.81 0.57 c p3
205.46 121.86 0.57 c p3
205.41 121.92 0.57 c p3
205.36 121.99 0.57 c p3
205.30 122.03 0.57 c p3
205.25 122.10 0.57 c p3
205.20 122.16 0.57 c p3
205.14 122.21 0.57 c p3
205.09 122.25 0.57 c p3
205.04 122.29 0.57 c p3
204.98 122.35 0.57 c p3
204.93 122.39 0.57 c p3
204.87 122.46 0.57 c p3
204.82 122.53 0.57 c p3
204.76 122.59 0.57 c p3
204.70 122.65 0.57 c p3
204.65 122.70 0.57 c p3
204.59 122.75 0.57 c p3
204.53 122.80 0.57 c p3
204.48 122.87 0.57 c p3
204.42 122.93 0.57 c p3
204.36 123.00 0.57 c p3
204.30 123.06 0.57 c p3
204.24 123.11 0.57 c p3
204.18 123.17 0.57 c p3
204.12 123.22 0.57 c p3
204.06 123.28 0.57 c p3
204.00 123.34 0.57 c p3
203.94 123.39 0.57 c p3
203.88 123.44 0.57 c p3
203.82 123.50 0.57 c p3
203.76 123.57 0.57 c p3
203.69 123.64 0.57 c p3
203.63 123.69 0.57 c p3
203.57 123.74 0.57 c p3
203.50 123.78 0.57 c p3
203.44 123.86 0.57 c p3
203.38 123.93 0.57 c p3
203.31 123.98 0.57 c p3
203.25 124.05 0.57 c p3
203.18 124.11 0.57 c p3
203.11 124.17 0.57 c p3
203.05 124.22 0.57 c p3
202.98 124.28 0.57 c p3
202.91 124.34 0.57 c p3
202.84 124.40 0.57 c p3
202.77 124.45 0.57 c p3
202.70 124.50 0.57 c p3
202.63 124.56 0.57 c p3
202.56 124.62 0.57 c p3
202.49 124.67 0.57 c p3
202.42 124.75 0.57 c p3
202.35 124.82 0.57 c p3
202.28 124.89 0.57 c p3
202.20 124.96 0.57 c p3
202.13 125.03 0.57 c p3
202.05 125.10 0.57 c p3
201.98 125.17 0.57 c p3
201.90 125.23 0.57 c p3
201.83 125.31 0.57 c p3
201.75 125.36 0.57 c p3
201.67 125.44 0.57 c p3
201.59 125.51 0.57 c p3
201.52 125.60 0.57 c p3
201.44 125.67 0.57 c p3
201.36 125.75 0.57 c p3
201.28 125.83 0.57 c p3
201.19 125.89 0.57 c p3
201.11 125.96 0.57 c p3
201.03 126.03 0.57 c p3
200.94 126.09 0.57 c p3
200.86 126.17 0.57 c p3
200.78 126.24 0.57 c p3
200.69 126.31 0.57 c p3
200.60 126.38 0.57 c p3
200.51 126.47 0.57 c p3
200.43 126.54 0.57 c p3
200.34 126.62 0.57 c p3
200.25 126.68 0.57 c p3
200.16 126.77 0.57 c p3
200.06 126.85 0.57 c p3
199.97 126.93 0.57 c p3
199.88 127.01 0.57 c p3
199.78 127.10 0.57 c p3
199.69 127.18 0.57 c p3
199.59 127.28 0.57 c p3
199.49 127.35 0.57 c p3
199.39 127.41 0.57 c p3
199.29 127.49 0.57 c p3
199.19 127.56 0.57 c p3
199.09 127.66 0.57 c p3
198.99 127.74 0.57 c p3
198.88 127.83 0.57 c p3
198.78 127.93 0.57 c p3
198.67 128.00 0.57 c p3
198.56 128.09 0.57 c p3
198.45 128.17 0.57 c p3
198.34 128.27 0.57 c p3
198.23 128.37 0.57 c p3
198.12 128.46 0.57 c p3
198.00 128.55 0.57 c p3
197.89 128.65 0.57 c p3
197.77 128.74 0.57 c p3
197.65 128.84 0.57 c p3
197.53 128.92 0.57 c p3
197.41 129.02 0.57 c p3
197.28 129.12 0.57 c p3
197.16 129.23 0.57 c p3
197.03 129.32 0.57 c p3
196.90 129.42 0.57 c p3
196.77 129.52 0.57 c p3
196.64 129.63 0.57 c p3
196.50 129.74 0.57 c p3
196.37 129.85 0.57 c p3
196.23 129.95 0.57 c p3
196.09 130.07 0.57 c p3
195.95 130.18 0.57 c p3
195.80 130.28 0.57 c p3
195.65 130.38 0.57 c p3
195.51 130.51 0.57 c p3
195.35 130.63 0.57 c p3
195.20 130.73 0.57 c p3
195.04 130.86 0.57 c p3
194.88 130.98 0.57 c p3
194.72 131.09 0.57 c p3
194.55 131.22 0.57 c p3
194.39 131.34 0.57 c p3
194.22 131.46 0.57 c p3
194.04 131.60 0.57 c p3
193.86 131.72 0.57 c p3
193.68 131.87 0.57 c p3
193.50 132.00 0.57 c p3
193.31 132.14 0.57 c p3
193.11 132.30 0.57 c p3
192.92 132.43 0.57 c p3
192.72 132.59 0.57 c p3
192.51 132.74 0.57 c p3
192.30 132.90 0.57 c p3
192.09 133.07 0.57 c p3
191.87 133.22 0.57 c p3
191.64 133.39 0.57 c p3
191.41 133.55 0.57 c p3
191.18 133.73 0.57 c p3
190.93 133.88 0.57 c p3
190.68 134.07 0.57 c p3
190.43 134.24 0.57 c p3
190.16 134.42 0.57 c p3
189.89 134.63 0.57 c p3
189.62 134.85 0.57 c p3
189.33 135.04 0.57 c p3
189.03 135.26 0.57 c p3
188.73 135.47 0.57 c p3
188.41 135.69 0.57 c p3
188.08 135.91 0.57 c p3
187.74 136.15 0.57 c p3
187.39 136.41 0.57 c p3
187.02 136.68 0.57 c p3
186.64 136.98 0.57 c p3
186.24 137.28 0.57 c p3
185.83 137.57 0.57 c p3
185.39 137.90 0.57 c p3
184.94 138.23 0.57 c p3
184.46 138.55 0.57 c p3
183.95 138.93 0.57 c p3
183.42 139.32 0.57 c p3
182.85 139.74 0.57 c p3
182.25 140.19 0.57 c p3
181.61 140.64 0.57 c p3
180.91 141.13 0.57 c p3
180.17 141.68 0.57 c p3
179.35 142.24 0.57 c p3
178.46 142.85 0.57 c p3
177.48 143.51 0.57 c p3
176.38 144.22 0.57 c p3
175.13 144.99 0.57 c p3
173.69 145.82 0.57 c p3
171.99 146.76 0.57 c p3
169.91 147.82 0.57 c p3
167.22 149.21 0.57 c p3
163.43 153.03 0.57 c p3
0.4980 0.4980 0.4980 srgb
1.07 setlinewidth
[] 0 setdash
158.74 54.56 103.16 103.16 r p1
0.00 0.00 595.28 198.43 cl
267.88 54.56 371.03 157.71 cl
/bg { 1 1 1 srgb } def
267.88 54.56 103.16 103.16 r p2
0.9804 0.9804 0.9804 srgb
1.07 setlinewidth
[] 0 setdash
0 setlinecap
1 setlinejoin
10.00 setmiterlimit
np
267.88 62.66 m
103.15 0 l
o
np
267.88 98.81 m
103.15 0 l
o
np
267.88 134.95 m
103.15 0 l
o
np
276.84 54.56 m
0 103.15 l
o
np
298.35 54.56 m
0 103.15 l
o
np
319.86 54.56 m
0 103.15 l
o
np
341.36 54.56 m
0 103.15 l
o
np
362.87 54.56 m
0 103.15 l
o
0.8980 0.8980 0.8980 srgb
0.43 setlinewidth
[] 0 setdash
np
267.88 80.73 m
103.15 0 l
o
np
267.88 116.88 m
103.15 0 l
o
np
267.88 153.03 m
103.15 0 l
o
np
287.60 54.56 m
0 103.15 l
o
np
309.10 54.56 m
0 103.15 l
o
np
330.61 54.56 m
0 103.15 l
o
np
352.11 54.56 m
0 103.15 l
o
/bg { 0 0 0 srgb } def
0 0 0 srgb
0.71 setlinewidth
[] 0 setdash
1 setlinecap
321.52 80.13 0.57 c p3
320.28 85.57 0.57 c p3
319.64 88.75 0.57 c p3
319.49 91.01 0.57 c p3
319.40 92.76 0.57 c p3
319.30 94.19 0.57 c p3
319.27 95.40 0.57 c p3
318.88 96.45 0.57 c p3
318.55 97.38 0.57 c p3
317.51 98.20 0.57 c p3
316.68 98.95 0.57 c p3
316.42 99.64 0.57 c p3
315.72 100.26 0.57 c p3
313.49 100.85 0.57 c p3
313.43 101.39 0.57 c p3
313.20 101.89 0.57 c p3
313.08 102.37 0.57 c p3
312.83 102.82 0.57 c p3
312.57 103.64 0.57 c p3
312.44 104.03 0.57 c p3
311.98 104.74 0.57 c p3
311.34 105.08 0.57 c p3
311.26 105.40 0.57 c p3
311.11 105.70 0.57 c p3
310.57 106.00 0.57 c p3
310.41 106.29 0.57 c p3
310.24 106.83 0.57 c p3
310.16 107.08 0.57 c p3
310.08 107.33 0.57 c p3
309.47 107.58 0.57 c p3
309.29 107.81 0.57 c p3
308.82 108.04 0.57 c p3
308.72 108.26 0.57 c p3
308.32 108.47 0.57 c p3
308.22 109.09 0.57 c p3
308.12 109.28 0.57 c p3
308.01 109.47 0.57 c p3
307.91 109.65 0.57 c p3
307.80 109.83 0.57 c p3
307.69 110.01 0.57 c p3
307.59 110.35 0.57 c p3
307.47 110.68 0.57 c p3
307.25 110.84 0.57 c p3
307.14 110.99 0.57 c p3
307.02 111.14 0.57 c p3
306.90 111.29 0.57 c p3
306.78 111.44 0.57 c p3
306.66 112.14 0.57 c p3
306.54 112.53 0.57 c p3
306.42 112.77 0.57 c p3
306.29 113.25 0.57 c p3
306.03 113.36 0.57 c p3
305.90 113.70 0.57 c p3
305.77 113.81 0.57 c p3
305.64 113.91 0.57 c p3
305.50 114.62 0.57 c p3
305.36 114.91 0.57 c p3
305.22 115.00 0.57 c p3
305.08 115.18 0.57 c p3
304.93 115.45 0.57 c p3
304.79 115.79 0.57 c p3
304.64 116.20 0.57 c p3
304.49 116.36 0.57 c p3
304.33 116.66 0.57 c p3
304.18 116.95 0.57 c p3
304.02 117.17 0.57 c p3
303.85 117.37 0.57 c p3
303.69 117.71 0.57 c p3
303.52 118.03 0.57 c p3
303.35 118.34 0.57 c p3
303.17 118.57 0.57 c p3
303.00 119.19 0.57 c p3
302.81 119.46 0.57 c p3
302.63 119.87 0.57 c p3
302.44 120.16 0.57 c p3
302.25 120.35 0.57 c p3
302.05 120.62 0.57 c p3
301.85 121.23 0.57 c p3
301.65 121.83 0.57 c p3
301.44 122.21 0.57 c p3
301.22 122.54 0.57 c p3
301.00 122.85 0.57 c p3
300.78 123.34 0.57 c p3
300.55 123.72 0.57 c p3
300.31 124.02 0.57 c p3
300.07 124.30 0.57 c p3
299.82 124.82 0.57 c p3
299.56 125.33 0.57 c p3
299.30 125.88 0.57 c p3
299.03 126.29 0.57 c p3
298.75 126.90 0.57 c p3
298.46 127.41 0.57 c p3
298.16 128.05 0.57 c p3
297.86 128.57 0.57 c p3
297.54 129.19 0.57 c p3
297.21 129.81 0.57 c p3
296.87 130.47 0.57 c p3
296.52 131.07 0.57 c p3
296.16 131.67 0.57 c p3
295.77 132.32 0.57 c p3
295.38 132.88 0.57 c p3
294.96 133.62 0.57 c p3
294.53 134.29 0.57 c p3
294.07 134.99 0.57 c p3
293.59 135.72 0.57 c p3
293.09 136.55 0.57 c p3
292.55 137.47 0.57 c p3
291.99 138.16 0.57 c p3
291.38 138.90 0.57 c p3
290.74 139.77 0.57 c p3
290.05 140.74 0.57 c p3
289.30 141.73 0.57 c p3
288.49 142.67 0.57 c p3
287.60 143.75 0.57 c p3
286.61 144.82 0.57 c p3
285.51 146.00 0.57 c p3
284.27 147.14 0.57 c p3
282.83 148.28 0.57 c p3
281.12 149.42 0.57 c p3
279.04 150.56 0.57 c p3
276.35 151.76 0.57 c p3
272.57 153.03 0.57 c p3
0.4980 0.4980 0.4980 srgb
1.07 setlinewidth
[] 0 setdash
267.88 54.56 103.16 103.16 r p1
0.00 0.00 595.28 198.43 cl
377.01 54.56 480.16 157.71 cl
/bg { 1 1 1 srgb } def
377.01 54.56 103.16 103.16 r p2
0.9804 0.9804 0.9804 srgb
1.07 setlinewidth
[] 0 setdash
0 setlinecap
1 setlinejoin
10.00 setmiterlimit
np
377.01 62.66 m
103.15 0 l
o
np
377.01 98.81 m
103.15 0 l
o
np
377.01 134.95 m
103.15 0 l
o
np
385.98 54.56 m
0 103.15 l
o
np
407.48 54.56 m
0 103.15 l
o
np
428.99 54.56 m
0 103.15 l
o
np
450.49 54.56 m
0 103.15 l
o
np
472.00 54.56 m
0 103.15 l
o
0.8980 0.8980 0.8980 srgb
0.43 setlinewidth
[] 0 setdash
np
377.01 80.73 m
103.15 0 l
o
np
377.01 116.88 m
103.15 0 l
o
np
377.01 153.03 m
103.15 0 l
o
np
396.73 54.56 m
0 103.15 l
o
np
418.24 54.56 m
0 103.15 l
o
np
439.74 54.56 m
0 103.15 l
o
np
461.25 54.56 m
0 103.15 l
o
/bg { 0 0 0 srgb } def
0 0 0 srgb
0.71 setlinewidth
[] 0 setdash
1 setlinecap
475.48 63.87 0.57 c p3
469.56 69.31 0.57 c p3
465.51 72.49 0.57 c p3
451.16 74.75 0.57 c p3
450.23 76.50 0.57 c p3
441.37 77.93 0.57 c p3
441.16 79.14 0.57 c p3
440.78 80.19 0.57 c p3
439.95 81.12 0.57 c p3
438.72 81.94 0.57 c p3
438.54 82.69 0.57 c p3
438.31 83.37 0.57 c p3
438.12 84.00 0.57 c p3
438.10 84.58 0.57 c p3
437.77 85.12 0.57 c p3
436.73 85.63 0.57 c p3
436.52 86.11 0.57 c p3
436.24 86.56 0.57 c p3
436.06 86.98 0.57 c p3
435.89 87.38 0.57 c p3
435.43 87.77 0.57 c p3
434.21 88.13 0.57 c p3
434.16 88.48 0.57 c p3
434.04 88.81 0.57 c p3
434.02 89.13 0.57 c p3
433.85 89.44 0.57 c p3
433.58 89.74 0.57 c p3
433.43 90.02 0.57 c p3
433.25 90.30 0.57 c p3
433.14 90.57 0.57 c p3
433.08 90.82 0.57 c p3
432.79 91.07 0.57 c p3
432.75 91.31 0.57 c p3
432.55 91.55 0.57 c p3
432.24 91.78 0.57 c p3
432.12 92.00 0.57 c p3
432.10 92.21 0.57 c p3
432.05 92.62 0.57 c p3
431.92 92.82 0.57 c p3
431.88 93.02 0.57 c p3
431.79 93.21 0.57 c p3
431.77 93.39 0.57 c p3
431.75 93.57 0.57 c p3
431.73 93.75 0.57 c p3
431.71 93.92 0.57 c p3
431.64 94.09 0.57 c p3
431.62 94.25 0.57 c p3
431.60 94.57 0.57 c p3
431.57 94.73 0.57 c p3
431.39 94.88 0.57 c p3
431.28 95.03 0.57 c p3
431.25 95.32 0.57 c p3
431.21 95.46 0.57 c p3
431.16 95.60 0.57 c p3
431.11 95.74 0.57 c p3
431.04 95.87 0.57 c p3
430.95 96.14 0.57 c p3
430.90 96.26 0.57 c p3
430.85 96.39 0.57 c p3
430.83 96.51 0.57 c p3
430.53 96.63 0.57 c p3
430.48 96.87 0.57 c p3
430.23 96.99 0.57 c p3
430.20 97.10 0.57 c p3
430.12 97.54 0.57 c p3
430.04 97.65 0.57 c p3
430.02 97.96 0.57 c p3
429.99 98.06 0.57 c p3
429.88 98.16 0.57 c p3
429.86 98.36 0.57 c p3
429.83 98.46 0.57 c p3
429.75 98.55 0.57 c p3
429.72 98.65 0.57 c p3
429.67 98.74 0.57 c p3
429.64 98.92 0.57 c p3
429.50 99.01 0.57 c p3
429.47 99.10 0.57 c p3
429.44 99.19 0.57 c p3
429.42 99.27 0.57 c p3
429.39 99.36 0.57 c p3
429.36 99.45 0.57 c p3
429.27 99.61 0.57 c p3
429.22 99.78 0.57 c p3
429.04 99.86 0.57 c p3
428.98 99.94 0.57 c p3
428.95 100.17 0.57 c p3
428.89 100.25 0.57 c p3
428.86 100.32 0.57 c p3
428.80 100.40 0.57 c p3
428.77 100.47 0.57 c p3
428.71 100.55 0.57 c p3
428.68 100.62 0.57 c p3
428.65 100.69 0.57 c p3
428.62 100.90 0.57 c p3
428.59 101.04 0.57 c p3
428.50 101.18 0.57 c p3
428.47 101.25 0.57 c p3
428.43 101.38 0.57 c p3
428.31 101.45 0.57 c p3
428.28 101.51 0.57 c p3
428.18 101.77 0.57 c p3
428.12 101.83 0.57 c p3
428.08 101.89 0.57 c p3
428.05 102.07 0.57 c p3
428.02 102.13 0.57 c p3
427.99 102.25 0.57 c p3
427.95 102.31 0.57 c p3
427.92 102.43 0.57 c p3
427.89 102.66 0.57 c p3
427.85 102.82 0.57 c p3
427.82 102.93 0.57 c p3
427.75 103.04 0.57 c p3
427.72 103.30 0.57 c p3
427.68 103.40 0.57 c p3
427.65 103.45 0.57 c p3
427.62 103.56 0.57 c p3
427.58 103.65 0.57 c p3
427.55 103.70 0.57 c p3
427.51 103.80 0.57 c p3
427.48 103.95 0.57 c p3
427.44 103.99 0.57 c p3
427.41 104.04 0.57 c p3
427.37 104.27 0.57 c p3
427.34 104.32 0.57 c p3
427.23 104.36 0.57 c p3
427.20 104.41 0.57 c p3
427.16 104.45 0.57 c p3
427.09 104.58 0.57 c p3
427.05 104.63 0.57 c p3
426.98 104.67 0.57 c p3
426.94 104.76 0.57 c p3
426.91 104.80 0.57 c p3
426.87 104.89 0.57 c p3
426.83 104.97 0.57 c p3
426.79 105.09 0.57 c p3
426.76 105.18 0.57 c p3
426.72 105.22 0.57 c p3
426.68 105.26 0.57 c p3
426.64 105.38 0.57 c p3
426.61 105.46 0.57 c p3
426.57 105.49 0.57 c p3
426.53 105.57 0.57 c p3
426.49 105.61 0.57 c p3
426.45 105.65 0.57 c p3
426.41 105.88 0.57 c p3
426.37 106.02 0.57 c p3
426.33 106.10 0.57 c p3
426.30 106.13 0.57 c p3
426.26 106.20 0.57 c p3
426.22 106.35 0.57 c p3
426.18 106.41 0.57 c p3
426.14 106.45 0.57 c p3
426.10 106.48 0.57 c p3
426.06 106.52 0.57 c p3
426.02 106.55 0.57 c p3
425.97 106.69 0.57 c p3
425.93 106.85 0.57 c p3
425.89 106.98 0.57 c p3
425.85 107.14 0.57 c p3
425.77 107.18 0.57 c p3
425.73 107.27 0.57 c p3
425.68 107.42 0.57 c p3
425.64 107.45 0.57 c p3
425.60 107.55 0.57 c p3
425.56 107.66 0.57 c p3
425.51 107.69 0.57 c p3
425.47 107.78 0.57 c p3
425.43 107.87 0.57 c p3
425.39 108.04 0.57 c p3
425.34 108.07 0.57 c p3
425.30 108.21 0.57 c p3
425.25 108.26 0.57 c p3
425.21 108.34 0.57 c p3
425.17 108.43 0.57 c p3
425.12 108.45 0.57 c p3
425.08 108.64 0.57 c p3
425.03 108.72 0.57 c p3
424.99 108.74 0.57 c p3
424.94 108.84 0.57 c p3
424.90 108.92 0.57 c p3
424.85 109.07 0.57 c p3
424.80 109.19 0.57 c p3
424.71 109.27 0.57 c p3
424.66 109.31 0.57 c p3
424.62 109.36 0.57 c p3
424.57 109.43 0.57 c p3
424.52 109.53 0.57 c p3
424.47 109.62 0.57 c p3
424.43 109.67 0.57 c p3
424.38 109.80 0.57 c p3
424.33 109.94 0.57 c p3
424.28 110.03 0.57 c p3
424.23 110.13 0.57 c p3
424.18 110.18 0.57 c p3
424.13 110.26 0.57 c p3
424.08 110.35 0.57 c p3
424.03 110.43 0.57 c p3
423.98 110.51 0.57 c p3
423.93 110.58 0.57 c p3
423.88 110.70 0.57 c p3
423.83 110.92 0.57 c p3
423.78 111.01 0.57 c p3
423.73 111.17 0.57 c p3
423.67 111.30 0.57 c p3
423.62 111.37 0.57 c p3
423.57 111.45 0.57 c p3
423.52 111.55 0.57 c p3
423.46 111.63 0.57 c p3
423.41 111.70 0.57 c p3
423.36 111.80 0.57 c p3
423.30 111.91 0.57 c p3
423.25 112.03 0.57 c p3
423.19 112.09 0.57 c p3
423.14 112.16 0.57 c p3
423.08 112.26 0.57 c p3
423.03 112.34 0.57 c p3
422.97 112.46 0.57 c p3
422.91 112.55 0.57 c p3
422.86 112.63 0.57 c p3
422.80 112.74 0.57 c p3
422.74 112.82 0.57 c p3
422.68 112.94 0.57 c p3
422.63 113.05 0.57 c p3
422.57 113.15 0.57 c p3
422.51 113.21 0.57 c p3
422.45 113.32 0.57 c p3
422.39 113.42 0.57 c p3
422.33 113.52 0.57 c p3
422.27 113.57 0.57 c p3
422.21 113.68 0.57 c p3
422.15 113.77 0.57 c p3
422.09 113.84 0.57 c p3
422.02 113.93 0.57 c p3
421.96 114.03 0.57 c p3
421.90 114.10 0.57 c p3
421.83 114.18 0.57 c p3
421.77 114.29 0.57 c p3
421.71 114.41 0.57 c p3
421.64 114.49 0.57 c p3
421.58 114.63 0.57 c p3
421.51 114.74 0.57 c p3
421.45 114.96 0.57 c p3
421.38 115.07 0.57 c p3
421.31 115.24 0.57 c p3
421.24 115.37 0.57 c p3
421.18 115.48 0.57 c p3
421.11 115.62 0.57 c p3
421.04 115.77 0.57 c p3
420.97 115.86 0.57 c p3
420.90 115.96 0.57 c p3
420.83 116.04 0.57 c p3
420.76 116.12 0.57 c p3
420.69 116.24 0.57 c p3
420.61 116.38 0.57 c p3
420.54 116.52 0.57 c p3
420.47 116.66 0.57 c p3
420.39 116.76 0.57 c p3
420.32 116.86 0.57 c p3
420.25 116.97 0.57 c p3
420.17 117.09 0.57 c p3
420.09 117.29 0.57 c p3
420.02 117.39 0.57 c p3
419.94 117.52 0.57 c p3
419.86 117.69 0.57 c p3
419.78 117.82 0.57 c p3
419.70 117.95 0.57 c p3
419.62 118.04 0.57 c p3
419.54 118.16 0.57 c p3
419.46 118.31 0.57 c p3
419.38 118.46 0.57 c p3
419.29 118.58 0.57 c p3
419.21 118.73 0.57 c p3
419.13 118.88 0.57 c p3
419.04 119.03 0.57 c p3
418.95 119.14 0.57 c p3
418.87 119.27 0.57 c p3
418.78 119.43 0.57 c p3
418.69 119.59 0.57 c p3
418.60 119.71 0.57 c p3
418.51 119.79 0.57 c p3
418.42 119.96 0.57 c p3
418.33 120.11 0.57 c p3
418.24 120.27 0.57 c p3
418.14 120.41 0.57 c p3
418.05 120.56 0.57 c p3
417.95 120.73 0.57 c p3
417.85 120.89 0.57 c p3
417.76 121.03 0.57 c p3
417.66 121.19 0.57 c p3
417.56 121.34 0.57 c p3
417.46 121.48 0.57 c p3
417.36 121.68 0.57 c p3
417.25 121.86 0.57 c p3
417.15 122.00 0.57 c p3
417.04 122.20 0.57 c p3
416.94 122.34 0.57 c p3
416.83 122.49 0.57 c p3
416.72 122.61 0.57 c p3
416.61 122.80 0.57 c p3
416.50 122.98 0.57 c p3
416.38 123.10 0.57 c p3
416.27 123.29 0.57 c p3
416.15 123.51 0.57 c p3
416.03 123.67 0.57 c p3
415.92 123.86 0.57 c p3
415.80 124.07 0.57 c p3
415.67 124.24 0.57 c p3
415.55 124.45 0.57 c p3
415.42 124.63 0.57 c p3
415.30 124.80 0.57 c p3
415.17 125.04 0.57 c p3
415.04 125.24 0.57 c p3
414.90 125.43 0.57 c p3
414.77 125.61 0.57 c p3
414.63 125.79 0.57 c p3
414.50 126.00 0.57 c p3
414.36 126.20 0.57 c p3
414.21 126.42 0.57 c p3
414.07 126.67 0.57 c p3
413.92 126.89 0.57 c p3
413.77 127.10 0.57 c p3
413.62 127.31 0.57 c p3
413.47 127.54 0.57 c p3
413.31 127.74 0.57 c p3
413.15 127.95 0.57 c p3
412.99 128.17 0.57 c p3
412.82 128.38 0.57 c p3
412.65 128.62 0.57 c p3
412.48 128.83 0.57 c p3
412.31 129.07 0.57 c p3
412.13 129.34 0.57 c p3
411.95 129.56 0.57 c p3
411.76 129.77 0.57 c p3
411.57 130.03 0.57 c p3
411.38 130.27 0.57 c p3
411.18 130.50 0.57 c p3
410.98 130.76 0.57 c p3
410.78 131.02 0.57 c p3
410.57 131.29 0.57 c p3
410.35 131.56 0.57 c p3
410.13 131.86 0.57 c p3
409.91 132.15 0.57 c p3
409.68 132.45 0.57 c p3
409.44 132.70 0.57 c p3
409.20 132.99 0.57 c p3
408.95 133.31 0.57 c p3
408.69 133.65 0.57 c p3
408.43 133.95 0.57 c p3
408.16 134.29 0.57 c p3
407.88 134.61 0.57 c p3
407.59 134.97 0.57 c p3
407.30 135.31 0.57 c p3
406.99 135.66 0.57 c p3
406.67 136.01 0.57 c p3
406.35 136.37 0.57 c p3
406.01 136.77 0.57 c p3
405.65 137.14 0.57 c p3
405.29 137.53 0.57 c p3
404.91 137.95 0.57 c p3
404.51 138.33 0.57 c p3
404.09 138.77 0.57 c p3
403.66 139.21 0.57 c p3
403.20 139.68 0.57 c p3
402.73 140.17 0.57 c p3
402.22 140.66 0.57 c p3
401.69 141.15 0.57 c p3
401.12 141.69 0.57 c p3
400.52 142.22 0.57 c p3
399.87 142.80 0.57 c p3
399.18 143.42 0.57 c p3
398.43 144.03 0.57 c p3
397.62 144.68 0.57 c p3
396.73 145.37 0.57 c p3
395.75 146.10 0.57 c p3
394.65 146.89 0.57 c p3
393.40 147.70 0.57 c p3
391.96 148.58 0.57 c p3
390.26 149.54 0.57 c p3
388.17 150.58 0.57 c p3
385.49 151.76 0.57 c p3
381.70 153.03 0.57 c p3
0.4980 0.4980 0.4980 srgb
1.07 setlinewidth
[] 0 setdash
377.01 54.56 103.16 103.16 r p1
0.00 0.00 595.28 198.43 cl
486.14 54.56 589.30 157.71 cl
/bg { 1 1 1 srgb } def
486.14 54.56 103.16 103.16 r p2
0.9804 0.9804 0.9804 srgb
1.07 setlinewidth
[] 0 setdash
0 setlinecap
1 setlinejoin
10.00 setmiterlimit
np
486.14 62.66 m
103.16 0 l
o
np
486.14 98.81 m
103.16 0 l
o
np
486.14 134.95 m
103.16 0 l
o
np
495.11 54.56 m
0 103.15 l
o
np
516.62 54.56 m
0 103.15 l
o
np
538.12 54.56 m
0 103.15 l
o
np
559.63 54.56 m
0 103.15 l
o
np
581.13 54.56 m
0 103.15 l
o
0.8980 0.8980 0.8980 srgb
0.43 setlinewidth
[] 0 setdash
np
486.14 80.73 m
103.16 0 l
o
np
486.14 116.88 m
103.16 0 l
o
np
486.14 153.03 m
103.16 0 l
o
np
505.86 54.56 m
0 103.15 l
o
np
527.37 54.56 m
0 103.15 l
o
np
548.87 54.56 m
0 103.15 l
o
np
570.38 54.56 m
0 103.15 l
o
/bg { 0 0 0 srgb } def
0 0 0 srgb
0.71 setlinewidth
[] 0 setdash
1 setlinecap
568.04 61.41 0.57 c p3
564.01 66.85 0.57 c p3
563.87 70.04 0.57 c p3
563.49 72.29 0.57 c p3
562.67 74.04 0.57 c p3
562.25 75.48 0.57 c p3
561.86 76.69 0.57 c p3
561.70 77.73 0.57 c p3
561.02 78.66 0.57 c p3
560.45 79.49 0.57 c p3
560.45 80.23 0.57 c p3
560.00 80.92 0.57 c p3
559.92 81.54 0.57 c p3
559.75 82.13 0.57 c p3
559.61 82.67 0.57 c p3
559.18 83.17 0.57 c p3
559.01 83.65 0.57 c p3
558.95 84.10 0.57 c p3
558.58 84.52 0.57 c p3
558.57 84.93 0.57 c p3
558.06 85.31 0.57 c p3
558.04 85.67 0.57 c p3
557.97 86.02 0.57 c p3
557.83 86.36 0.57 c p3
557.82 86.68 0.57 c p3
557.77 86.99 0.57 c p3
557.06 87.28 0.57 c p3
556.93 87.57 0.57 c p3
556.91 87.84 0.57 c p3
556.82 88.11 0.57 c p3
556.78 88.37 0.57 c p3
556.72 88.61 0.57 c p3
556.67 88.86 0.57 c p3
556.67 89.09 0.57 c p3
556.65 89.54 0.57 c p3
556.60 89.75 0.57 c p3
556.58 89.96 0.57 c p3
556.54 90.17 0.57 c p3
556.52 90.37 0.57 c p3
556.49 90.56 0.57 c p3
556.44 90.75 0.57 c p3
556.43 90.93 0.57 c p3
556.39 91.11 0.57 c p3
556.37 91.29 0.57 c p3
556.31 91.46 0.57 c p3
556.24 91.63 0.57 c p3
556.09 91.80 0.57 c p3
556.08 91.96 0.57 c p3
555.93 92.12 0.57 c p3
555.84 92.27 0.57 c p3
555.81 92.43 0.57 c p3
555.81 92.58 0.57 c p3
555.79 92.72 0.57 c p3
555.70 92.87 0.57 c p3
555.60 93.01 0.57 c p3
555.25 93.15 0.57 c p3
555.17 93.28 0.57 c p3
555.13 93.42 0.57 c p3
555.07 93.55 0.57 c p3
555.06 93.81 0.57 c p3
554.98 93.93 0.57 c p3
554.94 94.06 0.57 c p3
554.93 94.18 0.57 c p3
554.86 94.30 0.57 c p3
554.84 94.42 0.57 c p3
554.80 94.53 0.57 c p3
554.74 94.65 0.57 c p3
554.68 94.76 0.57 c p3
554.64 94.87 0.57 c p3
554.54 94.98 0.57 c p3
554.52 95.09 0.57 c p3
554.43 95.20 0.57 c p3
554.34 95.30 0.57 c p3
554.33 95.40 0.57 c p3
554.20 95.61 0.57 c p3
554.18 95.71 0.57 c p3
554.13 95.81 0.57 c p3
554.12 95.90 0.57 c p3
554.11 96.00 0.57 c p3
554.09 96.10 0.57 c p3
553.92 96.19 0.57 c p3
553.87 96.28 0.57 c p3
553.84 96.37 0.57 c p3
553.82 96.47 0.57 c p3
553.80 96.56 0.57 c p3
553.79 96.64 0.57 c p3
553.72 96.73 0.57 c p3
553.68 96.82 0.57 c p3
553.64 96.90 0.57 c p3
553.60 96.99 0.57 c p3
553.49 97.07 0.57 c p3
553.47 97.16 0.57 c p3
553.45 97.24 0.57 c p3
553.44 97.32 0.57 c p3
553.43 97.40 0.57 c p3
553.41 97.48 0.57 c p3
553.40 97.56 0.57 c p3
553.39 97.64 0.57 c p3
553.26 97.71 0.57 c p3
553.25 97.79 0.57 c p3
553.24 97.87 0.57 c p3
553.21 97.94 0.57 c p3
553.21 98.02 0.57 c p3
553.18 98.09 0.57 c p3
553.16 98.16 0.57 c p3
553.14 98.31 0.57 c p3
553.07 98.38 0.57 c p3
553.06 98.45 0.57 c p3
553.06 98.59 0.57 c p3
553.03 98.66 0.57 c p3
553.00 98.72 0.57 c p3
553.00 98.79 0.57 c p3
552.98 98.86 0.57 c p3
552.94 98.92 0.57 c p3
552.92 98.99 0.57 c p3
552.91 99.05 0.57 c p3
552.80 99.12 0.57 c p3
552.75 99.18 0.57 c p3
552.74 99.25 0.57 c p3
552.74 99.37 0.57 c p3
552.72 99.43 0.57 c p3
552.69 99.56 0.57 c p3
552.67 99.62 0.57 c p3
552.62 99.68 0.57 c p3
552.61 99.80 0.57 c p3
552.59 99.86 0.57 c p3
552.59 99.97 0.57 c p3
552.55 100.03 0.57 c p3
552.52 100.14 0.57 c p3
552.49 100.20 0.57 c p3
552.47 100.26 0.57 c p3
552.44 100.31 0.57 c p3
552.43 100.37 0.57 c p3
552.41 100.42 0.57 c p3
552.40 100.47 0.57 c p3
552.39 100.53 0.57 c p3
552.28 100.64 0.57 c p3
552.27 100.69 0.57 c p3
552.26 100.74 0.57 c p3
552.14 100.79 0.57 c p3
552.12 100.84 0.57 c p3
552.11 100.90 0.57 c p3
552.08 100.95 0.57 c p3
552.07 101.05 0.57 c p3
551.97 101.10 0.57 c p3
551.94 101.15 0.57 c p3
551.93 101.20 0.57 c p3
551.92 101.25 0.57 c p3
551.78 101.30 0.57 c p3
551.77 101.34 0.57 c p3
551.76 101.39 0.57 c p3
551.75 101.44 0.57 c p3
551.73 101.49 0.57 c p3
551.70 101.54 0.57 c p3
551.66 101.58 0.57 c p3
551.63 101.63 0.57 c p3
551.62 101.68 0.57 c p3
551.52 101.72 0.57 c p3
551.48 101.77 0.57 c p3
551.42 101.82 0.57 c p3
551.40 101.86 0.57 c p3
551.38 101.95 0.57 c p3
551.32 102.00 0.57 c p3
551.31 102.04 0.57 c p3
551.30 102.08 0.57 c p3
551.26 102.13 0.57 c p3
551.24 102.17 0.57 c p3
551.23 102.22 0.57 c p3
551.22 102.26 0.57 c p3
551.21 102.30 0.57 c p3
551.16 102.34 0.57 c p3
551.13 102.39 0.57 c p3
551.11 102.43 0.57 c p3
551.11 102.47 0.57 c p3
551.05 102.51 0.57 c p3
551.02 102.55 0.57 c p3
550.98 102.64 0.57 c p3
550.97 102.68 0.57 c p3
550.94 102.72 0.57 c p3
550.92 102.76 0.57 c p3
550.88 102.84 0.57 c p3
550.85 102.88 0.57 c p3
550.83 102.92 0.57 c p3
550.81 103.00 0.57 c p3
550.79 103.04 0.57 c p3
550.76 103.12 0.57 c p3
550.66 103.19 0.57 c p3
550.65 103.23 0.57 c p3
550.62 103.31 0.57 c p3
550.62 103.34 0.57 c p3
550.59 103.38 0.57 c p3
550.55 103.49 0.57 c p3
550.54 103.53 0.57 c p3
550.52 103.57 0.57 c p3
550.49 103.60 0.57 c p3
550.48 103.64 0.57 c p3
550.45 103.68 0.57 c p3
550.39 103.71 0.57 c p3
550.38 103.75 0.57 c p3
550.37 103.78 0.57 c p3
550.32 103.89 0.57 c p3
550.29 103.92 0.57 c p3
550.20 103.99 0.57 c p3
550.19 104.06 0.57 c p3
550.17 104.10 0.57 c p3
550.16 104.16 0.57 c p3
550.16 104.20 0.57 c p3
550.12 104.26 0.57 c p3
550.12 104.30 0.57 c p3
550.09 104.33 0.57 c p3
550.06 104.36 0.57 c p3
550.05 104.40 0.57 c p3
550.03 104.46 0.57 c p3
550.02 104.50 0.57 c p3
549.98 104.53 0.57 c p3
549.96 104.59 0.57 c p3
549.89 104.62 0.57 c p3
549.87 104.69 0.57 c p3
549.84 104.72 0.57 c p3
549.83 104.75 0.57 c p3
549.82 104.78 0.57 c p3
549.80 104.81 0.57 c p3
549.79 104.84 0.57 c p3
549.78 104.87 0.57 c p3
549.77 104.91 0.57 c p3
549.71 104.94 0.57 c p3
549.57 105.03 0.57 c p3
549.56 105.12 0.57 c p3
549.52 105.15 0.57 c p3
549.51 105.18 0.57 c p3
549.50 105.24 0.57 c p3
549.47 105.30 0.57 c p3
549.45 105.33 0.57 c p3
549.44 105.35 0.57 c p3
549.43 105.38 0.57 c p3
549.42 105.41 0.57 c p3
549.41 105.44 0.57 c p3
549.40 105.50 0.57 c p3
549.38 105.56 0.57 c p3
549.38 105.58 0.57 c p3
549.35 105.64 0.57 c p3
549.33 105.67 0.57 c p3
549.31 105.72 0.57 c p3
549.30 105.78 0.57 c p3
549.30 105.81 0.57 c p3
549.28 105.83 0.57 c p3
549.27 105.86 0.57 c p3
549.24 105.92 0.57 c p3
549.21 105.94 0.57 c p3
549.21 106.00 0.57 c p3
549.20 106.02 0.57 c p3
549.19 106.05 0.57 c p3
549.18 106.10 0.57 c p3
549.12 106.13 0.57 c p3
549.11 106.21 0.57 c p3
549.11 106.23 0.57 c p3
549.09 106.29 0.57 c p3
549.06 106.31 0.57 c p3
549.05 106.36 0.57 c p3
549.04 106.39 0.57 c p3
549.01 106.41 0.57 c p3
549.00 106.44 0.57 c p3
548.99 106.46 0.57 c p3
548.92 106.51 0.57 c p3
548.89 106.54 0.57 c p3
548.87 106.56 0.57 c p3
548.83 106.59 0.57 c p3
548.82 106.61 0.57 c p3
548.76 106.64 0.57 c p3
548.73 106.66 0.57 c p3
548.71 106.69 0.57 c p3
548.66 106.71 0.57 c p3
548.63 106.76 0.57 c p3
548.62 106.79 0.57 c p3
548.60 106.81 0.57 c p3
548.59 106.86 0.57 c p3
548.58 106.88 0.57 c p3
548.57 106.93 0.57 c p3
548.56 106.98 0.57 c p3
548.52 107.02 0.57 c p3
548.48 107.07 0.57 c p3
548.45 107.12 0.57 c p3
548.44 107.14 0.57 c p3
548.41 107.16 0.57 c p3
548.39 107.19 0.57 c p3
548.33 107.21 0.57 c p3
548.32 107.23 0.57 c p3
548.31 107.26 0.57 c p3
548.29 107.28 0.57 c p3
548.28 107.30 0.57 c p3
548.27 107.35 0.57 c p3
548.25 107.37 0.57 c p3
548.24 107.41 0.57 c p3
548.23 107.44 0.57 c p3
548.22 107.46 0.57 c p3
548.21 107.48 0.57 c p3
548.19 107.50 0.57 c p3
548.17 107.55 0.57 c p3
548.12 107.57 0.57 c p3
548.10 107.59 0.57 c p3
548.09 107.61 0.57 c p3
548.08 107.66 0.57 c p3
548.07 107.72 0.57 c p3
548.04 107.74 0.57 c p3
548.02 107.78 0.57 c p3
548.01 107.83 0.57 c p3
547.98 107.85 0.57 c p3
547.96 107.89 0.57 c p3
547.95 107.97 0.57 c p3
547.90 108.02 0.57 c p3
547.89 108.04 0.57 c p3
547.87 108.10 0.57 c p3
547.85 108.12 0.57 c p3
547.84 108.16 0.57 c p3
547.82 108.22 0.57 c p3
547.81 108.24 0.57 c p3
547.80 108.26 0.57 c p3
547.79 108.28 0.57 c p3
547.74 108.30 0.57 c p3
547.71 108.32 0.57 c p3
547.68 108.34 0.57 c p3
547.66 108.36 0.57 c p3
547.64 108.38 0.57 c p3
547.63 108.40 0.57 c p3
547.62 108.42 0.57 c p3
547.61 108.46 0.57 c p3
547.59 108.50 0.57 c p3
547.57 108.52 0.57 c p3
547.56 108.54 0.57 c p3
547.52 108.56 0.57 c p3
547.51 108.58 0.57 c p3
547.50 108.59 0.57 c p3
547.48 108.61 0.57 c p3
547.47 108.65 0.57 c p3
547.44 108.69 0.57 c p3
547.43 108.71 0.57 c p3
547.42 108.73 0.57 c p3
547.41 108.75 0.57 c p3
547.39 108.78 0.57 c p3
547.37 108.80 0.57 c p3
547.36 108.82 0.57 c p3
547.35 108.88 0.57 c p3
547.34 108.92 0.57 c p3
547.32 108.93 0.57 c p3
547.31 108.99 0.57 c p3
547.30 109.03 0.57 c p3
547.28 109.04 0.57 c p3
547.25 109.08 0.57 c p3
547.24 109.10 0.57 c p3
547.22 109.12 0.57 c p3
547.21 109.15 0.57 c p3
547.20 109.19 0.57 c p3
547.19 109.22 0.57 c p3
547.18 109.24 0.57 c p3
547.17 109.26 0.57 c p3
547.13 109.29 0.57 c p3
547.11 109.33 0.57 c p3
547.09 109.35 0.57 c p3
547.08 109.36 0.57 c p3
547.07 109.38 0.57 c p3
547.06 109.40 0.57 c p3
547.04 109.42 0.57 c p3
547.02 109.43 0.57 c p3
547.01 109.45 0.57 c p3
547.00 109.49 0.57 c p3
546.99 109.50 0.57 c p3
546.98 109.52 0.57 c p3
546.96 109.54 0.57 c p3
546.94 109.55 0.57 c p3
546.92 109.59 0.57 c p3
546.88 109.60 0.57 c p3
546.87 109.64 0.57 c p3
546.86 109.65 0.57 c p3
546.85 109.69 0.57 c p3
546.83 109.74 0.57 c p3
546.81 109.76 0.57 c p3
546.79 109.77 0.57 c p3
546.78 109.82 0.57 c p3
546.70 109.84 0.57 c p3
546.67 109.87 0.57 c p3
546.66 109.89 0.57 c p3
546.65 109.90 0.57 c p3
546.63 109.92 0.57 c p3
546.61 109.94 0.57 c p3
546.60 109.95 0.57 c p3
546.59 109.98 0.57 c p3
546.58 110.00 0.57 c p3
546.55 110.03 0.57 c p3
546.54 110.05 0.57 c p3
546.53 110.10 0.57 c p3
546.52 110.11 0.57 c p3
546.51 110.13 0.57 c p3
546.49 110.14 0.57 c p3
546.48 110.18 0.57 c p3
546.47 110.19 0.57 c p3
546.46 110.21 0.57 c p3
546.43 110.24 0.57 c p3
546.42 110.27 0.57 c p3
546.37 110.30 0.57 c p3
546.36 110.32 0.57 c p3
546.35 110.35 0.57 c p3
546.34 110.36 0.57 c p3
546.32 110.41 0.57 c p3
546.31 110.42 0.57 c p3
546.30 110.44 0.57 c p3
546.27 110.47 0.57 c p3
546.25 110.48 0.57 c p3
546.24 110.50 0.57 c p3
546.20 110.51 0.57 c p3
546.19 110.53 0.57 c p3
546.18 110.54 0.57 c p3
546.16 110.57 0.57 c p3
546.13 110.60 0.57 c p3
546.11 110.63 0.57 c p3
546.10 110.66 0.57 c p3
546.09 110.68 0.57 c p3
546.08 110.69 0.57 c p3
546.06 110.71 0.57 c p3
546.02 110.72 0.57 c p3
546.01 110.74 0.57 c p3
546.00 110.78 0.57 c p3
545.99 110.81 0.57 c p3
545.97 110.84 0.57 c p3
545.96 110.85 0.57 c p3
545.92 110.87 0.57 c p3
545.91 110.90 0.57 c p3
545.88 110.92 0.57 c p3
545.83 110.94 0.57 c p3
545.81 110.95 0.57 c p3
545.79 110.97 0.57 c p3
545.75 111.01 0.57 c p3
545.74 111.04 0.57 c p3
545.72 111.07 0.57 c p3
545.70 111.08 0.57 c p3
545.68 111.09 0.57 c p3
545.66 111.14 0.57 c p3
545.65 111.15 0.57 c p3
545.62 111.16 0.57 c p3
545.61 111.18 0.57 c p3
545.60 111.19 0.57 c p3
545.58 111.22 0.57 c p3
545.56 111.25 0.57 c p3
545.54 111.26 0.57 c p3
545.53 111.29 0.57 c p3
545.50 111.30 0.57 c p3
545.49 111.32 0.57 c p3
545.48 111.34 0.57 c p3
545.46 111.36 0.57 c p3
545.45 111.38 0.57 c p3
545.42 111.41 0.57 c p3
545.40 111.44 0.57 c p3
545.38 111.45 0.57 c p3
545.37 111.48 0.57 c p3
545.35 111.49 0.57 c p3
545.34 111.52 0.57 c p3
545.33 111.53 0.57 c p3
545.31 111.56 0.57 c p3
545.29 111.58 0.57 c p3
545.27 111.60 0.57 c p3
545.26 111.65 0.57 c p3
545.25 111.67 0.57 c p3
545.23 111.74 0.57 c p3
545.22 111.75 0.57 c p3
545.19 111.76 0.57 c p3
545.18 111.79 0.57 c p3
545.15 111.82 0.57 c p3
545.13 111.83 0.57 c p3
545.12 111.84 0.57 c p3
545.11 111.87 0.57 c p3
545.09 111.90 0.57 c p3
545.08 111.93 0.57 c p3
545.06 111.94 0.57 c p3
544.99 111.99 0.57 c p3
544.98 112.00 0.57 c p3
544.97 112.03 0.57 c p3
544.95 112.08 0.57 c p3
544.92 112.12 0.57 c p3
544.89 112.13 0.57 c p3
544.88 112.14 0.57 c p3
544.87 112.15 0.57 c p3
544.85 112.19 0.57 c p3
544.82 112.20 0.57 c p3
544.81 112.29 0.57 c p3
544.79 112.31 0.57 c p3
544.76 112.36 0.57 c p3
544.74 112.38 0.57 c p3
544.68 112.43 0.57 c p3
544.65 112.45 0.57 c p3
544.63 112.46 0.57 c p3
544.62 112.50 0.57 c p3
544.59 112.51 0.57 c p3
544.57 112.55 0.57 c p3
544.56 112.57 0.57 c p3
544.54 112.58 0.57 c p3
544.53 112.62 0.57 c p3
544.52 112.64 0.57 c p3
544.50 112.66 0.57 c p3
544.49 112.70 0.57 c p3
544.47 112.71 0.57 c p3
544.46 112.72 0.57 c p3
544.43 112.73 0.57 c p3
544.41 112.76 0.57 c p3
544.40 112.79 0.57 c p3
544.38 112.82 0.57 c p3
544.36 112.84 0.57 c p3
544.32 112.87 0.57 c p3
544.30 112.90 0.57 c p3
544.27 112.92 0.57 c p3
544.24 112.93 0.57 c p3
544.23 112.97 0.57 c p3
544.21 113.01 0.57 c p3
544.20 113.04 0.57 c p3
544.18 113.05 0.57 c p3
544.17 113.06 0.57 c p3
544.15 113.07 0.57 c p3
544.14 113.10 0.57 c p3
544.09 113.11 0.57 c p3
544.06 113.13 0.57 c p3
544.04 113.14 0.57 c p3
544.03 113.15 0.57 c p3
544.01 113.17 0.57 c p3
543.99 113.20 0.57 c p3
543.98 113.21 0.57 c p3
543.96 113.23 0.57 c p3
543.93 113.24 0.57 c p3
543.90 113.25 0.57 c p3
543.88 113.29 0.57 c p3
543.87 113.33 0.57 c p3
543.85 113.34 0.57 c p3
543.82 113.35 0.57 c p3
543.80 113.39 0.57 c p3
543.79 113.42 0.57 c p3
543.77 113.44 0.57 c p3
543.74 113.45 0.57 c p3
543.72 113.49 0.57 c p3
543.71 113.52 0.57 c p3
543.69 113.58 0.57 c p3
543.67 113.59 0.57 c p3
543.66 113.61 0.57 c p3
543.64 113.64 0.57 c p3
543.62 113.65 0.57 c p3
543.61 113.67 0.57 c p3
543.59 113.68 0.57 c p3
543.58 113.70 0.57 c p3
543.56 113.71 0.57 c p3
543.54 113.73 0.57 c p3
543.53 113.76 0.57 c p3
543.51 113.78 0.57 c p3
543.49 113.82 0.57 c p3
543.48 113.86 0.57 c p3
543.46 113.89 0.57 c p3
543.44 113.90 0.57 c p3
543.41 113.95 0.57 c p3
543.39 113.97 0.57 c p3
543.36 113.98 0.57 c p3
543.34 114.02 0.57 c p3
543.33 114.04 0.57 c p3
543.27 114.06 0.57 c p3
543.26 114.08 0.57 c p3
543.22 114.11 0.57 c p3
543.21 114.14 0.57 c p3
543.19 114.16 0.57 c p3
543.15 114.18 0.57 c p3
543.14 114.22 0.57 c p3
543.12 114.23 0.57 c p3
543.10 114.28 0.57 c p3
543.09 114.30 0.57 c p3
543.07 114.31 0.57 c p3
543.05 114.35 0.57 c p3
543.03 114.37 0.57 c p3
543.02 114.39 0.57 c p3
543.00 114.40 0.57 c p3
542.98 114.42 0.57 c p3
542.96 114.44 0.57 c p3
542.95 114.46 0.57 c p3
542.93 114.47 0.57 c p3
542.91 114.49 0.57 c p3
542.89 114.51 0.57 c p3
542.86 114.52 0.57 c p3
542.84 114.57 0.57 c p3
542.82 114.58 0.57 c p3
542.80 114.60 0.57 c p3
542.79 114.64 0.57 c p3
542.77 114.67 0.57 c p3
542.75 114.72 0.57 c p3
542.73 114.76 0.57 c p3
542.71 114.77 0.57 c p3
542.70 114.78 0.57 c p3
542.66 114.80 0.57 c p3
542.64 114.81 0.57 c p3
542.62 114.86 0.57 c p3
542.60 114.90 0.57 c p3
542.59 114.91 0.57 c p3
542.55 114.94 0.57 c p3
542.53 114.97 0.57 c p3
542.51 114.99 0.57 c p3
542.49 115.01 0.57 c p3
542.48 115.02 0.57 c p3
542.46 115.04 0.57 c p3
542.42 115.08 0.57 c p3
542.40 115.12 0.57 c p3
542.38 115.15 0.57 c p3
542.36 115.16 0.57 c p3
542.34 115.18 0.57 c p3
542.33 115.19 0.57 c p3
542.31 115.20 0.57 c p3
542.29 115.23 0.57 c p3
542.27 115.25 0.57 c p3
542.25 115.29 0.57 c p3
542.23 115.29 0.57 c p3
542.21 115.33 0.57 c p3
542.19 115.37 0.57 c p3
542.17 115.39 0.57 c p3
542.16 115.46 0.57 c p3
542.14 115.46 0.57 c p3
542.12 115.49 0.57 c p3
542.10 115.51 0.57 c p3
542.06 115.53 0.57 c p3
542.04 115.58 0.57 c p3
542.02 115.60 0.57 c p3
542.00 115.61 0.57 c p3
541.98 115.64 0.57 c p3
541.96 115.65 0.57 c p3
541.94 115.69 0.57 c p3
541.92 115.70 0.57 c p3
541.90 115.74 0.57 c p3
541.88 115.78 0.57 c p3
541.86 115.81 0.57 c p3
541.84 115.83 0.57 c p3
541.82 115.84 0.57 c p3
541.80 115.88 0.57 c p3
541.78 115.89 0.57 c p3
541.76 115.92 0.57 c p3
541.74 115.95 0.57 c p3
541.72 116.00 0.57 c p3
541.70 116.01 0.57 c p3
541.68 116.02 0.57 c p3
541.66 116.04 0.57 c p3
541.62 116.05 0.57 c p3
541.60 116.08 0.57 c p3
541.58 116.11 0.57 c p3
541.56 116.12 0.57 c p3
541.52 116.13 0.57 c p3
541.50 116.16 0.57 c p3
541.48 116.18 0.57 c p3
541.46 116.19 0.57 c p3
541.44 116.21 0.57 c p3
541.42 116.23 0.57 c p3
541.40 116.27 0.57 c p3
541.38 116.28 0.57 c p3
541.35 116.29 0.57 c p3
541.33 116.29 0.57 c p3
541.31 116.33 0.57 c p3
541.29 116.35 0.57 c p3
541.25 116.37 0.57 c p3
541.23 116.38 0.57 c p3
541.21 116.41 0.57 c p3
541.19 116.45 0.57 c p3
541.14 116.46 0.57 c p3
541.12 116.50 0.57 c p3
541.10 116.51 0.57 c p3
541.08 116.54 0.57 c p3
541.06 116.56 0.57 c p3
541.04 116.59 0.57 c p3
541.01 116.62 0.57 c p3
540.99 116.63 0.57 c p3
540.97 116.64 0.57 c p3
540.95 116.65 0.57 c p3
540.93 116.67 0.57 c p3
540.91 116.70 0.57 c p3
540.88 116.72 0.57 c p3
540.86 116.74 0.57 c p3
540.84 116.76 0.57 c p3
540.82 116.77 0.57 c p3
540.79 116.78 0.57 c p3
540.77 116.82 0.57 c p3
540.75 116.82 0.57 c p3
540.73 116.83 0.57 c p3
540.71 116.85 0.57 c p3
540.68 116.88 0.57 c p3
540.66 116.89 0.57 c p3
540.64 116.92 0.57 c p3
540.62 116.94 0.57 c p3
540.59 116.96 0.57 c p3
540.57 116.98 0.57 c p3
540.55 116.99 0.57 c p3
540.52 117.01 0.57 c p3
540.50 117.02 0.57 c p3
540.48 117.04 0.57 c p3
540.46 117.08 0.57 c p3
540.43 117.11 0.57 c p3
540.41 117.15 0.57 c p3
540.39 117.17 0.57 c p3
540.36 117.21 0.57 c p3
540.32 117.24 0.57 c p3
540.29 117.28 0.57 c p3
540.27 117.33 0.57 c p3
540.25 117.36 0.57 c p3
540.22 117.39 0.57 c p3
540.20 117.43 0.57 c p3
540.18 117.45 0.57 c p3
540.15 117.46 0.57 c p3
540.13 117.49 0.57 c p3
540.10 117.50 0.57 c p3
540.08 117.53 0.57 c p3
540.06 117.54 0.57 c p3
540.03 117.58 0.57 c p3
540.01 117.62 0.57 c p3
539.98 117.65 0.57 c p3
539.96 117.67 0.57 c p3
539.94 117.71 0.57 c p3
539.91 117.73 0.57 c p3
539.89 117.74 0.57 c p3
539.86 117.79 0.57 c p3
539.84 117.80 0.57 c p3
539.81 117.85 0.57 c p3
539.79 117.88 0.57 c p3
539.76 117.89 0.57 c p3
539.74 117.92 0.57 c p3
539.71 117.94 0.57 c p3
539.69 117.98 0.57 c p3
539.66 117.99 0.57 c p3
539.64 118.00 0.57 c p3
539.61 118.02 0.57 c p3
539.59 118.09 0.57 c p3
539.56 118.13 0.57 c p3
539.54 118.15 0.57 c p3
539.51 118.17 0.57 c p3
539.49 118.19 0.57 c p3
539.46 118.24 0.57 c p3
539.44 118.27 0.57 c p3
539.41 118.28 0.57 c p3
539.38 118.31 0.57 c p3
539.36 118.34 0.57 c p3
539.33 118.39 0.57 c p3
539.31 118.41 0.57 c p3
539.28 118.44 0.57 c p3
539.25 118.46 0.57 c p3
539.23 118.48 0.57 c p3
539.20 118.50 0.57 c p3
539.18 118.54 0.57 c p3
539.15 118.57 0.57 c p3
539.12 118.61 0.57 c p3
539.10 118.62 0.57 c p3
539.07 118.66 0.57 c p3
539.04 118.69 0.57 c p3
539.02 118.71 0.57 c p3
538.99 118.76 0.57 c p3
538.96 118.79 0.57 c p3
538.94 118.83 0.57 c p3
538.91 118.88 0.57 c p3
538.88 118.91 0.57 c p3
538.85 118.95 0.57 c p3
538.83 118.97 0.57 c p3
538.80 119.00 0.57 c p3
538.77 119.04 0.57 c p3
538.74 119.06 0.57 c p3
538.72 119.09 0.57 c p3
538.69 119.13 0.57 c p3
538.66 119.15 0.57 c p3
538.63 119.18 0.57 c p3
538.60 119.20 0.57 c p3
538.58 119.22 0.57 c p3
538.55 119.25 0.57 c p3
538.52 119.26 0.57 c p3
538.49 119.29 0.57 c p3
538.46 119.32 0.57 c p3
538.43 119.36 0.57 c p3
538.41 119.40 0.57 c p3
538.38 119.42 0.57 c p3
538.35 119.46 0.57 c p3
538.32 119.48 0.57 c p3
538.29 119.50 0.57 c p3
538.26 119.53 0.57 c p3
538.23 119.55 0.57 c p3
538.20 119.58 0.57 c p3
538.17 119.60 0.57 c p3
538.14 119.64 0.57 c p3
538.12 119.67 0.57 c p3
538.09 119.69 0.57 c p3
538.06 119.73 0.57 c p3
538.03 119.76 0.57 c p3
538.00 119.79 0.57 c p3
537.97 119.83 0.57 c p3
537.94 119.86 0.57 c p3
537.91 119.88 0.57 c p3
537.88 119.90 0.57 c p3
537.85 119.92 0.57 c p3
537.82 119.95 0.57 c p3
537.78 119.99 0.57 c p3
537.75 120.04 0.57 c p3
537.72 120.07 0.57 c p3
537.69 120.10 0.57 c p3
537.66 120.17 0.57 c p3
537.63 120.19 0.57 c p3
537.60 120.21 0.57 c p3
537.57 120.24 0.57 c p3
537.54 120.28 0.57 c p3
537.50 120.30 0.57 c p3
537.47 120.33 0.57 c p3
537.44 120.39 0.57 c p3
537.41 120.42 0.57 c p3
537.38 120.46 0.57 c p3
537.35 120.49 0.57 c p3
537.31 120.51 0.57 c p3
537.28 120.54 0.57 c p3
537.25 120.57 0.57 c p3
537.22 120.60 0.57 c p3
537.18 120.63 0.57 c p3
537.15 120.64 0.57 c p3
537.12 120.68 0.57 c p3
537.09 120.71 0.57 c p3
537.05 120.75 0.57 c p3
537.02 120.79 0.57 c p3
536.99 120.82 0.57 c p3
536.95 120.88 0.57 c p3
536.92 120.93 0.57 c p3
536.89 120.95 0.57 c p3
536.85 120.96 0.57 c p3
536.82 120.97 0.57 c p3
536.78 121.00 0.57 c p3
536.75 121.04 0.57 c p3
536.71 121.08 0.57 c p3
536.68 121.11 0.57 c p3
536.65 121.12 0.57 c p3
536.61 121.15 0.57 c p3
536.58 121.19 0.57 c p3
536.54 121.24 0.57 c p3
536.51 121.27 0.57 c p3
536.47 121.29 0.57 c p3
536.44 121.33 0.57 c p3
536.40 121.36 0.57 c p3
536.37 121.39 0.57 c p3
536.33 121.43 0.57 c p3
536.29 121.45 0.57 c p3
536.26 121.49 0.57 c p3
536.22 121.52 0.57 c p3
536.19 121.55 0.57 c p3
536.15 121.59 0.57 c p3
536.11 121.65 0.57 c p3
536.08 121.68 0.57 c p3
536.04 121.71 0.57 c p3
536.00 121.73 0.57 c p3
535.96 121.78 0.57 c p3
535.93 121.80 0.57 c p3
535.89 121.83 0.57 c p3
535.85 121.86 0.57 c p3
535.81 121.90 0.57 c p3
535.78 121.93 0.57 c p3
535.74 121.95 0.57 c p3
535.70 121.99 0.57 c p3
535.66 122.01 0.57 c p3
535.62 122.06 0.57 c p3
535.58 122.08 0.57 c p3
535.55 122.12 0.57 c p3
535.51 122.17 0.57 c p3
535.47 122.21 0.57 c p3
535.43 122.22 0.57 c p3
535.39 122.25 0.57 c p3
535.35 122.29 0.57 c p3
535.31 122.35 0.57 c p3
535.27 122.39 0.57 c p3
535.23 122.42 0.57 c p3
535.19 122.47 0.57 c p3
535.15 122.51 0.57 c p3
535.11 122.55 0.57 c p3
535.07 122.59 0.57 c p3
535.03 122.65 0.57 c p3
534.98 122.66 0.57 c p3
534.94 122.71 0.57 c p3
534.90 122.74 0.57 c p3
534.86 122.76 0.57 c p3
534.82 122.81 0.57 c p3
534.78 122.84 0.57 c p3
534.73 122.89 0.57 c p3
534.69 122.93 0.57 c p3
534.65 122.97 0.57 c p3
534.61 122.99 0.57 c p3
534.56 123.03 0.57 c p3
534.52 123.09 0.57 c p3
534.47 123.15 0.57 c p3
534.43 123.17 0.57 c p3
534.39 123.22 0.57 c p3
534.34 123.25 0.57 c p3
534.30 123.27 0.57 c p3
534.25 123.30 0.57 c p3
534.21 123.33 0.57 c p3
534.16 123.39 0.57 c p3
534.12 123.43 0.57 c p3
534.07 123.46 0.57 c p3
534.03 123.50 0.57 c p3
533.98 123.56 0.57 c p3
533.94 123.61 0.57 c p3
533.89 123.65 0.57 c p3
533.84 123.68 0.57 c p3
533.80 123.75 0.57 c p3
533.75 123.79 0.57 c p3
533.70 123.84 0.57 c p3
533.65 123.88 0.57 c p3
533.61 123.92 0.57 c p3
533.56 123.97 0.57 c p3
533.51 124.01 0.57 c p3
533.46 124.06 0.57 c p3
533.41 124.10 0.57 c p3
533.36 124.14 0.57 c p3
533.31 124.20 0.57 c p3
533.27 124.25 0.57 c p3
533.22 124.28 0.57 c p3
533.17 124.31 0.57 c p3
533.11 124.34 0.57 c p3
533.06 124.37 0.57 c p3
533.01 124.43 0.57 c p3
532.96 124.48 0.57 c p3
532.91 124.52 0.57 c p3
532.86 124.57 0.57 c p3
532.81 124.61 0.57 c p3
532.75 124.65 0.57 c p3
532.70 124.70 0.57 c p3
532.65 124.74 0.57 c p3
532.60 124.79 0.57 c p3
532.54 124.82 0.57 c p3
532.49 124.87 0.57 c p3
532.43 124.91 0.57 c p3
532.38 124.96 0.57 c p3
532.33 125.00 0.57 c p3
532.27 125.05 0.57 c p3
532.21 125.10 0.57 c p3
532.16 125.16 0.57 c p3
532.10 125.21 0.57 c p3
532.05 125.27 0.57 c p3
531.99 125.32 0.57 c p3
531.93 125.38 0.57 c p3
531.87 125.41 0.57 c p3
531.82 125.46 0.57 c p3
531.76 125.50 0.57 c p3
531.70 125.57 0.57 c p3
531.64 125.62 0.57 c p3
531.58 125.68 0.57 c p3
531.52 125.72 0.57 c p3
531.46 125.79 0.57 c p3
531.40 125.83 0.57 c p3
531.34 125.86 0.57 c p3
531.28 125.93 0.57 c p3
531.22 125.97 0.57 c p3
531.16 126.01 0.57 c p3
531.09 126.06 0.57 c p3
531.03 126.10 0.57 c p3
530.97 126.14 0.57 c p3
530.90 126.19 0.57 c p3
530.84 126.24 0.57 c p3
530.77 126.29 0.57 c p3
530.71 126.35 0.57 c p3
530.64 126.39 0.57 c p3
530.58 126.46 0.57 c p3
530.51 126.51 0.57 c p3
530.44 126.57 0.57 c p3
530.38 126.64 0.57 c p3
530.31 126.73 0.57 c p3
530.24 126.78 0.57 c p3
530.17 126.83 0.57 c p3
530.10 126.87 0.57 c p3
530.03 126.93 0.57 c p3
529.96 127.00 0.57 c p3
529.89 127.07 0.57 c p3
529.82 127.15 0.57 c p3
529.75 127.22 0.57 c p3
529.67 127.29 0.57 c p3
529.60 127.36 0.57 c p3
529.53 127.42 0.57 c p3
529.45 127.49 0.57 c p3
529.38 127.55 0.57 c p3
529.30 127.62 0.57 c p3
529.23 127.68 0.57 c p3
529.15 127.77 0.57 c p3
529.07 127.83 0.57 c p3
528.99 127.91 0.57 c p3
528.92 127.96 0.57 c p3
528.84 128.02 0.57 c p3
528.76 128.09 0.57 c p3
528.67 128.18 0.57 c p3
528.59 128.25 0.57 c p3
528.51 128.31 0.57 c p3
528.43 128.38 0.57 c p3
528.34 128.47 0.57 c p3
528.26 128.54 0.57 c p3
528.17 128.61 0.57 c p3
528.09 128.69 0.57 c p3
528.00 128.77 0.57 c p3
527.91 128.83 0.57 c p3
527.82 128.92 0.57 c p3
527.74 129.01 0.57 c p3
527.65 129.09 0.57 c p3
527.55 129.17 0.57 c p3
527.46 129.26 0.57 c p3
527.37 129.36 0.57 c p3
527.28 129.47 0.57 c p3
527.18 129.54 0.57 c p3
527.08 129.63 0.57 c p3
526.99 129.71 0.57 c p3
526.89 129.80 0.57 c p3
526.79 129.91 0.57 c p3
526.69 130.03 0.57 c p3
526.59 130.12 0.57 c p3
526.49 130.22 0.57 c p3
526.39 130.31 0.57 c p3
526.28 130.41 0.57 c p3
526.18 130.51 0.57 c p3
526.07 130.61 0.57 c p3
525.96 130.71 0.57 c p3
525.85 130.79 0.57 c p3
525.74 130.90 0.57 c p3
525.63 131.00 0.57 c p3
525.52 131.10 0.57 c p3
525.40 131.20 0.57 c p3
525.29 131.29 0.57 c p3
525.17 131.38 0.57 c p3
525.05 131.49 0.57 c p3
524.93 131.61 0.57 c p3
524.81 131.73 0.57 c p3
524.68 131.85 0.57 c p3
524.56 131.99 0.57 c p3
524.43 132.09 0.57 c p3
524.30 132.21 0.57 c p3
524.17 132.33 0.57 c p3
524.04 132.45 0.57 c p3
523.90 132.57 0.57 c p3
523.77 132.70 0.57 c p3
523.63 132.82 0.57 c p3
523.49 132.96 0.57 c p3
523.35 133.08 0.57 c p3
523.20 133.20 0.57 c p3
523.05 133.35 0.57 c p3
522.90 133.47 0.57 c p3
522.75 133.62 0.57 c p3
522.60 133.76 0.57 c p3
522.44 133.91 0.57 c p3
522.28 134.05 0.57 c p3
522.12 134.20 0.57 c p3
521.95 134.36 0.57 c p3
521.79 134.54 0.57 c p3
521.61 134.71 0.57 c p3
521.44 134.89 0.57 c p3
521.26 135.07 0.57 c p3
521.08 135.26 0.57 c p3
520.90 135.43 0.57 c p3
520.71 135.60 0.57 c p3
520.51 135.78 0.57 c p3
520.32 135.97 0.57 c p3
520.12 136.15 0.57 c p3
519.91 136.34 0.57 c p3
519.70 136.56 0.57 c p3
519.49 136.77 0.57 c p3
519.27 136.98 0.57 c p3
519.04 137.20 0.57 c p3
518.81 137.42 0.57 c p3
518.57 137.63 0.57 c p3
518.33 137.85 0.57 c p3
518.08 138.07 0.57 c p3
517.83 138.31 0.57 c p3
517.56 138.56 0.57 c p3
517.29 138.80 0.57 c p3
517.01 139.03 0.57 c p3
516.73 139.29 0.57 c p3
516.43 139.55 0.57 c p3
516.12 139.82 0.57 c p3
515.81 140.11 0.57 c p3
515.48 140.40 0.57 c p3
515.14 140.70 0.57 c p3
514.79 141.01 0.57 c p3
514.42 141.30 0.57 c p3
514.04 141.62 0.57 c p3
513.64 141.95 0.57 c p3
513.23 142.30 0.57 c p3
512.79 142.67 0.57 c p3
512.34 143.04 0.57 c p3
511.86 143.42 0.57 c p3
511.35 143.83 0.57 c p3
510.82 144.23 0.57 c p3
510.25 144.68 0.57 c p3
509.65 145.13 0.57 c p3
509.01 145.59 0.57 c p3
508.31 146.07 0.57 c p3
507.57 146.54 0.57 c p3
506.75 147.07 0.57 c p3
505.86 147.58 0.57 c p3
504.88 148.14 0.57 c p3
503.78 148.69 0.57 c p3
502.53 149.28 0.57 c p3
501.09 149.86 0.57 c p3
499.39 150.50 0.57 c p3
497.31 151.13 0.57 c p3
494.62 151.86 0.57 c p3
490.83 153.03 0.57 c p3
0.4980 0.4980 0.4980 srgb
1.07 setlinewidth
[] 0 setdash
486.14 54.56 103.16 103.16 r p1
0.00 0.00 595.28 198.43 cl
0.00 0.00 595.28 198.43 cl
0.00 0.00 595.28 198.43 cl
0.00 0.00 595.28 198.43 cl
0.00 0.00 595.28 198.43 cl
0.00 0.00 595.28 198.43 cl
/Font1 findfont 12 s
0 0 0 srgb
21.77 75.05 (10) 0 0 t
/Font1 findfont 8 s
35.11 81.02 (-) 0 0 t
39.78 81.02 (4) 0 0 t
/Font1 findfont 12 s
21.77 111.20 (10) 0 0 t
/Font1 findfont 8 s
35.11 117.16 (-) 0 0 t
39.78 117.16 (2) 0 0 t
/Font1 findfont 12 s
26.44 147.35 (10) 0 0 t
/Font1 findfont 8 s
39.78 153.31 (0) 0 0 t
0.00 0.00 595.28 198.43 cl
0.00 0.00 595.28 198.43 cl
0 0 0 srgb
1.07 setlinewidth
[] 0 setdash
0 setlinecap
1 setlinejoin
10.00 setmiterlimit
np
46.62 80.73 m
2.99 0 l
o
np
46.62 116.88 m
2.99 0 l
o
np
46.62 153.03 m
2.99 0 l
o
0.00 0.00 595.28 198.43 cl
0.00 0.00 595.28 198.43 cl
0.00 0.00 595.28 198.43 cl
0.00 0.00 595.28 198.43 cl
0.00 0.00 595.28 198.43 cl
0.00 0.00 595.28 198.43 cl
0.00 0.00 595.28 198.43 cl
0.00 0.00 595.28 198.43 cl
0 0 0 srgb
1.07 setlinewidth
[] 0 setdash
0 setlinecap
1 setlinejoin
10.00 setmiterlimit
np
69.33 51.57 m
0 2.99 l
o
np
90.84 51.57 m
0 2.99 l
o
np
112.34 51.57 m
0 2.99 l
o
np
133.85 51.57 m
0 2.99 l
o
0.00 0.00 595.28 198.43 cl
0.00 0.00 595.28 198.43 cl
/Font1 findfont 12 s
0 0 0 srgb
60.44 37.59 (10) 0 0 t
/Font1 findfont 8 s
73.78 43.56 (1) 0 0 t
/Font1 findfont 12 s
81.94 37.59 (10) 0 0 t
/Font1 findfont 8 s
95.29 43.56 (2) 0 0 t
/Font1 findfont 12 s
103.45 37.59 (10) 0 0 t
/Font1 findfont 8 s
116.79 43.56 (3) 0 0 t
/Font1 findfont 12 s
124.95 37.59 (10) 0 0 t
/Font1 findfont 8 s
138.30 43.56 (4) 0 0 t
0.00 0.00 595.28 198.43 cl
0.00 0.00 595.28 198.43 cl
0.00 0.00 595.28 198.43 cl
0.00 0.00 595.28 198.43 cl
0.00 0.00 595.28 198.43 cl
0.00 0.00 595.28 198.43 cl
0.00 0.00 595.28 198.43 cl
0.00 0.00 595.28 198.43 cl
0 0 0 srgb
1.07 setlinewidth
[] 0 setdash
0 setlinecap
1 setlinejoin
10.00 setmiterlimit
np
178.46 51.57 m
0 2.99 l
o
np
199.97 51.57 m
0 2.99 l
o
np
221.48 51.57 m
0 2.99 l
o
np
242.98 51.57 m
0 2.99 l
o
0.00 0.00 595.28 198.43 cl
0.00 0.00 595.28 198.43 cl
/Font1 findfont 12 s
0 0 0 srgb
169.57 37.59 (10) 0 0 t
/Font1 findfont 8 s
182.91 43.56 (1) 0 0 t
/Font1 findfont 12 s
191.07 37.59 (10) 0 0 t
/Font1 findfont 8 s
204.42 43.56 (2) 0 0 t
/Font1 findfont 12 s
212.58 37.59 (10) 0 0 t
/Font1 findfont 8 s
225.92 43.56 (3) 0 0 t
/Font1 findfont 12 s
234.09 37.59 (10) 0 0 t
/Font1 findfont 8 s
247.43 43.56 (4) 0 0 t
0.00 0.00 595.28 198.43 cl
0.00 0.00 595.28 198.43 cl
0.00 0.00 595.28 198.43 cl
0.00 0.00 595.28 198.43 cl
0.00 0.00 595.28 198.43 cl
0.00 0.00 595.28 198.43 cl
0.00 0.00 595.28 198.43 cl
0.00 0.00 595.28 198.43 cl
0 0 0 srgb
1.07 setlinewidth
[] 0 setdash
0 setlinecap
1 setlinejoin
10.00 setmiterlimit
np
287.60 51.57 m
0 2.99 l
o
np
309.10 51.57 m
0 2.99 l
o
np
330.61 51.57 m
0 2.99 l
o
np
352.11 51.57 m
0 2.99 l
o
0.00 0.00 595.28 198.43 cl
0.00 0.00 595.28 198.43 cl
/Font1 findfont 12 s
0 0 0 srgb
278.70 37.59 (10) 0 0 t
/Font1 findfont 8 s
292.05 43.56 (1) 0 0 t
/Font1 findfont 12 s
300.21 37.59 (10) 0 0 t
/Font1 findfont 8 s
313.55 43.56 (2) 0 0 t
/Font1 findfont 12 s
321.71 37.59 (10) 0 0 t
/Font1 findfont 8 s
335.06 43.56 (3) 0 0 t
/Font1 findfont 12 s
343.22 37.59 (10) 0 0 t
/Font1 findfont 8 s
356.56 43.56 (4) 0 0 t
0.00 0.00 595.28 198.43 cl
0.00 0.00 595.28 198.43 cl
0.00 0.00 595.28 198.43 cl
0.00 0.00 595.28 198.43 cl
0.00 0.00 595.28 198.43 cl
0.00 0.00 595.28 198.43 cl
0.00 0.00 595.28 198.43 cl
0.00 0.00 595.28 198.43 cl
0 0 0 srgb
1.07 setlinewidth
[] 0 setdash
0 setlinecap
1 setlinejoin
10.00 setmiterlimit
np
396.73 51.57 m
0 2.99 l
o
np
418.24 51.57 m
0 2.99 l
o
np
439.74 51.57 m
0 2.99 l
o
np
461.25 51.57 m
0 2.99 l
o
0.00 0.00 595.28 198.43 cl
0.00 0.00 595.28 198.43 cl
/Font1 findfont 12 s
0 0 0 srgb
387.83 37.59 (10) 0 0 t
/Font1 findfont 8 s
401.18 43.56 (1) 0 0 t
/Font1 findfont 12 s
409.34 37.59 (10) 0 0 t
/Font1 findfont 8 s
422.68 43.56 (2) 0 0 t
/Font1 findfont 12 s
430.85 37.59 (10) 0 0 t
/Font1 findfont 8 s
444.19 43.56 (3) 0 0 t
/Font1 findfont 12 s
452.35 37.59 (10) 0 0 t
/Font1 findfont 8 s
465.70 43.56 (4) 0 0 t
0.00 0.00 595.28 198.43 cl
0.00 0.00 595.28 198.43 cl
0.00 0.00 595.28 198.43 cl
0.00 0.00 595.28 198.43 cl
0.00 0.00 595.28 198.43 cl
0.00 0.00 595.28 198.43 cl
0.00 0.00 595.28 198.43 cl
0.00 0.00 595.28 198.43 cl
0 0 0 srgb
1.07 setlinewidth
[] 0 setdash
0 setlinecap
1 setlinejoin
10.00 setmiterlimit
np
505.86 51.57 m
0 2.99 l
o
np
527.37 51.57 m
0 2.99 l
o
np
548.87 51.57 m
0 2.99 l
o
np
570.38 51.57 m
0 2.99 l
o
0.00 0.00 595.28 198.43 cl
0.00 0.00 595.28 198.43 cl
/Font1 findfont 12 s
0 0 0 srgb
496.97 37.59 (10) 0 0 t
/Font1 findfont 8 s
510.31 43.56 (1) 0 0 t
/Font1 findfont 12 s
518.47 37.59 (10) 0 0 t
/Font1 findfont 8 s
531.82 43.56 (2) 0 0 t
/Font1 findfont 12 s
539.98 37.59 (10) 0 0 t
/Font1 findfont 8 s
553.32 43.56 (3) 0 0 t
/Font1 findfont 12 s
561.48 37.59 (10) 0 0 t
/Font1 findfont 8 s
574.83 43.56 (4) 0 0 t
0.00 0.00 595.28 198.43 cl
0.00 0.00 595.28 198.43 cl
0.00 0.00 595.28 198.43 cl
0.00 0.00 595.28 198.43 cl
/Font1 findfont 12 s
0 0 0 srgb
308.79 23.97 (siz) 0 ta
-0.180 (e) tb gr
0.00 0.00 595.28 198.43 cl
0.00 0.00 595.28 198.43 cl
/Font1 findfont 12 s
0 0 0 srgb
16.98 106.14 (ccdf) .5 90 t
0.00 0.00 595.28 198.43 cl
0.00 0.00 595.28 198.43 cl
0.00 0.00 595.28 198.43 cl
0.00 0.00 595.28 198.43 cl
ep
%%Trailer
%%Pages: 1
%%EOF
