%!PS-Adobe-3.0 EPSF-3.0
%%DocumentNeededResources: font Helvetica
%%+ font Helvetica-Bold
%%+ font Helvetica-Oblique
%%+ font Helvetica-BoldOblique
%%+ font Symbol
%%Title: R Graphics Output
%%Creator: R Software
%%Pages: (atend)
%%BoundingBox: 0 0 595 283
%%EndComments
%%BeginProlog
/bp  { gs sRGB gs } def
% begin .ps.prolog
/gs  { gsave } bind def
/gr  { grestore } bind def
/ep  { showpage gr gr } bind def
/m   { moveto } bind def
/l  { rlineto } bind def
/np  { newpath } bind def
/cp  { closepath } bind def
/f   { fill } bind def
/o   { stroke } bind def
/c   { newpath 0 360 arc } bind def
/r   { 4 2 roll moveto 1 copy 3 -1 roll exch 0 exch rlineto 0 rlineto -1 mul 0 exch rlineto closepath } bind def
/p1  { stroke } bind def
/p2  { gsave bg fill grestore newpath } bind def
/p3  { gsave bg fill grestore stroke } bind def
/p6  { gsave bg eofill grestore newpath } bind def
/p7  { gsave bg eofill grestore stroke } bind def
/t   { 5 -2 roll moveto gsave rotate
       1 index stringwidth pop
       mul neg 0 rmoveto show grestore } bind def
/ta  { 4 -2 roll moveto gsave rotate show } bind def
/tb  { 2 -1 roll 0 rmoveto show } bind def
/cl  { grestore gsave newpath 3 index 3 index moveto 1 index
       4 -1 roll lineto  exch 1 index lineto lineto
       closepath clip newpath } bind def
/rgb { setrgbcolor } bind def
/s   { scalefont setfont } bind def
% end   .ps.prolog
/sRGB { [ /CIEBasedABC
          << /DecodeLMN
               [ { dup 0.03928 le
                        {12.92321 div}
                        {0.055 add 1.055 div 2.4 exp }
                     ifelse
                 } bind dup dup
               ]
             /MatrixLMN [0.412457 0.212673 0.019334
                         0.357576 0.715152 0.119192
                         0.180437 0.072175 0.950301]
             /WhitePoint [0.9505 1.0 1.0890]
           >>
         ] setcolorspace } bind def
/srgb { setcolor } bind def
%%IncludeResource: font Helvetica
/Helvetica findfont
dup length dict begin
  {1 index /FID ne {def} {pop pop} ifelse} forall
  /Encoding ISOLatin1Encoding def
  currentdict
  end
/Font1 exch definefont pop
%%IncludeResource: font Helvetica-Bold
/Helvetica-Bold findfont
dup length dict begin
  {1 index /FID ne {def} {pop pop} ifelse} forall
  /Encoding ISOLatin1Encoding def
  currentdict
  end
/Font2 exch definefont pop
%%IncludeResource: font Helvetica-Oblique
/Helvetica-Oblique findfont
dup length dict begin
  {1 index /FID ne {def} {pop pop} ifelse} forall
  /Encoding ISOLatin1Encoding def
  currentdict
  end
/Font3 exch definefont pop
%%IncludeResource: font Helvetica-BoldOblique
/Helvetica-BoldOblique findfont
dup length dict begin
  {1 index /FID ne {def} {pop pop} ifelse} forall
  /Encoding ISOLatin1Encoding def
  currentdict
  end
/Font4 exch definefont pop
%%IncludeResource: font Symbol
/Symbol findfont
dup length dict begin
  {1 index /FID ne {def} {pop pop} ifelse} forall
  currentdict
  end
/Font5 exch definefont pop
%%EndProlog
%%Page: 1 1
bp
0.00 0.00 595.28 283.46 cl
0.00 0.00 595.28 283.46 cl
0.00 0.00 595.28 283.46 cl
0.00 0.00 595.28 283.46 cl
0.00 0.00 595.28 283.46 cl
0.00 0.00 595.28 283.46 cl
0.00 0.00 595.28 283.46 cl
0.00 0.00 595.28 283.46 cl
0.00 0.00 595.28 283.46 cl
0.00 0.00 595.28 283.46 cl
/bg { 1 1 1 srgb } def
1 1 1 srgb
1.07 setlinewidth
[] 0 setdash
1 setlinecap
1 setlinejoin
10.00 setmiterlimit
0.00 0.00 595.28 283.46 r p3
0.00 0.00 595.28 283.46 cl
0.00 0.00 595.28 283.46 cl
0.00 0.00 595.28 283.46 cl
42.71 53.38 589.30 234.70 cl
/bg { 1 1 1 srgb } def
42.71 53.38 546.58 181.31 r p2
0.9804 0.9804 0.9804 srgb
1.07 setlinewidth
[] 0 setdash
0 setlinecap
1 setlinejoin
10.00 setmiterlimit
np
42.71 80.95 m
546.59 0 l
o
np
42.71 122.53 m
546.59 0 l
o
np
42.71 164.10 m
546.59 0 l
o
np
42.71 205.67 m
546.59 0 l
o
np
48.56 53.38 m
0 181.32 l
o
np
61.23 53.38 m
0 181.32 l
o
np
73.89 53.38 m
0 181.32 l
o
np
85.95 53.38 m
0 181.32 l
o
np
98.00 53.38 m
0 181.32 l
o
np
110.47 53.38 m
0 181.32 l
o
np
122.93 53.38 m
0 181.32 l
o
np
135.39 53.38 m
0 181.32 l
o
np
147.86 53.38 m
0 181.32 l
o
np
160.52 53.38 m
0 181.32 l
o
np
172.99 53.38 m
0 181.32 l
o
np
185.45 53.38 m
0 181.32 l
o
np
197.91 53.38 m
0 181.32 l
o
np
210.38 53.38 m
0 181.32 l
o
np
223.04 53.38 m
0 181.32 l
o
np
235.10 53.38 m
0 181.32 l
o
np
247.15 53.38 m
0 181.32 l
o
np
259.62 53.38 m
0 181.32 l
o
np
272.08 53.38 m
0 181.32 l
o
np
284.54 53.38 m
0 181.32 l
o
np
297.00 53.38 m
0 181.32 l
o
np
309.67 53.38 m
0 181.32 l
o
np
322.14 53.38 m
0 181.32 l
o
np
334.60 53.38 m
0 181.32 l
o
np
347.06 53.38 m
0 181.32 l
o
np
359.53 53.38 m
0 181.32 l
o
np
372.19 53.38 m
0 181.32 l
o
np
384.25 53.38 m
0 181.32 l
o
np
396.30 53.38 m
0 181.32 l
o
np
408.77 53.38 m
0 181.32 l
o
np
421.23 53.38 m
0 181.32 l
o
np
433.69 53.38 m
0 181.32 l
o
np
446.15 53.38 m
0 181.32 l
o
np
458.82 53.38 m
0 181.32 l
o
np
471.29 53.38 m
0 181.32 l
o
np
483.75 53.38 m
0 181.32 l
o
np
496.21 53.38 m
0 181.32 l
o
np
508.68 53.38 m
0 181.32 l
o
np
521.34 53.38 m
0 181.32 l
o
np
533.60 53.38 m
0 181.32 l
o
np
545.86 53.38 m
0 181.32 l
o
np
558.32 53.38 m
0 181.32 l
o
np
570.79 53.38 m
0 181.32 l
o
np
583.45 53.38 m
0 181.32 l
o
0.8980 0.8980 0.8980 srgb
0.43 setlinewidth
[] 0 setdash
np
42.71 60.17 m
546.59 0 l
o
np
42.71 101.74 m
546.59 0 l
o
np
42.71 143.31 m
546.59 0 l
o
np
42.71 184.88 m
546.59 0 l
o
np
42.71 226.45 m
546.59 0 l
o
np
54.89 53.38 m
0 181.32 l
o
np
67.56 53.38 m
0 181.32 l
o
np
80.23 53.38 m
0 181.32 l
o
np
91.67 53.38 m
0 181.32 l
o
np
104.34 53.38 m
0 181.32 l
o
np
116.59 53.38 m
0 181.32 l
o
np
129.26 53.38 m
0 181.32 l
o
np
141.52 53.38 m
0 181.32 l
o
np
154.19 53.38 m
0 181.32 l
o
np
166.86 53.38 m
0 181.32 l
o
np
179.12 53.38 m
0 181.32 l
o
np
191.78 53.38 m
0 181.32 l
o
np
204.04 53.38 m
0 181.32 l
o
np
216.71 53.38 m
0 181.32 l
o
np
229.38 53.38 m
0 181.32 l
o
np
240.82 53.38 m
0 181.32 l
o
np
253.49 53.38 m
0 181.32 l
o
np
265.74 53.38 m
0 181.32 l
o
np
278.41 53.38 m
0 181.32 l
o
np
290.67 53.38 m
0 181.32 l
o
np
303.34 53.38 m
0 181.32 l
o
np
316.01 53.38 m
0 181.32 l
o
np
328.27 53.38 m
0 181.32 l
o
np
340.93 53.38 m
0 181.32 l
o
np
353.19 53.38 m
0 181.32 l
o
np
365.86 53.38 m
0 181.32 l
o
np
378.53 53.38 m
0 181.32 l
o
np
389.97 53.38 m
0 181.32 l
o
np
402.64 53.38 m
0 181.32 l
o
np
414.89 53.38 m
0 181.32 l
o
np
427.56 53.38 m
0 181.32 l
o
np
439.82 53.38 m
0 181.32 l
o
np
452.49 53.38 m
0 181.32 l
o
np
465.16 53.38 m
0 181.32 l
o
np
477.42 53.38 m
0 181.32 l
o
np
490.08 53.38 m
0 181.32 l
o
np
502.34 53.38 m
0 181.32 l
o
np
515.01 53.38 m
0 181.32 l
o
np
527.68 53.38 m
0 181.32 l
o
np
539.53 53.38 m
0 181.32 l
o
np
552.19 53.38 m
0 181.32 l
o
np
564.45 53.38 m
0 181.32 l
o
np
577.12 53.38 m
0 181.32 l
o
0.8941 0.1020 0.1098 srgb
1.07 setlinewidth
[] 0 setdash
1.00 setmiterlimit
np
67.56 226.45 m
12.67 -126.46 l
11.44 2.06 l
12.67 -3.32 l
12.25 -9.65 l
12.67 -9.34 l
12.26 -1.56 l
12.67 0.66 l
12.67 -1.71 l
12.26 1.88 l
12.66 3.86 l
12.26 0.44 l
12.67 -2.06 l
12.67 -0.28 l
11.44 -2.75 l
12.67 4.06 l
12.25 2.00 l
12.67 -3.30 l
12.26 1.87 l
12.67 0.77 l
12.67 -6.85 l
12.26 -1.95 l
12.66 -0.01 l
12.26 -2.88 l
12.67 14.30 l
12.67 -13.79 l
11.44 -2.93 l
12.67 1.09 l
12.25 -0.94 l
12.67 1.63 l
12.26 3.41 l
12.67 -3.00 l
12.67 -2.52 l
12.26 -0.25 l
12.66 8.30 l
12.26 -5.14 l
12.67 -1.16 l
12.67 -1.00 l
11.85 -5.74 l
12.66 10.50 l
12.26 -3.75 l
o
0.3020 0.6863 0.2902 srgb
1.07 setlinewidth
[ 2.13 2.13] 0 setdash
np
67.56 226.45 m
12.67 -104.74 l
11.44 -7.40 l
12.67 0.56 l
12.25 -22.55 l
12.67 9.83 l
12.26 -12.03 l
12.67 0.45 l
12.67 -1.12 l
12.26 1.97 l
12.66 2.04 l
12.26 -4.12 l
12.67 2.23 l
12.67 -3.57 l
11.44 1.97 l
12.67 15.35 l
12.25 -16.26 l
12.67 3.40 l
12.26 -8.57 l
12.67 -0.32 l
12.67 -1.27 l
12.26 3.25 l
12.66 5.40 l
12.26 2.04 l
12.67 0.66 l
12.67 -2.81 l
11.44 -0.41 l
12.67 7.87 l
12.25 -5.43 l
12.67 2.40 l
12.26 -12.59 l
12.67 -1.02 l
12.67 -3.16 l
12.26 2.29 l
12.66 0.99 l
12.26 2.51 l
12.67 1.63 l
12.67 -0.71 l
11.85 -8.00 l
12.66 27.02 l
12.26 -4.02 l
o
0.5961 0.3059 0.6392 srgb
1.07 setlinewidth
[ 4.27 2.13] 0 setdash
np
67.56 226.45 m
12.67 -76.33 l
11.44 -15.58 l
12.67 -0.92 l
12.25 -5.84 l
12.67 -3.66 l
12.26 -14.01 l
12.67 -9.61 l
12.67 11.40 l
12.26 6.34 l
12.66 -19.09 l
12.26 3.24 l
12.67 11.17 l
12.67 6.67 l
11.44 -11.22 l
12.67 -3.48 l
12.25 6.47 l
12.67 -5.32 l
12.26 -5.03 l
12.67 5.23 l
12.67 -0.29 l
12.26 -7.77 l
12.66 7.48 l
12.26 -5.73 l
12.67 0.68 l
12.67 -4.90 l
11.44 -0.76 l
12.67 18.70 l
12.25 -15.04 l
12.67 6.12 l
12.26 -4.72 l
12.67 -0.73 l
12.67 5.07 l
12.26 -6.71 l
12.66 -1.86 l
12.26 6.18 l
12.67 -3.25 l
12.67 -5.04 l
11.85 -3.46 l
12.66 15.96 l
12.26 -9.25 l
o
1 0.4980 0 srgb
1.07 setlinewidth
[ 4.27 4.27] 0 setdash
np
253.49 226.45 m
12.25 -90.70 l
12.67 80.79 l
12.26 -33.66 l
12.67 -47.91 l
12.67 -38.39 l
12.26 -5.16 l
12.66 -2.25 l
12.26 -9.12 l
12.67 -6.42 l
12.67 13.64 l
11.44 -13.19 l
12.67 -4.73 l
12.25 2.58 l
12.67 -4.70 l
12.26 7.88 l
12.67 0.25 l
12.67 -6.27 l
12.26 3.89 l
12.66 -7.03 l
12.26 -0.24 l
12.67 6.65 l
12.67 -7.70 l
11.85 -3.04 l
12.66 7.23 l
12.26 -6.03 l
o
0.2157 0.4941 0.7216 srgb
1.07 setlinewidth
[ 1.07 3.20] 0 setdash
np
67.56 226.45 m
12.67 -125.95 l
11.44 -7.16 l
12.67 -3.22 l
12.25 -0.06 l
12.67 -1.67 l
12.26 -1.46 l
12.67 -0.08 l
12.67 -2.43 l
12.26 1.54 l
12.66 -0.85 l
12.26 0.60 l
12.67 3.25 l
12.67 -4.33 l
11.44 1.20 l
12.67 -2.08 l
12.25 32.64 l
12.67 -16.33 l
12.26 -0.53 l
12.67 0.42 l
12.67 -3.01 l
12.26 0.17 l
12.66 0.54 l
12.26 -0.89 l
12.67 -1.05 l
12.67 6.21 l
11.44 -5.24 l
12.67 2.90 l
12.25 1.44 l
12.67 -2.59 l
12.26 3.18 l
12.67 1.18 l
12.67 -4.59 l
12.26 2.81 l
12.66 0.05 l
12.26 1.85 l
12.67 -2.60 l
12.67 -2.16 l
11.85 -8.61 l
12.66 16.43 l
12.26 -5.92 l
o
0.4980 0.4980 0.4980 srgb
1.07 setlinewidth
[] 0 setdash
1 setlinecap
10.00 setmiterlimit
42.71 53.38 546.58 181.31 r p1
0.00 0.00 595.28 283.46 cl
0.00 0.00 595.28 283.46 cl
0.00 0.00 595.28 283.46 cl
0.00 0.00 595.28 283.46 cl
0.00 0.00 595.28 283.46 cl
0.00 0.00 595.28 283.46 cl
/Font1 findfont 8 s
0 0 0 srgb
37.33 57.30 (0.00) 1 0 t
37.33 98.87 (0.25) 1 0 t
37.33 140.44 (0.50) 1 0 t
37.33 182.01 (0.75) 1 0 t
37.33 223.58 (1.00) 1 0 t
0.00 0.00 595.28 283.46 cl
0.00 0.00 595.28 283.46 cl
0 0 0 srgb
1.07 setlinewidth
[] 0 setdash
0 setlinecap
1 setlinejoin
10.00 setmiterlimit
np
39.73 60.17 m
2.98 0 l
o
np
39.73 101.74 m
2.98 0 l
o
np
39.73 143.31 m
2.98 0 l
o
np
39.73 184.88 m
2.98 0 l
o
np
39.73 226.45 m
2.98 0 l
o
0.00 0.00 595.28 283.46 cl
0.00 0.00 595.28 283.46 cl
0.00 0.00 595.28 283.46 cl
0.00 0.00 595.28 283.46 cl
0.00 0.00 595.28 283.46 cl
0.00 0.00 595.28 283.46 cl
0.00 0.00 595.28 283.46 cl
0.00 0.00 595.28 283.46 cl
0 0 0 srgb
1.07 setlinewidth
[] 0 setdash
0 setlinecap
1 setlinejoin
10.00 setmiterlimit
np
54.89 50.39 m
0 2.99 l
o
np
67.56 50.39 m
0 2.99 l
o
np
80.23 50.39 m
0 2.99 l
o
np
91.67 50.39 m
0 2.99 l
o
np
104.34 50.39 m
0 2.99 l
o
np
116.59 50.39 m
0 2.99 l
o
np
129.26 50.39 m
0 2.99 l
o
np
141.52 50.39 m
0 2.99 l
o
np
154.19 50.39 m
0 2.99 l
o
np
166.86 50.39 m
0 2.99 l
o
np
179.12 50.39 m
0 2.99 l
o
np
191.78 50.39 m
0 2.99 l
o
np
204.04 50.39 m
0 2.99 l
o
np
216.71 50.39 m
0 2.99 l
o
np
229.38 50.39 m
0 2.99 l
o
np
240.82 50.39 m
0 2.99 l
o
np
253.49 50.39 m
0 2.99 l
o
np
265.74 50.39 m
0 2.99 l
o
np
278.41 50.39 m
0 2.99 l
o
np
290.67 50.39 m
0 2.99 l
o
np
303.34 50.39 m
0 2.99 l
o
np
316.01 50.39 m
0 2.99 l
o
np
328.27 50.39 m
0 2.99 l
o
np
340.93 50.39 m
0 2.99 l
o
np
353.19 50.39 m
0 2.99 l
o
np
365.86 50.39 m
0 2.99 l
o
np
378.53 50.39 m
0 2.99 l
o
np
389.97 50.39 m
0 2.99 l
o
np
402.64 50.39 m
0 2.99 l
o
np
414.89 50.39 m
0 2.99 l
o
np
427.56 50.39 m
0 2.99 l
o
np
439.82 50.39 m
0 2.99 l
o
np
452.49 50.39 m
0 2.99 l
o
np
465.16 50.39 m
0 2.99 l
o
np
477.42 50.39 m
0 2.99 l
o
np
490.08 50.39 m
0 2.99 l
o
np
502.34 50.39 m
0 2.99 l
o
np
515.01 50.39 m
0 2.99 l
o
np
527.68 50.39 m
0 2.99 l
o
np
539.53 50.39 m
0 2.99 l
o
np
552.19 50.39 m
0 2.99 l
o
np
564.45 50.39 m
0 2.99 l
o
np
577.12 50.39 m
0 2.99 l
o
0.00 0.00 595.28 283.46 cl
0.00 0.00 595.28 283.46 cl
/Font1 findfont 8 s
0 0 0 srgb
58.95 43.94 (2012-12) 1 45.00 t
71.62 43.94 (2013-01) 1 45.00 t
84.29 43.94 (2013-02) 1 45.00 t
95.73 43.94 (2013-03) 1 45.00 t
108.40 43.94 (2013-04) 1 45.00 t
120.66 43.94 (2013-05) 1 45.00 t
133.32 43.94 (2013-06) 1 45.00 t
145.58 43.94 (2013-07) 1 45.00 t
158.25 43.94 (2013-08) 1 45.00 t
170.92 43.94 (2013-09) 1 45.00 t
183.18 43.94 (2013-10) 1 45.00 t
195.84 43.94 (2013-11) 1 45.00 t
208.10 43.94 (2013-12) 1 45.00 t
220.77 43.94 (2014-01) 1 45.00 t
233.44 43.94 (2014-02) 1 45.00 t
244.88 43.94 (2014-03) 1 45.00 t
257.55 43.94 (2014-04) 1 45.00 t
269.81 43.94 (2014-05) 1 45.00 t
282.47 43.94 (2014-06) 1 45.00 t
294.73 43.94 (2014-07) 1 45.00 t
307.40 43.94 (2014-08) 1 45.00 t
320.07 43.94 (2014-09) 1 45.00 t
332.33 43.94 (2014-10) 1 45.00 t
344.99 43.94 (2014-11) 1 45.00 t
357.25 43.94 (2014-12) 1 45.00 t
369.92 43.94 (2015-01) 1 45.00 t
382.59 43.94 (2015-02) 1 45.00 t
394.03 43.94 (2015-03) 1 45.00 t
406.70 43.94 (2015-04) 1 45.00 t
418.96 43.94 (2015-05) 1 45.00 t
431.62 43.94 (2015-06) 1 45.00 t
443.88 43.94 (2015-07) 1 45.00 t
456.55 43.94 (2015-08) 1 45.00 t
469.22 43.94 (2015-09) 1 45.00 t
481.48 43.94 (2015-10) 1 45.00 t
494.14 43.94 (2015-11) 1 45.00 t
506.40 43.94 (2015-12) 1 45.00 t
519.07 43.94 (2016-01) 1 45.00 t
531.74 43.94 (2016-02) 1 45.00 t
543.59 43.94 (2016-03) 1 45.00 t
556.26 43.94 (2016-04) 1 45.00 t
568.51 43.94 (2016-05) 1 45.00 t
581.18 43.94 (2016-06) 1 45.00 t
0.00 0.00 595.28 283.46 cl
0.00 0.00 595.28 283.46 cl
0.00 0.00 595.28 283.46 cl
0.00 0.00 595.28 283.46 cl
/Font1 findfont 12 s
0 0 0 srgb
316.01 8.37 (date) .5 0 t
0.00 0.00 595.28 283.46 cl
0.00 0.00 595.28 283.46 cl
/Font1 findfont 12 s
0 0 0 srgb
16.98 102.03 (contr) 90 ta
0.180 (ib) tb
-0.240 (ution \(%\)) tb gr
0.00 0.00 595.28 283.46 cl
0.00 0.00 595.28 283.46 cl
0.00 0.00 595.28 283.46 cl
0.00 0.00 595.28 283.46 cl
/bg { 1 1 1 srgb } def
105.80 243.20 420.40 25.78 r p2
0.00 0.00 595.28 283.46 cl
0.00 0.00 595.28 283.46 cl
0.00 0.00 595.28 283.46 cl
0.00 0.00 595.28 283.46 cl
0.00 0.00 595.28 283.46 cl
0.00 0.00 595.28 283.46 cl
0.8941 0.1020 0.1098 srgb
1.07 setlinewidth
[] 0 setdash
0 setlinecap
1 setlinejoin
10.00 setmiterlimit
np
116.10 256.09 m
13.83 0 l
o
0.00 0.00 595.28 283.46 cl
0.00 0.00 595.28 283.46 cl
0.00 0.00 595.28 283.46 cl
0.00 0.00 595.28 283.46 cl
0.3020 0.6863 0.2902 srgb
1.07 setlinewidth
[ 2.13 2.13] 0 setdash
0 setlinecap
1 setlinejoin
10.00 setmiterlimit
np
165.39 256.09 m
13.83 0 l
o
0.00 0.00 595.28 283.46 cl
0.00 0.00 595.28 283.46 cl
0.00 0.00 595.28 283.46 cl
0.00 0.00 595.28 283.46 cl
0.5961 0.3059 0.6392 srgb
1.07 setlinewidth
[ 4.27 2.13] 0 setdash
0 setlinecap
1 setlinejoin
10.00 setmiterlimit
np
253.69 256.09 m
13.83 0 l
o
0.00 0.00 595.28 283.46 cl
0.00 0.00 595.28 283.46 cl
0.00 0.00 595.28 283.46 cl
0.00 0.00 595.28 283.46 cl
1 0.4980 0 srgb
1.07 setlinewidth
[ 4.27 4.27] 0 setdash
0 setlinecap
1 setlinejoin
10.00 setmiterlimit
np
352.24 256.09 m
13.83 0 l
o
0.00 0.00 595.28 283.46 cl
0.00 0.00 595.28 283.46 cl
0.00 0.00 595.28 283.46 cl
0.00 0.00 595.28 283.46 cl
0.2157 0.4941 0.7216 srgb
1.07 setlinewidth
[ 1.07 3.20] 0 setdash
0 setlinecap
1 setlinejoin
10.00 setmiterlimit
np
414.97 256.09 m
13.83 0 l
o
0.00 0.00 595.28 283.46 cl
0.00 0.00 595.28 283.46 cl
/Font1 findfont 10 s
0 0 0 srgb
133.82 252.50 (fr) 0 ta
-0.100 (ance) tb gr
0.00 0.00 595.28 283.46 cl
0.00 0.00 595.28 283.46 cl
/Font1 findfont 10 s
0 0 0 srgb
183.11 252.50 (gameofthrones) 0 0 t
0.00 0.00 595.28 283.46 cl
0.00 0.00 595.28 283.46 cl
/Font1 findfont 10 s
0 0 0 srgb
271.41 252.50 (MachineLear) 0 ta
0.250 (ning) tb gr
0.00 0.00 595.28 283.46 cl
0.00 0.00 595.28 283.46 cl
/Font1 findfont 10 s
0 0 0 srgb
369.96 252.50 (podemos) 0 0 t
0.00 0.00 595.28 283.46 cl
0.00 0.00 595.28 283.46 cl
/Font1 findfont 10 s
0 0 0 srgb
432.69 252.50 (T) 0 ta
-1.200 (w) tb
-0.100 (oXChromosomes) tb gr
0.00 0.00 595.28 283.46 cl
0.00 0.00 595.28 283.46 cl
0.00 0.00 595.28 283.46 cl
0.00 0.00 595.28 283.46 cl
0.00 0.00 595.28 283.46 cl
0.00 0.00 595.28 283.46 cl
ep
%%Trailer
%%Pages: 1
%%EOF
