%!PS-Adobe-3.0 EPSF-3.0
%%DocumentNeededResources: font Helvetica
%%+ font Helvetica-Bold
%%+ font Helvetica-Oblique
%%+ font Helvetica-BoldOblique
%%+ font Symbol
%%Title: R Graphics Output
%%Creator: R Software
%%Pages: (atend)
%%BoundingBox: 0 0 595 198
%%EndComments
%%BeginProlog
/bp  { gs sRGB gs } def
% begin .ps.prolog
/gs  { gsave } bind def
/gr  { grestore } bind def
/ep  { showpage gr gr } bind def
/m   { moveto } bind def
/l  { rlineto } bind def
/np  { newpath } bind def
/cp  { closepath } bind def
/f   { fill } bind def
/o   { stroke } bind def
/c   { newpath 0 360 arc } bind def
/r   { 4 2 roll moveto 1 copy 3 -1 roll exch 0 exch rlineto 0 rlineto -1 mul 0 exch rlineto closepath } bind def
/p1  { stroke } bind def
/p2  { gsave bg fill grestore newpath } bind def
/p3  { gsave bg fill grestore stroke } bind def
/p6  { gsave bg eofill grestore newpath } bind def
/p7  { gsave bg eofill grestore stroke } bind def
/t   { 5 -2 roll moveto gsave rotate
       1 index stringwidth pop
       mul neg 0 rmoveto show grestore } bind def
/ta  { 4 -2 roll moveto gsave rotate show } bind def
/tb  { 2 -1 roll 0 rmoveto show } bind def
/cl  { grestore gsave newpath 3 index 3 index moveto 1 index
       4 -1 roll lineto  exch 1 index lineto lineto
       closepath clip newpath } bind def
/rgb { setrgbcolor } bind def
/s   { scalefont setfont } bind def
% end   .ps.prolog
/sRGB { [ /CIEBasedABC
          << /DecodeLMN
               [ { dup 0.03928 le
                        {12.92321 div}
                        {0.055 add 1.055 div 2.4 exp }
                     ifelse
                 } bind dup dup
               ]
             /MatrixLMN [0.412457 0.212673 0.019334
                         0.357576 0.715152 0.119192
                         0.180437 0.072175 0.950301]
             /WhitePoint [0.9505 1.0 1.0890]
           >>
         ] setcolorspace } bind def
/srgb { setcolor } bind def
%%IncludeResource: font Helvetica
/Helvetica findfont
dup length dict begin
  {1 index /FID ne {def} {pop pop} ifelse} forall
  /Encoding ISOLatin1Encoding def
  currentdict
  end
/Font1 exch definefont pop
%%IncludeResource: font Helvetica-Bold
/Helvetica-Bold findfont
dup length dict begin
  {1 index /FID ne {def} {pop pop} ifelse} forall
  /Encoding ISOLatin1Encoding def
  currentdict
  end
/Font2 exch definefont pop
%%IncludeResource: font Helvetica-Oblique
/Helvetica-Oblique findfont
dup length dict begin
  {1 index /FID ne {def} {pop pop} ifelse} forall
  /Encoding ISOLatin1Encoding def
  currentdict
  end
/Font3 exch definefont pop
%%IncludeResource: font Helvetica-BoldOblique
/Helvetica-BoldOblique findfont
dup length dict begin
  {1 index /FID ne {def} {pop pop} ifelse} forall
  /Encoding ISOLatin1Encoding def
  currentdict
  end
/Font4 exch definefont pop
%%IncludeResource: font Symbol
/Symbol findfont
dup length dict begin
  {1 index /FID ne {def} {pop pop} ifelse} forall
  currentdict
  end
/Font5 exch definefont pop
%%EndProlog
%%Page: 1 1
bp
0.00 0.00 595.28 198.43 cl
0.00 0.00 595.28 198.43 cl
0.00 0.00 595.28 198.43 cl
0.00 0.00 595.28 198.43 cl
0.00 0.00 595.28 198.43 cl
0.00 0.00 595.28 198.43 cl
0.00 0.00 595.28 198.43 cl
0.00 0.00 595.28 198.43 cl
0.00 0.00 595.28 198.43 cl
0.00 0.00 595.28 198.43 cl
0.00 0.00 595.28 198.43 cl
0.00 0.00 595.28 198.43 cl
0.00 0.00 595.28 198.43 cl
0.00 0.00 595.28 198.43 cl
0.00 0.00 595.28 198.43 cl
0.00 0.00 595.28 198.43 cl
0.00 0.00 595.28 198.43 cl
0.00 15.60 595.28 182.83 cl
/bg { 1 1 1 srgb } def
1 1 1 srgb
1.07 setlinewidth
[] 0 setdash
1 setlinecap
1 setlinejoin
10.00 setmiterlimit
0.00 15.60 595.28 167.23 r p3
0.00 0.00 595.28 198.43 cl
49.61 157.71 152.77 176.85 cl
/bg { 1 1 1 srgb } def
0.4980 0.4980 0.4980 srgb
0.43 setlinewidth
[] 0 setdash
1 setlinecap
1 setlinejoin
10.00 setmiterlimit
49.61 157.71 103.16 19.14 r p3
/Font1 findfont 10 s
0.1020 0.1020 0.1020 srgb
87.29 163.69 (fr) 0 ta
-0.100 (ance) tb gr
49.61 157.71 152.77 176.85 cl
0.00 0.00 595.28 198.43 cl
158.74 157.71 261.90 176.85 cl
/bg { 1 1 1 srgb } def
0.4980 0.4980 0.4980 srgb
0.43 setlinewidth
[] 0 setdash
1 setlinecap
1 setlinejoin
10.00 setmiterlimit
158.74 157.71 103.16 19.14 r p3
/Font1 findfont 10 s
0.1020 0.1020 0.1020 srgb
210.32 163.69 (gameofthrones) .5 0 t
158.74 157.71 261.90 176.85 cl
0.00 0.00 595.28 198.43 cl
267.88 157.71 371.03 176.85 cl
/bg { 1 1 1 srgb } def
0.4980 0.4980 0.4980 srgb
0.43 setlinewidth
[] 0 setdash
1 setlinecap
1 setlinejoin
10.00 setmiterlimit
267.88 157.71 103.16 19.14 r p3
/Font1 findfont 10 s
0.1020 0.1020 0.1020 srgb
281.10 163.69 (MachineLear) 0 ta
0.250 (ning) tb gr
267.88 157.71 371.03 176.85 cl
0.00 0.00 595.28 198.43 cl
377.01 157.71 480.16 176.85 cl
/bg { 1 1 1 srgb } def
0.4980 0.4980 0.4980 srgb
0.43 setlinewidth
[] 0 setdash
1 setlinecap
1 setlinejoin
10.00 setmiterlimit
377.01 157.71 103.16 19.14 r p3
/Font1 findfont 10 s
0.1020 0.1020 0.1020 srgb
428.59 163.69 (podemos) .5 0 t
377.01 157.71 480.16 176.85 cl
0.00 0.00 595.28 198.43 cl
486.14 157.71 589.30 176.85 cl
/bg { 1 1 1 srgb } def
0.4980 0.4980 0.4980 srgb
0.43 setlinewidth
[] 0 setdash
1 setlinecap
1 setlinejoin
10.00 setmiterlimit
486.14 157.71 103.16 19.14 r p3
/Font1 findfont 10 s
0.1020 0.1020 0.1020 srgb
492.44 163.69 (T) 0 ta
-1.200 (w) tb
-0.100 (oXChromosomes) tb gr
486.14 157.71 589.30 176.85 cl
0.00 0.00 595.28 198.43 cl
49.61 54.56 152.77 157.71 cl
/bg { 1 1 1 srgb } def
49.61 54.56 103.16 103.16 r p2
0.9804 0.9804 0.9804 srgb
1.07 setlinewidth
[] 0 setdash
0 setlinecap
1 setlinejoin
10.00 setmiterlimit
np
49.61 59.25 m
103.16 0 l
o
np
49.61 90.51 m
103.16 0 l
o
np
49.61 121.77 m
103.16 0 l
o
np
49.61 153.03 m
103.16 0 l
o
np
69.33 54.56 m
0 103.15 l
o
np
112.34 54.56 m
0 103.15 l
o
0.8980 0.8980 0.8980 srgb
0.43 setlinewidth
[] 0 setdash
np
49.61 74.88 m
103.16 0 l
o
np
49.61 106.14 m
103.16 0 l
o
np
49.61 137.40 m
103.16 0 l
o
np
90.84 54.56 m
0 103.15 l
o
np
133.85 54.56 m
0 103.15 l
o
/bg { 0 0 0 srgb } def
0 0 0 srgb
0.71 setlinewidth
[] 0 setdash
1 setlinecap
114.60 81.26 0.57 c p3
113.23 85.97 0.57 c p3
112.75 88.72 0.57 c p3
112.38 90.67 0.57 c p3
111.96 92.18 0.57 c p3
111.83 93.42 0.57 c p3
111.75 94.47 0.57 c p3
111.48 95.38 0.57 c p3
111.36 96.17 0.57 c p3
111.19 96.89 0.57 c p3
111.04 97.54 0.57 c p3
110.93 98.13 0.57 c p3
110.90 98.67 0.57 c p3
110.89 99.17 0.57 c p3
110.87 99.64 0.57 c p3
110.81 100.08 0.57 c p3
110.64 100.49 0.57 c p3
110.28 100.88 0.57 c p3
110.26 101.25 0.57 c p3
110.21 101.59 0.57 c p3
110.18 101.93 0.57 c p3
110.09 102.24 0.57 c p3
110.08 102.54 0.57 c p3
109.96 102.83 0.57 c p3
109.95 103.11 0.57 c p3
109.87 103.38 0.57 c p3
109.73 103.63 0.57 c p3
109.58 103.88 0.57 c p3
109.51 104.12 0.57 c p3
109.43 104.35 0.57 c p3
109.40 104.79 0.57 c p3
109.39 104.99 0.57 c p3
109.37 105.20 0.57 c p3
109.35 105.39 0.57 c p3
109.30 105.58 0.57 c p3
109.22 105.77 0.57 c p3
109.21 105.95 0.57 c p3
109.14 106.13 0.57 c p3
109.13 106.30 0.57 c p3
109.12 106.47 0.57 c p3
109.09 106.63 0.57 c p3
109.04 106.79 0.57 c p3
108.97 106.95 0.57 c p3
108.96 107.10 0.57 c p3
108.94 107.25 0.57 c p3
108.92 107.39 0.57 c p3
108.90 107.81 0.57 c p3
108.89 107.95 0.57 c p3
108.86 108.08 0.57 c p3
108.80 108.21 0.57 c p3
108.78 108.46 0.57 c p3
108.77 108.70 0.57 c p3
108.74 108.82 0.57 c p3
108.71 109.05 0.57 c p3
108.69 109.27 0.57 c p3
108.66 109.38 0.57 c p3
108.63 109.49 0.57 c p3
108.62 109.70 0.57 c p3
108.59 109.90 0.57 c p3
108.57 110.00 0.57 c p3
108.56 110.10 0.57 c p3
108.53 110.19 0.57 c p3
108.50 110.29 0.57 c p3
108.42 110.38 0.57 c p3
108.38 110.57 0.57 c p3
108.33 110.75 0.57 c p3
108.31 110.83 0.57 c p3
108.29 111.09 0.57 c p3
108.26 111.17 0.57 c p3
108.25 111.25 0.57 c p3
108.23 111.42 0.57 c p3
108.22 111.57 0.57 c p3
108.20 111.65 0.57 c p3
108.17 111.73 0.57 c p3
108.15 111.80 0.57 c p3
108.12 111.88 0.57 c p3
108.10 111.95 0.57 c p3
108.09 112.03 0.57 c p3
108.07 112.10 0.57 c p3
108.01 112.17 0.57 c p3
107.95 112.31 0.57 c p3
107.92 112.38 0.57 c p3
107.91 112.59 0.57 c p3
107.85 112.65 0.57 c p3
107.77 112.91 0.57 c p3
107.71 113.04 0.57 c p3
107.68 113.17 0.57 c p3
107.63 113.29 0.57 c p3
107.62 113.35 0.57 c p3
107.57 113.41 0.57 c p3
107.56 113.47 0.57 c p3
107.54 113.53 0.57 c p3
107.49 113.64 0.57 c p3
107.48 113.76 0.57 c p3
107.45 113.81 0.57 c p3
107.38 113.87 0.57 c p3
107.35 113.92 0.57 c p3
107.34 114.03 0.57 c p3
107.32 114.09 0.57 c p3
107.30 114.14 0.57 c p3
107.26 114.20 0.57 c p3
107.24 114.35 0.57 c p3
107.22 114.40 0.57 c p3
107.21 114.46 0.57 c p3
107.19 114.51 0.57 c p3
107.16 114.56 0.57 c p3
107.13 114.66 0.57 c p3
107.09 114.71 0.57 c p3
107.06 114.75 0.57 c p3
107.04 114.80 0.57 c p3
107.03 114.90 0.57 c p3
107.01 114.95 0.57 c p3
106.98 114.99 0.57 c p3
106.96 115.23 0.57 c p3
106.94 115.32 0.57 c p3
106.93 115.41 0.57 c p3
106.89 115.49 0.57 c p3
106.88 115.54 0.57 c p3
106.86 115.58 0.57 c p3
106.83 115.67 0.57 c p3
106.81 115.71 0.57 c p3
106.73 115.75 0.57 c p3
106.71 115.79 0.57 c p3
106.69 115.88 0.57 c p3
106.67 115.92 0.57 c p3
106.66 115.96 0.57 c p3
106.64 116.04 0.57 c p3
106.62 116.12 0.57 c p3
106.61 116.16 0.57 c p3
106.59 116.20 0.57 c p3
106.57 116.24 0.57 c p3
106.55 116.28 0.57 c p3
106.54 116.32 0.57 c p3
106.50 116.36 0.57 c p3
106.43 116.43 0.57 c p3
106.40 116.51 0.57 c p3
106.29 116.62 0.57 c p3
106.27 116.77 0.57 c p3
106.20 116.80 0.57 c p3
106.18 116.91 0.57 c p3
106.16 117.02 0.57 c p3
106.13 117.09 0.57 c p3
106.09 117.12 0.57 c p3
106.07 117.19 0.57 c p3
106.04 117.26 0.57 c p3
106.02 117.29 0.57 c p3
106.00 117.36 0.57 c p3
105.96 117.46 0.57 c p3
105.94 117.52 0.57 c p3
105.91 117.56 0.57 c p3
105.89 117.59 0.57 c p3
105.83 117.62 0.57 c p3
105.81 117.65 0.57 c p3
105.78 117.75 0.57 c p3
105.76 117.78 0.57 c p3
105.74 117.81 0.57 c p3
105.72 117.84 0.57 c p3
105.70 117.87 0.57 c p3
105.68 117.90 0.57 c p3
105.66 117.96 0.57 c p3
105.64 118.05 0.57 c p3
105.62 118.08 0.57 c p3
105.60 118.11 0.57 c p3
105.58 118.14 0.57 c p3
105.55 118.20 0.57 c p3
105.53 118.29 0.57 c p3
105.49 118.32 0.57 c p3
105.45 118.38 0.57 c p3
105.43 118.41 0.57 c p3
105.39 118.43 0.57 c p3
105.33 118.46 0.57 c p3
105.31 118.49 0.57 c p3
105.29 118.52 0.57 c p3
105.27 118.55 0.57 c p3
105.25 118.57 0.57 c p3
105.19 118.68 0.57 c p3
105.13 118.71 0.57 c p3
105.11 118.77 0.57 c p3
105.05 118.79 0.57 c p3
105.01 118.85 0.57 c p3
104.99 118.93 0.57 c p3
104.97 119.03 0.57 c p3
104.95 119.06 0.57 c p3
104.93 119.11 0.57 c p3
104.91 119.13 0.57 c p3
104.88 119.19 0.57 c p3
104.84 119.21 0.57 c p3
104.76 119.26 0.57 c p3
104.72 119.31 0.57 c p3
104.70 119.36 0.57 c p3
104.65 119.41 0.57 c p3
104.63 119.46 0.57 c p3
104.61 119.48 0.57 c p3
104.59 119.56 0.57 c p3
104.57 119.58 0.57 c p3
104.55 119.60 0.57 c p3
104.53 119.65 0.57 c p3
104.50 119.68 0.57 c p3
104.46 119.77 0.57 c p3
104.44 119.82 0.57 c p3
104.42 119.89 0.57 c p3
104.37 119.95 0.57 c p3
104.35 120.00 0.57 c p3
104.33 120.04 0.57 c p3
104.17 120.09 0.57 c p3
104.13 120.11 0.57 c p3
104.11 120.13 0.57 c p3
104.08 120.18 0.57 c p3
104.06 120.20 0.57 c p3
104.02 120.24 0.57 c p3
103.99 120.26 0.57 c p3
103.97 120.29 0.57 c p3
103.95 120.31 0.57 c p3
103.92 120.35 0.57 c p3
103.90 120.41 0.57 c p3
103.88 120.44 0.57 c p3
103.78 120.46 0.57 c p3
103.74 120.50 0.57 c p3
103.67 120.52 0.57 c p3
103.64 120.54 0.57 c p3
103.62 120.58 0.57 c p3
103.60 120.60 0.57 c p3
103.57 120.62 0.57 c p3
103.52 120.64 0.57 c p3
103.50 120.66 0.57 c p3
103.48 120.68 0.57 c p3
103.43 120.71 0.57 c p3
103.38 120.73 0.57 c p3
103.35 120.75 0.57 c p3
103.31 120.79 0.57 c p3
103.23 120.83 0.57 c p3
103.21 120.87 0.57 c p3
103.13 120.91 0.57 c p3
103.03 120.94 0.57 c p3
103.01 120.98 0.57 c p3
102.98 121.02 0.57 c p3
102.90 121.06 0.57 c p3
102.88 121.10 0.57 c p3
102.83 121.12 0.57 c p3
102.75 121.14 0.57 c p3
102.72 121.18 0.57 c p3
102.62 121.20 0.57 c p3
102.59 121.25 0.57 c p3
102.54 121.31 0.57 c p3
102.48 121.33 0.57 c p3
102.46 121.36 0.57 c p3
102.35 121.40 0.57 c p3
102.32 121.44 0.57 c p3
102.29 121.45 0.57 c p3
102.27 121.47 0.57 c p3
102.24 121.49 0.57 c p3
102.21 121.51 0.57 c p3
102.16 121.55 0.57 c p3
102.13 121.56 0.57 c p3
102.10 121.62 0.57 c p3
102.07 121.65 0.57 c p3
102.04 121.67 0.57 c p3
101.99 121.71 0.57 c p3
101.87 121.72 0.57 c p3
101.82 121.74 0.57 c p3
101.79 121.77 0.57 c p3
101.76 121.81 0.57 c p3
101.73 121.83 0.57 c p3
101.70 121.84 0.57 c p3
101.67 121.86 0.57 c p3
101.61 121.90 0.57 c p3
101.58 121.93 0.57 c p3
101.55 121.96 0.57 c p3
101.49 122.00 0.57 c p3
101.46 122.03 0.57 c p3
101.40 122.05 0.57 c p3
101.37 122.08 0.57 c p3
101.31 122.11 0.57 c p3
101.28 122.13 0.57 c p3
101.22 122.15 0.57 c p3
101.19 122.21 0.57 c p3
101.16 122.24 0.57 c p3
101.00 122.28 0.57 c p3
100.97 122.31 0.57 c p3
100.94 122.32 0.57 c p3
100.91 122.39 0.57 c p3
100.88 122.45 0.57 c p3
100.85 122.47 0.57 c p3
100.81 122.50 0.57 c p3
100.78 122.53 0.57 c p3
100.75 122.55 0.57 c p3
100.72 122.61 0.57 c p3
100.68 122.65 0.57 c p3
100.59 122.67 0.57 c p3
100.55 122.73 0.57 c p3
100.52 122.76 0.57 c p3
100.49 122.83 0.57 c p3
100.45 122.86 0.57 c p3
100.42 122.92 0.57 c p3
100.35 122.97 0.57 c p3
100.32 123.01 0.57 c p3
100.29 123.11 0.57 c p3
100.25 123.18 0.57 c p3
100.22 123.21 0.57 c p3
100.18 123.25 0.57 c p3
100.15 123.28 0.57 c p3
100.11 123.29 0.57 c p3
100.08 123.33 0.57 c p3
100.04 123.35 0.57 c p3
100.01 123.39 0.57 c p3
99.97 123.42 0.57 c p3
99.94 123.43 0.57 c p3
99.90 123.52 0.57 c p3
99.87 123.59 0.57 c p3
99.83 123.60 0.57 c p3
99.80 123.63 0.57 c p3
99.76 123.68 0.57 c p3
99.73 123.74 0.57 c p3
99.69 123.78 0.57 c p3
99.65 123.85 0.57 c p3
99.62 123.88 0.57 c p3
99.58 123.89 0.57 c p3
99.47 123.93 0.57 c p3
99.43 123.98 0.57 c p3
99.40 124.00 0.57 c p3
99.36 124.08 0.57 c p3
99.28 124.09 0.57 c p3
99.24 124.13 0.57 c p3
99.21 124.15 0.57 c p3
99.17 124.19 0.57 c p3
99.13 124.23 0.57 c p3
99.09 124.27 0.57 c p3
99.05 124.32 0.57 c p3
99.01 124.38 0.57 c p3
98.97 124.43 0.57 c p3
98.94 124.49 0.57 c p3
98.90 124.51 0.57 c p3
98.86 124.52 0.57 c p3
98.82 124.56 0.57 c p3
98.78 124.65 0.57 c p3
98.74 124.70 0.57 c p3
98.70 124.76 0.57 c p3
98.66 124.79 0.57 c p3
98.62 124.83 0.57 c p3
98.58 124.88 0.57 c p3
98.53 124.95 0.57 c p3
98.49 125.00 0.57 c p3
98.45 125.03 0.57 c p3
98.41 125.07 0.57 c p3
98.37 125.12 0.57 c p3
98.33 125.15 0.57 c p3
98.29 125.19 0.57 c p3
98.24 125.21 0.57 c p3
98.20 125.25 0.57 c p3
98.16 125.27 0.57 c p3
98.12 125.33 0.57 c p3
98.07 125.37 0.57 c p3
98.03 125.42 0.57 c p3
97.99 125.44 0.57 c p3
97.94 125.50 0.57 c p3
97.90 125.51 0.57 c p3
97.86 125.55 0.57 c p3
97.81 125.62 0.57 c p3
97.77 125.67 0.57 c p3
97.72 125.71 0.57 c p3
97.68 125.74 0.57 c p3
97.63 125.79 0.57 c p3
97.59 125.83 0.57 c p3
97.54 125.84 0.57 c p3
97.50 125.85 0.57 c p3
97.45 125.90 0.57 c p3
97.40 125.95 0.57 c p3
97.36 125.99 0.57 c p3
97.31 126.06 0.57 c p3
97.26 126.10 0.57 c p3
97.22 126.12 0.57 c p3
97.17 126.13 0.57 c p3
97.12 126.19 0.57 c p3
97.07 126.23 0.57 c p3
97.03 126.30 0.57 c p3
96.98 126.35 0.57 c p3
96.93 126.38 0.57 c p3
96.88 126.46 0.57 c p3
96.83 126.53 0.57 c p3
96.78 126.59 0.57 c p3
96.73 126.62 0.57 c p3
96.68 126.69 0.57 c p3
96.63 126.74 0.57 c p3
96.58 126.79 0.57 c p3
96.53 126.87 0.57 c p3
96.48 126.88 0.57 c p3
96.43 126.93 0.57 c p3
96.38 126.97 0.57 c p3
96.33 127.01 0.57 c p3
96.27 127.10 0.57 c p3
96.22 127.14 0.57 c p3
96.17 127.17 0.57 c p3
96.12 127.21 0.57 c p3
96.06 127.26 0.57 c p3
96.01 127.29 0.57 c p3
95.96 127.31 0.57 c p3
95.90 127.34 0.57 c p3
95.85 127.37 0.57 c p3
95.79 127.45 0.57 c p3
95.74 127.52 0.57 c p3
95.68 127.58 0.57 c p3
95.63 127.63 0.57 c p3
95.57 127.66 0.57 c p3
95.51 127.71 0.57 c p3
95.46 127.80 0.57 c p3
95.40 127.84 0.57 c p3
95.34 127.89 0.57 c p3
95.29 127.96 0.57 c p3
95.23 127.99 0.57 c p3
95.17 128.05 0.57 c p3
95.11 128.11 0.57 c p3
95.05 128.16 0.57 c p3
94.99 128.21 0.57 c p3
94.93 128.29 0.57 c p3
94.87 128.37 0.57 c p3
94.81 128.45 0.57 c p3
94.75 128.51 0.57 c p3
94.69 128.55 0.57 c p3
94.62 128.60 0.57 c p3
94.56 128.65 0.57 c p3
94.50 128.70 0.57 c p3
94.44 128.77 0.57 c p3
94.37 128.81 0.57 c p3
94.31 128.88 0.57 c p3
94.24 128.92 0.57 c p3
94.18 128.98 0.57 c p3
94.11 129.04 0.57 c p3
94.05 129.16 0.57 c p3
93.98 129.19 0.57 c p3
93.91 129.28 0.57 c p3
93.85 129.36 0.57 c p3
93.78 129.43 0.57 c p3
93.71 129.49 0.57 c p3
93.64 129.55 0.57 c p3
93.57 129.58 0.57 c p3
93.50 129.67 0.57 c p3
93.43 129.74 0.57 c p3
93.36 129.79 0.57 c p3
93.29 129.84 0.57 c p3
93.22 129.92 0.57 c p3
93.14 130.00 0.57 c p3
93.07 130.09 0.57 c p3
93.00 130.19 0.57 c p3
92.92 130.26 0.57 c p3
92.85 130.32 0.57 c p3
92.77 130.37 0.57 c p3
92.69 130.41 0.57 c p3
92.62 130.49 0.57 c p3
92.54 130.55 0.57 c p3
92.46 130.65 0.57 c p3
92.38 130.72 0.57 c p3
92.30 130.75 0.57 c p3
92.22 130.83 0.57 c p3
92.14 130.91 0.57 c p3
92.06 131.00 0.57 c p3
91.98 131.07 0.57 c p3
91.90 131.15 0.57 c p3
91.81 131.21 0.57 c p3
91.73 131.33 0.57 c p3
91.64 131.40 0.57 c p3
91.56 131.49 0.57 c p3
91.47 131.61 0.57 c p3
91.38 131.67 0.57 c p3
91.29 131.75 0.57 c p3
91.20 131.84 0.57 c p3
91.11 131.90 0.57 c p3
91.02 131.99 0.57 c p3
90.93 132.09 0.57 c p3
90.84 132.18 0.57 c p3
90.74 132.26 0.57 c p3
90.65 132.37 0.57 c p3
90.55 132.45 0.57 c p3
90.46 132.53 0.57 c p3
90.36 132.63 0.57 c p3
90.26 132.70 0.57 c p3
90.16 132.80 0.57 c p3
90.06 132.92 0.57 c p3
89.96 133.02 0.57 c p3
89.85 133.12 0.57 c p3
89.75 133.26 0.57 c p3
89.64 133.34 0.57 c p3
89.54 133.44 0.57 c p3
89.43 133.55 0.57 c p3
89.32 133.66 0.57 c p3
89.21 133.78 0.57 c p3
89.10 133.88 0.57 c p3
88.98 133.98 0.57 c p3
88.87 134.07 0.57 c p3
88.75 134.18 0.57 c p3
88.64 134.26 0.57 c p3
88.52 134.37 0.57 c p3
88.40 134.51 0.57 c p3
88.27 134.62 0.57 c p3
88.15 134.74 0.57 c p3
88.02 134.85 0.57 c p3
87.90 134.96 0.57 c p3
87.77 135.09 0.57 c p3
87.64 135.21 0.57 c p3
87.51 135.31 0.57 c p3
87.37 135.45 0.57 c p3
87.24 135.59 0.57 c p3
87.10 135.71 0.57 c p3
86.96 135.87 0.57 c p3
86.81 135.99 0.57 c p3
86.67 136.12 0.57 c p3
86.52 136.23 0.57 c p3
86.37 136.36 0.57 c p3
86.22 136.49 0.57 c p3
86.07 136.64 0.57 c p3
85.91 136.78 0.57 c p3
85.75 136.90 0.57 c p3
85.59 137.06 0.57 c p3
85.42 137.23 0.57 c p3
85.25 137.38 0.57 c p3
85.08 137.53 0.57 c p3
84.91 137.68 0.57 c p3
84.73 137.84 0.57 c p3
84.55 138.00 0.57 c p3
84.36 138.18 0.57 c p3
84.17 138.34 0.57 c p3
83.98 138.53 0.57 c p3
83.79 138.68 0.57 c p3
83.58 138.86 0.57 c p3
83.38 139.04 0.57 c p3
83.17 139.21 0.57 c p3
82.95 139.39 0.57 c p3
82.73 139.60 0.57 c p3
82.51 139.80 0.57 c p3
82.28 139.97 0.57 c p3
82.04 140.16 0.57 c p3
81.80 140.35 0.57 c p3
81.55 140.55 0.57 c p3
81.30 140.72 0.57 c p3
81.03 140.93 0.57 c p3
80.76 141.15 0.57 c p3
80.48 141.37 0.57 c p3
80.19 141.61 0.57 c p3
79.90 141.83 0.57 c p3
79.59 142.06 0.57 c p3
79.28 142.31 0.57 c p3
78.95 142.55 0.57 c p3
78.61 142.81 0.57 c p3
78.26 143.07 0.57 c p3
77.89 143.33 0.57 c p3
77.51 143.57 0.57 c p3
77.11 143.85 0.57 c p3
76.70 144.13 0.57 c p3
76.26 144.41 0.57 c p3
75.81 144.68 0.57 c p3
75.33 144.96 0.57 c p3
74.82 145.25 0.57 c p3
74.29 145.58 0.57 c p3
73.72 145.89 0.57 c p3
73.12 146.24 0.57 c p3
72.47 146.62 0.57 c p3
71.78 146.98 0.57 c p3
71.03 147.38 0.57 c p3
70.22 147.77 0.57 c p3
69.33 148.19 0.57 c p3
68.35 148.62 0.57 c p3
67.25 149.09 0.57 c p3
66.00 149.59 0.57 c p3
64.56 150.12 0.57 c p3
62.86 150.69 0.57 c p3
60.77 151.32 0.57 c p3
58.09 152.04 0.57 c p3
54.30 153.03 0.57 c p3
1 0 0 srgb
1.07 setlinewidth
[ 4.27 4.27] 0 setdash
0 setlinecap
1.00 setmiterlimit
np
54.30 153.03 m
3.79 -1.77 l
2.68 -1.18 l
2.09 -0.89 l
1.70 -0.71 l
1.44 -0.59 l
1.25 -0.51 l
1.10 -0.45 l
0.98 -0.39 l
0.89 -0.36 l
0.81 -0.32 l
0.75 -0.30 l
0.69 -0.27 l
0.65 -0.26 l
0.60 -0.23 l
0.57 -0.23 l
0.53 -0.21 l
0.99 -0.38 l
0.45 -0.18 l
0.44 -0.17 l
0.81 -0.32 l
0.38 -0.15 l
0.72 -0.27 l
0.67 -0.26 l
0.62 -0.25 l
0.58 -0.22 l
0.55 -0.21 l
0.77 -0.30 l
0.48 -0.19 l
0.67 -0.26 l
0.63 -0.24 l
0.59 -0.23 l
0.56 -0.21 l
0.69 -0.27 l
0.49 -0.19 l
0.61 -0.23 l
0.72 -0.28 l
0.53 -0.20 l
0.63 -0.24 l
0.58 -0.23 l
0.66 -0.25 l
0.62 -0.24 l
0.58 -0.22 l
0.63 -0.24 l
0.59 -0.23 l
0.63 -0.24 l
0.60 -0.23 l
0.62 -0.24 l
0.59 -0.22 l
0.61 -0.24 l
0.63 -0.24 l
0.59 -0.22 l
0.60 -0.23 l
0.61 -0.24 l
0.62 -0.23 l
0.62 -0.24 l
0.58 -0.22 l
0.61 -0.24 l
0.62 -0.23 l
0.60 -0.23 l
0.63 -0.24 l
0.58 -0.22 l
0.63 -0.24 l
0.61 -0.24 l
0.60 -0.23 l
0.60 -0.23 l
0.63 -0.23 l
0.60 -0.24 l
0.60 -0.22 l
0.62 -0.24 l
0.60 -0.23 l
0.61 -0.23 l
0.62 -0.24 l
0.61 -0.23 l
0.60 -0.23 l
0.62 -0.24 l
0.60 -0.23 l
0.61 -0.23 l
0.61 -0.23 l
0.61 -0.23 l
0.61 -0.24 l
0.61 -0.23 l
o
0 0 1 srgb
1.07 setlinewidth
[] 0 setdash
np
54.30 153.03 m
3.79 -0.78 l
2.68 -0.68 l
2.09 -0.61 l
1.70 -0.57 l
1.44 -0.52 l
1.25 -0.48 l
1.10 -0.45 l
0.98 -0.43 l
0.89 -0.40 l
0.81 -0.39 l
0.75 -0.36 l
0.69 -0.35 l
0.65 -0.34 l
0.60 -0.32 l
0.57 -0.31 l
0.53 -0.30 l
0.99 -0.57 l
0.45 -0.27 l
0.44 -0.26 l
0.81 -0.51 l
0.38 -0.24 l
0.72 -0.47 l
0.67 -0.44 l
0.62 -0.43 l
0.58 -0.40 l
0.55 -0.39 l
0.77 -0.56 l
0.48 -0.35 l
0.67 -0.51 l
0.63 -0.49 l
0.59 -0.47 l
0.56 -0.44 l
0.69 -0.57 l
0.49 -0.40 l
0.61 -0.52 l
0.72 -0.62 l
0.53 -0.47 l
0.63 -0.56 l
0.58 -0.54 l
0.66 -0.61 l
0.62 -0.58 l
0.58 -0.55 l
0.63 -0.62 l
0.59 -0.59 l
0.63 -0.64 l
0.60 -0.60 l
0.62 -0.65 l
0.59 -0.62 l
0.61 -0.66 l
0.63 -0.68 l
0.59 -0.65 l
0.60 -0.68 l
0.61 -0.69 l
0.62 -0.72 l
0.62 -0.72 l
0.58 -0.69 l
0.61 -0.74 l
0.62 -0.75 l
0.60 -0.75 l
0.63 -0.78 l
0.58 -0.75 l
0.63 -0.81 l
0.61 -0.79 l
0.60 -0.79 l
0.60 -0.81 l
0.63 -0.84 l
0.60 -0.83 l
0.60 -0.84 l
0.62 -0.86 l
0.60 -0.86 l
0.61 -0.88 l
0.62 -0.89 l
0.61 -0.90 l
0.60 -0.90 l
0.62 -0.92 l
0.60 -0.93 l
0.61 -0.94 l
0.61 -0.95 l
0.61 -0.95 l
0.61 -0.98 l
0.61 -0.97 l
o
0.4980 0.4980 0.4980 srgb
1 setlinecap
10.00 setmiterlimit
49.61 54.56 103.16 103.16 r p1
0.00 0.00 595.28 198.43 cl
158.74 54.56 261.90 157.71 cl
/bg { 1 1 1 srgb } def
158.74 54.56 103.16 103.16 r p2
0.9804 0.9804 0.9804 srgb
1.07 setlinewidth
[] 0 setdash
0 setlinecap
1 setlinejoin
10.00 setmiterlimit
np
158.74 59.25 m
103.16 0 l
o
np
158.74 90.51 m
103.16 0 l
o
np
158.74 121.77 m
103.16 0 l
o
np
158.74 153.03 m
103.16 0 l
o
np
178.46 54.56 m
0 103.15 l
o
np
221.48 54.56 m
0 103.15 l
o
0.8980 0.8980 0.8980 srgb
0.43 setlinewidth
[] 0 setdash
np
158.74 74.88 m
103.16 0 l
o
np
158.74 106.14 m
103.16 0 l
o
np
158.74 137.40 m
103.16 0 l
o
np
199.97 54.56 m
0 103.15 l
o
np
242.98 54.56 m
0 103.15 l
o
/bg { 0 0 0 srgb } def
0 0 0 srgb
0.71 setlinewidth
[] 0 setdash
1 setlinecap
249.56 71.93 0.57 c p3
249.00 76.63 0.57 c p3
247.31 79.38 0.57 c p3
246.25 81.34 0.57 c p3
246.13 82.85 0.57 c p3
245.97 84.09 0.57 c p3
245.60 85.13 0.57 c p3
245.20 86.04 0.57 c p3
244.81 86.84 0.57 c p3
244.80 87.56 0.57 c p3
244.77 88.20 0.57 c p3
244.65 88.79 0.57 c p3
244.54 89.34 0.57 c p3
242.57 89.84 0.57 c p3
242.07 90.31 0.57 c p3
241.39 90.75 0.57 c p3
241.26 91.16 0.57 c p3
241.04 91.55 0.57 c p3
240.75 91.91 0.57 c p3
240.47 92.26 0.57 c p3
240.11 92.59 0.57 c p3
239.94 92.91 0.57 c p3
239.89 93.21 0.57 c p3
239.76 93.50 0.57 c p3
239.67 93.78 0.57 c p3
239.36 94.04 0.57 c p3
239.25 94.30 0.57 c p3
238.46 94.54 0.57 c p3
238.28 94.78 0.57 c p3
237.42 95.01 0.57 c p3
237.41 95.24 0.57 c p3
237.33 95.45 0.57 c p3
237.09 95.66 0.57 c p3
237.05 95.86 0.57 c p3
236.92 96.06 0.57 c p3
236.83 96.25 0.57 c p3
236.52 96.44 0.57 c p3
236.44 96.62 0.57 c p3
236.09 96.79 0.57 c p3
236.02 96.97 0.57 c p3
234.69 97.13 0.57 c p3
234.45 97.30 0.57 c p3
234.36 97.46 0.57 c p3
233.70 97.61 0.57 c p3
233.17 97.77 0.57 c p3
233.06 97.91 0.57 c p3
232.97 98.06 0.57 c p3
232.85 98.20 0.57 c p3
232.83 98.34 0.57 c p3
232.17 98.48 0.57 c p3
231.76 98.61 0.57 c p3
231.66 98.75 0.57 c p3
231.10 98.88 0.57 c p3
231.08 99.00 0.57 c p3
230.94 99.13 0.57 c p3
230.91 99.25 0.57 c p3
230.85 99.37 0.57 c p3
230.81 99.49 0.57 c p3
230.40 99.60 0.57 c p3
230.07 99.72 0.57 c p3
229.66 99.83 0.57 c p3
229.62 99.94 0.57 c p3
229.53 100.05 0.57 c p3
229.40 100.16 0.57 c p3
229.05 100.26 0.57 c p3
229.05 100.36 0.57 c p3
228.41 100.47 0.57 c p3
228.17 100.57 0.57 c p3
227.64 100.67 0.57 c p3
227.46 100.76 0.57 c p3
227.14 100.86 0.57 c p3
227.04 100.96 0.57 c p3
227.00 101.05 0.57 c p3
226.91 101.14 0.57 c p3
226.74 101.23 0.57 c p3
226.72 101.32 0.57 c p3
226.53 101.41 0.57 c p3
226.45 101.50 0.57 c p3
226.38 101.59 0.57 c p3
226.34 101.67 0.57 c p3
226.14 101.76 0.57 c p3
226.13 101.84 0.57 c p3
225.80 101.92 0.57 c p3
225.75 102.00 0.57 c p3
225.65 102.08 0.57 c p3
225.64 102.16 0.57 c p3
225.58 102.24 0.57 c p3
225.36 102.32 0.57 c p3
225.35 102.39 0.57 c p3
225.33 102.55 0.57 c p3
225.28 102.62 0.57 c p3
225.06 102.69 0.57 c p3
225.02 102.77 0.57 c p3
224.80 102.84 0.57 c p3
224.74 102.91 0.57 c p3
224.71 102.98 0.57 c p3
224.64 103.05 0.57 c p3
224.56 103.12 0.57 c p3
224.41 103.19 0.57 c p3
224.37 103.25 0.57 c p3
224.33 103.32 0.57 c p3
224.30 103.39 0.57 c p3
224.24 103.52 0.57 c p3
224.13 103.58 0.57 c p3
224.11 103.64 0.57 c p3
223.98 103.77 0.57 c p3
223.96 103.83 0.57 c p3
223.90 103.89 0.57 c p3
223.81 103.95 0.57 c p3
223.80 104.02 0.57 c p3
223.80 104.07 0.57 c p3
223.76 104.13 0.57 c p3
223.75 104.19 0.57 c p3
223.74 104.25 0.57 c p3
223.69 104.31 0.57 c p3
223.68 104.37 0.57 c p3
223.66 104.42 0.57 c p3
223.59 104.48 0.57 c p3
223.45 104.54 0.57 c p3
223.36 104.59 0.57 c p3
223.33 104.65 0.57 c p3
223.32 104.70 0.57 c p3
223.30 104.75 0.57 c p3
223.26 104.91 0.57 c p3
223.25 104.97 0.57 c p3
223.22 105.02 0.57 c p3
223.18 105.07 0.57 c p3
223.16 105.12 0.57 c p3
223.12 105.17 0.57 c p3
223.08 105.22 0.57 c p3
223.07 105.27 0.57 c p3
222.99 105.32 0.57 c p3
222.98 105.37 0.57 c p3
222.88 105.42 0.57 c p3
222.85 105.47 0.57 c p3
222.81 105.52 0.57 c p3
222.81 105.57 0.57 c p3
222.69 105.71 0.57 c p3
222.60 105.75 0.57 c p3
222.57 105.80 0.57 c p3
222.54 105.85 0.57 c p3
222.49 105.89 0.57 c p3
222.44 105.94 0.57 c p3
222.42 105.98 0.57 c p3
222.37 106.03 0.57 c p3
222.28 106.07 0.57 c p3
222.27 106.12 0.57 c p3
222.25 106.20 0.57 c p3
222.24 106.25 0.57 c p3
222.22 106.33 0.57 c p3
222.20 106.38 0.57 c p3
222.18 106.42 0.57 c p3
222.16 106.46 0.57 c p3
222.13 106.50 0.57 c p3
222.02 106.54 0.57 c p3
221.98 106.58 0.57 c p3
221.97 106.63 0.57 c p3
221.96 106.67 0.57 c p3
221.90 106.71 0.57 c p3
221.88 106.75 0.57 c p3
221.81 106.79 0.57 c p3
221.79 106.83 0.57 c p3
221.74 106.87 0.57 c p3
221.72 106.91 0.57 c p3
221.67 106.95 0.57 c p3
221.65 107.02 0.57 c p3
221.64 107.06 0.57 c p3
221.59 107.10 0.57 c p3
221.46 107.14 0.57 c p3
221.42 107.18 0.57 c p3
221.40 107.21 0.57 c p3
221.38 107.25 0.57 c p3
221.35 107.29 0.57 c p3
221.34 107.32 0.57 c p3
221.33 107.36 0.57 c p3
221.30 107.40 0.57 c p3
221.16 107.43 0.57 c p3
221.15 107.47 0.57 c p3
221.10 107.51 0.57 c p3
221.08 107.54 0.57 c p3
221.04 107.58 0.57 c p3
220.98 107.61 0.57 c p3
220.96 107.65 0.57 c p3
220.94 107.68 0.57 c p3
220.92 107.72 0.57 c p3
220.91 107.75 0.57 c p3
220.90 107.79 0.57 c p3
220.88 107.82 0.57 c p3
220.86 107.86 0.57 c p3
220.83 107.89 0.57 c p3
220.81 107.96 0.57 c p3
220.77 107.99 0.57 c p3
220.73 108.02 0.57 c p3
220.67 108.06 0.57 c p3
220.66 108.09 0.57 c p3
220.56 108.12 0.57 c p3
220.53 108.16 0.57 c p3
220.51 108.19 0.57 c p3
220.45 108.22 0.57 c p3
220.39 108.29 0.57 c p3
220.37 108.32 0.57 c p3
220.31 108.35 0.57 c p3
220.30 108.41 0.57 c p3
220.28 108.48 0.57 c p3
220.27 108.51 0.57 c p3
220.24 108.54 0.57 c p3
220.23 108.60 0.57 c p3
220.19 108.63 0.57 c p3
220.15 108.69 0.57 c p3
220.14 108.72 0.57 c p3
220.13 108.75 0.57 c p3
220.12 108.78 0.57 c p3
220.11 108.81 0.57 c p3
220.08 108.84 0.57 c p3
220.06 108.90 0.57 c p3
220.05 108.96 0.57 c p3
220.03 108.99 0.57 c p3
220.02 109.04 0.57 c p3
219.99 109.10 0.57 c p3
219.95 109.16 0.57 c p3
219.94 109.18 0.57 c p3
219.90 109.21 0.57 c p3
219.89 109.30 0.57 c p3
219.88 109.35 0.57 c p3
219.87 109.38 0.57 c p3
219.85 109.41 0.57 c p3
219.84 109.43 0.57 c p3
219.83 109.46 0.57 c p3
219.77 109.49 0.57 c p3
219.72 109.54 0.57 c p3
219.71 109.57 0.57 c p3
219.70 109.62 0.57 c p3
219.69 109.65 0.57 c p3
219.66 109.67 0.57 c p3
219.59 109.70 0.57 c p3
219.54 109.72 0.57 c p3
219.51 109.75 0.57 c p3
219.47 109.77 0.57 c p3
219.46 109.80 0.57 c p3
219.43 109.83 0.57 c p3
219.40 109.85 0.57 c p3
219.38 109.88 0.57 c p3
219.37 109.90 0.57 c p3
219.33 109.95 0.57 c p3
219.32 110.00 0.57 c p3
219.31 110.03 0.57 c p3
219.30 110.05 0.57 c p3
219.29 110.10 0.57 c p3
219.25 110.13 0.57 c p3
219.24 110.17 0.57 c p3
219.22 110.22 0.57 c p3
219.20 110.25 0.57 c p3
219.19 110.27 0.57 c p3
219.17 110.29 0.57 c p3
219.11 110.34 0.57 c p3
219.08 110.37 0.57 c p3
219.06 110.41 0.57 c p3
219.05 110.44 0.57 c p3
219.03 110.48 0.57 c p3
219.02 110.51 0.57 c p3
219.00 110.55 0.57 c p3
218.97 110.60 0.57 c p3
218.95 110.62 0.57 c p3
218.94 110.64 0.57 c p3
218.93 110.67 0.57 c p3
218.91 110.69 0.57 c p3
218.90 110.71 0.57 c p3
218.88 110.73 0.57 c p3
218.85 110.80 0.57 c p3
218.83 110.82 0.57 c p3
218.81 110.84 0.57 c p3
218.78 110.89 0.57 c p3
218.76 110.91 0.57 c p3
218.69 111.00 0.57 c p3
218.65 111.04 0.57 c p3
218.57 111.06 0.57 c p3
218.56 111.12 0.57 c p3
218.55 111.14 0.57 c p3
218.54 111.17 0.57 c p3
218.52 111.19 0.57 c p3
218.51 111.21 0.57 c p3
218.50 111.23 0.57 c p3
218.47 111.25 0.57 c p3
218.45 111.29 0.57 c p3
218.42 111.35 0.57 c p3
218.41 111.37 0.57 c p3
218.39 111.41 0.57 c p3
218.38 111.43 0.57 c p3
218.34 111.45 0.57 c p3
218.33 111.51 0.57 c p3
218.30 111.53 0.57 c p3
218.29 111.57 0.57 c p3
218.28 111.59 0.57 c p3
218.26 111.61 0.57 c p3
218.25 111.63 0.57 c p3
218.24 111.65 0.57 c p3
218.22 111.69 0.57 c p3
218.20 111.71 0.57 c p3
218.18 111.73 0.57 c p3
218.17 111.75 0.57 c p3
218.14 111.79 0.57 c p3
218.13 111.80 0.57 c p3
218.12 111.82 0.57 c p3
218.08 111.84 0.57 c p3
218.06 111.86 0.57 c p3
218.05 111.88 0.57 c p3
218.02 111.92 0.57 c p3
218.01 111.94 0.57 c p3
218.00 111.96 0.57 c p3
217.98 111.97 0.57 c p3
217.97 112.01 0.57 c p3
217.96 112.03 0.57 c p3
217.94 112.05 0.57 c p3
217.92 112.07 0.57 c p3
217.90 112.08 0.57 c p3
217.89 112.10 0.57 c p3
217.85 112.12 0.57 c p3
217.83 112.16 0.57 c p3
217.79 112.21 0.57 c p3
217.78 112.25 0.57 c p3
217.76 112.30 0.57 c p3
217.75 112.32 0.57 c p3
217.71 112.37 0.57 c p3
217.69 112.39 0.57 c p3
217.68 112.41 0.57 c p3
217.67 112.46 0.57 c p3
217.65 112.48 0.57 c p3
217.64 112.49 0.57 c p3
217.60 112.53 0.57 c p3
217.58 112.56 0.57 c p3
217.52 112.58 0.57 c p3
217.50 112.60 0.57 c p3
217.45 112.63 0.57 c p3
217.42 112.66 0.57 c p3
217.41 112.68 0.57 c p3
217.39 112.70 0.57 c p3
217.37 112.73 0.57 c p3
217.32 112.80 0.57 c p3
217.29 112.86 0.57 c p3
217.26 112.89 0.57 c p3
217.25 112.93 0.57 c p3
217.23 112.94 0.57 c p3
217.22 112.96 0.57 c p3
217.19 113.01 0.57 c p3
217.18 113.04 0.57 c p3
217.15 113.05 0.57 c p3
217.13 113.07 0.57 c p3
217.10 113.09 0.57 c p3
217.07 113.10 0.57 c p3
217.06 113.12 0.57 c p3
217.01 113.13 0.57 c p3
217.00 113.16 0.57 c p3
216.98 113.23 0.57 c p3
216.97 113.27 0.57 c p3
216.95 113.29 0.57 c p3
216.92 113.32 0.57 c p3
216.91 113.33 0.57 c p3
216.89 113.35 0.57 c p3
216.87 113.36 0.57 c p3
216.84 113.39 0.57 c p3
216.78 113.41 0.57 c p3
216.75 113.44 0.57 c p3
216.74 113.50 0.57 c p3
216.72 113.53 0.57 c p3
216.67 113.56 0.57 c p3
216.64 113.57 0.57 c p3
216.63 113.59 0.57 c p3
216.61 113.60 0.57 c p3
216.58 113.63 0.57 c p3
216.56 113.65 0.57 c p3
216.55 113.69 0.57 c p3
216.53 113.72 0.57 c p3
216.52 113.73 0.57 c p3
216.50 113.76 0.57 c p3
216.48 113.80 0.57 c p3
216.47 113.82 0.57 c p3
216.45 113.85 0.57 c p3
216.42 113.93 0.57 c p3
216.40 113.96 0.57 c p3
216.39 113.97 0.57 c p3
216.37 114.03 0.57 c p3
216.34 114.07 0.57 c p3
216.31 114.12 0.57 c p3
216.26 114.14 0.57 c p3
216.23 114.16 0.57 c p3
216.21 114.20 0.57 c p3
216.19 114.23 0.57 c p3
216.18 114.26 0.57 c p3
216.16 114.27 0.57 c p3
216.13 114.30 0.57 c p3
216.11 114.32 0.57 c p3
216.08 114.38 0.57 c p3
216.06 114.42 0.57 c p3
216.04 114.48 0.57 c p3
216.03 114.51 0.57 c p3
215.99 114.52 0.57 c p3
215.96 114.54 0.57 c p3
215.89 114.56 0.57 c p3
215.88 114.59 0.57 c p3
215.86 114.61 0.57 c p3
215.82 114.63 0.57 c p3
215.81 114.67 0.57 c p3
215.79 114.70 0.57 c p3
215.77 114.71 0.57 c p3
215.76 114.72 0.57 c p3
215.74 114.78 0.57 c p3
215.72 114.82 0.57 c p3
215.69 114.87 0.57 c p3
215.67 114.90 0.57 c p3
215.65 114.92 0.57 c p3
215.63 114.95 0.57 c p3
215.62 114.96 0.57 c p3
215.60 114.98 0.57 c p3
215.58 115.00 0.57 c p3
215.56 115.01 0.57 c p3
215.55 115.02 0.57 c p3
215.53 115.05 0.57 c p3
215.51 115.08 0.57 c p3
215.49 115.09 0.57 c p3
215.48 115.11 0.57 c p3
215.46 115.12 0.57 c p3
215.44 115.18 0.57 c p3
215.42 115.21 0.57 c p3
215.40 115.22 0.57 c p3
215.37 115.25 0.57 c p3
215.35 115.26 0.57 c p3
215.33 115.31 0.57 c p3
215.31 115.38 0.57 c p3
215.30 115.39 0.57 c p3
215.28 115.42 0.57 c p3
215.26 115.49 0.57 c p3
215.24 115.52 0.57 c p3
215.22 115.54 0.57 c p3
215.21 115.59 0.57 c p3
215.19 115.62 0.57 c p3
215.17 115.69 0.57 c p3
215.15 115.71 0.57 c p3
215.13 115.73 0.57 c p3
215.11 115.74 0.57 c p3
215.09 115.78 0.57 c p3
215.06 115.80 0.57 c p3
215.04 115.82 0.57 c p3
215.02 115.84 0.57 c p3
215.00 115.86 0.57 c p3
214.98 115.88 0.57 c p3
214.95 115.90 0.57 c p3
214.93 115.95 0.57 c p3
214.91 115.97 0.57 c p3
214.89 116.00 0.57 c p3
214.87 116.03 0.57 c p3
214.85 116.04 0.57 c p3
214.83 116.06 0.57 c p3
214.81 116.07 0.57 c p3
214.79 116.10 0.57 c p3
214.78 116.11 0.57 c p3
214.76 116.13 0.57 c p3
214.74 116.16 0.57 c p3
214.72 116.20 0.57 c p3
214.70 116.24 0.57 c p3
214.68 116.28 0.57 c p3
214.66 116.29 0.57 c p3
214.64 116.32 0.57 c p3
214.62 116.34 0.57 c p3
214.60 116.36 0.57 c p3
214.58 116.40 0.57 c p3
214.56 116.42 0.57 c p3
214.54 116.43 0.57 c p3
214.52 116.45 0.57 c p3
214.50 116.50 0.57 c p3
214.46 116.53 0.57 c p3
214.44 116.62 0.57 c p3
214.42 116.66 0.57 c p3
214.40 116.71 0.57 c p3
214.38 116.72 0.57 c p3
214.36 116.74 0.57 c p3
214.34 116.78 0.57 c p3
214.32 116.80 0.57 c p3
214.30 116.81 0.57 c p3
214.28 116.84 0.57 c p3
214.26 116.88 0.57 c p3
214.24 116.93 0.57 c p3
214.22 116.99 0.57 c p3
214.20 117.00 0.57 c p3
214.18 117.01 0.57 c p3
214.16 117.05 0.57 c p3
214.14 117.07 0.57 c p3
214.12 117.09 0.57 c p3
214.10 117.10 0.57 c p3
214.08 117.15 0.57 c p3
214.06 117.16 0.57 c p3
214.04 117.21 0.57 c p3
214.02 117.21 0.57 c p3
213.98 117.22 0.57 c p3
213.96 117.27 0.57 c p3
213.93 117.29 0.57 c p3
213.91 117.30 0.57 c p3
213.89 117.33 0.57 c p3
213.87 117.36 0.57 c p3
213.85 117.38 0.57 c p3
213.83 117.41 0.57 c p3
213.81 117.43 0.57 c p3
213.79 117.45 0.57 c p3
213.77 117.48 0.57 c p3
213.74 117.48 0.57 c p3
213.72 117.51 0.57 c p3
213.70 117.53 0.57 c p3
213.68 117.57 0.57 c p3
213.66 117.58 0.57 c p3
213.64 117.60 0.57 c p3
213.62 117.62 0.57 c p3
213.59 117.66 0.57 c p3
213.57 117.70 0.57 c p3
213.55 117.70 0.57 c p3
213.53 117.74 0.57 c p3
213.51 117.77 0.57 c p3
213.48 117.78 0.57 c p3
213.46 117.79 0.57 c p3
213.44 117.83 0.57 c p3
213.42 117.87 0.57 c p3
213.40 117.89 0.57 c p3
213.37 117.90 0.57 c p3
213.35 117.92 0.57 c p3
213.33 117.94 0.57 c p3
213.31 117.95 0.57 c p3
213.28 117.99 0.57 c p3
213.26 118.05 0.57 c p3
213.24 118.09 0.57 c p3
213.22 118.14 0.57 c p3
213.19 118.19 0.57 c p3
213.17 118.22 0.57 c p3
213.15 118.26 0.57 c p3
213.13 118.29 0.57 c p3
213.10 118.32 0.57 c p3
213.08 118.32 0.57 c p3
213.06 118.36 0.57 c p3
213.03 118.39 0.57 c p3
213.01 118.42 0.57 c p3
212.99 118.43 0.57 c p3
212.96 118.47 0.57 c p3
212.94 118.49 0.57 c p3
212.92 118.53 0.57 c p3
212.89 118.54 0.57 c p3
212.87 118.56 0.57 c p3
212.85 118.57 0.57 c p3
212.82 118.64 0.57 c p3
212.80 118.66 0.57 c p3
212.78 118.68 0.57 c p3
212.75 118.72 0.57 c p3
212.73 118.75 0.57 c p3
212.71 118.77 0.57 c p3
212.68 118.81 0.57 c p3
212.66 118.86 0.57 c p3
212.63 118.89 0.57 c p3
212.61 118.94 0.57 c p3
212.59 118.96 0.57 c p3
212.56 118.98 0.57 c p3
212.54 119.03 0.57 c p3
212.51 119.07 0.57 c p3
212.49 119.08 0.57 c p3
212.46 119.11 0.57 c p3
212.44 119.15 0.57 c p3
212.41 119.18 0.57 c p3
212.39 119.20 0.57 c p3
212.36 119.26 0.57 c p3
212.34 119.27 0.57 c p3
212.32 119.29 0.57 c p3
212.29 119.31 0.57 c p3
212.27 119.34 0.57 c p3
212.24 119.37 0.57 c p3
212.21 119.39 0.57 c p3
212.19 119.40 0.57 c p3
212.16 119.45 0.57 c p3
212.14 119.46 0.57 c p3
212.11 119.48 0.57 c p3
212.09 119.53 0.57 c p3
212.06 119.56 0.57 c p3
212.04 119.59 0.57 c p3
212.01 119.63 0.57 c p3
211.99 119.67 0.57 c p3
211.96 119.70 0.57 c p3
211.93 119.72 0.57 c p3
211.91 119.76 0.57 c p3
211.88 119.79 0.57 c p3
211.86 119.82 0.57 c p3
211.83 119.87 0.57 c p3
211.80 119.89 0.57 c p3
211.78 119.90 0.57 c p3
211.75 119.94 0.57 c p3
211.72 119.99 0.57 c p3
211.70 120.00 0.57 c p3
211.67 120.03 0.57 c p3
211.64 120.05 0.57 c p3
211.62 120.08 0.57 c p3
211.59 120.13 0.57 c p3
211.56 120.16 0.57 c p3
211.54 120.19 0.57 c p3
211.51 120.24 0.57 c p3
211.48 120.27 0.57 c p3
211.45 120.31 0.57 c p3
211.43 120.34 0.57 c p3
211.40 120.38 0.57 c p3
211.37 120.43 0.57 c p3
211.34 120.45 0.57 c p3
211.32 120.47 0.57 c p3
211.29 120.50 0.57 c p3
211.26 120.55 0.57 c p3
211.23 120.57 0.57 c p3
211.21 120.60 0.57 c p3
211.18 120.64 0.57 c p3
211.15 120.65 0.57 c p3
211.12 120.67 0.57 c p3
211.09 120.68 0.57 c p3
211.06 120.73 0.57 c p3
211.04 120.77 0.57 c p3
211.01 120.80 0.57 c p3
210.98 120.83 0.57 c p3
210.95 120.85 0.57 c p3
210.92 120.90 0.57 c p3
210.89 120.95 0.57 c p3
210.86 120.96 0.57 c p3
210.83 121.01 0.57 c p3
210.80 121.04 0.57 c p3
210.78 121.06 0.57 c p3
210.75 121.10 0.57 c p3
210.72 121.12 0.57 c p3
210.69 121.14 0.57 c p3
210.66 121.16 0.57 c p3
210.63 121.19 0.57 c p3
210.60 121.21 0.57 c p3
210.57 121.24 0.57 c p3
210.54 121.25 0.57 c p3
210.51 121.27 0.57 c p3
210.48 121.31 0.57 c p3
210.45 121.34 0.57 c p3
210.42 121.38 0.57 c p3
210.39 121.42 0.57 c p3
210.35 121.45 0.57 c p3
210.32 121.49 0.57 c p3
210.29 121.52 0.57 c p3
210.26 121.57 0.57 c p3
210.23 121.60 0.57 c p3
210.20 121.63 0.57 c p3
210.17 121.68 0.57 c p3
210.14 121.72 0.57 c p3
210.11 121.75 0.57 c p3
210.07 121.77 0.57 c p3
210.04 121.81 0.57 c p3
210.01 121.87 0.57 c p3
209.98 121.92 0.57 c p3
209.95 121.95 0.57 c p3
209.91 122.00 0.57 c p3
209.88 122.06 0.57 c p3
209.85 122.09 0.57 c p3
209.82 122.11 0.57 c p3
209.78 122.15 0.57 c p3
209.75 122.16 0.57 c p3
209.72 122.19 0.57 c p3
209.69 122.21 0.57 c p3
209.65 122.23 0.57 c p3
209.62 122.25 0.57 c p3
209.59 122.29 0.57 c p3
209.55 122.32 0.57 c p3
209.52 122.34 0.57 c p3
209.49 122.36 0.57 c p3
209.45 122.42 0.57 c p3
209.42 122.46 0.57 c p3
209.38 122.52 0.57 c p3
209.35 122.56 0.57 c p3
209.32 122.59 0.57 c p3
209.28 122.63 0.57 c p3
209.25 122.67 0.57 c p3
209.21 122.71 0.57 c p3
209.18 122.75 0.57 c p3
209.14 122.77 0.57 c p3
209.11 122.80 0.57 c p3
209.07 122.83 0.57 c p3
209.04 122.87 0.57 c p3
209.00 122.91 0.57 c p3
208.97 122.94 0.57 c p3
208.93 122.96 0.57 c p3
208.89 122.99 0.57 c p3
208.86 123.01 0.57 c p3
208.82 123.07 0.57 c p3
208.79 123.10 0.57 c p3
208.75 123.12 0.57 c p3
208.71 123.15 0.57 c p3
208.68 123.19 0.57 c p3
208.64 123.24 0.57 c p3
208.60 123.27 0.57 c p3
208.57 123.31 0.57 c p3
208.53 123.36 0.57 c p3
208.49 123.38 0.57 c p3
208.45 123.41 0.57 c p3
208.42 123.44 0.57 c p3
208.38 123.49 0.57 c p3
208.34 123.51 0.57 c p3
208.30 123.55 0.57 c p3
208.26 123.58 0.57 c p3
208.22 123.60 0.57 c p3
208.19 123.64 0.57 c p3
208.15 123.68 0.57 c p3
208.11 123.72 0.57 c p3
208.07 123.76 0.57 c p3
208.03 123.79 0.57 c p3
207.99 123.83 0.57 c p3
207.95 123.86 0.57 c p3
207.91 123.90 0.57 c p3
207.87 123.93 0.57 c p3
207.83 123.98 0.57 c p3
207.79 124.01 0.57 c p3
207.75 124.05 0.57 c p3
207.71 124.09 0.57 c p3
207.67 124.11 0.57 c p3
207.63 124.14 0.57 c p3
207.59 124.18 0.57 c p3
207.54 124.23 0.57 c p3
207.50 124.27 0.57 c p3
207.46 124.32 0.57 c p3
207.42 124.35 0.57 c p3
207.38 124.40 0.57 c p3
207.33 124.42 0.57 c p3
207.29 124.45 0.57 c p3
207.25 124.49 0.57 c p3
207.21 124.54 0.57 c p3
207.16 124.58 0.57 c p3
207.12 124.64 0.57 c p3
207.08 124.67 0.57 c p3
207.03 124.72 0.57 c p3
206.99 124.77 0.57 c p3
206.94 124.81 0.57 c p3
206.90 124.84 0.57 c p3
206.86 124.89 0.57 c p3
206.81 124.95 0.57 c p3
206.77 124.99 0.57 c p3
206.72 125.03 0.57 c p3
206.67 125.06 0.57 c p3
206.63 125.09 0.57 c p3
206.58 125.14 0.57 c p3
206.54 125.18 0.57 c p3
206.49 125.22 0.57 c p3
206.44 125.27 0.57 c p3
206.40 125.31 0.57 c p3
206.35 125.34 0.57 c p3
206.30 125.38 0.57 c p3
206.26 125.42 0.57 c p3
206.21 125.45 0.57 c p3
206.16 125.48 0.57 c p3
206.11 125.51 0.57 c p3
206.06 125.54 0.57 c p3
206.01 125.57 0.57 c p3
205.96 125.64 0.57 c p3
205.92 125.69 0.57 c p3
205.87 125.73 0.57 c p3
205.82 125.77 0.57 c p3
205.77 125.81 0.57 c p3
205.72 125.85 0.57 c p3
205.67 125.90 0.57 c p3
205.61 125.95 0.57 c p3
205.56 125.99 0.57 c p3
205.51 126.03 0.57 c p3
205.46 126.07 0.57 c p3
205.41 126.12 0.57 c p3
205.36 126.19 0.57 c p3
205.30 126.22 0.57 c p3
205.25 126.28 0.57 c p3
205.20 126.34 0.57 c p3
205.14 126.37 0.57 c p3
205.09 126.41 0.57 c p3
205.04 126.45 0.57 c p3
204.98 126.49 0.57 c p3
204.93 126.53 0.57 c p3
204.87 126.59 0.57 c p3
204.82 126.65 0.57 c p3
204.76 126.70 0.57 c p3
204.70 126.76 0.57 c p3
204.65 126.80 0.57 c p3
204.59 126.84 0.57 c p3
204.53 126.89 0.57 c p3
204.48 126.94 0.57 c p3
204.42 127.00 0.57 c p3
204.36 127.06 0.57 c p3
204.30 127.11 0.57 c p3
204.24 127.16 0.57 c p3
204.18 127.21 0.57 c p3
204.12 127.25 0.57 c p3
204.06 127.31 0.57 c p3
204.00 127.35 0.57 c p3
203.94 127.40 0.57 c p3
203.88 127.44 0.57 c p3
203.82 127.49 0.57 c p3
203.76 127.55 0.57 c p3
203.69 127.61 0.57 c p3
203.63 127.66 0.57 c p3
203.57 127.70 0.57 c p3
203.50 127.74 0.57 c p3
203.44 127.80 0.57 c p3
203.38 127.87 0.57 c p3
203.31 127.91 0.57 c p3
203.25 127.97 0.57 c p3
203.18 128.02 0.57 c p3
203.11 128.07 0.57 c p3
203.05 128.12 0.57 c p3
202.98 128.17 0.57 c p3
202.91 128.21 0.57 c p3
202.84 128.27 0.57 c p3
202.77 128.31 0.57 c p3
202.70 128.36 0.57 c p3
202.63 128.41 0.57 c p3
202.56 128.46 0.57 c p3
202.49 128.50 0.57 c p3
202.42 128.57 0.57 c p3
202.35 128.63 0.57 c p3
202.28 128.70 0.57 c p3
202.20 128.75 0.57 c p3
202.13 128.82 0.57 c p3
202.05 128.88 0.57 c p3
201.98 128.93 0.57 c p3
201.90 128.99 0.57 c p3
201.83 129.05 0.57 c p3
201.75 129.10 0.57 c p3
201.67 129.17 0.57 c p3
201.59 129.23 0.57 c p3
201.52 129.31 0.57 c p3
201.44 129.37 0.57 c p3
201.36 129.44 0.57 c p3
201.28 129.50 0.57 c p3
201.19 129.56 0.57 c p3
201.11 129.62 0.57 c p3
201.03 129.68 0.57 c p3
200.94 129.74 0.57 c p3
200.86 129.80 0.57 c p3
200.78 129.86 0.57 c p3
200.69 129.92 0.57 c p3
200.60 129.98 0.57 c p3
200.51 130.06 0.57 c p3
200.43 130.12 0.57 c p3
200.34 130.19 0.57 c p3
200.25 130.25 0.57 c p3
200.16 130.32 0.57 c p3
200.06 130.39 0.57 c p3
199.97 130.46 0.57 c p3
199.88 130.53 0.57 c p3
199.78 130.60 0.57 c p3
199.69 130.68 0.57 c p3
199.59 130.76 0.57 c p3
199.49 130.82 0.57 c p3
199.39 130.87 0.57 c p3
199.29 130.94 0.57 c p3
199.19 131.01 0.57 c p3
199.09 131.09 0.57 c p3
198.99 131.16 0.57 c p3
198.88 131.24 0.57 c p3
198.78 131.32 0.57 c p3
198.67 131.39 0.57 c p3
198.56 131.46 0.57 c p3
198.45 131.53 0.57 c p3
198.34 131.61 0.57 c p3
198.23 131.70 0.57 c p3
198.12 131.78 0.57 c p3
198.00 131.86 0.57 c p3
197.89 131.95 0.57 c p3
197.77 132.03 0.57 c p3
197.65 132.11 0.57 c p3
197.53 132.18 0.57 c p3
197.41 132.26 0.57 c p3
197.28 132.35 0.57 c p3
197.16 132.45 0.57 c p3
197.03 132.52 0.57 c p3
196.90 132.61 0.57 c p3
196.77 132.70 0.57 c p3
196.64 132.80 0.57 c p3
196.50 132.88 0.57 c p3
196.37 132.98 0.57 c p3
196.23 133.07 0.57 c p3
196.09 133.17 0.57 c p3
195.95 133.27 0.57 c p3
195.80 133.35 0.57 c p3
195.65 133.45 0.57 c p3
195.51 133.55 0.57 c p3
195.35 133.65 0.57 c p3
195.20 133.75 0.57 c p3
195.04 133.85 0.57 c p3
194.88 133.96 0.57 c p3
194.72 134.06 0.57 c p3
194.55 134.17 0.57 c p3
194.39 134.27 0.57 c p3
194.22 134.38 0.57 c p3
194.04 134.49 0.57 c p3
193.86 134.60 0.57 c p3
193.68 134.73 0.57 c p3
193.50 134.85 0.57 c p3
193.31 134.96 0.57 c p3
193.11 135.10 0.57 c p3
192.92 135.22 0.57 c p3
192.72 135.36 0.57 c p3
192.51 135.48 0.57 c p3
192.30 135.62 0.57 c p3
192.09 135.76 0.57 c p3
191.87 135.90 0.57 c p3
191.64 136.05 0.57 c p3
191.41 136.19 0.57 c p3
191.18 136.34 0.57 c p3
190.93 136.47 0.57 c p3
190.68 136.63 0.57 c p3
190.43 136.78 0.57 c p3
190.16 136.94 0.57 c p3
189.89 137.12 0.57 c p3
189.62 137.30 0.57 c p3
189.33 137.48 0.57 c p3
189.03 137.66 0.57 c p3
188.73 137.85 0.57 c p3
188.41 138.03 0.57 c p3
188.08 138.23 0.57 c p3
187.74 138.43 0.57 c p3
187.39 138.66 0.57 c p3
187.02 138.89 0.57 c p3
186.64 139.15 0.57 c p3
186.24 139.40 0.57 c p3
185.83 139.66 0.57 c p3
185.39 139.94 0.57 c p3
184.94 140.23 0.57 c p3
184.46 140.51 0.57 c p3
183.95 140.84 0.57 c p3
183.42 141.18 0.57 c p3
182.85 141.53 0.57 c p3
182.25 141.93 0.57 c p3
181.61 142.31 0.57 c p3
180.91 142.74 0.57 c p3
180.17 143.21 0.57 c p3
179.35 143.70 0.57 c p3
178.46 144.22 0.57 c p3
177.48 144.79 0.57 c p3
176.38 145.41 0.57 c p3
175.13 146.08 0.57 c p3
173.69 146.79 0.57 c p3
171.99 147.61 0.57 c p3
169.91 148.53 0.57 c p3
167.22 149.72 0.57 c p3
163.43 153.03 0.57 c p3
1 0 0 srgb
1.07 setlinewidth
[ 4.27 4.27] 0 setdash
0 setlinecap
1.00 setmiterlimit
np
163.43 153.03 m
3.79 -2.62 l
2.69 -1.76 l
2.08 -1.32 l
1.70 -1.07 l
1.44 -0.88 l
1.25 -0.76 l
1.10 -0.66 l
0.98 -0.59 l
0.89 -0.53 l
0.82 -0.49 l
0.74 -0.44 l
0.70 -0.41 l
1.24 -0.73 l
0.57 -0.33 l
1.04 -0.61 l
0.93 -0.55 l
0.85 -0.49 l
0.78 -0.45 l
0.72 -0.42 l
0.99 -0.57 l
0.89 -0.52 l
0.81 -0.46 l
0.75 -0.44 l
0.91 -0.52 l
0.83 -0.48 l
0.94 -0.54 l
0.86 -0.49 l
0.93 -0.54 l
0.85 -0.49 l
0.91 -0.52 l
0.82 -0.47 l
0.86 -0.49 l
0.88 -0.50 l
0.89 -0.51 l
0.81 -0.47 l
0.89 -0.51 l
0.88 -0.50 l
0.86 -0.49 l
0.90 -0.51 l
0.86 -0.49 l
0.88 -0.51 l
0.85 -0.48 l
0.89 -0.50 l
0.87 -0.50 l
0.87 -0.50 l
0.87 -0.49 l
0.85 -0.49 l
0.87 -0.49 l
0.88 -0.51 l
0.87 -0.49 l
0.87 -0.50 l
0.87 -0.49 l
0.87 -0.50 l
0.87 -0.49 l
0.87 -0.50 l
0.87 -0.49 l
0.87 -0.50 l
0.87 -0.50 l
0.87 -0.49 l
0.87 -0.50 l
0.87 -0.49 l
0.87 -0.50 l
0.87 -0.49 l
0.87 -0.50 l
0.87 -0.49 l
0.87 -0.50 l
0.87 -0.49 l
0.87 -0.50 l
0.87 -0.49 l
0.87 -0.50 l
0.87 -0.49 l
0.87 -0.50 l
0.87 -0.49 l
0.87 -0.50 l
0.87 -0.50 l
0.87 -0.49 l
0.87 -0.50 l
0.87 -0.49 l
0.87 -0.50 l
0.87 -0.49 l
0.87 -0.50 l
0.87 -0.49 l
0.87 -0.50 l
0.87 -0.49 l
0.87 -0.50 l
0.87 -0.49 l
0.87 -0.50 l
0.87 -0.49 l
0.87 -0.50 l
0.87 -0.49 l
o
0 0 1 srgb
1.07 setlinewidth
[] 0 setdash
np
163.43 153.03 m
3.79 -1.73 l
2.69 -1.31 l
2.08 -1.04 l
1.70 -0.88 l
1.44 -0.76 l
1.25 -0.66 l
1.10 -0.60 l
0.98 -0.53 l
0.89 -0.49 l
0.82 -0.45 l
0.74 -0.41 l
0.70 -0.39 l
1.24 -0.70 l
0.57 -0.32 l
1.04 -0.59 l
0.93 -0.53 l
0.85 -0.49 l
0.78 -0.45 l
0.72 -0.42 l
0.99 -0.57 l
0.89 -0.52 l
0.81 -0.48 l
0.75 -0.44 l
0.91 -0.54 l
0.83 -0.49 l
0.94 -0.57 l
0.86 -0.51 l
0.93 -0.56 l
0.85 -0.51 l
0.91 -0.55 l
0.82 -0.50 l
0.86 -0.52 l
0.88 -0.54 l
0.89 -0.55 l
0.81 -0.50 l
0.89 -0.55 l
0.88 -0.54 l
0.86 -0.54 l
0.90 -0.55 l
0.86 -0.55 l
0.88 -0.55 l
0.85 -0.53 l
0.89 -0.56 l
0.87 -0.55 l
0.87 -0.55 l
0.87 -0.56 l
0.85 -0.54 l
0.87 -0.56 l
0.88 -0.56 l
0.87 -0.56 l
0.87 -0.56 l
0.87 -0.56 l
0.87 -0.57 l
0.87 -0.56 l
0.87 -0.57 l
0.87 -0.57 l
0.87 -0.57 l
0.87 -0.58 l
0.87 -0.57 l
0.87 -0.58 l
0.87 -0.57 l
0.87 -0.58 l
0.87 -0.58 l
0.87 -0.58 l
0.87 -0.59 l
0.87 -0.58 l
0.87 -0.59 l
0.87 -0.58 l
0.87 -0.59 l
0.87 -0.59 l
0.87 -0.60 l
0.87 -0.59 l
0.87 -0.59 l
0.87 -0.60 l
0.87 -0.60 l
0.87 -0.60 l
0.87 -0.60 l
0.87 -0.60 l
0.87 -0.61 l
0.87 -0.60 l
0.87 -0.61 l
0.87 -0.61 l
0.87 -0.61 l
0.87 -0.61 l
0.87 -0.62 l
0.87 -0.61 l
0.87 -0.62 l
0.87 -0.62 l
0.87 -0.62 l
0.87 -0.62 l
o
0.4980 0.4980 0.4980 srgb
1 setlinecap
10.00 setmiterlimit
158.74 54.56 103.16 103.16 r p1
0.00 0.00 595.28 198.43 cl
267.88 54.56 371.03 157.71 cl
/bg { 1 1 1 srgb } def
267.88 54.56 103.16 103.16 r p2
0.9804 0.9804 0.9804 srgb
1.07 setlinewidth
[] 0 setdash
0 setlinecap
1 setlinejoin
10.00 setmiterlimit
np
267.88 59.25 m
103.15 0 l
o
np
267.88 90.51 m
103.15 0 l
o
np
267.88 121.77 m
103.15 0 l
o
np
267.88 153.03 m
103.15 0 l
o
np
287.60 54.56 m
0 103.15 l
o
np
330.61 54.56 m
0 103.15 l
o
0.8980 0.8980 0.8980 srgb
0.43 setlinewidth
[] 0 setdash
np
267.88 74.88 m
103.15 0 l
o
np
267.88 106.14 m
103.15 0 l
o
np
267.88 137.40 m
103.15 0 l
o
np
309.10 54.56 m
0 103.15 l
o
np
352.11 54.56 m
0 103.15 l
o
/bg { 0 0 0 srgb } def
0 0 0 srgb
0.71 setlinewidth
[] 0 setdash
1 setlinecap
321.52 89.99 0.57 c p3
320.28 94.69 0.57 c p3
319.64 97.44 0.57 c p3
319.49 99.40 0.57 c p3
319.40 100.91 0.57 c p3
319.30 102.15 0.57 c p3
319.27 103.20 0.57 c p3
318.88 104.10 0.57 c p3
318.55 104.90 0.57 c p3
317.51 105.62 0.57 c p3
316.68 106.26 0.57 c p3
316.42 106.85 0.57 c p3
315.72 107.40 0.57 c p3
313.49 107.90 0.57 c p3
313.43 108.37 0.57 c p3
313.20 108.81 0.57 c p3
313.08 109.22 0.57 c p3
312.83 109.61 0.57 c p3
312.57 110.32 0.57 c p3
312.44 110.65 0.57 c p3
311.98 111.27 0.57 c p3
311.34 111.56 0.57 c p3
311.26 111.84 0.57 c p3
311.11 112.10 0.57 c p3
310.57 112.36 0.57 c p3
310.41 112.60 0.57 c p3
310.24 113.07 0.57 c p3
310.16 113.30 0.57 c p3
310.08 113.51 0.57 c p3
309.47 113.72 0.57 c p3
309.29 113.92 0.57 c p3
308.82 114.12 0.57 c p3
308.72 114.31 0.57 c p3
308.32 114.50 0.57 c p3
308.22 115.03 0.57 c p3
308.12 115.19 0.57 c p3
308.01 115.36 0.57 c p3
307.91 115.52 0.57 c p3
307.80 115.67 0.57 c p3
307.69 115.83 0.57 c p3
307.59 116.12 0.57 c p3
307.47 116.40 0.57 c p3
307.25 116.54 0.57 c p3
307.14 116.68 0.57 c p3
307.02 116.81 0.57 c p3
306.90 116.94 0.57 c p3
306.78 117.06 0.57 c p3
306.66 117.66 0.57 c p3
306.54 118.00 0.57 c p3
306.42 118.22 0.57 c p3
306.29 118.63 0.57 c p3
306.03 118.73 0.57 c p3
305.90 119.02 0.57 c p3
305.77 119.11 0.57 c p3
305.64 119.20 0.57 c p3
305.50 119.82 0.57 c p3
305.36 120.06 0.57 c p3
305.22 120.14 0.57 c p3
305.08 120.30 0.57 c p3
304.93 120.53 0.57 c p3
304.79 120.83 0.57 c p3
304.64 121.18 0.57 c p3
304.49 121.31 0.57 c p3
304.33 121.58 0.57 c p3
304.18 121.83 0.57 c p3
304.02 122.01 0.57 c p3
303.85 122.19 0.57 c p3
303.69 122.48 0.57 c p3
303.52 122.76 0.57 c p3
303.35 123.03 0.57 c p3
303.17 123.23 0.57 c p3
303.00 123.77 0.57 c p3
302.81 124.00 0.57 c p3
302.63 124.35 0.57 c p3
302.44 124.60 0.57 c p3
302.25 124.77 0.57 c p3
302.05 125.01 0.57 c p3
301.85 125.53 0.57 c p3
301.65 126.05 0.57 c p3
301.44 126.38 0.57 c p3
301.22 126.66 0.57 c p3
301.00 126.93 0.57 c p3
300.78 127.36 0.57 c p3
300.55 127.68 0.57 c p3
300.31 127.94 0.57 c p3
300.07 128.19 0.57 c p3
299.82 128.63 0.57 c p3
299.56 129.08 0.57 c p3
299.30 129.55 0.57 c p3
299.03 129.90 0.57 c p3
298.75 130.43 0.57 c p3
298.46 130.87 0.57 c p3
298.16 131.42 0.57 c p3
297.86 131.88 0.57 c p3
297.54 132.41 0.57 c p3
297.21 132.95 0.57 c p3
296.87 133.52 0.57 c p3
296.52 134.03 0.57 c p3
296.16 134.56 0.57 c p3
295.77 135.12 0.57 c p3
295.38 135.60 0.57 c p3
294.96 136.24 0.57 c p3
294.53 136.82 0.57 c p3
294.07 137.43 0.57 c p3
293.59 138.06 0.57 c p3
293.09 138.78 0.57 c p3
292.55 139.57 0.57 c p3
291.99 140.17 0.57 c p3
291.38 140.81 0.57 c p3
290.74 141.56 0.57 c p3
290.05 142.40 0.57 c p3
289.30 143.26 0.57 c p3
288.49 144.07 0.57 c p3
287.60 145.00 0.57 c p3
286.61 145.93 0.57 c p3
285.51 146.95 0.57 c p3
284.27 147.93 0.57 c p3
282.83 148.92 0.57 c p3
281.12 149.91 0.57 c p3
279.04 150.89 0.57 c p3
276.35 151.93 0.57 c p3
272.57 153.03 0.57 c p3
1 0 0 srgb
1.07 setlinewidth
[ 4.27 4.27] 0 setdash
0 setlinecap
1.00 setmiterlimit
np
272.57 153.03 m
3.78 -2.37 l
2.69 -1.59 l
2.08 -1.19 l
1.71 -0.96 l
1.44 -0.79 l
1.24 -0.69 l
1.10 -0.60 l
0.99 -0.53 l
0.89 -0.48 l
0.81 -0.43 l
0.75 -0.40 l
0.69 -0.37 l
0.64 -0.34 l
0.61 -0.32 l
0.56 -0.30 l
0.54 -0.28 l
0.50 -0.27 l
0.94 -0.49 l
0.43 -0.23 l
0.42 -0.22 l
0.39 -0.21 l
0.39 -0.20 l
0.71 -0.37 l
0.34 -0.18 l
0.65 -0.33 l
0.30 -0.16 l
0.59 -0.31 l
0.55 -0.29 l
0.52 -0.27 l
0.49 -0.25 l
0.47 -0.24 l
0.44 -0.23 l
0.43 -0.23 l
0.60 -0.31 l
0.56 -0.29 l
0.36 -0.19 l
0.52 -0.26 l
0.49 -0.26 l
0.46 -0.24 l
0.58 -0.30 l
0.42 -0.21 l
0.52 -0.27 l
0.50 -0.26 l
0.48 -0.25 l
0.55 -0.28 l
0.43 -0.22 l
0.50 -0.26 l
0.58 -0.30 l
0.45 -0.23 l
0.51 -0.27 l
0.49 -0.25 l
0.46 -0.24 l
0.52 -0.26 l
0.48 -0.25 l
0.53 -0.27 l
0.50 -0.26 l
0.47 -0.24 l
0.50 -0.26 l
0.48 -0.25 l
0.51 -0.26 l
0.48 -0.25 l
0.50 -0.25 l
0.51 -0.27 l
0.49 -0.25 l
0.47 -0.24 l
0.51 -0.26 l
0.49 -0.26 l
0.50 -0.25 l
0.50 -0.26 l
0.47 -0.24 l
0.51 -0.26 l
0.51 -0.26 l
0.48 -0.25 l
o
0 0 1 srgb
1.07 setlinewidth
[] 0 setdash
np
272.57 153.03 m
3.78 -1.10 l
2.69 -1.08 l
2.08 -1.04 l
1.71 -1.00 l
1.44 -0.96 l
1.24 -0.92 l
1.10 -0.87 l
0.99 -0.84 l
0.89 -0.81 l
0.81 -0.78 l
0.75 -0.75 l
0.69 -0.72 l
0.64 -0.70 l
0.61 -0.68 l
0.56 -0.66 l
0.54 -0.63 l
0.50 -0.62 l
0.94 -1.19 l
0.43 -0.58 l
0.42 -0.55 l
0.39 -0.55 l
0.39 -0.53 l
0.71 -1.03 l
0.34 -0.50 l
0.65 -0.97 l
0.30 -0.46 l
0.59 -0.92 l
0.55 -0.87 l
0.52 -0.85 l
0.49 -0.82 l
0.47 -0.80 l
0.44 -0.77 l
0.43 -0.74 l
0.60 -1.09 l
0.56 -1.04 l
0.36 -0.67 l
0.52 -0.97 l
0.49 -0.95 l
0.46 -0.91 l
0.58 -1.16 l
0.42 -0.85 l
0.52 -1.09 l
0.50 -1.05 l
0.48 -1.01 l
0.55 -1.22 l
0.43 -0.94 l
0.50 -1.13 l
0.58 -1.30 l
0.45 -1.05 l
0.51 -1.21 l
0.49 -1.16 l
0.46 -1.12 l
0.52 -1.26 l
0.48 -1.21 l
0.53 -1.33 l
0.50 -1.28 l
0.47 -1.23 l
0.50 -1.33 l
0.48 -1.28 l
0.51 -1.36 l
0.48 -1.31 l
0.50 -1.39 l
0.51 -1.45 l
0.49 -1.40 l
0.47 -1.34 l
0.51 -1.50 l
0.49 -1.44 l
0.50 -1.48 l
0.50 -1.52 l
0.47 -1.46 l
0.51 -1.57 l
0.51 -1.59 l
0.48 -1.53 l
o
0.4980 0.4980 0.4980 srgb
1 setlinecap
10.00 setmiterlimit
267.88 54.56 103.16 103.16 r p1
0.00 0.00 595.28 198.43 cl
377.01 54.56 480.16 157.71 cl
/bg { 1 1 1 srgb } def
377.01 54.56 103.16 103.16 r p2
0.9804 0.9804 0.9804 srgb
1.07 setlinewidth
[] 0 setdash
0 setlinecap
1 setlinejoin
10.00 setmiterlimit
np
377.01 59.25 m
103.15 0 l
o
np
377.01 90.51 m
103.15 0 l
o
np
377.01 121.77 m
103.15 0 l
o
np
377.01 153.03 m
103.15 0 l
o
np
396.73 54.56 m
0 103.15 l
o
np
439.74 54.56 m
0 103.15 l
o
0.8980 0.8980 0.8980 srgb
0.43 setlinewidth
[] 0 setdash
np
377.01 74.88 m
103.15 0 l
o
np
377.01 106.14 m
103.15 0 l
o
np
377.01 137.40 m
103.15 0 l
o
np
418.24 54.56 m
0 103.15 l
o
np
461.25 54.56 m
0 103.15 l
o
/bg { 0 0 0 srgb } def
0 0 0 srgb
0.71 setlinewidth
[] 0 setdash
1 setlinecap
475.48 75.92 0.57 c p3
469.56 80.63 0.57 c p3
465.51 83.38 0.57 c p3
451.16 85.33 0.57 c p3
450.23 86.85 0.57 c p3
441.37 88.08 0.57 c p3
441.16 89.13 0.57 c p3
440.78 90.04 0.57 c p3
439.95 90.84 0.57 c p3
438.72 91.55 0.57 c p3
438.54 92.20 0.57 c p3
438.31 92.79 0.57 c p3
438.12 93.33 0.57 c p3
438.10 93.84 0.57 c p3
437.77 94.30 0.57 c p3
436.73 94.74 0.57 c p3
436.52 95.15 0.57 c p3
436.24 95.54 0.57 c p3
436.06 95.91 0.57 c p3
435.89 96.26 0.57 c p3
435.43 96.59 0.57 c p3
434.21 96.90 0.57 c p3
434.16 97.21 0.57 c p3
434.04 97.49 0.57 c p3
434.02 97.77 0.57 c p3
433.85 98.04 0.57 c p3
433.58 98.29 0.57 c p3
433.43 98.54 0.57 c p3
433.25 98.78 0.57 c p3
433.14 99.01 0.57 c p3
433.08 99.23 0.57 c p3
432.79 99.45 0.57 c p3
432.75 99.66 0.57 c p3
432.55 99.86 0.57 c p3
432.24 100.06 0.57 c p3
432.12 100.25 0.57 c p3
432.10 100.43 0.57 c p3
432.05 100.79 0.57 c p3
431.92 100.96 0.57 c p3
431.88 101.13 0.57 c p3
431.79 101.29 0.57 c p3
431.77 101.45 0.57 c p3
431.75 101.61 0.57 c p3
431.73 101.76 0.57 c p3
431.71 101.91 0.57 c p3
431.64 102.06 0.57 c p3
431.62 102.20 0.57 c p3
431.60 102.48 0.57 c p3
431.57 102.61 0.57 c p3
431.39 102.74 0.57 c p3
431.28 102.87 0.57 c p3
431.25 103.12 0.57 c p3
431.21 103.25 0.57 c p3
431.16 103.37 0.57 c p3
431.11 103.48 0.57 c p3
431.04 103.60 0.57 c p3
430.95 103.83 0.57 c p3
430.90 103.94 0.57 c p3
430.85 104.05 0.57 c p3
430.83 104.15 0.57 c p3
430.53 104.26 0.57 c p3
430.48 104.46 0.57 c p3
430.23 104.56 0.57 c p3
430.20 104.66 0.57 c p3
430.12 105.05 0.57 c p3
430.04 105.14 0.57 c p3
430.02 105.41 0.57 c p3
429.99 105.50 0.57 c p3
429.88 105.58 0.57 c p3
429.86 105.75 0.57 c p3
429.83 105.83 0.57 c p3
429.75 105.92 0.57 c p3
429.72 106.00 0.57 c p3
429.67 106.08 0.57 c p3
429.64 106.24 0.57 c p3
429.50 106.31 0.57 c p3
429.47 106.39 0.57 c p3
429.44 106.47 0.57 c p3
429.42 106.54 0.57 c p3
429.39 106.62 0.57 c p3
429.36 106.69 0.57 c p3
429.27 106.83 0.57 c p3
429.22 106.98 0.57 c p3
429.04 107.04 0.57 c p3
428.98 107.11 0.57 c p3
428.95 107.32 0.57 c p3
428.89 107.38 0.57 c p3
428.86 107.45 0.57 c p3
428.80 107.51 0.57 c p3
428.77 107.58 0.57 c p3
428.71 107.64 0.57 c p3
428.68 107.70 0.57 c p3
428.65 107.77 0.57 c p3
428.62 107.95 0.57 c p3
428.59 108.07 0.57 c p3
428.50 108.19 0.57 c p3
428.47 108.25 0.57 c p3
428.43 108.36 0.57 c p3
428.31 108.42 0.57 c p3
428.28 108.48 0.57 c p3
428.18 108.70 0.57 c p3
428.12 108.75 0.57 c p3
428.08 108.80 0.57 c p3
428.05 108.96 0.57 c p3
428.02 109.01 0.57 c p3
427.99 109.12 0.57 c p3
427.95 109.17 0.57 c p3
427.92 109.27 0.57 c p3
427.89 109.47 0.57 c p3
427.85 109.61 0.57 c p3
427.82 109.70 0.57 c p3
427.75 109.80 0.57 c p3
427.72 110.02 0.57 c p3
427.68 110.11 0.57 c p3
427.65 110.16 0.57 c p3
427.62 110.24 0.57 c p3
427.58 110.33 0.57 c p3
427.55 110.37 0.57 c p3
427.51 110.46 0.57 c p3
427.48 110.58 0.57 c p3
427.44 110.62 0.57 c p3
427.41 110.66 0.57 c p3
427.37 110.86 0.57 c p3
427.34 110.90 0.57 c p3
427.23 110.94 0.57 c p3
427.20 110.98 0.57 c p3
427.16 111.02 0.57 c p3
427.09 111.13 0.57 c p3
427.05 111.17 0.57 c p3
426.98 111.21 0.57 c p3
426.94 111.28 0.57 c p3
426.91 111.32 0.57 c p3
426.87 111.39 0.57 c p3
426.83 111.47 0.57 c p3
426.79 111.57 0.57 c p3
426.76 111.65 0.57 c p3
426.72 111.68 0.57 c p3
426.68 111.72 0.57 c p3
426.64 111.82 0.57 c p3
426.61 111.89 0.57 c p3
426.57 111.92 0.57 c p3
426.53 111.99 0.57 c p3
426.49 112.02 0.57 c p3
426.45 112.05 0.57 c p3
426.41 112.25 0.57 c p3
426.37 112.38 0.57 c p3
426.33 112.44 0.57 c p3
426.30 112.47 0.57 c p3
426.26 112.53 0.57 c p3
426.22 112.66 0.57 c p3
426.18 112.72 0.57 c p3
426.14 112.75 0.57 c p3
426.10 112.78 0.57 c p3
426.06 112.81 0.57 c p3
426.02 112.84 0.57 c p3
425.97 112.95 0.57 c p3
425.93 113.10 0.57 c p3
425.89 113.21 0.57 c p3
425.85 113.35 0.57 c p3
425.77 113.37 0.57 c p3
425.73 113.46 0.57 c p3
425.68 113.59 0.57 c p3
425.64 113.62 0.57 c p3
425.60 113.69 0.57 c p3
425.56 113.80 0.57 c p3
425.51 113.82 0.57 c p3
425.47 113.90 0.57 c p3
425.43 113.97 0.57 c p3
425.39 114.12 0.57 c p3
425.34 114.15 0.57 c p3
425.30 114.27 0.57 c p3
425.25 114.31 0.57 c p3
425.21 114.39 0.57 c p3
425.17 114.46 0.57 c p3
425.12 114.48 0.57 c p3
425.08 114.64 0.57 c p3
425.03 114.71 0.57 c p3
424.99 114.73 0.57 c p3
424.94 114.82 0.57 c p3
424.90 114.88 0.57 c p3
424.85 115.01 0.57 c p3
424.80 115.12 0.57 c p3
424.71 115.18 0.57 c p3
424.66 115.22 0.57 c p3
424.62 115.27 0.57 c p3
424.57 115.33 0.57 c p3
424.52 115.41 0.57 c p3
424.47 115.49 0.57 c p3
424.43 115.53 0.57 c p3
424.38 115.65 0.57 c p3
424.33 115.76 0.57 c p3
424.28 115.84 0.57 c p3
424.23 115.93 0.57 c p3
424.18 115.97 0.57 c p3
424.13 116.04 0.57 c p3
424.08 116.12 0.57 c p3
424.03 116.19 0.57 c p3
423.98 116.26 0.57 c p3
423.93 116.31 0.57 c p3
423.88 116.42 0.57 c p3
423.83 116.61 0.57 c p3
423.78 116.69 0.57 c p3
423.73 116.83 0.57 c p3
423.67 116.94 0.57 c p3
423.62 117.00 0.57 c p3
423.57 117.07 0.57 c p3
423.52 117.16 0.57 c p3
423.46 117.22 0.57 c p3
423.41 117.28 0.57 c p3
423.36 117.38 0.57 c p3
423.30 117.47 0.57 c p3
423.25 117.57 0.57 c p3
423.19 117.63 0.57 c p3
423.14 117.69 0.57 c p3
423.08 117.77 0.57 c p3
423.03 117.84 0.57 c p3
422.97 117.94 0.57 c p3
422.91 118.02 0.57 c p3
422.86 118.09 0.57 c p3
422.80 118.19 0.57 c p3
422.74 118.25 0.57 c p3
422.68 118.36 0.57 c p3
422.63 118.45 0.57 c p3
422.57 118.54 0.57 c p3
422.51 118.59 0.57 c p3
422.45 118.69 0.57 c p3
422.39 118.78 0.57 c p3
422.33 118.86 0.57 c p3
422.27 118.90 0.57 c p3
422.21 119.00 0.57 c p3
422.15 119.08 0.57 c p3
422.09 119.14 0.57 c p3
422.02 119.22 0.57 c p3
421.96 119.30 0.57 c p3
421.90 119.37 0.57 c p3
421.83 119.43 0.57 c p3
421.77 119.52 0.57 c p3
421.71 119.63 0.57 c p3
421.64 119.70 0.57 c p3
421.58 119.82 0.57 c p3
421.51 119.92 0.57 c p3
421.45 120.10 0.57 c p3
421.38 120.20 0.57 c p3
421.31 120.35 0.57 c p3
421.24 120.46 0.57 c p3
421.18 120.55 0.57 c p3
421.11 120.68 0.57 c p3
421.04 120.80 0.57 c p3
420.97 120.89 0.57 c p3
420.90 120.98 0.57 c p3
420.83 121.04 0.57 c p3
420.76 121.11 0.57 c p3
420.69 121.21 0.57 c p3
420.61 121.33 0.57 c p3
420.54 121.46 0.57 c p3
420.47 121.58 0.57 c p3
420.39 121.66 0.57 c p3
420.32 121.75 0.57 c p3
420.25 121.84 0.57 c p3
420.17 121.95 0.57 c p3
420.09 122.12 0.57 c p3
420.02 122.21 0.57 c p3
419.94 122.32 0.57 c p3
419.86 122.46 0.57 c p3
419.78 122.58 0.57 c p3
419.70 122.69 0.57 c p3
419.62 122.77 0.57 c p3
419.54 122.87 0.57 c p3
419.46 123.01 0.57 c p3
419.38 123.13 0.57 c p3
419.29 123.24 0.57 c p3
419.21 123.37 0.57 c p3
419.13 123.50 0.57 c p3
419.04 123.63 0.57 c p3
418.95 123.72 0.57 c p3
418.87 123.84 0.57 c p3
418.78 123.97 0.57 c p3
418.69 124.11 0.57 c p3
418.60 124.22 0.57 c p3
418.51 124.28 0.57 c p3
418.42 124.43 0.57 c p3
418.33 124.56 0.57 c p3
418.24 124.70 0.57 c p3
418.14 124.82 0.57 c p3
418.05 124.95 0.57 c p3
417.95 125.10 0.57 c p3
417.85 125.23 0.57 c p3
417.76 125.35 0.57 c p3
417.66 125.49 0.57 c p3
417.56 125.63 0.57 c p3
417.46 125.75 0.57 c p3
417.36 125.92 0.57 c p3
417.25 126.07 0.57 c p3
417.15 126.20 0.57 c p3
417.04 126.37 0.57 c p3
416.94 126.48 0.57 c p3
416.83 126.62 0.57 c p3
416.72 126.72 0.57 c p3
416.61 126.88 0.57 c p3
416.50 127.04 0.57 c p3
416.38 127.15 0.57 c p3
416.27 127.31 0.57 c p3
416.15 127.50 0.57 c p3
416.03 127.64 0.57 c p3
415.92 127.80 0.57 c p3
415.80 127.98 0.57 c p3
415.67 128.13 0.57 c p3
415.55 128.31 0.57 c p3
415.42 128.47 0.57 c p3
415.30 128.62 0.57 c p3
415.17 128.82 0.57 c p3
415.04 129.00 0.57 c p3
414.90 129.16 0.57 c p3
414.77 129.32 0.57 c p3
414.63 129.47 0.57 c p3
414.50 129.65 0.57 c p3
414.36 129.83 0.57 c p3
414.21 130.02 0.57 c p3
414.07 130.23 0.57 c p3
413.92 130.43 0.57 c p3
413.77 130.60 0.57 c p3
413.62 130.78 0.57 c p3
413.47 130.98 0.57 c p3
413.31 131.16 0.57 c p3
413.15 131.34 0.57 c p3
412.99 131.53 0.57 c p3
412.82 131.71 0.57 c p3
412.65 131.92 0.57 c p3
412.48 132.11 0.57 c p3
412.31 132.31 0.57 c p3
412.13 132.54 0.57 c p3
411.95 132.73 0.57 c p3
411.76 132.92 0.57 c p3
411.57 133.14 0.57 c p3
411.38 133.35 0.57 c p3
411.18 133.54 0.57 c p3
410.98 133.77 0.57 c p3
410.78 134.00 0.57 c p3
410.57 134.23 0.57 c p3
410.35 134.46 0.57 c p3
410.13 134.72 0.57 c p3
409.91 134.97 0.57 c p3
409.68 135.24 0.57 c p3
409.44 135.45 0.57 c p3
409.20 135.70 0.57 c p3
408.95 135.98 0.57 c p3
408.69 136.27 0.57 c p3
408.43 136.53 0.57 c p3
408.16 136.82 0.57 c p3
407.88 137.10 0.57 c p3
407.59 137.41 0.57 c p3
407.30 137.71 0.57 c p3
406.99 138.01 0.57 c p3
406.67 138.31 0.57 c p3
406.35 138.62 0.57 c p3
406.01 138.97 0.57 c p3
405.65 139.29 0.57 c p3
405.29 139.62 0.57 c p3
404.91 139.99 0.57 c p3
404.51 140.32 0.57 c p3
404.09 140.70 0.57 c p3
403.66 141.08 0.57 c p3
403.20 141.48 0.57 c p3
402.73 141.91 0.57 c p3
402.22 142.33 0.57 c p3
401.69 142.76 0.57 c p3
401.12 143.22 0.57 c p3
400.52 143.68 0.57 c p3
399.87 144.18 0.57 c p3
399.18 144.72 0.57 c p3
398.43 145.25 0.57 c p3
397.62 145.80 0.57 c p3
396.73 146.41 0.57 c p3
395.75 147.04 0.57 c p3
394.65 147.72 0.57 c p3
393.40 148.42 0.57 c p3
391.96 149.18 0.57 c p3
390.26 150.01 0.57 c p3
388.17 150.91 0.57 c p3
385.49 151.93 0.57 c p3
381.70 153.03 0.57 c p3
1 0 0 srgb
1.07 setlinewidth
[ 4.27 4.27] 0 setdash
0 setlinecap
1.00 setmiterlimit
np
381.70 153.03 m
3.79 -2.12 l
2.68 -1.42 l
2.09 -1.06 l
1.70 -0.86 l
1.44 -0.71 l
1.25 -0.61 l
1.10 -0.53 l
0.98 -0.48 l
0.89 -0.42 l
0.81 -0.39 l
1.44 -0.69 l
0.65 -0.30 l
1.17 -0.56 l
1.04 -0.49 l
0.93 -0.44 l
0.85 -0.39 l
0.78 -0.37 l
1.06 -0.49 l
0.95 -0.44 l
0.86 -0.41 l
1.04 -0.48 l
0.93 -0.43 l
0.85 -0.40 l
0.97 -0.44 l
1.04 -0.48 l
0.93 -0.43 l
0.98 -0.46 l
0.90 -0.41 l
0.92 -0.42 l
0.94 -0.44 l
0.94 -0.43 l
1.02 -0.47 l
0.92 -0.42 l
0.97 -0.45 l
0.94 -0.43 l
0.91 -0.42 l
0.97 -0.44 l
0.92 -0.43 l
0.97 -0.44 l
0.94 -0.43 l
0.96 -0.44 l
0.95 -0.44 l
0.95 -0.43 l
0.93 -0.43 l
0.95 -0.44 l
0.95 -0.43 l
0.94 -0.44 l
0.96 -0.44 l
0.94 -0.43 l
0.94 -0.43 l
0.96 -0.44 l
0.95 -0.43 l
0.94 -0.43 l
0.95 -0.44 l
0.94 -0.43 l
0.95 -0.44 l
0.95 -0.43 l
0.95 -0.44 l
0.94 -0.43 l
0.95 -0.43 l
0.95 -0.44 l
0.95 -0.43 l
0.94 -0.43 l
0.95 -0.44 l
0.95 -0.43 l
0.95 -0.44 l
0.94 -0.43 l
0.95 -0.43 l
0.95 -0.44 l
0.94 -0.43 l
0.95 -0.44 l
0.95 -0.43 l
0.95 -0.43 l
0.94 -0.44 l
0.95 -0.43 l
0.95 -0.44 l
0.94 -0.43 l
0.95 -0.43 l
0.95 -0.44 l
0.95 -0.43 l
0.94 -0.44 l
0.95 -0.43 l
0.95 -0.43 l
0.95 -0.44 l
0.94 -0.43 l
0.95 -0.44 l
0.95 -0.43 l
0.94 -0.43 l
0.95 -0.44 l
0.95 -0.43 l
0.95 -0.43 l
o
0 0 1 srgb
1.07 setlinewidth
[] 0 setdash
np
381.70 153.03 m
3.79 -1.00 l
2.68 -0.91 l
2.09 -0.83 l
1.70 -0.76 l
1.44 -0.71 l
1.25 -0.67 l
1.10 -0.62 l
0.98 -0.60 l
0.89 -0.56 l
0.81 -0.53 l
1.44 -1.01 l
0.65 -0.47 l
1.17 -0.89 l
1.04 -0.83 l
0.93 -0.78 l
0.85 -0.73 l
0.78 -0.70 l
1.06 -0.98 l
0.95 -0.91 l
0.86 -0.86 l
1.04 -1.07 l
0.93 -1.00 l
0.85 -0.93 l
0.97 -1.09 l
1.04 -1.22 l
0.93 -1.13 l
0.98 -1.22 l
0.90 -1.14 l
0.92 -1.22 l
0.94 -1.27 l
0.94 -1.30 l
1.02 -1.46 l
0.92 -1.34 l
0.97 -1.45 l
0.94 -1.44 l
0.91 -1.43 l
0.97 -1.56 l
0.92 -1.52 l
0.97 -1.62 l
0.94 -1.63 l
0.96 -1.68 l
0.95 -1.71 l
0.95 -1.74 l
0.93 -1.74 l
0.95 -1.82 l
0.95 -1.84 l
0.94 -1.88 l
0.96 -1.93 l
0.94 -1.94 l
0.94 -1.98 l
0.96 -2.04 l
0.95 -2.06 l
0.94 -2.08 l
0.95 -2.14 l
0.94 -2.17 l
0.95 -2.20 l
0.95 -2.25 l
0.95 -2.28 l
0.94 -2.31 l
0.95 -2.36 l
0.95 -2.38 l
0.95 -2.43 l
0.94 -2.46 l
0.95 -2.49 l
o
0.4980 0.4980 0.4980 srgb
1 setlinecap
10.00 setmiterlimit
377.01 54.56 103.16 103.16 r p1
0.00 0.00 595.28 198.43 cl
486.14 54.56 589.30 157.71 cl
/bg { 1 1 1 srgb } def
486.14 54.56 103.16 103.16 r p2
0.9804 0.9804 0.9804 srgb
1.07 setlinewidth
[] 0 setdash
0 setlinecap
1 setlinejoin
10.00 setmiterlimit
np
486.14 59.25 m
103.16 0 l
o
np
486.14 90.51 m
103.16 0 l
o
np
486.14 121.77 m
103.16 0 l
o
np
486.14 153.03 m
103.16 0 l
o
np
505.86 54.56 m
0 103.15 l
o
np
548.87 54.56 m
0 103.15 l
o
0.8980 0.8980 0.8980 srgb
0.43 setlinewidth
[] 0 setdash
np
486.14 74.88 m
103.16 0 l
o
np
486.14 106.14 m
103.16 0 l
o
np
486.14 137.40 m
103.16 0 l
o
np
527.37 54.56 m
0 103.15 l
o
np
570.38 54.56 m
0 103.15 l
o
/bg { 0 0 0 srgb } def
0 0 0 srgb
0.71 setlinewidth
[] 0 setdash
1 setlinecap
568.04 73.80 0.57 c p3
564.01 78.50 0.57 c p3
563.87 81.26 0.57 c p3
563.49 83.21 0.57 c p3
562.67 84.72 0.57 c p3
562.25 85.96 0.57 c p3
561.86 87.01 0.57 c p3
561.70 87.91 0.57 c p3
561.02 88.71 0.57 c p3
560.45 89.43 0.57 c p3
560.45 90.07 0.57 c p3
560.00 90.67 0.57 c p3
559.92 91.21 0.57 c p3
559.75 91.71 0.57 c p3
559.61 92.18 0.57 c p3
559.18 92.62 0.57 c p3
559.01 93.03 0.57 c p3
558.95 93.42 0.57 c p3
558.58 93.78 0.57 c p3
558.57 94.13 0.57 c p3
558.06 94.46 0.57 c p3
558.04 94.78 0.57 c p3
557.97 95.08 0.57 c p3
557.83 95.37 0.57 c p3
557.82 95.65 0.57 c p3
557.77 95.91 0.57 c p3
557.06 96.17 0.57 c p3
556.93 96.42 0.57 c p3
556.91 96.65 0.57 c p3
556.82 96.88 0.57 c p3
556.78 97.11 0.57 c p3
556.72 97.32 0.57 c p3
556.67 97.53 0.57 c p3
556.67 97.73 0.57 c p3
556.65 98.12 0.57 c p3
556.60 98.31 0.57 c p3
556.58 98.49 0.57 c p3
556.54 98.67 0.57 c p3
556.52 98.84 0.57 c p3
556.49 99.01 0.57 c p3
556.44 99.17 0.57 c p3
556.43 99.33 0.57 c p3
556.39 99.48 0.57 c p3
556.37 99.64 0.57 c p3
556.31 99.79 0.57 c p3
556.24 99.93 0.57 c p3
556.09 100.08 0.57 c p3
556.08 100.22 0.57 c p3
555.93 100.35 0.57 c p3
555.84 100.49 0.57 c p3
555.81 100.62 0.57 c p3
555.81 100.75 0.57 c p3
555.79 100.87 0.57 c p3
555.70 101.00 0.57 c p3
555.60 101.12 0.57 c p3
555.25 101.24 0.57 c p3
555.17 101.36 0.57 c p3
555.13 101.48 0.57 c p3
555.07 101.59 0.57 c p3
555.06 101.81 0.57 c p3
554.98 101.92 0.57 c p3
554.94 102.03 0.57 c p3
554.93 102.13 0.57 c p3
554.86 102.24 0.57 c p3
554.84 102.34 0.57 c p3
554.80 102.44 0.57 c p3
554.74 102.54 0.57 c p3
554.68 102.64 0.57 c p3
554.64 102.73 0.57 c p3
554.54 102.83 0.57 c p3
554.52 102.92 0.57 c p3
554.43 103.01 0.57 c p3
554.34 103.10 0.57 c p3
554.33 103.19 0.57 c p3
554.20 103.37 0.57 c p3
554.18 103.46 0.57 c p3
554.13 103.54 0.57 c p3
554.12 103.63 0.57 c p3
554.11 103.71 0.57 c p3
554.09 103.79 0.57 c p3
553.92 103.87 0.57 c p3
553.87 103.95 0.57 c p3
553.84 104.03 0.57 c p3
553.82 104.11 0.57 c p3
553.80 104.19 0.57 c p3
553.79 104.27 0.57 c p3
553.72 104.34 0.57 c p3
553.68 104.42 0.57 c p3
553.64 104.49 0.57 c p3
553.60 104.56 0.57 c p3
553.49 104.64 0.57 c p3
553.47 104.71 0.57 c p3
553.45 104.78 0.57 c p3
553.44 104.85 0.57 c p3
553.43 104.92 0.57 c p3
553.41 104.99 0.57 c p3
553.40 105.06 0.57 c p3
553.39 105.12 0.57 c p3
553.26 105.19 0.57 c p3
553.25 105.26 0.57 c p3
553.24 105.32 0.57 c p3
553.21 105.39 0.57 c p3
553.21 105.45 0.57 c p3
553.18 105.52 0.57 c p3
553.16 105.58 0.57 c p3
553.14 105.70 0.57 c p3
553.07 105.77 0.57 c p3
553.06 105.83 0.57 c p3
553.06 105.95 0.57 c p3
553.03 106.01 0.57 c p3
553.00 106.06 0.57 c p3
553.00 106.12 0.57 c p3
552.98 106.18 0.57 c p3
552.94 106.24 0.57 c p3
552.92 106.29 0.57 c p3
552.91 106.35 0.57 c p3
552.80 106.41 0.57 c p3
552.75 106.46 0.57 c p3
552.74 106.52 0.57 c p3
552.74 106.63 0.57 c p3
552.72 106.68 0.57 c p3
552.69 106.79 0.57 c p3
552.67 106.84 0.57 c p3
552.62 106.89 0.57 c p3
552.61 106.99 0.57 c p3
552.59 107.04 0.57 c p3
552.59 107.14 0.57 c p3
552.55 107.19 0.57 c p3
552.52 107.29 0.57 c p3
552.49 107.34 0.57 c p3
552.47 107.39 0.57 c p3
552.44 107.44 0.57 c p3
552.43 107.49 0.57 c p3
552.41 107.53 0.57 c p3
552.40 107.58 0.57 c p3
552.39 107.63 0.57 c p3
552.28 107.72 0.57 c p3
552.27 107.76 0.57 c p3
552.26 107.81 0.57 c p3
552.14 107.85 0.57 c p3
552.12 107.90 0.57 c p3
552.11 107.94 0.57 c p3
552.08 107.99 0.57 c p3
552.07 108.08 0.57 c p3
551.97 108.12 0.57 c p3
551.94 108.16 0.57 c p3
551.93 108.21 0.57 c p3
551.92 108.25 0.57 c p3
551.78 108.29 0.57 c p3
551.77 108.33 0.57 c p3
551.76 108.37 0.57 c p3
551.75 108.42 0.57 c p3
551.73 108.46 0.57 c p3
551.70 108.50 0.57 c p3
551.66 108.54 0.57 c p3
551.63 108.58 0.57 c p3
551.62 108.62 0.57 c p3
551.52 108.66 0.57 c p3
551.48 108.70 0.57 c p3
551.42 108.74 0.57 c p3
551.40 108.78 0.57 c p3
551.38 108.86 0.57 c p3
551.32 108.89 0.57 c p3
551.31 108.93 0.57 c p3
551.30 108.97 0.57 c p3
551.26 109.01 0.57 c p3
551.24 109.05 0.57 c p3
551.23 109.08 0.57 c p3
551.22 109.12 0.57 c p3
551.21 109.16 0.57 c p3
551.16 109.20 0.57 c p3
551.13 109.23 0.57 c p3
551.11 109.27 0.57 c p3
551.11 109.31 0.57 c p3
551.05 109.34 0.57 c p3
551.02 109.38 0.57 c p3
550.98 109.45 0.57 c p3
550.97 109.49 0.57 c p3
550.94 109.52 0.57 c p3
550.92 109.56 0.57 c p3
550.88 109.63 0.57 c p3
550.85 109.66 0.57 c p3
550.83 109.69 0.57 c p3
550.81 109.76 0.57 c p3
550.79 109.80 0.57 c p3
550.76 109.86 0.57 c p3
550.66 109.93 0.57 c p3
550.65 109.96 0.57 c p3
550.62 110.03 0.57 c p3
550.62 110.06 0.57 c p3
550.59 110.09 0.57 c p3
550.55 110.19 0.57 c p3
550.54 110.22 0.57 c p3
550.52 110.25 0.57 c p3
550.49 110.28 0.57 c p3
550.48 110.32 0.57 c p3
550.45 110.35 0.57 c p3
550.39 110.38 0.57 c p3
550.38 110.41 0.57 c p3
550.37 110.44 0.57 c p3
550.32 110.53 0.57 c p3
550.29 110.56 0.57 c p3
550.20 110.62 0.57 c p3
550.19 110.68 0.57 c p3
550.17 110.71 0.57 c p3
550.16 110.77 0.57 c p3
550.16 110.80 0.57 c p3
550.12 110.86 0.57 c p3
550.12 110.89 0.57 c p3
550.09 110.91 0.57 c p3
550.06 110.94 0.57 c p3
550.05 110.97 0.57 c p3
550.03 111.03 0.57 c p3
550.02 111.06 0.57 c p3
549.98 111.08 0.57 c p3
549.96 111.14 0.57 c p3
549.89 111.17 0.57 c p3
549.87 111.22 0.57 c p3
549.84 111.25 0.57 c p3
549.83 111.28 0.57 c p3
549.82 111.30 0.57 c p3
549.80 111.33 0.57 c p3
549.79 111.36 0.57 c p3
549.78 111.38 0.57 c p3
549.77 111.41 0.57 c p3
549.71 111.44 0.57 c p3
549.57 111.52 0.57 c p3
549.56 111.60 0.57 c p3
549.52 111.62 0.57 c p3
549.51 111.65 0.57 c p3
549.50 111.70 0.57 c p3
549.47 111.75 0.57 c p3
549.45 111.77 0.57 c p3
549.44 111.80 0.57 c p3
549.43 111.82 0.57 c p3
549.42 111.85 0.57 c p3
549.41 111.87 0.57 c p3
549.40 111.92 0.57 c p3
549.38 111.97 0.57 c p3
549.38 112.00 0.57 c p3
549.35 112.05 0.57 c p3
549.33 112.07 0.57 c p3
549.31 112.12 0.57 c p3
549.30 112.17 0.57 c p3
549.30 112.19 0.57 c p3
549.28 112.21 0.57 c p3
549.27 112.24 0.57 c p3
549.24 112.28 0.57 c p3
549.21 112.31 0.57 c p3
549.21 112.35 0.57 c p3
549.20 112.38 0.57 c p3
549.19 112.40 0.57 c p3
549.18 112.45 0.57 c p3
549.12 112.47 0.57 c p3
549.11 112.54 0.57 c p3
549.11 112.56 0.57 c p3
549.09 112.60 0.57 c p3
549.06 112.63 0.57 c p3
549.05 112.67 0.57 c p3
549.04 112.69 0.57 c p3
549.01 112.72 0.57 c p3
549.00 112.74 0.57 c p3
548.99 112.76 0.57 c p3
548.92 112.80 0.57 c p3
548.89 112.82 0.57 c p3
548.87 112.85 0.57 c p3
548.83 112.87 0.57 c p3
548.82 112.89 0.57 c p3
548.76 112.91 0.57 c p3
548.73 112.93 0.57 c p3
548.71 112.95 0.57 c p3
548.66 112.97 0.57 c p3
548.63 113.02 0.57 c p3
548.62 113.04 0.57 c p3
548.60 113.06 0.57 c p3
548.59 113.10 0.57 c p3
548.58 113.12 0.57 c p3
548.57 113.16 0.57 c p3
548.56 113.20 0.57 c p3
548.52 113.24 0.57 c p3
548.48 113.28 0.57 c p3
548.45 113.32 0.57 c p3
548.44 113.34 0.57 c p3
548.41 113.36 0.57 c p3
548.39 113.38 0.57 c p3
548.33 113.40 0.57 c p3
548.32 113.42 0.57 c p3
548.31 113.44 0.57 c p3
548.29 113.46 0.57 c p3
548.28 113.48 0.57 c p3
548.27 113.52 0.57 c p3
548.25 113.54 0.57 c p3
548.24 113.58 0.57 c p3
548.23 113.60 0.57 c p3
548.22 113.62 0.57 c p3
548.21 113.64 0.57 c p3
548.19 113.66 0.57 c p3
548.17 113.70 0.57 c p3
548.12 113.71 0.57 c p3
548.10 113.73 0.57 c p3
548.09 113.75 0.57 c p3
548.08 113.79 0.57 c p3
548.07 113.85 0.57 c p3
548.04 113.86 0.57 c p3
548.02 113.90 0.57 c p3
548.01 113.94 0.57 c p3
547.98 113.96 0.57 c p3
547.96 113.99 0.57 c p3
547.95 114.07 0.57 c p3
547.90 114.10 0.57 c p3
547.89 114.12 0.57 c p3
547.87 114.17 0.57 c p3
547.85 114.19 0.57 c p3
547.84 114.23 0.57 c p3
547.82 114.28 0.57 c p3
547.81 114.30 0.57 c p3
547.80 114.31 0.57 c p3
547.79 114.33 0.57 c p3
547.74 114.35 0.57 c p3
547.71 114.36 0.57 c p3
547.68 114.38 0.57 c p3
547.66 114.40 0.57 c p3
547.64 114.42 0.57 c p3
547.63 114.43 0.57 c p3
547.62 114.45 0.57 c p3
547.61 114.48 0.57 c p3
547.59 114.52 0.57 c p3
547.57 114.53 0.57 c p3
547.56 114.55 0.57 c p3
547.52 114.57 0.57 c p3
547.51 114.59 0.57 c p3
547.50 114.60 0.57 c p3
547.48 114.62 0.57 c p3
547.47 114.65 0.57 c p3
547.44 114.68 0.57 c p3
547.43 114.70 0.57 c p3
547.42 114.72 0.57 c p3
547.41 114.73 0.57 c p3
547.39 114.77 0.57 c p3
547.37 114.78 0.57 c p3
547.36 114.80 0.57 c p3
547.35 114.85 0.57 c p3
547.34 114.88 0.57 c p3
547.32 114.89 0.57 c p3
547.31 114.94 0.57 c p3
547.30 114.97 0.57 c p3
547.28 114.99 0.57 c p3
547.25 115.02 0.57 c p3
547.24 115.04 0.57 c p3
547.22 115.05 0.57 c p3
547.21 115.08 0.57 c p3
547.20 115.11 0.57 c p3
547.19 115.15 0.57 c p3
547.18 115.16 0.57 c p3
547.17 115.18 0.57 c p3
547.13 115.21 0.57 c p3
547.11 115.24 0.57 c p3
547.09 115.25 0.57 c p3
547.08 115.27 0.57 c p3
547.07 115.28 0.57 c p3
547.06 115.30 0.57 c p3
547.04 115.31 0.57 c p3
547.02 115.33 0.57 c p3
547.01 115.34 0.57 c p3
547.00 115.37 0.57 c p3
546.99 115.39 0.57 c p3
546.98 115.40 0.57 c p3
546.96 115.42 0.57 c p3
546.94 115.43 0.57 c p3
546.92 115.46 0.57 c p3
546.88 115.47 0.57 c p3
546.87 115.50 0.57 c p3
546.86 115.52 0.57 c p3
546.85 115.55 0.57 c p3
546.83 115.59 0.57 c p3
546.81 115.61 0.57 c p3
546.79 115.62 0.57 c p3
546.78 115.66 0.57 c p3
546.70 115.68 0.57 c p3
546.67 115.70 0.57 c p3
546.66 115.72 0.57 c p3
546.65 115.73 0.57 c p3
546.63 115.75 0.57 c p3
546.61 115.76 0.57 c p3
546.60 115.78 0.57 c p3
546.59 115.80 0.57 c p3
546.58 115.82 0.57 c p3
546.55 115.84 0.57 c p3
546.54 115.86 0.57 c p3
546.53 115.90 0.57 c p3
546.52 115.91 0.57 c p3
546.51 115.93 0.57 c p3
546.49 115.94 0.57 c p3
546.48 115.97 0.57 c p3
546.47 115.98 0.57 c p3
546.46 116.00 0.57 c p3
546.43 116.02 0.57 c p3
546.42 116.05 0.57 c p3
546.37 116.08 0.57 c p3
546.36 116.09 0.57 c p3
546.35 116.12 0.57 c p3
546.34 116.13 0.57 c p3
546.32 116.17 0.57 c p3
546.31 116.18 0.57 c p3
546.30 116.20 0.57 c p3
546.27 116.22 0.57 c p3
546.25 116.24 0.57 c p3
546.24 116.25 0.57 c p3
546.20 116.26 0.57 c p3
546.19 116.27 0.57 c p3
546.18 116.29 0.57 c p3
546.16 116.31 0.57 c p3
546.13 116.34 0.57 c p3
546.11 116.36 0.57 c p3
546.10 116.39 0.57 c p3
546.09 116.40 0.57 c p3
546.08 116.42 0.57 c p3
546.06 116.43 0.57 c p3
546.02 116.44 0.57 c p3
546.01 116.45 0.57 c p3
546.00 116.49 0.57 c p3
545.99 116.52 0.57 c p3
545.97 116.54 0.57 c p3
545.96 116.55 0.57 c p3
545.92 116.57 0.57 c p3
545.91 116.59 0.57 c p3
545.88 116.62 0.57 c p3
545.83 116.63 0.57 c p3
545.81 116.64 0.57 c p3
545.79 116.65 0.57 c p3
545.75 116.69 0.57 c p3
545.74 116.71 0.57 c p3
545.72 116.74 0.57 c p3
545.70 116.75 0.57 c p3
545.68 116.76 0.57 c p3
545.66 116.80 0.57 c p3
545.65 116.81 0.57 c p3
545.62 116.82 0.57 c p3
545.61 116.84 0.57 c p3
545.60 116.85 0.57 c p3
545.58 116.87 0.57 c p3
545.56 116.90 0.57 c p3
545.54 116.91 0.57 c p3
545.53 116.93 0.57 c p3
545.50 116.94 0.57 c p3
545.49 116.95 0.57 c p3
545.48 116.98 0.57 c p3
545.46 116.99 0.57 c p3
545.45 117.01 0.57 c p3
545.42 117.04 0.57 c p3
545.40 117.06 0.57 c p3
545.38 117.07 0.57 c p3
545.37 117.09 0.57 c p3
545.35 117.11 0.57 c p3
545.34 117.13 0.57 c p3
545.33 117.14 0.57 c p3
545.31 117.16 0.57 c p3
545.29 117.19 0.57 c p3
545.27 117.20 0.57 c p3
545.26 117.24 0.57 c p3
545.25 117.26 0.57 c p3
545.23 117.32 0.57 c p3
545.22 117.33 0.57 c p3
545.19 117.34 0.57 c p3
545.18 117.37 0.57 c p3
545.15 117.39 0.57 c p3
545.13 117.40 0.57 c p3
545.12 117.41 0.57 c p3
545.11 117.43 0.57 c p3
545.09 117.46 0.57 c p3
545.08 117.49 0.57 c p3
545.06 117.50 0.57 c p3
544.99 117.54 0.57 c p3
544.98 117.55 0.57 c p3
544.97 117.57 0.57 c p3
544.95 117.62 0.57 c p3
544.92 117.65 0.57 c p3
544.89 117.66 0.57 c p3
544.88 117.67 0.57 c p3
544.87 117.68 0.57 c p3
544.85 117.71 0.57 c p3
544.82 117.72 0.57 c p3
544.81 117.79 0.57 c p3
544.79 117.81 0.57 c p3
544.76 117.86 0.57 c p3
544.74 117.88 0.57 c p3
544.68 117.92 0.57 c p3
544.65 117.94 0.57 c p3
544.63 117.95 0.57 c p3
544.62 117.98 0.57 c p3
544.59 117.99 0.57 c p3
544.57 118.02 0.57 c p3
544.56 118.04 0.57 c p3
544.54 118.05 0.57 c p3
544.53 118.08 0.57 c p3
544.52 118.10 0.57 c p3
544.50 118.12 0.57 c p3
544.49 118.15 0.57 c p3
544.47 118.16 0.57 c p3
544.46 118.17 0.57 c p3
544.43 118.18 0.57 c p3
544.41 118.21 0.57 c p3
544.40 118.23 0.57 c p3
544.38 118.26 0.57 c p3
544.36 118.28 0.57 c p3
544.32 118.29 0.57 c p3
544.30 118.32 0.57 c p3
544.27 118.34 0.57 c p3
544.24 118.35 0.57 c p3
544.23 118.38 0.57 c p3
544.21 118.42 0.57 c p3
544.20 118.45 0.57 c p3
544.18 118.46 0.57 c p3
544.17 118.47 0.57 c p3
544.15 118.48 0.57 c p3
544.14 118.49 0.57 c p3
544.09 118.50 0.57 c p3
544.06 118.52 0.57 c p3
544.04 118.53 0.57 c p3
544.03 118.54 0.57 c p3
544.01 118.56 0.57 c p3
543.99 118.59 0.57 c p3
543.98 118.60 0.57 c p3
543.96 118.61 0.57 c p3
543.93 118.62 0.57 c p3
543.90 118.62 0.57 c p3
543.88 118.66 0.57 c p3
543.87 118.70 0.57 c p3
543.85 118.71 0.57 c p3
543.82 118.72 0.57 c p3
543.80 118.75 0.57 c p3
543.79 118.77 0.57 c p3
543.77 118.79 0.57 c p3
543.74 118.80 0.57 c p3
543.72 118.83 0.57 c p3
543.71 118.86 0.57 c p3
543.69 118.91 0.57 c p3
543.67 118.92 0.57 c p3
543.66 118.94 0.57 c p3
543.64 118.97 0.57 c p3
543.62 118.97 0.57 c p3
543.61 118.99 0.57 c p3
543.59 119.00 0.57 c p3
543.58 119.02 0.57 c p3
543.56 119.03 0.57 c p3
543.54 119.04 0.57 c p3
543.53 119.07 0.57 c p3
543.51 119.09 0.57 c p3
543.49 119.12 0.57 c p3
543.48 119.16 0.57 c p3
543.46 119.18 0.57 c p3
543.44 119.19 0.57 c p3
543.41 119.23 0.57 c p3
543.39 119.25 0.57 c p3
543.36 119.26 0.57 c p3
543.34 119.29 0.57 c p3
543.33 119.31 0.57 c p3
543.27 119.33 0.57 c p3
543.26 119.35 0.57 c p3
543.22 119.37 0.57 c p3
543.21 119.40 0.57 c p3
543.19 119.41 0.57 c p3
543.15 119.43 0.57 c p3
543.14 119.46 0.57 c p3
543.12 119.48 0.57 c p3
543.10 119.52 0.57 c p3
543.09 119.54 0.57 c p3
543.07 119.54 0.57 c p3
543.05 119.58 0.57 c p3
543.03 119.59 0.57 c p3
543.02 119.62 0.57 c p3
543.00 119.62 0.57 c p3
542.98 119.64 0.57 c p3
542.96 119.66 0.57 c p3
542.95 119.67 0.57 c p3
542.93 119.69 0.57 c p3
542.91 119.70 0.57 c p3
542.89 119.72 0.57 c p3
542.86 119.73 0.57 c p3
542.84 119.77 0.57 c p3
542.82 119.78 0.57 c p3
542.80 119.80 0.57 c p3
542.79 119.83 0.57 c p3
542.77 119.86 0.57 c p3
542.75 119.90 0.57 c p3
542.73 119.93 0.57 c p3
542.71 119.94 0.57 c p3
542.70 119.95 0.57 c p3
542.66 119.97 0.57 c p3
542.64 119.98 0.57 c p3
542.62 120.02 0.57 c p3
542.60 120.05 0.57 c p3
542.59 120.06 0.57 c p3
542.55 120.09 0.57 c p3
542.53 120.11 0.57 c p3
542.51 120.14 0.57 c p3
542.49 120.15 0.57 c p3
542.48 120.16 0.57 c p3
542.46 120.18 0.57 c p3
542.42 120.21 0.57 c p3
542.40 120.25 0.57 c p3
542.38 120.27 0.57 c p3
542.36 120.28 0.57 c p3
542.34 120.30 0.57 c p3
542.33 120.30 0.57 c p3
542.31 120.32 0.57 c p3
542.29 120.34 0.57 c p3
542.27 120.35 0.57 c p3
542.25 120.39 0.57 c p3
542.23 120.40 0.57 c p3
542.21 120.42 0.57 c p3
542.19 120.46 0.57 c p3
542.17 120.48 0.57 c p3
542.16 120.54 0.57 c p3
542.14 120.54 0.57 c p3
542.12 120.56 0.57 c p3
542.10 120.58 0.57 c p3
542.06 120.60 0.57 c p3
542.04 120.64 0.57 c p3
542.02 120.66 0.57 c p3
542.00 120.67 0.57 c p3
541.98 120.69 0.57 c p3
541.96 120.71 0.57 c p3
541.94 120.74 0.57 c p3
541.92 120.75 0.57 c p3
541.90 120.78 0.57 c p3
541.88 120.81 0.57 c p3
541.86 120.84 0.57 c p3
541.84 120.85 0.57 c p3
541.82 120.87 0.57 c p3
541.80 120.90 0.57 c p3
541.78 120.91 0.57 c p3
541.76 120.93 0.57 c p3
541.74 120.97 0.57 c p3
541.72 121.01 0.57 c p3
541.70 121.01 0.57 c p3
541.68 121.02 0.57 c p3
541.66 121.04 0.57 c p3
541.62 121.05 0.57 c p3
541.60 121.08 0.57 c p3
541.58 121.10 0.57 c p3
541.56 121.11 0.57 c p3
541.52 121.12 0.57 c p3
541.50 121.14 0.57 c p3
541.48 121.16 0.57 c p3
541.46 121.17 0.57 c p3
541.44 121.19 0.57 c p3
541.42 121.20 0.57 c p3
541.40 121.24 0.57 c p3
541.38 121.25 0.57 c p3
541.35 121.25 0.57 c p3
541.33 121.26 0.57 c p3
541.31 121.29 0.57 c p3
541.29 121.31 0.57 c p3
541.25 121.32 0.57 c p3
541.23 121.33 0.57 c p3
541.21 121.36 0.57 c p3
541.19 121.40 0.57 c p3
541.14 121.41 0.57 c p3
541.12 121.44 0.57 c p3
541.10 121.45 0.57 c p3
541.08 121.47 0.57 c p3
541.06 121.49 0.57 c p3
541.04 121.52 0.57 c p3
541.01 121.54 0.57 c p3
540.99 121.55 0.57 c p3
540.97 121.56 0.57 c p3
540.95 121.57 0.57 c p3
540.93 121.59 0.57 c p3
540.91 121.61 0.57 c p3
540.88 121.63 0.57 c p3
540.86 121.65 0.57 c p3
540.84 121.66 0.57 c p3
540.82 121.67 0.57 c p3
540.79 121.68 0.57 c p3
540.77 121.71 0.57 c p3
540.75 121.72 0.57 c p3
540.73 121.72 0.57 c p3
540.71 121.74 0.57 c p3
540.68 121.76 0.57 c p3
540.66 121.78 0.57 c p3
540.64 121.80 0.57 c p3
540.62 121.82 0.57 c p3
540.59 121.84 0.57 c p3
540.57 121.86 0.57 c p3
540.55 121.86 0.57 c p3
540.52 121.88 0.57 c p3
540.50 121.89 0.57 c p3
540.48 121.91 0.57 c p3
540.46 121.94 0.57 c p3
540.43 121.96 0.57 c p3
540.41 122.00 0.57 c p3
540.39 122.01 0.57 c p3
540.36 122.05 0.57 c p3
540.32 122.08 0.57 c p3
540.29 122.11 0.57 c p3
540.27 122.16 0.57 c p3
540.25 122.18 0.57 c p3
540.22 122.21 0.57 c p3
540.20 122.24 0.57 c p3
540.18 122.26 0.57 c p3
540.15 122.27 0.57 c p3
540.13 122.29 0.57 c p3
540.10 122.30 0.57 c p3
540.08 122.33 0.57 c p3
540.06 122.34 0.57 c p3
540.03 122.37 0.57 c p3
540.01 122.40 0.57 c p3
539.98 122.44 0.57 c p3
539.96 122.45 0.57 c p3
539.94 122.48 0.57 c p3
539.91 122.50 0.57 c p3
539.89 122.51 0.57 c p3
539.86 122.55 0.57 c p3
539.84 122.57 0.57 c p3
539.81 122.60 0.57 c p3
539.79 122.63 0.57 c p3
539.76 122.64 0.57 c p3
539.74 122.67 0.57 c p3
539.71 122.68 0.57 c p3
539.69 122.71 0.57 c p3
539.66 122.72 0.57 c p3
539.64 122.73 0.57 c p3
539.61 122.75 0.57 c p3
539.59 122.81 0.57 c p3
539.56 122.84 0.57 c p3
539.54 122.86 0.57 c p3
539.51 122.88 0.57 c p3
539.49 122.90 0.57 c p3
539.46 122.94 0.57 c p3
539.44 122.97 0.57 c p3
539.41 122.98 0.57 c p3
539.38 123.00 0.57 c p3
539.36 123.03 0.57 c p3
539.33 123.07 0.57 c p3
539.31 123.09 0.57 c p3
539.28 123.11 0.57 c p3
539.25 123.13 0.57 c p3
539.23 123.15 0.57 c p3
539.20 123.17 0.57 c p3
539.18 123.20 0.57 c p3
539.15 123.23 0.57 c p3
539.12 123.26 0.57 c p3
539.10 123.27 0.57 c p3
539.07 123.30 0.57 c p3
539.04 123.33 0.57 c p3
539.02 123.35 0.57 c p3
538.99 123.39 0.57 c p3
538.96 123.42 0.57 c p3
538.94 123.46 0.57 c p3
538.91 123.49 0.57 c p3
538.88 123.52 0.57 c p3
538.85 123.56 0.57 c p3
538.83 123.58 0.57 c p3
538.80 123.60 0.57 c p3
538.77 123.63 0.57 c p3
538.74 123.65 0.57 c p3
538.72 123.68 0.57 c p3
538.69 123.71 0.57 c p3
538.66 123.73 0.57 c p3
538.63 123.76 0.57 c p3
538.60 123.77 0.57 c p3
538.58 123.79 0.57 c p3
538.55 123.81 0.57 c p3
538.52 123.83 0.57 c p3
538.49 123.85 0.57 c p3
538.46 123.88 0.57 c p3
538.43 123.91 0.57 c p3
538.41 123.95 0.57 c p3
538.38 123.97 0.57 c p3
538.35 124.00 0.57 c p3
538.32 124.02 0.57 c p3
538.29 124.04 0.57 c p3
538.26 124.06 0.57 c p3
538.23 124.07 0.57 c p3
538.20 124.10 0.57 c p3
538.17 124.12 0.57 c p3
538.14 124.15 0.57 c p3
538.12 124.18 0.57 c p3
538.09 124.20 0.57 c p3
538.06 124.23 0.57 c p3
538.03 124.26 0.57 c p3
538.00 124.28 0.57 c p3
537.97 124.32 0.57 c p3
537.94 124.34 0.57 c p3
537.91 124.36 0.57 c p3
537.88 124.38 0.57 c p3
537.85 124.40 0.57 c p3
537.82 124.42 0.57 c p3
537.78 124.45 0.57 c p3
537.75 124.50 0.57 c p3
537.72 124.52 0.57 c p3
537.69 124.55 0.57 c p3
537.66 124.61 0.57 c p3
537.63 124.63 0.57 c p3
537.60 124.65 0.57 c p3
537.57 124.68 0.57 c p3
537.54 124.71 0.57 c p3
537.50 124.73 0.57 c p3
537.47 124.75 0.57 c p3
537.44 124.80 0.57 c p3
537.41 124.83 0.57 c p3
537.38 124.86 0.57 c p3
537.35 124.89 0.57 c p3
537.31 124.91 0.57 c p3
537.28 124.94 0.57 c p3
537.25 124.96 0.57 c p3
537.22 124.98 0.57 c p3
537.18 125.01 0.57 c p3
537.15 125.02 0.57 c p3
537.12 125.05 0.57 c p3
537.09 125.08 0.57 c p3
537.05 125.11 0.57 c p3
537.02 125.15 0.57 c p3
536.99 125.17 0.57 c p3
536.95 125.23 0.57 c p3
536.92 125.27 0.57 c p3
536.89 125.28 0.57 c p3
536.85 125.29 0.57 c p3
536.82 125.31 0.57 c p3
536.78 125.33 0.57 c p3
536.75 125.36 0.57 c p3
536.71 125.40 0.57 c p3
536.68 125.42 0.57 c p3
536.65 125.44 0.57 c p3
536.61 125.46 0.57 c p3
536.58 125.50 0.57 c p3
536.54 125.53 0.57 c p3
536.51 125.56 0.57 c p3
536.47 125.58 0.57 c p3
536.44 125.61 0.57 c p3
536.40 125.65 0.57 c p3
536.37 125.67 0.57 c p3
536.33 125.70 0.57 c p3
536.29 125.72 0.57 c p3
536.26 125.75 0.57 c p3
536.22 125.78 0.57 c p3
536.19 125.80 0.57 c p3
536.15 125.84 0.57 c p3
536.11 125.89 0.57 c p3
536.08 125.92 0.57 c p3
536.04 125.94 0.57 c p3
536.00 125.96 0.57 c p3
535.96 126.00 0.57 c p3
535.93 126.02 0.57 c p3
535.89 126.05 0.57 c p3
535.85 126.07 0.57 c p3
535.81 126.11 0.57 c p3
535.78 126.13 0.57 c p3
535.74 126.16 0.57 c p3
535.70 126.19 0.57 c p3
535.66 126.21 0.57 c p3
535.62 126.24 0.57 c p3
535.58 126.26 0.57 c p3
535.55 126.30 0.57 c p3
535.51 126.34 0.57 c p3
535.47 126.37 0.57 c p3
535.43 126.38 0.57 c p3
535.39 126.41 0.57 c p3
535.35 126.45 0.57 c p3
535.31 126.50 0.57 c p3
535.27 126.53 0.57 c p3
535.23 126.56 0.57 c p3
535.19 126.60 0.57 c p3
535.15 126.64 0.57 c p3
535.11 126.67 0.57 c p3
535.07 126.70 0.57 c p3
535.03 126.75 0.57 c p3
534.98 126.76 0.57 c p3
534.94 126.81 0.57 c p3
534.90 126.83 0.57 c p3
534.86 126.85 0.57 c p3
534.82 126.89 0.57 c p3
534.78 126.92 0.57 c p3
534.73 126.96 0.57 c p3
534.69 127.00 0.57 c p3
534.65 127.03 0.57 c p3
534.61 127.05 0.57 c p3
534.56 127.08 0.57 c p3
534.52 127.14 0.57 c p3
534.47 127.19 0.57 c p3
534.43 127.21 0.57 c p3
534.39 127.25 0.57 c p3
534.34 127.28 0.57 c p3
534.30 127.29 0.57 c p3
534.25 127.32 0.57 c p3
534.21 127.35 0.57 c p3
534.16 127.39 0.57 c p3
534.12 127.43 0.57 c p3
534.07 127.46 0.57 c p3
534.03 127.49 0.57 c p3
533.98 127.54 0.57 c p3
533.94 127.59 0.57 c p3
533.89 127.62 0.57 c p3
533.84 127.64 0.57 c p3
533.80 127.71 0.57 c p3
533.75 127.74 0.57 c p3
533.70 127.78 0.57 c p3
533.65 127.82 0.57 c p3
533.61 127.86 0.57 c p3
533.56 127.90 0.57 c p3
533.51 127.93 0.57 c p3
533.46 127.98 0.57 c p3
533.41 128.01 0.57 c p3
533.36 128.05 0.57 c p3
533.31 128.09 0.57 c p3
533.27 128.14 0.57 c p3
533.22 128.16 0.57 c p3
533.17 128.19 0.57 c p3
533.11 128.21 0.57 c p3
533.06 128.25 0.57 c p3
533.01 128.30 0.57 c p3
532.96 128.34 0.57 c p3
532.91 128.38 0.57 c p3
532.86 128.42 0.57 c p3
532.81 128.45 0.57 c p3
532.75 128.48 0.57 c p3
532.70 128.53 0.57 c p3
532.65 128.56 0.57 c p3
532.60 128.60 0.57 c p3
532.54 128.64 0.57 c p3
532.49 128.68 0.57 c p3
532.43 128.71 0.57 c p3
532.38 128.75 0.57 c p3
532.33 128.79 0.57 c p3
532.27 128.83 0.57 c p3
532.21 128.87 0.57 c p3
532.16 128.93 0.57 c p3
532.10 128.97 0.57 c p3
532.05 129.02 0.57 c p3
531.99 129.06 0.57 c p3
531.93 129.12 0.57 c p3
531.87 129.14 0.57 c p3
531.82 129.18 0.57 c p3
531.76 129.22 0.57 c p3
531.70 129.28 0.57 c p3
531.64 129.32 0.57 c p3
531.58 129.38 0.57 c p3
531.52 129.42 0.57 c p3
531.46 129.47 0.57 c p3
531.40 129.50 0.57 c p3
531.34 129.53 0.57 c p3
531.28 129.59 0.57 c p3
531.22 129.63 0.57 c p3
531.16 129.66 0.57 c p3
531.09 129.70 0.57 c p3
531.03 129.74 0.57 c p3
530.97 129.77 0.57 c p3
530.90 129.82 0.57 c p3
530.84 129.86 0.57 c p3
530.77 129.91 0.57 c p3
530.71 129.96 0.57 c p3
530.64 129.99 0.57 c p3
530.58 130.05 0.57 c p3
530.51 130.10 0.57 c p3
530.44 130.15 0.57 c p3
530.38 130.20 0.57 c p3
530.31 130.28 0.57 c p3
530.24 130.33 0.57 c p3
530.17 130.37 0.57 c p3
530.10 130.41 0.57 c p3
530.03 130.46 0.57 c p3
529.96 130.51 0.57 c p3
529.89 130.58 0.57 c p3
529.82 130.65 0.57 c p3
529.75 130.71 0.57 c p3
529.67 130.77 0.57 c p3
529.60 130.83 0.57 c p3
529.53 130.88 0.57 c p3
529.45 130.94 0.57 c p3
529.38 130.99 0.57 c p3
529.30 131.05 0.57 c p3
529.23 131.11 0.57 c p3
529.15 131.18 0.57 c p3
529.07 131.24 0.57 c p3
528.99 131.31 0.57 c p3
528.92 131.35 0.57 c p3
528.84 131.40 0.57 c p3
528.76 131.46 0.57 c p3
528.67 131.54 0.57 c p3
528.59 131.60 0.57 c p3
528.51 131.65 0.57 c p3
528.43 131.72 0.57 c p3
528.34 131.79 0.57 c p3
528.26 131.85 0.57 c p3
528.17 131.91 0.57 c p3
528.09 131.98 0.57 c p3
528.00 132.05 0.57 c p3
527.91 132.10 0.57 c p3
527.82 132.18 0.57 c p3
527.74 132.26 0.57 c p3
527.65 132.33 0.57 c p3
527.55 132.39 0.57 c p3
527.46 132.48 0.57 c p3
527.37 132.56 0.57 c p3
527.28 132.66 0.57 c p3
527.18 132.72 0.57 c p3
527.08 132.79 0.57 c p3
526.99 132.86 0.57 c p3
526.89 132.94 0.57 c p3
526.79 133.04 0.57 c p3
526.69 133.14 0.57 c p3
526.59 133.21 0.57 c p3
526.49 133.30 0.57 c p3
526.39 133.38 0.57 c p3
526.28 133.46 0.57 c p3
526.18 133.55 0.57 c p3
526.07 133.64 0.57 c p3
525.96 133.73 0.57 c p3
525.85 133.80 0.57 c p3
525.74 133.90 0.57 c p3
525.63 133.98 0.57 c p3
525.52 134.06 0.57 c p3
525.40 134.15 0.57 c p3
525.29 134.23 0.57 c p3
525.17 134.31 0.57 c p3
525.05 134.41 0.57 c p3
524.93 134.51 0.57 c p3
524.81 134.61 0.57 c p3
524.68 134.71 0.57 c p3
524.56 134.83 0.57 c p3
524.43 134.92 0.57 c p3
524.30 135.02 0.57 c p3
524.17 135.12 0.57 c p3
524.04 135.23 0.57 c p3
523.90 135.33 0.57 c p3
523.77 135.45 0.57 c p3
523.63 135.55 0.57 c p3
523.49 135.67 0.57 c p3
523.35 135.78 0.57 c p3
523.20 135.88 0.57 c p3
523.05 136.01 0.57 c p3
522.90 136.12 0.57 c p3
522.75 136.24 0.57 c p3
522.60 136.36 0.57 c p3
522.44 136.49 0.57 c p3
522.28 136.62 0.57 c p3
522.12 136.75 0.57 c p3
521.95 136.89 0.57 c p3
521.79 137.04 0.57 c p3
521.61 137.18 0.57 c p3
521.44 137.34 0.57 c p3
521.26 137.50 0.57 c p3
521.08 137.66 0.57 c p3
520.90 137.81 0.57 c p3
520.71 137.95 0.57 c p3
520.51 138.11 0.57 c p3
520.32 138.27 0.57 c p3
520.12 138.43 0.57 c p3
519.91 138.59 0.57 c p3
519.70 138.78 0.57 c p3
519.49 138.96 0.57 c p3
519.27 139.15 0.57 c p3
519.04 139.34 0.57 c p3
518.81 139.53 0.57 c p3
518.57 139.71 0.57 c p3
518.33 139.90 0.57 c p3
518.08 140.10 0.57 c p3
517.83 140.30 0.57 c p3
517.56 140.51 0.57 c p3
517.29 140.72 0.57 c p3
517.01 140.92 0.57 c p3
516.73 141.15 0.57 c p3
516.43 141.37 0.57 c p3
516.12 141.60 0.57 c p3
515.81 141.85 0.57 c p3
515.48 142.11 0.57 c p3
515.14 142.37 0.57 c p3
514.79 142.63 0.57 c p3
514.42 142.88 0.57 c p3
514.04 143.16 0.57 c p3
513.64 143.45 0.57 c p3
513.23 143.75 0.57 c p3
512.79 144.07 0.57 c p3
512.34 144.39 0.57 c p3
511.86 144.72 0.57 c p3
511.35 145.07 0.57 c p3
510.82 145.42 0.57 c p3
510.25 145.81 0.57 c p3
509.65 146.19 0.57 c p3
509.01 146.59 0.57 c p3
508.31 147.01 0.57 c p3
507.57 147.42 0.57 c p3
506.75 147.87 0.57 c p3
505.86 148.32 0.57 c p3
504.88 148.80 0.57 c p3
503.78 149.27 0.57 c p3
502.53 149.78 0.57 c p3
501.09 150.29 0.57 c p3
499.39 150.84 0.57 c p3
497.31 151.39 0.57 c p3
494.62 152.02 0.57 c p3
490.83 153.03 0.57 c p3
1 0 0 srgb
1.07 setlinewidth
[ 4.27 4.27] 0 setdash
0 setlinecap
1.00 setmiterlimit
np
490.83 153.03 m
3.79 -1.76 l
2.69 -1.17 l
2.08 -0.88 l
1.70 -0.71 l
1.44 -0.59 l
1.25 -0.51 l
1.10 -0.44 l
0.98 -0.39 l
0.89 -0.36 l
0.82 -0.32 l
0.74 -0.29 l
0.70 -0.27 l
0.64 -0.26 l
0.60 -0.23 l
1.10 -0.43 l
0.51 -0.20 l
0.93 -0.36 l
0.85 -0.33 l
0.40 -0.16 l
1.10 -0.42 l
0.67 -0.26 l
0.62 -0.24 l
0.86 -0.33 l
0.79 -0.30 l
0.73 -0.28 l
0.89 -0.35 l
0.81 -0.31 l
0.75 -0.28 l
0.69 -0.27 l
0.80 -0.30 l
0.88 -0.34 l
0.80 -0.30 l
0.74 -0.29 l
0.79 -0.30 l
0.73 -0.28 l
0.77 -0.29 l
0.80 -0.30 l
0.81 -0.31 l
0.75 -0.29 l
0.76 -0.29 l
0.82 -0.31 l
0.76 -0.29 l
0.80 -0.30 l
0.79 -0.30 l
0.77 -0.29 l
0.75 -0.29 l
0.81 -0.31 l
0.77 -0.29 l
0.78 -0.30 l
0.78 -0.29 l
0.77 -0.29 l
0.78 -0.30 l
0.79 -0.30 l
0.77 -0.29 l
0.79 -0.30 l
0.78 -0.30 l
0.78 -0.29 l
0.78 -0.30 l
0.77 -0.29 l
0.78 -0.30 l
0.79 -0.30 l
0.78 -0.29 l
0.77 -0.30 l
0.78 -0.29 l
0.79 -0.30 l
0.77 -0.30 l
0.78 -0.29 l
0.78 -0.30 l
0.78 -0.29 l
0.79 -0.30 l
0.78 -0.30 l
0.78 -0.29 l
0.77 -0.30 l
0.79 -0.29 l
0.77 -0.30 l
0.78 -0.29 l
0.78 -0.30 l
0.78 -0.29 l
0.78 -0.30 l
0.78 -0.30 l
0.78 -0.29 l
0.78 -0.30 l
0.78 -0.29 l
0.78 -0.30 l
0.78 -0.29 l
0.78 -0.30 l
0.78 -0.30 l
0.78 -0.29 l
o
0 0 1 srgb
1.07 setlinewidth
[] 0 setdash
np
490.83 153.03 m
3.79 -0.77 l
2.69 -0.68 l
2.08 -0.61 l
1.70 -0.55 l
1.44 -0.52 l
1.25 -0.47 l
1.10 -0.45 l
0.98 -0.42 l
0.89 -0.40 l
0.82 -0.38 l
0.74 -0.36 l
0.70 -0.35 l
0.64 -0.33 l
0.60 -0.32 l
1.10 -0.60 l
0.51 -0.28 l
0.93 -0.55 l
0.85 -0.51 l
0.40 -0.24 l
1.10 -0.70 l
0.67 -0.44 l
0.62 -0.42 l
0.86 -0.59 l
0.79 -0.56 l
0.73 -0.53 l
0.89 -0.66 l
0.81 -0.63 l
0.75 -0.59 l
0.69 -0.55 l
0.80 -0.66 l
0.88 -0.74 l
0.80 -0.70 l
0.74 -0.65 l
0.79 -0.72 l
0.73 -0.67 l
0.77 -0.73 l
0.80 -0.77 l
0.81 -0.80 l
0.75 -0.75 l
0.76 -0.78 l
0.82 -0.86 l
0.76 -0.81 l
0.80 -0.87 l
0.79 -0.87 l
0.77 -0.87 l
0.75 -0.86 l
0.81 -0.94 l
0.77 -0.93 l
0.78 -0.94 l
0.78 -0.95 l
0.77 -0.97 l
0.78 -1.00 l
0.79 -1.02 l
0.77 -1.01 l
0.79 -1.05 l
0.78 -1.06 l
0.78 -1.08 l
0.78 -1.09 l
0.77 -1.10 l
0.78 -1.13 l
0.79 -1.15 l
0.78 -1.15 l
0.77 -1.17 l
0.78 -1.20 l
0.79 -1.21 l
0.77 -1.22 l
0.78 -1.25 l
0.78 -1.25 l
0.78 -1.28 l
0.79 -1.30 l
0.78 -1.31 l
0.78 -1.32 l
0.77 -1.34 l
0.79 -1.37 l
0.77 -1.37 l
0.78 -1.39 l
0.78 -1.42 l
0.78 -1.43 l
0.78 -1.44 l
0.78 -1.46 l
0.78 -1.48 l
0.78 -1.50 l
0.78 -1.51 l
0.78 -1.53 l
0.78 -1.55 l
0.78 -1.56 l
0.78 -1.58 l
0.78 -1.60 l
o
0.4980 0.4980 0.4980 srgb
1 setlinecap
10.00 setmiterlimit
486.14 54.56 103.16 103.16 r p1
0.00 0.00 595.28 198.43 cl
0.00 0.00 595.28 198.43 cl
0.00 0.00 595.28 198.43 cl
0.00 0.00 595.28 198.43 cl
0.00 0.00 595.28 198.43 cl
0.00 0.00 595.28 198.43 cl
/Font1 findfont 12 s
0 0 0 srgb
21.77 69.26 (10) 0 0 t
/Font1 findfont 8 s
35.11 75.22 (-) 0 0 t
39.78 75.22 (5) 0 0 t
/Font1 findfont 12 s
21.77 100.46 (10) 0 0 t
/Font1 findfont 8 s
35.11 106.42 (-) 0 0 t
39.78 106.42 (3) 0 0 t
/Font1 findfont 12 s
21.77 131.72 (10) 0 0 t
/Font1 findfont 8 s
35.11 137.68 (-) 0 0 t
39.78 137.68 (1) 0 0 t
0.00 0.00 595.28 198.43 cl
0.00 0.00 595.28 198.43 cl
0 0 0 srgb
1.07 setlinewidth
[] 0 setdash
0 setlinecap
1 setlinejoin
10.00 setmiterlimit
np
46.62 74.88 m
2.99 0 l
o
np
46.62 106.14 m
2.99 0 l
o
np
46.62 137.40 m
2.99 0 l
o
0.00 0.00 595.28 198.43 cl
0.00 0.00 595.28 198.43 cl
0.00 0.00 595.28 198.43 cl
0.00 0.00 595.28 198.43 cl
0.00 0.00 595.28 198.43 cl
0.00 0.00 595.28 198.43 cl
0.00 0.00 595.28 198.43 cl
0.00 0.00 595.28 198.43 cl
0 0 0 srgb
1.07 setlinewidth
[] 0 setdash
0 setlinecap
1 setlinejoin
10.00 setmiterlimit
np
90.84 51.57 m
0 2.99 l
o
np
133.85 51.57 m
0 2.99 l
o
0.00 0.00 595.28 198.43 cl
0.00 0.00 595.28 198.43 cl
/Font1 findfont 12 s
0 0 0 srgb
81.94 37.59 (10) 0 0 t
/Font1 findfont 8 s
95.29 43.56 (2) 0 0 t
/Font1 findfont 12 s
124.95 37.59 (10) 0 0 t
/Font1 findfont 8 s
138.30 43.56 (4) 0 0 t
0.00 0.00 595.28 198.43 cl
0.00 0.00 595.28 198.43 cl
0.00 0.00 595.28 198.43 cl
0.00 0.00 595.28 198.43 cl
0.00 0.00 595.28 198.43 cl
0.00 0.00 595.28 198.43 cl
0.00 0.00 595.28 198.43 cl
0.00 0.00 595.28 198.43 cl
0 0 0 srgb
1.07 setlinewidth
[] 0 setdash
0 setlinecap
1 setlinejoin
10.00 setmiterlimit
np
199.97 51.57 m
0 2.99 l
o
np
242.98 51.57 m
0 2.99 l
o
0.00 0.00 595.28 198.43 cl
0.00 0.00 595.28 198.43 cl
/Font1 findfont 12 s
0 0 0 srgb
191.07 37.59 (10) 0 0 t
/Font1 findfont 8 s
204.42 43.56 (2) 0 0 t
/Font1 findfont 12 s
234.09 37.59 (10) 0 0 t
/Font1 findfont 8 s
247.43 43.56 (4) 0 0 t
0.00 0.00 595.28 198.43 cl
0.00 0.00 595.28 198.43 cl
0.00 0.00 595.28 198.43 cl
0.00 0.00 595.28 198.43 cl
0.00 0.00 595.28 198.43 cl
0.00 0.00 595.28 198.43 cl
0.00 0.00 595.28 198.43 cl
0.00 0.00 595.28 198.43 cl
0 0 0 srgb
1.07 setlinewidth
[] 0 setdash
0 setlinecap
1 setlinejoin
10.00 setmiterlimit
np
309.10 51.57 m
0 2.99 l
o
np
352.11 51.57 m
0 2.99 l
o
0.00 0.00 595.28 198.43 cl
0.00 0.00 595.28 198.43 cl
/Font1 findfont 12 s
0 0 0 srgb
300.21 37.59 (10) 0 0 t
/Font1 findfont 8 s
313.55 43.56 (2) 0 0 t
/Font1 findfont 12 s
343.22 37.59 (10) 0 0 t
/Font1 findfont 8 s
356.56 43.56 (4) 0 0 t
0.00 0.00 595.28 198.43 cl
0.00 0.00 595.28 198.43 cl
0.00 0.00 595.28 198.43 cl
0.00 0.00 595.28 198.43 cl
0.00 0.00 595.28 198.43 cl
0.00 0.00 595.28 198.43 cl
0.00 0.00 595.28 198.43 cl
0.00 0.00 595.28 198.43 cl
0 0 0 srgb
1.07 setlinewidth
[] 0 setdash
0 setlinecap
1 setlinejoin
10.00 setmiterlimit
np
418.24 51.57 m
0 2.99 l
o
np
461.25 51.57 m
0 2.99 l
o
0.00 0.00 595.28 198.43 cl
0.00 0.00 595.28 198.43 cl
/Font1 findfont 12 s
0 0 0 srgb
409.34 37.59 (10) 0 0 t
/Font1 findfont 8 s
422.68 43.56 (2) 0 0 t
/Font1 findfont 12 s
452.35 37.59 (10) 0 0 t
/Font1 findfont 8 s
465.70 43.56 (4) 0 0 t
0.00 0.00 595.28 198.43 cl
0.00 0.00 595.28 198.43 cl
0.00 0.00 595.28 198.43 cl
0.00 0.00 595.28 198.43 cl
0.00 0.00 595.28 198.43 cl
0.00 0.00 595.28 198.43 cl
0.00 0.00 595.28 198.43 cl
0.00 0.00 595.28 198.43 cl
0 0 0 srgb
1.07 setlinewidth
[] 0 setdash
0 setlinecap
1 setlinejoin
10.00 setmiterlimit
np
527.37 51.57 m
0 2.99 l
o
np
570.38 51.57 m
0 2.99 l
o
0.00 0.00 595.28 198.43 cl
0.00 0.00 595.28 198.43 cl
/Font1 findfont 12 s
0 0 0 srgb
518.47 37.59 (10) 0 0 t
/Font1 findfont 8 s
531.82 43.56 (2) 0 0 t
/Font1 findfont 12 s
561.48 37.59 (10) 0 0 t
/Font1 findfont 8 s
574.83 43.56 (4) 0 0 t
0.00 0.00 595.28 198.43 cl
0.00 0.00 595.28 198.43 cl
0.00 0.00 595.28 198.43 cl
0.00 0.00 595.28 198.43 cl
/Font1 findfont 12 s
0 0 0 srgb
319.45 23.97 (posts) .5 0 t
0.00 0.00 595.28 198.43 cl
0.00 0.00 595.28 198.43 cl
/Font1 findfont 12 s
0 0 0 srgb
16.98 106.14 (ccdf) .5 90 t
0.00 0.00 595.28 198.43 cl
0.00 0.00 595.28 198.43 cl
0.00 0.00 595.28 198.43 cl
0.00 0.00 595.28 198.43 cl
ep
%%Trailer
%%Pages: 1
%%EOF
