%!PS-Adobe-3.0 EPSF-3.0
%%DocumentNeededResources: font Helvetica
%%+ font Helvetica-Bold
%%+ font Helvetica-Oblique
%%+ font Helvetica-BoldOblique
%%+ font Symbol
%%Title: R Graphics Output
%%Creator: R Software
%%Pages: (atend)
%%BoundingBox: 0 0 432 144
%%EndComments
%%BeginProlog
/bp  { gs sRGB gs } def
% begin .ps.prolog
/gs  { gsave } bind def
/gr  { grestore } bind def
/ep  { showpage gr gr } bind def
/m   { moveto } bind def
/l  { rlineto } bind def
/np  { newpath } bind def
/cp  { closepath } bind def
/f   { fill } bind def
/o   { stroke } bind def
/c   { newpath 0 360 arc } bind def
/r   { 4 2 roll moveto 1 copy 3 -1 roll exch 0 exch rlineto 0 rlineto -1 mul 0 exch rlineto closepath } bind def
/p1  { stroke } bind def
/p2  { gsave bg fill grestore newpath } bind def
/p3  { gsave bg fill grestore stroke } bind def
/p6  { gsave bg eofill grestore newpath } bind def
/p7  { gsave bg eofill grestore stroke } bind def
/t   { 5 -2 roll moveto gsave rotate
       1 index stringwidth pop
       mul neg 0 rmoveto show grestore } bind def
/ta  { 4 -2 roll moveto gsave rotate show } bind def
/tb  { 2 -1 roll 0 rmoveto show } bind def
/cl  { grestore gsave newpath 3 index 3 index moveto 1 index
       4 -1 roll lineto  exch 1 index lineto lineto
       closepath clip newpath } bind def
/rgb { setrgbcolor } bind def
/s   { scalefont setfont } bind def
% end   .ps.prolog
/sRGB { [ /CIEBasedABC
          << /DecodeLMN
               [ { dup 0.03928 le
                        {12.92321 div}
                        {0.055 add 1.055 div 2.4 exp }
                     ifelse
                 } bind dup dup
               ]
             /MatrixLMN [0.412457 0.212673 0.019334
                         0.357576 0.715152 0.119192
                         0.180437 0.072175 0.950301]
             /WhitePoint [0.9505 1.0 1.0890]
           >>
         ] setcolorspace } bind def
/srgb { setcolor } bind def
%%IncludeResource: font Helvetica
/Helvetica findfont
dup length dict begin
  {1 index /FID ne {def} {pop pop} ifelse} forall
  /Encoding ISOLatin1Encoding def
  currentdict
  end
/Font1 exch definefont pop
%%IncludeResource: font Helvetica-Bold
/Helvetica-Bold findfont
dup length dict begin
  {1 index /FID ne {def} {pop pop} ifelse} forall
  /Encoding ISOLatin1Encoding def
  currentdict
  end
/Font2 exch definefont pop
%%IncludeResource: font Helvetica-Oblique
/Helvetica-Oblique findfont
dup length dict begin
  {1 index /FID ne {def} {pop pop} ifelse} forall
  /Encoding ISOLatin1Encoding def
  currentdict
  end
/Font3 exch definefont pop
%%IncludeResource: font Helvetica-BoldOblique
/Helvetica-BoldOblique findfont
dup length dict begin
  {1 index /FID ne {def} {pop pop} ifelse} forall
  /Encoding ISOLatin1Encoding def
  currentdict
  end
/Font4 exch definefont pop
%%IncludeResource: font Symbol
/Symbol findfont
dup length dict begin
  {1 index /FID ne {def} {pop pop} ifelse} forall
  currentdict
  end
/Font5 exch definefont pop
%%EndProlog
%%Page: 1 1
bp
0.00 0.00 108.00 144.00 cl
38.97 48.47 88.04 105.03 cl
0.6627 0.6627 0.6627 srgb
0.75 setlinewidth
[] 0 setdash
1 setlinecap
1 setlinejoin
10.00 setmiterlimit
np
61.81 92.30 m
-0.09 -0.19 l
-0.54 -1.07 l
-1.07 -2.13 l
-1.34 -2.69 l
-1.32 -2.64 l
-1.14 -2.29 l
-0.98 -1.94 l
-0.86 -1.74 l
-0.43 -0.86 l
-0.85 -1.69 l
-0.91 -1.82 l
-1.05 -2.10 l
-1.24 -2.48 l
-1.36 -2.72 l
-1.25 -2.50 l
-0.82 -1.64 l
-0.28 -0.57 l
-0.02 -0.02 l
o
np
65.20 92.30 m
0.09 -0.19 l
0.54 -1.07 l
1.06 -2.13 l
1.35 -2.69 l
1.32 -2.64 l
1.14 -2.29 l
0.97 -1.94 l
0.87 -1.74 l
0.43 -0.86 l
0.85 -1.69 l
0.91 -1.82 l
1.05 -2.10 l
1.23 -2.48 l
1.37 -2.72 l
1.25 -2.50 l
0.82 -1.64 l
0.28 -0.57 l
0.01 -0.02 l
o
/bg { 0.7451 0.7451 0.7451 srgb } def
0 0 0 srgb
63.50 95.69 3.79 c p3
/bg { 0 0 0 srgb } def
44.57 57.82 3.79 c p3
82.44 57.82 3.79 c p3
0.00 0.00 108.00 144.00 cl
108.00 0.00 216.00 144.00 cl
108.00 0.00 216.00 144.00 cl
0.6627 0.6627 0.6627 srgb
0.75 setlinewidth
[] 0 setdash
1 setlinecap
1 setlinejoin
10.00 setmiterlimit
np
168.83 93.01 m
-0.19 -0.19 l
-0.97 -0.97 l
-1.54 -1.54 l
-1.51 -1.51 l
-1.23 -1.23 l
-1.03 -1.03 l
-0.32 -0.32 l
-1.01 -1.00 l
-1.14 -1.15 l
-1.43 -1.43 l
-1.59 -1.59 l
-1.22 -1.21 l
-0.39 -0.40 l
-0.01 -0.01 l
o
np
174.18 93.01 m
0.19 -0.19 l
0.97 -0.97 l
1.54 -1.54 l
1.51 -1.51 l
1.23 -1.23 l
1.03 -1.03 l
0.32 -0.32 l
1.00 -1.00 l
1.15 -1.15 l
1.42 -1.43 l
1.60 -1.59 l
1.21 -1.21 l
0.40 -0.40 l
0.01 -0.01 l
o
np
190.44 72.97 m
0 -0.30 l
0 -1.33 l
0 -1.65 l
0 -1.33 l
0 -1.07 l
0 -1.08 l
0 -1.32 l
0 -1.66 l
0 -1.33 l
0 -0.29 l
o
/bg { 0.7451 0.7451 0.7451 srgb } def
0 0 0 srgb
171.50 95.69 3.79 c p3
/bg { 0 0 0 srgb } def
152.57 76.75 3.79 c p3
190.44 76.75 3.79 c p3
190.44 57.82 3.79 c p3
216.00 0.00 324.00 144.00 cl
216.00 0.00 324.00 144.00 cl
0.6627 0.6627 0.6627 srgb
0.75 setlinewidth
[] 0 setdash
1 setlinecap
1 setlinejoin
10.00 setmiterlimit
np
276.83 93.01 m
-0.19 -0.19 l
-0.97 -0.97 l
-1.54 -1.54 l
-1.51 -1.51 l
-1.23 -1.23 l
-1.03 -1.03 l
-0.32 -0.32 l
-1.01 -1.00 l
-1.14 -1.15 l
-1.43 -1.43 l
-1.59 -1.59 l
-1.22 -1.21 l
-0.39 -0.40 l
-0.01 -0.01 l
o
np
260.57 72.97 m
0 -0.30 l
0 -1.33 l
0 -1.65 l
0 -1.33 l
0 -1.07 l
0 -1.08 l
0 -1.32 l
0 -1.66 l
0 -1.33 l
0 -0.29 l
o
np
282.18 93.01 m
0.19 -0.19 l
0.97 -0.97 l
1.54 -1.54 l
1.51 -1.51 l
1.23 -1.23 l
1.03 -1.03 l
0.32 -0.32 l
1.00 -1.00 l
1.15 -1.15 l
1.42 -1.43 l
1.60 -1.59 l
1.21 -1.21 l
0.40 -0.40 l
0.01 -0.01 l
o
/bg { 0.7451 0.7451 0.7451 srgb } def
0 0 0 srgb
279.50 95.69 3.79 c p3
/bg { 0 0 0 srgb } def
260.57 76.75 3.79 c p3
/bg { 1 0 0 srgb } def
260.57 57.82 3.79 c p3
/bg { 0 0 0 srgb } def
298.44 76.75 3.79 c p3
324.00 0.00 432.00 144.00 cl
324.00 0.00 432.00 144.00 cl
0.6627 0.6627 0.6627 srgb
0.75 setlinewidth
[] 0 setdash
1 setlinecap
1 setlinejoin
10.00 setmiterlimit
np
384.83 93.01 m
-0.19 -0.19 l
-0.97 -0.97 l
-1.54 -1.54 l
-1.51 -1.51 l
-1.23 -1.23 l
-1.03 -1.03 l
-0.32 -0.32 l
-1.01 -1.00 l
-1.14 -1.15 l
-1.43 -1.43 l
-1.59 -1.59 l
-1.22 -1.21 l
-0.39 -0.40 l
-0.01 -0.01 l
o
np
387.50 91.90 m
0 -0.30 l
0 -1.33 l
0 -1.65 l
0 -1.32 l
0 -1.08 l
0 -1.08 l
0 -1.32 l
0 -1.66 l
0 -1.32 l
0 -0.30 l
o
np
390.18 93.01 m
0.19 -0.19 l
0.97 -0.97 l
1.54 -1.54 l
1.51 -1.51 l
1.23 -1.23 l
1.03 -1.03 l
0.32 -0.32 l
1.00 -1.00 l
1.15 -1.15 l
1.42 -1.43 l
1.60 -1.59 l
1.21 -1.21 l
0.40 -0.40 l
0.01 -0.01 l
o
np
406.44 72.97 m
0 -0.30 l
0 -1.33 l
0 -1.65 l
0 -1.33 l
0 -1.07 l
0 -1.08 l
0 -1.32 l
0 -1.66 l
0 -1.33 l
0 -0.29 l
o
/bg { 0.7451 0.7451 0.7451 srgb } def
0 0 0 srgb
387.50 95.69 3.79 c p3
/bg { 0 0 0 srgb } def
368.57 76.75 3.79 c p3
387.50 76.75 3.79 c p3
406.44 76.75 3.79 c p3
406.44 57.82 3.79 c p3
ep
%%Trailer
%%Pages: 1
%%EOF
