%!PS-Adobe-3.0 EPSF-3.0
%%DocumentNeededResources: font Helvetica
%%+ font Helvetica-Bold
%%+ font Helvetica-Oblique
%%+ font Helvetica-BoldOblique
%%+ font Symbol
%%Title: R Graphics Output
%%Creator: R Software
%%Pages: (atend)
%%BoundingBox: 0 0 595 198
%%EndComments
%%BeginProlog
/bp  { gs sRGB gs } def
% begin .ps.prolog
/gs  { gsave } bind def
/gr  { grestore } bind def
/ep  { showpage gr gr } bind def
/m   { moveto } bind def
/l  { rlineto } bind def
/np  { newpath } bind def
/cp  { closepath } bind def
/f   { fill } bind def
/o   { stroke } bind def
/c   { newpath 0 360 arc } bind def
/r   { 4 2 roll moveto 1 copy 3 -1 roll exch 0 exch rlineto 0 rlineto -1 mul 0 exch rlineto closepath } bind def
/p1  { stroke } bind def
/p2  { gsave bg fill grestore newpath } bind def
/p3  { gsave bg fill grestore stroke } bind def
/p6  { gsave bg eofill grestore newpath } bind def
/p7  { gsave bg eofill grestore stroke } bind def
/t   { 5 -2 roll moveto gsave rotate
       1 index stringwidth pop
       mul neg 0 rmoveto show grestore } bind def
/ta  { 4 -2 roll moveto gsave rotate show } bind def
/tb  { 2 -1 roll 0 rmoveto show } bind def
/cl  { grestore gsave newpath 3 index 3 index moveto 1 index
       4 -1 roll lineto  exch 1 index lineto lineto
       closepath clip newpath } bind def
/rgb { setrgbcolor } bind def
/s   { scalefont setfont } bind def
% end   .ps.prolog
/sRGB { [ /CIEBasedABC
          << /DecodeLMN
               [ { dup 0.03928 le
                        {12.92321 div}
                        {0.055 add 1.055 div 2.4 exp }
                     ifelse
                 } bind dup dup
               ]
             /MatrixLMN [0.412457 0.212673 0.019334
                         0.357576 0.715152 0.119192
                         0.180437 0.072175 0.950301]
             /WhitePoint [0.9505 1.0 1.0890]
           >>
         ] setcolorspace } bind def
/srgb { setcolor } bind def
%%IncludeResource: font Helvetica
/Helvetica findfont
dup length dict begin
  {1 index /FID ne {def} {pop pop} ifelse} forall
  /Encoding ISOLatin1Encoding def
  currentdict
  end
/Font1 exch definefont pop
%%IncludeResource: font Helvetica-Bold
/Helvetica-Bold findfont
dup length dict begin
  {1 index /FID ne {def} {pop pop} ifelse} forall
  /Encoding ISOLatin1Encoding def
  currentdict
  end
/Font2 exch definefont pop
%%IncludeResource: font Helvetica-Oblique
/Helvetica-Oblique findfont
dup length dict begin
  {1 index /FID ne {def} {pop pop} ifelse} forall
  /Encoding ISOLatin1Encoding def
  currentdict
  end
/Font3 exch definefont pop
%%IncludeResource: font Helvetica-BoldOblique
/Helvetica-BoldOblique findfont
dup length dict begin
  {1 index /FID ne {def} {pop pop} ifelse} forall
  /Encoding ISOLatin1Encoding def
  currentdict
  end
/Font4 exch definefont pop
%%IncludeResource: font Symbol
/Symbol findfont
dup length dict begin
  {1 index /FID ne {def} {pop pop} ifelse} forall
  currentdict
  end
/Font5 exch definefont pop
%%EndProlog
%%Page: 1 1
bp
0.00 0.00 595.28 198.43 cl
0.00 0.00 595.28 198.43 cl
0.00 0.00 595.28 198.43 cl
0.00 0.00 595.28 198.43 cl
0.00 0.00 595.28 198.43 cl
0.00 0.00 595.28 198.43 cl
0.00 0.00 595.28 198.43 cl
0.00 0.00 595.28 198.43 cl
0.00 0.00 595.28 198.43 cl
0.00 0.00 595.28 198.43 cl
0.00 0.00 595.28 198.43 cl
0.00 0.00 595.28 198.43 cl
0.00 0.00 595.28 198.43 cl
0.00 0.00 595.28 198.43 cl
0.00 0.00 595.28 198.43 cl
0.00 0.00 595.28 198.43 cl
0.00 0.00 595.28 198.43 cl
0.00 15.69 595.28 182.74 cl
/bg { 1 1 1 srgb } def
1 1 1 srgb
1.07 setlinewidth
[] 0 setdash
1 setlinecap
1 setlinejoin
10.00 setmiterlimit
0.00 15.69 595.28 167.05 r p3
0.00 0.00 595.28 198.43 cl
50.50 157.63 153.48 176.76 cl
/bg { 1 1 1 srgb } def
0.4980 0.4980 0.4980 srgb
0.43 setlinewidth
[] 0 setdash
1 setlinecap
1 setlinejoin
10.00 setmiterlimit
50.50 157.63 102.98 19.14 r p3
/Font1 findfont 10 s
0.1020 0.1020 0.1020 srgb
88.09 163.60 (fr) 0 ta
-0.100 (ance) tb gr
50.50 157.63 153.48 176.76 cl
0.00 0.00 595.28 198.43 cl
159.45 157.63 262.43 176.76 cl
/bg { 1 1 1 srgb } def
0.4980 0.4980 0.4980 srgb
0.43 setlinewidth
[] 0 setdash
1 setlinecap
1 setlinejoin
10.00 setmiterlimit
159.45 157.63 102.98 19.14 r p3
/Font1 findfont 10 s
0.1020 0.1020 0.1020 srgb
210.94 163.60 (gameofthrones) .5 0 t
159.45 157.63 262.43 176.76 cl
0.00 0.00 595.28 198.43 cl
268.41 157.63 371.39 176.76 cl
/bg { 1 1 1 srgb } def
0.4980 0.4980 0.4980 srgb
0.43 setlinewidth
[] 0 setdash
1 setlinecap
1 setlinejoin
10.00 setmiterlimit
268.41 157.63 102.98 19.14 r p3
/Font1 findfont 10 s
0.1020 0.1020 0.1020 srgb
281.55 163.60 (MachineLear) 0 ta
0.250 (ning) tb gr
268.41 157.63 371.39 176.76 cl
0.00 0.00 595.28 198.43 cl
377.36 157.63 480.34 176.76 cl
/bg { 1 1 1 srgb } def
0.4980 0.4980 0.4980 srgb
0.43 setlinewidth
[] 0 setdash
1 setlinecap
1 setlinejoin
10.00 setmiterlimit
377.36 157.63 102.98 19.14 r p3
/Font1 findfont 10 s
0.1020 0.1020 0.1020 srgb
428.85 163.60 (podemos) .5 0 t
377.36 157.63 480.34 176.76 cl
0.00 0.00 595.28 198.43 cl
486.32 157.63 589.30 176.76 cl
/bg { 1 1 1 srgb } def
0.4980 0.4980 0.4980 srgb
0.43 setlinewidth
[] 0 setdash
1 setlinecap
1 setlinejoin
10.00 setmiterlimit
486.32 157.63 102.98 19.14 r p3
/Font1 findfont 10 s
0.1020 0.1020 0.1020 srgb
492.52 163.60 (T) 0 ta
-1.200 (w) tb
-0.100 (oXChromosomes) tb gr
486.32 157.63 589.30 176.76 cl
0.00 0.00 595.28 198.43 cl
50.50 54.65 153.48 157.63 cl
/bg { 1 1 1 srgb } def
50.50 54.65 102.98 102.98 r p2
0.9804 0.9804 0.9804 srgb
1.07 setlinewidth
[] 0 setdash
0 setlinecap
1 setlinejoin
10.00 setmiterlimit
np
50.50 71.03 m
102.98 0 l
o
np
50.50 94.43 m
102.98 0 l
o
np
50.50 117.84 m
102.98 0 l
o
np
50.50 141.24 m
102.98 0 l
o
np
55.18 54.65 m
0 102.98 l
o
np
86.96 54.65 m
0 102.98 l
o
np
118.75 54.65 m
0 102.98 l
o
np
150.53 54.65 m
0 102.98 l
o
0.8980 0.8980 0.8980 srgb
0.43 setlinewidth
[] 0 setdash
np
50.50 59.33 m
102.98 0 l
o
np
50.50 82.73 m
102.98 0 l
o
np
50.50 106.14 m
102.98 0 l
o
np
50.50 129.54 m
102.98 0 l
o
np
50.50 152.94 m
102.98 0 l
o
np
71.07 54.65 m
0 102.98 l
o
np
102.85 54.65 m
0 102.98 l
o
np
134.64 54.65 m
0 102.98 l
o
/bg { 0 0 0 srgb } def
0 0 0 srgb
0.71 setlinewidth
[] 0 setdash
1 setlinecap
132.82 59.33 0.57 c p3
122.48 59.34 0.57 c p3
120.35 59.34 0.57 c p3
120.00 59.34 0.57 c p3
118.21 59.35 0.57 c p3
117.38 59.35 0.57 c p3
116.82 59.36 0.57 c p3
116.71 59.36 0.57 c p3
116.67 59.36 0.57 c p3
116.67 59.37 0.57 c p3
116.57 59.37 0.57 c p3
116.45 59.38 0.57 c p3
116.27 59.38 0.57 c p3
116.02 59.39 0.57 c p3
115.98 59.39 0.57 c p3
115.84 59.39 0.57 c p3
115.41 59.40 0.57 c p3
114.61 59.40 0.57 c p3
114.55 59.41 0.57 c p3
114.41 59.41 0.57 c p3
114.32 59.41 0.57 c p3
114.02 59.42 0.57 c p3
114.01 59.42 0.57 c p3
113.80 59.43 0.57 c p3
113.74 59.43 0.57 c p3
113.63 59.43 0.57 c p3
113.29 59.44 0.57 c p3
113.12 59.44 0.57 c p3
112.95 59.45 0.57 c p3
112.89 59.45 0.57 c p3
112.87 59.45 0.57 c p3
112.82 59.46 0.57 c p3
112.37 59.46 0.57 c p3
112.16 59.47 0.57 c p3
111.95 59.47 0.57 c p3
111.84 59.48 0.57 c p3
111.59 59.48 0.57 c p3
111.44 59.48 0.57 c p3
111.44 59.49 0.57 c p3
111.36 59.49 0.57 c p3
111.17 59.50 0.57 c p3
110.95 59.50 0.57 c p3
110.72 59.50 0.57 c p3
110.70 59.51 0.57 c p3
110.51 59.51 0.57 c p3
110.37 59.52 0.57 c p3
110.32 59.52 0.57 c p3
110.17 59.52 0.57 c p3
110.16 59.53 0.57 c p3
110.04 59.53 0.57 c p3
109.98 59.54 0.57 c p3
109.91 59.54 0.57 c p3
109.46 59.54 0.57 c p3
109.45 59.55 0.57 c p3
109.39 59.55 0.57 c p3
109.36 59.56 0.57 c p3
109.29 59.56 0.57 c p3
109.25 59.56 0.57 c p3
109.24 59.57 0.57 c p3
109.18 59.58 0.57 c p3
109.17 59.58 0.57 c p3
109.02 59.59 0.57 c p3
108.98 59.59 0.57 c p3
108.85 59.59 0.57 c p3
108.65 59.60 0.57 c p3
108.63 59.60 0.57 c p3
108.43 59.61 0.57 c p3
108.36 59.61 0.57 c p3
108.31 59.61 0.57 c p3
108.18 59.62 0.57 c p3
108.15 59.62 0.57 c p3
108.13 59.63 0.57 c p3
108.01 59.63 0.57 c p3
108.01 59.63 0.57 c p3
107.84 59.64 0.57 c p3
107.82 59.64 0.57 c p3
107.56 59.65 0.57 c p3
107.56 59.65 0.57 c p3
107.51 59.65 0.57 c p3
107.49 59.66 0.57 c p3
107.49 59.66 0.57 c p3
107.43 59.67 0.57 c p3
107.16 59.67 0.57 c p3
107.01 59.68 0.57 c p3
107.00 59.68 0.57 c p3
106.98 59.68 0.57 c p3
106.93 59.69 0.57 c p3
106.86 59.69 0.57 c p3
106.85 59.70 0.57 c p3
106.81 59.70 0.57 c p3
106.70 59.70 0.57 c p3
106.69 59.71 0.57 c p3
106.66 59.71 0.57 c p3
106.49 59.72 0.57 c p3
106.47 59.72 0.57 c p3
106.44 59.72 0.57 c p3
106.42 59.73 0.57 c p3
106.41 59.73 0.57 c p3
106.34 59.74 0.57 c p3
106.29 59.74 0.57 c p3
106.24 59.74 0.57 c p3
106.22 59.75 0.57 c p3
106.19 59.75 0.57 c p3
106.15 59.76 0.57 c p3
106.15 59.76 0.57 c p3
106.07 59.76 0.57 c p3
106.04 59.77 0.57 c p3
106.03 59.77 0.57 c p3
105.97 59.78 0.57 c p3
105.91 59.78 0.57 c p3
105.86 59.79 0.57 c p3
105.79 59.79 0.57 c p3
105.78 59.79 0.57 c p3
105.64 59.80 0.57 c p3
105.62 59.80 0.57 c p3
105.61 59.81 0.57 c p3
105.58 59.81 0.57 c p3
105.54 59.81 0.57 c p3
105.51 59.82 0.57 c p3
105.43 59.82 0.57 c p3
105.41 59.83 0.57 c p3
105.41 59.83 0.57 c p3
105.37 59.83 0.57 c p3
105.35 59.84 0.57 c p3
105.34 59.84 0.57 c p3
105.28 59.85 0.57 c p3
105.20 59.85 0.57 c p3
104.99 59.85 0.57 c p3
104.90 59.86 0.57 c p3
104.86 59.86 0.57 c p3
104.86 59.87 0.57 c p3
104.84 59.87 0.57 c p3
104.82 59.87 0.57 c p3
104.79 59.88 0.57 c p3
104.74 59.88 0.57 c p3
104.70 59.89 0.57 c p3
104.67 59.89 0.57 c p3
104.57 59.90 0.57 c p3
104.55 59.90 0.57 c p3
104.50 59.90 0.57 c p3
104.43 59.91 0.57 c p3
104.42 59.91 0.57 c p3
104.41 59.92 0.57 c p3
104.40 59.92 0.57 c p3
104.34 59.92 0.57 c p3
104.30 59.93 0.57 c p3
104.23 59.93 0.57 c p3
104.22 59.94 0.57 c p3
104.20 59.94 0.57 c p3
104.05 59.94 0.57 c p3
103.97 59.95 0.57 c p3
103.88 59.95 0.57 c p3
103.85 59.96 0.57 c p3
103.84 59.96 0.57 c p3
103.76 59.96 0.57 c p3
103.74 59.97 0.57 c p3
103.67 59.97 0.57 c p3
103.65 59.98 0.57 c p3
103.62 59.98 0.57 c p3
103.61 59.99 0.57 c p3
103.53 59.99 0.57 c p3
103.51 59.99 0.57 c p3
103.39 60.00 0.57 c p3
103.39 60.00 0.57 c p3
103.26 60.01 0.57 c p3
103.26 60.01 0.57 c p3
103.25 60.02 0.57 c p3
103.24 60.02 0.57 c p3
103.19 60.03 0.57 c p3
103.10 60.03 0.57 c p3
103.08 60.04 0.57 c p3
103.07 60.04 0.57 c p3
103.06 60.05 0.57 c p3
102.96 60.05 0.57 c p3
102.95 60.05 0.57 c p3
102.94 60.06 0.57 c p3
102.92 60.06 0.57 c p3
102.83 60.07 0.57 c p3
102.74 60.07 0.57 c p3
102.74 60.07 0.57 c p3
102.73 60.08 0.57 c p3
102.68 60.08 0.57 c p3
102.67 60.09 0.57 c p3
102.66 60.09 0.57 c p3
102.56 60.10 0.57 c p3
102.52 60.11 0.57 c p3
102.46 60.11 0.57 c p3
102.41 60.12 0.57 c p3
102.38 60.12 0.57 c p3
102.37 60.13 0.57 c p3
102.35 60.14 0.57 c p3
102.34 60.14 0.57 c p3
102.32 60.14 0.57 c p3
102.23 60.15 0.57 c p3
102.23 60.15 0.57 c p3
102.21 60.16 0.57 c p3
102.19 60.16 0.57 c p3
102.15 60.17 0.57 c p3
102.14 60.17 0.57 c p3
102.10 60.18 0.57 c p3
102.07 60.18 0.57 c p3
102.03 60.19 0.57 c p3
101.93 60.19 0.57 c p3
101.92 60.20 0.57 c p3
101.81 60.20 0.57 c p3
101.76 60.21 0.57 c p3
101.72 60.21 0.57 c p3
101.64 60.21 0.57 c p3
101.59 60.22 0.57 c p3
101.56 60.22 0.57 c p3
101.44 60.23 0.57 c p3
101.43 60.23 0.57 c p3
101.36 60.23 0.57 c p3
101.31 60.24 0.57 c p3
101.29 60.24 0.57 c p3
101.27 60.25 0.57 c p3
101.25 60.25 0.57 c p3
101.23 60.25 0.57 c p3
101.22 60.26 0.57 c p3
101.13 60.27 0.57 c p3
101.12 60.27 0.57 c p3
101.09 60.27 0.57 c p3
101.08 60.28 0.57 c p3
101.04 60.28 0.57 c p3
100.97 60.29 0.57 c p3
100.95 60.29 0.57 c p3
100.93 60.30 0.57 c p3
100.92 60.30 0.57 c p3
100.86 60.31 0.57 c p3
100.76 60.31 0.57 c p3
100.67 60.32 0.57 c p3
100.64 60.32 0.57 c p3
100.59 60.33 0.57 c p3
100.58 60.33 0.57 c p3
100.52 60.34 0.57 c p3
100.50 60.34 0.57 c p3
100.49 60.34 0.57 c p3
100.42 60.35 0.57 c p3
100.37 60.35 0.57 c p3
100.36 60.36 0.57 c p3
100.34 60.36 0.57 c p3
100.27 60.36 0.57 c p3
100.26 60.37 0.57 c p3
100.25 60.37 0.57 c p3
100.21 60.38 0.57 c p3
100.20 60.38 0.57 c p3
100.15 60.38 0.57 c p3
100.14 60.39 0.57 c p3
100.13 60.39 0.57 c p3
100.11 60.40 0.57 c p3
100.10 60.40 0.57 c p3
100.09 60.41 0.57 c p3
100.08 60.41 0.57 c p3
100.07 60.42 0.57 c p3
100.00 60.42 0.57 c p3
99.98 60.43 0.57 c p3
99.97 60.43 0.57 c p3
99.92 60.43 0.57 c p3
99.90 60.44 0.57 c p3
99.89 60.45 0.57 c p3
99.88 60.45 0.57 c p3
99.87 60.46 0.57 c p3
99.83 60.47 0.57 c p3
99.79 60.47 0.57 c p3
99.71 60.47 0.57 c p3
99.70 60.48 0.57 c p3
99.64 60.48 0.57 c p3
99.63 60.49 0.57 c p3
99.62 60.50 0.57 c p3
99.61 60.50 0.57 c p3
99.58 60.51 0.57 c p3
99.53 60.51 0.57 c p3
99.51 60.52 0.57 c p3
99.50 60.52 0.57 c p3
99.49 60.53 0.57 c p3
99.47 60.54 0.57 c p3
99.41 60.54 0.57 c p3
99.40 60.54 0.57 c p3
99.36 60.55 0.57 c p3
99.35 60.55 0.57 c p3
99.33 60.56 0.57 c p3
99.29 60.56 0.57 c p3
99.28 60.56 0.57 c p3
99.23 60.57 0.57 c p3
99.19 60.57 0.57 c p3
99.18 60.58 0.57 c p3
99.17 60.58 0.57 c p3
99.14 60.59 0.57 c p3
99.08 60.59 0.57 c p3
99.07 60.60 0.57 c p3
99.06 60.60 0.57 c p3
99.02 60.61 0.57 c p3
99.01 60.61 0.57 c p3
99.00 60.63 0.57 c p3
98.98 60.63 0.57 c p3
98.96 60.63 0.57 c p3
98.93 60.64 0.57 c p3
98.91 60.64 0.57 c p3
98.89 60.65 0.57 c p3
98.84 60.65 0.57 c p3
98.80 60.65 0.57 c p3
98.75 60.66 0.57 c p3
98.68 60.66 0.57 c p3
98.63 60.67 0.57 c p3
98.59 60.68 0.57 c p3
98.53 60.69 0.57 c p3
98.51 60.70 0.57 c p3
98.50 60.70 0.57 c p3
98.47 60.70 0.57 c p3
98.46 60.71 0.57 c p3
98.43 60.71 0.57 c p3
98.42 60.72 0.57 c p3
98.39 60.72 0.57 c p3
98.37 60.73 0.57 c p3
98.33 60.74 0.57 c p3
98.29 60.74 0.57 c p3
98.22 60.75 0.57 c p3
98.21 60.75 0.57 c p3
98.17 60.76 0.57 c p3
98.14 60.76 0.57 c p3
98.13 60.76 0.57 c p3
98.10 60.77 0.57 c p3
98.02 60.78 0.57 c p3
98.00 60.78 0.57 c p3
97.99 60.79 0.57 c p3
97.92 60.80 0.57 c p3
97.89 60.81 0.57 c p3
97.86 60.81 0.57 c p3
97.85 60.82 0.57 c p3
97.83 60.83 0.57 c p3
97.80 60.83 0.57 c p3
97.70 60.84 0.57 c p3
97.69 60.84 0.57 c p3
97.66 60.85 0.57 c p3
97.58 60.86 0.57 c p3
97.51 60.87 0.57 c p3
97.50 60.87 0.57 c p3
97.45 60.87 0.57 c p3
97.40 60.88 0.57 c p3
97.37 60.88 0.57 c p3
97.36 60.89 0.57 c p3
97.31 60.89 0.57 c p3
97.30 60.91 0.57 c p3
97.22 60.92 0.57 c p3
97.19 60.92 0.57 c p3
97.17 60.93 0.57 c p3
97.16 60.93 0.57 c p3
97.13 60.94 0.57 c p3
97.11 60.95 0.57 c p3
97.08 60.95 0.57 c p3
97.06 60.96 0.57 c p3
97.05 60.96 0.57 c p3
97.03 60.96 0.57 c p3
97.00 60.97 0.57 c p3
96.98 60.97 0.57 c p3
96.93 60.98 0.57 c p3
96.92 60.98 0.57 c p3
96.88 60.98 0.57 c p3
96.82 60.99 0.57 c p3
96.79 61.01 0.57 c p3
96.75 61.01 0.57 c p3
96.73 61.01 0.57 c p3
96.70 61.02 0.57 c p3
96.68 61.03 0.57 c p3
96.65 61.03 0.57 c p3
96.60 61.03 0.57 c p3
96.57 61.04 0.57 c p3
96.55 61.05 0.57 c p3
96.53 61.05 0.57 c p3
96.51 61.07 0.57 c p3
96.50 61.08 0.57 c p3
96.46 61.09 0.57 c p3
96.41 61.09 0.57 c p3
96.39 61.10 0.57 c p3
96.37 61.11 0.57 c p3
96.36 61.12 0.57 c p3
96.25 61.12 0.57 c p3
96.23 61.13 0.57 c p3
96.21 61.14 0.57 c p3
96.20 61.14 0.57 c p3
96.09 61.15 0.57 c p3
96.07 61.15 0.57 c p3
96.05 61.16 0.57 c p3
95.99 61.16 0.57 c p3
95.96 61.17 0.57 c p3
95.94 61.17 0.57 c p3
95.92 61.18 0.57 c p3
95.90 61.18 0.57 c p3
95.88 61.18 0.57 c p3
95.82 61.19 0.57 c p3
95.77 61.19 0.57 c p3
95.75 61.20 0.57 c p3
95.73 61.21 0.57 c p3
95.71 61.22 0.57 c p3
95.69 61.23 0.57 c p3
95.67 61.24 0.57 c p3
95.65 61.25 0.57 c p3
95.61 61.25 0.57 c p3
95.59 61.26 0.57 c p3
95.57 61.27 0.57 c p3
95.55 61.28 0.57 c p3
95.53 61.29 0.57 c p3
95.51 61.29 0.57 c p3
95.49 61.30 0.57 c p3
95.47 61.32 0.57 c p3
95.45 61.32 0.57 c p3
95.43 61.33 0.57 c p3
95.39 61.35 0.57 c p3
95.35 61.35 0.57 c p3
95.31 61.36 0.57 c p3
95.29 61.36 0.57 c p3
95.27 61.37 0.57 c p3
95.24 61.38 0.57 c p3
95.22 61.38 0.57 c p3
95.20 61.39 0.57 c p3
95.16 61.39 0.57 c p3
95.14 61.41 0.57 c p3
95.12 61.41 0.57 c p3
95.10 61.41 0.57 c p3
95.08 61.42 0.57 c p3
95.06 61.43 0.57 c p3
95.01 61.43 0.57 c p3
94.99 61.45 0.57 c p3
94.97 61.46 0.57 c p3
94.95 61.47 0.57 c p3
94.93 61.47 0.57 c p3
94.86 61.47 0.57 c p3
94.82 61.48 0.57 c p3
94.79 61.48 0.57 c p3
94.73 61.49 0.57 c p3
94.70 61.50 0.57 c p3
94.68 61.51 0.57 c p3
94.66 61.53 0.57 c p3
94.64 61.53 0.57 c p3
94.61 61.54 0.57 c p3
94.57 61.54 0.57 c p3
94.55 61.55 0.57 c p3
94.52 61.56 0.57 c p3
94.48 61.57 0.57 c p3
94.43 61.58 0.57 c p3
94.41 61.59 0.57 c p3
94.38 61.60 0.57 c p3
94.36 61.60 0.57 c p3
94.31 61.61 0.57 c p3
94.29 61.62 0.57 c p3
94.26 61.62 0.57 c p3
94.24 61.63 0.57 c p3
94.22 61.63 0.57 c p3
94.19 61.64 0.57 c p3
94.17 61.65 0.57 c p3
94.14 61.67 0.57 c p3
94.12 61.67 0.57 c p3
94.09 61.68 0.57 c p3
94.07 61.69 0.57 c p3
94.04 61.70 0.57 c p3
94.02 61.71 0.57 c p3
93.99 61.73 0.57 c p3
93.97 61.73 0.57 c p3
93.94 61.75 0.57 c p3
93.92 61.76 0.57 c p3
93.87 61.76 0.57 c p3
93.84 61.78 0.57 c p3
93.82 61.78 0.57 c p3
93.77 61.79 0.57 c p3
93.74 61.81 0.57 c p3
93.72 61.83 0.57 c p3
93.69 61.83 0.57 c p3
93.61 61.85 0.57 c p3
93.58 61.86 0.57 c p3
93.56 61.88 0.57 c p3
93.53 61.88 0.57 c p3
93.50 61.89 0.57 c p3
93.48 61.89 0.57 c p3
93.40 61.91 0.57 c p3
93.37 61.93 0.57 c p3
93.31 61.94 0.57 c p3
93.29 61.96 0.57 c p3
93.26 61.97 0.57 c p3
93.20 61.98 0.57 c p3
93.18 62.00 0.57 c p3
93.15 62.01 0.57 c p3
93.12 62.02 0.57 c p3
93.09 62.03 0.57 c p3
93.06 62.04 0.57 c p3
93.01 62.05 0.57 c p3
92.98 62.05 0.57 c p3
92.95 62.07 0.57 c p3
92.92 62.07 0.57 c p3
92.86 62.08 0.57 c p3
92.83 62.09 0.57 c p3
92.80 62.12 0.57 c p3
92.77 62.13 0.57 c p3
92.74 62.14 0.57 c p3
92.71 62.14 0.57 c p3
92.68 62.15 0.57 c p3
92.65 62.16 0.57 c p3
92.62 62.16 0.57 c p3
92.56 62.18 0.57 c p3
92.53 62.19 0.57 c p3
92.50 62.20 0.57 c p3
92.47 62.20 0.57 c p3
92.44 62.21 0.57 c p3
92.40 62.21 0.57 c p3
92.37 62.23 0.57 c p3
92.34 62.23 0.57 c p3
92.31 62.24 0.57 c p3
92.28 62.25 0.57 c p3
92.25 62.27 0.57 c p3
92.21 62.28 0.57 c p3
92.18 62.29 0.57 c p3
92.15 62.31 0.57 c p3
92.12 62.32 0.57 c p3
92.08 62.35 0.57 c p3
92.05 62.37 0.57 c p3
92.02 62.39 0.57 c p3
91.98 62.40 0.57 c p3
91.95 62.40 0.57 c p3
91.92 62.41 0.57 c p3
91.88 62.42 0.57 c p3
91.85 62.43 0.57 c p3
91.82 62.44 0.57 c p3
91.78 62.45 0.57 c p3
91.75 62.47 0.57 c p3
91.71 62.48 0.57 c p3
91.68 62.51 0.57 c p3
91.64 62.51 0.57 c p3
91.61 62.53 0.57 c p3
91.57 62.55 0.57 c p3
91.54 62.56 0.57 c p3
91.50 62.58 0.57 c p3
91.47 62.59 0.57 c p3
91.43 62.61 0.57 c p3
91.36 62.63 0.57 c p3
91.32 62.63 0.57 c p3
91.28 62.65 0.57 c p3
91.25 62.67 0.57 c p3
91.21 62.69 0.57 c p3
91.17 62.71 0.57 c p3
91.13 62.73 0.57 c p3
91.10 62.74 0.57 c p3
91.06 62.75 0.57 c p3
91.02 62.76 0.57 c p3
90.98 62.76 0.57 c p3
90.94 62.78 0.57 c p3
90.90 62.82 0.57 c p3
90.86 62.85 0.57 c p3
90.83 62.87 0.57 c p3
90.79 62.88 0.57 c p3
90.71 62.92 0.57 c p3
90.67 62.94 0.57 c p3
90.58 62.94 0.57 c p3
90.54 62.96 0.57 c p3
90.50 62.96 0.57 c p3
90.46 62.97 0.57 c p3
90.42 62.99 0.57 c p3
90.38 63.00 0.57 c p3
90.34 63.02 0.57 c p3
90.29 63.05 0.57 c p3
90.25 63.05 0.57 c p3
90.21 63.06 0.57 c p3
90.16 63.07 0.57 c p3
90.12 63.10 0.57 c p3
90.08 63.12 0.57 c p3
90.03 63.14 0.57 c p3
89.99 63.16 0.57 c p3
89.94 63.18 0.57 c p3
89.90 63.20 0.57 c p3
89.85 63.22 0.57 c p3
89.81 63.24 0.57 c p3
89.76 63.26 0.57 c p3
89.72 63.27 0.57 c p3
89.67 63.30 0.57 c p3
89.62 63.32 0.57 c p3
89.57 63.34 0.57 c p3
89.53 63.36 0.57 c p3
89.48 63.38 0.57 c p3
89.43 63.40 0.57 c p3
89.38 63.42 0.57 c p3
89.33 63.43 0.57 c p3
89.29 63.46 0.57 c p3
89.24 63.46 0.57 c p3
89.19 63.47 0.57 c p3
89.14 63.49 0.57 c p3
89.09 63.52 0.57 c p3
89.03 63.53 0.57 c p3
88.98 63.57 0.57 c p3
88.93 63.59 0.57 c p3
88.88 63.60 0.57 c p3
88.83 63.61 0.57 c p3
88.77 63.63 0.57 c p3
88.72 63.65 0.57 c p3
88.67 63.68 0.57 c p3
88.61 63.69 0.57 c p3
88.56 63.72 0.57 c p3
88.50 63.74 0.57 c p3
88.45 63.76 0.57 c p3
88.39 63.79 0.57 c p3
88.34 63.82 0.57 c p3
88.28 63.83 0.57 c p3
88.22 63.86 0.57 c p3
88.16 63.87 0.57 c p3
88.11 63.89 0.57 c p3
88.05 63.91 0.57 c p3
87.99 63.93 0.57 c p3
87.93 63.97 0.57 c p3
87.87 63.98 0.57 c p3
87.81 64.02 0.57 c p3
87.75 64.04 0.57 c p3
87.68 64.08 0.57 c p3
87.62 64.10 0.57 c p3
87.56 64.12 0.57 c p3
87.49 64.14 0.57 c p3
87.43 64.19 0.57 c p3
87.37 64.24 0.57 c p3
87.30 64.28 0.57 c p3
87.23 64.32 0.57 c p3
87.17 64.36 0.57 c p3
87.10 64.41 0.57 c p3
87.03 64.44 0.57 c p3
86.96 64.45 0.57 c p3
86.89 64.52 0.57 c p3
86.82 64.55 0.57 c p3
86.75 64.60 0.57 c p3
86.68 64.65 0.57 c p3
86.61 64.71 0.57 c p3
86.54 64.73 0.57 c p3
86.46 64.76 0.57 c p3
86.39 64.82 0.57 c p3
86.31 64.85 0.57 c p3
86.24 64.88 0.57 c p3
86.16 64.90 0.57 c p3
86.08 64.94 0.57 c p3
86.00 64.99 0.57 c p3
85.92 65.02 0.57 c p3
85.84 65.09 0.57 c p3
85.76 65.12 0.57 c p3
85.68 65.17 0.57 c p3
85.59 65.23 0.57 c p3
85.51 65.28 0.57 c p3
85.42 65.33 0.57 c p3
85.34 65.35 0.57 c p3
85.25 65.42 0.57 c p3
85.16 65.47 0.57 c p3
85.07 65.51 0.57 c p3
84.98 65.54 0.57 c p3
84.88 65.58 0.57 c p3
84.79 65.64 0.57 c p3
84.70 65.68 0.57 c p3
84.60 65.73 0.57 c p3
84.50 65.79 0.57 c p3
84.40 65.84 0.57 c p3
84.30 65.89 0.57 c p3
84.20 65.93 0.57 c p3
84.10 65.97 0.57 c p3
83.99 66.04 0.57 c p3
83.88 66.10 0.57 c p3
83.77 66.17 0.57 c p3
83.66 66.26 0.57 c p3
83.55 66.29 0.57 c p3
83.44 66.34 0.57 c p3
83.32 66.43 0.57 c p3
83.20 66.51 0.57 c p3
83.08 66.58 0.57 c p3
82.96 66.64 0.57 c p3
82.84 66.70 0.57 c p3
82.71 66.78 0.57 c p3
82.58 66.85 0.57 c p3
82.45 66.91 0.57 c p3
82.32 66.97 0.57 c p3
82.18 67.07 0.57 c p3
82.04 67.18 0.57 c p3
81.90 67.28 0.57 c p3
81.75 67.37 0.57 c p3
81.60 67.47 0.57 c p3
81.45 67.57 0.57 c p3
81.30 67.70 0.57 c p3
81.14 67.81 0.57 c p3
80.98 67.90 0.57 c p3
80.81 68.03 0.57 c p3
80.64 68.17 0.57 c p3
80.46 68.27 0.57 c p3
80.29 68.39 0.57 c p3
80.10 68.52 0.57 c p3
79.91 68.69 0.57 c p3
79.72 68.83 0.57 c p3
79.52 68.97 0.57 c p3
79.31 69.12 0.57 c p3
79.10 69.34 0.57 c p3
78.88 69.59 0.57 c p3
78.65 69.84 0.57 c p3
78.42 70.10 0.57 c p3
78.18 70.32 0.57 c p3
77.93 70.55 0.57 c p3
77.67 70.82 0.57 c p3
77.40 71.10 0.57 c p3
77.11 71.40 0.57 c p3
76.82 71.72 0.57 c p3
76.51 72.02 0.57 c p3
76.19 72.38 0.57 c p3
75.86 72.78 0.57 c p3
75.50 73.24 0.57 c p3
75.13 73.64 0.57 c p3
74.73 74.13 0.57 c p3
74.32 74.69 0.57 c p3
73.87 75.30 0.57 c p3
73.39 75.98 0.57 c p3
72.88 76.72 0.57 c p3
72.33 77.56 0.57 c p3
71.73 78.59 0.57 c p3
71.07 79.77 0.57 c p3
70.34 81.13 0.57 c p3
69.53 82.71 0.57 c p3
68.61 84.63 0.57 c p3
67.55 87.27 0.57 c p3
66.29 90.88 0.57 c p3
64.75 95.59 0.57 c p3
62.76 103.13 0.57 c p3
59.96 117.02 0.57 c p3
55.18 152.94 0.57 c p3
0.4980 0.4980 0.4980 srgb
1.07 setlinewidth
[] 0 setdash
50.50 54.65 102.98 102.98 r p1
0.00 0.00 595.28 198.43 cl
159.45 54.65 262.43 157.63 cl
/bg { 1 1 1 srgb } def
159.45 54.65 102.98 102.98 r p2
0.9804 0.9804 0.9804 srgb
1.07 setlinewidth
[] 0 setdash
0 setlinecap
1 setlinejoin
10.00 setmiterlimit
np
159.45 71.03 m
102.98 0 l
o
np
159.45 94.43 m
102.98 0 l
o
np
159.45 117.84 m
102.98 0 l
o
np
159.45 141.24 m
102.98 0 l
o
np
164.13 54.65 m
0 102.98 l
o
np
195.92 54.65 m
0 102.98 l
o
np
227.70 54.65 m
0 102.98 l
o
np
259.49 54.65 m
0 102.98 l
o
0.8980 0.8980 0.8980 srgb
0.43 setlinewidth
[] 0 setdash
np
159.45 59.33 m
102.98 0 l
o
np
159.45 82.73 m
102.98 0 l
o
np
159.45 106.14 m
102.98 0 l
o
np
159.45 129.54 m
102.98 0 l
o
np
159.45 152.94 m
102.98 0 l
o
np
180.03 54.65 m
0 102.98 l
o
np
211.81 54.65 m
0 102.98 l
o
np
243.59 54.65 m
0 102.98 l
o
/bg { 0 0 0 srgb } def
0 0 0 srgb
0.71 setlinewidth
[] 0 setdash
1 setlinecap
252.53 59.33 0.57 c p3
241.94 59.33 0.57 c p3
228.70 59.33 0.57 c p3
225.15 59.33 0.57 c p3
223.35 59.33 0.57 c p3
222.80 59.33 0.57 c p3
221.70 59.33 0.57 c p3
218.32 59.33 0.57 c p3
217.94 59.33 0.57 c p3
217.80 59.33 0.57 c p3
217.53 59.33 0.57 c p3
217.31 59.33 0.57 c p3
217.26 59.33 0.57 c p3
217.22 59.33 0.57 c p3
216.45 59.33 0.57 c p3
215.92 59.33 0.57 c p3
215.75 59.33 0.57 c p3
215.69 59.33 0.57 c p3
215.64 59.33 0.57 c p3
215.44 59.33 0.57 c p3
215.42 59.34 0.57 c p3
215.28 59.34 0.57 c p3
215.23 59.34 0.57 c p3
215.14 59.34 0.57 c p3
214.95 59.34 0.57 c p3
214.94 59.34 0.57 c p3
214.76 59.34 0.57 c p3
214.55 59.34 0.57 c p3
214.53 59.34 0.57 c p3
214.39 59.34 0.57 c p3
214.38 59.34 0.57 c p3
214.32 59.34 0.57 c p3
214.31 59.34 0.57 c p3
214.21 59.34 0.57 c p3
214.14 59.34 0.57 c p3
214.02 59.34 0.57 c p3
213.95 59.34 0.57 c p3
213.93 59.34 0.57 c p3
213.92 59.34 0.57 c p3
213.80 59.34 0.57 c p3
213.70 59.34 0.57 c p3
213.57 59.34 0.57 c p3
213.41 59.34 0.57 c p3
213.36 59.34 0.57 c p3
213.32 59.34 0.57 c p3
213.16 59.34 0.57 c p3
212.96 59.34 0.57 c p3
212.95 59.34 0.57 c p3
212.92 59.35 0.57 c p3
212.89 59.35 0.57 c p3
212.83 59.35 0.57 c p3
212.73 59.35 0.57 c p3
212.70 59.35 0.57 c p3
212.61 59.35 0.57 c p3
212.56 59.35 0.57 c p3
212.51 59.35 0.57 c p3
212.50 59.35 0.57 c p3
212.47 59.35 0.57 c p3
212.44 59.35 0.57 c p3
212.34 59.35 0.57 c p3
212.33 59.35 0.57 c p3
212.29 59.35 0.57 c p3
212.24 59.35 0.57 c p3
212.14 59.35 0.57 c p3
212.09 59.35 0.57 c p3
212.01 59.35 0.57 c p3
212.00 59.35 0.57 c p3
211.74 59.35 0.57 c p3
211.71 59.35 0.57 c p3
211.70 59.35 0.57 c p3
211.67 59.35 0.57 c p3
211.66 59.35 0.57 c p3
211.61 59.35 0.57 c p3
211.54 59.35 0.57 c p3
211.51 59.35 0.57 c p3
211.50 59.35 0.57 c p3
211.49 59.35 0.57 c p3
211.46 59.36 0.57 c p3
211.46 59.36 0.57 c p3
211.43 59.36 0.57 c p3
211.37 59.36 0.57 c p3
211.36 59.36 0.57 c p3
211.32 59.36 0.57 c p3
211.30 59.36 0.57 c p3
211.29 59.36 0.57 c p3
211.24 59.36 0.57 c p3
211.13 59.36 0.57 c p3
211.12 59.36 0.57 c p3
211.11 59.36 0.57 c p3
211.08 59.36 0.57 c p3
211.07 59.36 0.57 c p3
211.04 59.36 0.57 c p3
211.01 59.36 0.57 c p3
211.00 59.36 0.57 c p3
210.99 59.36 0.57 c p3
210.92 59.36 0.57 c p3
210.90 59.36 0.57 c p3
210.78 59.36 0.57 c p3
210.77 59.36 0.57 c p3
210.71 59.36 0.57 c p3
210.69 59.36 0.57 c p3
210.66 59.36 0.57 c p3
210.63 59.36 0.57 c p3
210.57 59.36 0.57 c p3
210.47 59.36 0.57 c p3
210.46 59.37 0.57 c p3
210.42 59.37 0.57 c p3
210.40 59.37 0.57 c p3
210.35 59.37 0.57 c p3
210.33 59.37 0.57 c p3
210.28 59.37 0.57 c p3
210.25 59.37 0.57 c p3
210.22 59.37 0.57 c p3
210.19 59.37 0.57 c p3
210.16 59.37 0.57 c p3
210.09 59.37 0.57 c p3
210.08 59.37 0.57 c p3
210.06 59.37 0.57 c p3
210.00 59.37 0.57 c p3
209.95 59.37 0.57 c p3
209.93 59.37 0.57 c p3
209.91 59.37 0.57 c p3
209.90 59.37 0.57 c p3
209.85 59.37 0.57 c p3
209.80 59.37 0.57 c p3
209.78 59.37 0.57 c p3
209.77 59.37 0.57 c p3
209.76 59.37 0.57 c p3
209.66 59.37 0.57 c p3
209.62 59.37 0.57 c p3
209.60 59.37 0.57 c p3
209.54 59.37 0.57 c p3
209.50 59.38 0.57 c p3
209.49 59.38 0.57 c p3
209.47 59.38 0.57 c p3
209.44 59.38 0.57 c p3
209.41 59.38 0.57 c p3
209.40 59.38 0.57 c p3
209.34 59.38 0.57 c p3
209.29 59.38 0.57 c p3
209.26 59.38 0.57 c p3
209.23 59.38 0.57 c p3
209.22 59.38 0.57 c p3
209.20 59.38 0.57 c p3
209.19 59.38 0.57 c p3
209.17 59.38 0.57 c p3
209.15 59.38 0.57 c p3
209.14 59.38 0.57 c p3
209.13 59.38 0.57 c p3
209.12 59.38 0.57 c p3
209.11 59.38 0.57 c p3
209.10 59.38 0.57 c p3
209.08 59.38 0.57 c p3
209.06 59.38 0.57 c p3
209.05 59.38 0.57 c p3
209.01 59.38 0.57 c p3
208.94 59.39 0.57 c p3
208.89 59.39 0.57 c p3
208.88 59.39 0.57 c p3
208.83 59.39 0.57 c p3
208.77 59.39 0.57 c p3
208.76 59.39 0.57 c p3
208.75 59.39 0.57 c p3
208.74 59.39 0.57 c p3
208.70 59.39 0.57 c p3
208.69 59.39 0.57 c p3
208.67 59.39 0.57 c p3
208.63 59.39 0.57 c p3
208.57 59.39 0.57 c p3
208.56 59.39 0.57 c p3
208.54 59.39 0.57 c p3
208.52 59.39 0.57 c p3
208.51 59.39 0.57 c p3
208.49 59.39 0.57 c p3
208.48 59.39 0.57 c p3
208.46 59.40 0.57 c p3
208.44 59.40 0.57 c p3
208.42 59.40 0.57 c p3
208.40 59.40 0.57 c p3
208.39 59.40 0.57 c p3
208.38 59.40 0.57 c p3
208.36 59.40 0.57 c p3
208.35 59.40 0.57 c p3
208.32 59.40 0.57 c p3
208.31 59.40 0.57 c p3
208.30 59.40 0.57 c p3
208.27 59.40 0.57 c p3
208.25 59.40 0.57 c p3
208.23 59.40 0.57 c p3
208.20 59.40 0.57 c p3
208.18 59.40 0.57 c p3
208.17 59.40 0.57 c p3
208.15 59.40 0.57 c p3
208.13 59.40 0.57 c p3
208.09 59.40 0.57 c p3
208.03 59.40 0.57 c p3
207.98 59.40 0.57 c p3
207.97 59.40 0.57 c p3
207.95 59.40 0.57 c p3
207.94 59.41 0.57 c p3
207.92 59.41 0.57 c p3
207.91 59.41 0.57 c p3
207.87 59.41 0.57 c p3
207.85 59.41 0.57 c p3
207.82 59.41 0.57 c p3
207.80 59.41 0.57 c p3
207.78 59.41 0.57 c p3
207.76 59.41 0.57 c p3
207.71 59.41 0.57 c p3
207.70 59.41 0.57 c p3
207.67 59.41 0.57 c p3
207.66 59.41 0.57 c p3
207.65 59.41 0.57 c p3
207.63 59.41 0.57 c p3
207.62 59.41 0.57 c p3
207.61 59.41 0.57 c p3
207.60 59.41 0.57 c p3
207.58 59.41 0.57 c p3
207.56 59.41 0.57 c p3
207.54 59.42 0.57 c p3
207.53 59.42 0.57 c p3
207.49 59.42 0.57 c p3
207.48 59.42 0.57 c p3
207.47 59.42 0.57 c p3
207.44 59.42 0.57 c p3
207.39 59.42 0.57 c p3
207.38 59.42 0.57 c p3
207.36 59.42 0.57 c p3
207.35 59.42 0.57 c p3
207.34 59.42 0.57 c p3
207.31 59.42 0.57 c p3
207.28 59.42 0.57 c p3
207.27 59.42 0.57 c p3
207.23 59.42 0.57 c p3
207.22 59.43 0.57 c p3
207.18 59.43 0.57 c p3
207.16 59.43 0.57 c p3
207.15 59.43 0.57 c p3
207.14 59.43 0.57 c p3
207.12 59.43 0.57 c p3
207.11 59.43 0.57 c p3
207.08 59.43 0.57 c p3
207.07 59.43 0.57 c p3
207.05 59.43 0.57 c p3
207.04 59.43 0.57 c p3
207.03 59.43 0.57 c p3
207.01 59.43 0.57 c p3
206.97 59.43 0.57 c p3
206.96 59.43 0.57 c p3
206.90 59.43 0.57 c p3
206.89 59.43 0.57 c p3
206.87 59.44 0.57 c p3
206.86 59.44 0.57 c p3
206.83 59.44 0.57 c p3
206.80 59.44 0.57 c p3
206.77 59.44 0.57 c p3
206.76 59.44 0.57 c p3
206.74 59.44 0.57 c p3
206.73 59.44 0.57 c p3
206.72 59.44 0.57 c p3
206.70 59.44 0.57 c p3
206.69 59.44 0.57 c p3
206.67 59.44 0.57 c p3
206.66 59.44 0.57 c p3
206.64 59.44 0.57 c p3
206.61 59.44 0.57 c p3
206.60 59.45 0.57 c p3
206.58 59.45 0.57 c p3
206.57 59.45 0.57 c p3
206.56 59.45 0.57 c p3
206.54 59.45 0.57 c p3
206.53 59.45 0.57 c p3
206.51 59.45 0.57 c p3
206.50 59.45 0.57 c p3
206.48 59.45 0.57 c p3
206.47 59.45 0.57 c p3
206.45 59.45 0.57 c p3
206.41 59.45 0.57 c p3
206.36 59.45 0.57 c p3
206.35 59.45 0.57 c p3
206.31 59.45 0.57 c p3
206.30 59.45 0.57 c p3
206.28 59.46 0.57 c p3
206.27 59.46 0.57 c p3
206.25 59.46 0.57 c p3
206.24 59.46 0.57 c p3
206.22 59.46 0.57 c p3
206.21 59.46 0.57 c p3
206.19 59.46 0.57 c p3
206.16 59.46 0.57 c p3
206.14 59.46 0.57 c p3
206.13 59.46 0.57 c p3
206.11 59.46 0.57 c p3
206.08 59.46 0.57 c p3
206.07 59.46 0.57 c p3
206.05 59.46 0.57 c p3
206.02 59.47 0.57 c p3
205.99 59.47 0.57 c p3
205.97 59.47 0.57 c p3
205.95 59.47 0.57 c p3
205.94 59.47 0.57 c p3
205.87 59.47 0.57 c p3
205.82 59.47 0.57 c p3
205.81 59.47 0.57 c p3
205.79 59.47 0.57 c p3
205.77 59.47 0.57 c p3
205.76 59.47 0.57 c p3
205.74 59.47 0.57 c p3
205.72 59.48 0.57 c p3
205.71 59.48 0.57 c p3
205.69 59.48 0.57 c p3
205.67 59.48 0.57 c p3
205.66 59.48 0.57 c p3
205.64 59.48 0.57 c p3
205.62 59.48 0.57 c p3
205.61 59.48 0.57 c p3
205.59 59.48 0.57 c p3
205.57 59.48 0.57 c p3
205.56 59.49 0.57 c p3
205.52 59.49 0.57 c p3
205.50 59.49 0.57 c p3
205.49 59.49 0.57 c p3
205.47 59.49 0.57 c p3
205.45 59.49 0.57 c p3
205.43 59.49 0.57 c p3
205.42 59.49 0.57 c p3
205.40 59.49 0.57 c p3
205.38 59.49 0.57 c p3
205.36 59.49 0.57 c p3
205.35 59.50 0.57 c p3
205.33 59.50 0.57 c p3
205.31 59.50 0.57 c p3
205.29 59.50 0.57 c p3
205.28 59.50 0.57 c p3
205.26 59.50 0.57 c p3
205.24 59.50 0.57 c p3
205.22 59.50 0.57 c p3
205.20 59.50 0.57 c p3
205.19 59.50 0.57 c p3
205.17 59.50 0.57 c p3
205.15 59.50 0.57 c p3
205.13 59.50 0.57 c p3
205.11 59.51 0.57 c p3
205.10 59.51 0.57 c p3
205.06 59.51 0.57 c p3
205.04 59.51 0.57 c p3
205.02 59.51 0.57 c p3
205.00 59.51 0.57 c p3
204.99 59.51 0.57 c p3
204.97 59.51 0.57 c p3
204.95 59.51 0.57 c p3
204.93 59.51 0.57 c p3
204.91 59.51 0.57 c p3
204.89 59.51 0.57 c p3
204.87 59.52 0.57 c p3
204.85 59.52 0.57 c p3
204.84 59.52 0.57 c p3
204.82 59.52 0.57 c p3
204.80 59.52 0.57 c p3
204.78 59.52 0.57 c p3
204.76 59.52 0.57 c p3
204.74 59.52 0.57 c p3
204.72 59.52 0.57 c p3
204.70 59.52 0.57 c p3
204.68 59.52 0.57 c p3
204.66 59.52 0.57 c p3
204.64 59.53 0.57 c p3
204.62 59.53 0.57 c p3
204.60 59.53 0.57 c p3
204.58 59.53 0.57 c p3
204.56 59.53 0.57 c p3
204.54 59.53 0.57 c p3
204.53 59.53 0.57 c p3
204.51 59.53 0.57 c p3
204.49 59.53 0.57 c p3
204.47 59.53 0.57 c p3
204.45 59.53 0.57 c p3
204.43 59.54 0.57 c p3
204.41 59.54 0.57 c p3
204.38 59.54 0.57 c p3
204.36 59.54 0.57 c p3
204.34 59.54 0.57 c p3
204.30 59.54 0.57 c p3
204.28 59.54 0.57 c p3
204.26 59.55 0.57 c p3
204.24 59.55 0.57 c p3
204.22 59.55 0.57 c p3
204.20 59.55 0.57 c p3
204.18 59.55 0.57 c p3
204.16 59.55 0.57 c p3
204.14 59.55 0.57 c p3
204.12 59.55 0.57 c p3
204.10 59.55 0.57 c p3
204.07 59.56 0.57 c p3
204.03 59.56 0.57 c p3
204.01 59.56 0.57 c p3
203.99 59.56 0.57 c p3
203.97 59.56 0.57 c p3
203.95 59.56 0.57 c p3
203.92 59.56 0.57 c p3
203.90 59.56 0.57 c p3
203.88 59.56 0.57 c p3
203.86 59.56 0.57 c p3
203.84 59.56 0.57 c p3
203.82 59.57 0.57 c p3
203.79 59.57 0.57 c p3
203.77 59.57 0.57 c p3
203.75 59.57 0.57 c p3
203.73 59.57 0.57 c p3
203.70 59.57 0.57 c p3
203.68 59.58 0.57 c p3
203.66 59.58 0.57 c p3
203.64 59.58 0.57 c p3
203.61 59.58 0.57 c p3
203.59 59.58 0.57 c p3
203.57 59.58 0.57 c p3
203.55 59.59 0.57 c p3
203.52 59.59 0.57 c p3
203.50 59.59 0.57 c p3
203.48 59.59 0.57 c p3
203.45 59.59 0.57 c p3
203.43 59.59 0.57 c p3
203.41 59.59 0.57 c p3
203.38 59.60 0.57 c p3
203.36 59.60 0.57 c p3
203.34 59.60 0.57 c p3
203.31 59.60 0.57 c p3
203.29 59.60 0.57 c p3
203.27 59.61 0.57 c p3
203.24 59.61 0.57 c p3
203.22 59.61 0.57 c p3
203.20 59.61 0.57 c p3
203.17 59.61 0.57 c p3
203.15 59.61 0.57 c p3
203.12 59.62 0.57 c p3
203.10 59.62 0.57 c p3
203.07 59.62 0.57 c p3
203.05 59.62 0.57 c p3
203.02 59.62 0.57 c p3
203.00 59.63 0.57 c p3
202.98 59.63 0.57 c p3
202.95 59.63 0.57 c p3
202.93 59.63 0.57 c p3
202.90 59.63 0.57 c p3
202.88 59.63 0.57 c p3
202.85 59.64 0.57 c p3
202.82 59.64 0.57 c p3
202.80 59.64 0.57 c p3
202.77 59.64 0.57 c p3
202.75 59.64 0.57 c p3
202.72 59.65 0.57 c p3
202.70 59.65 0.57 c p3
202.67 59.65 0.57 c p3
202.64 59.65 0.57 c p3
202.62 59.66 0.57 c p3
202.59 59.66 0.57 c p3
202.57 59.66 0.57 c p3
202.54 59.66 0.57 c p3
202.51 59.67 0.57 c p3
202.49 59.67 0.57 c p3
202.46 59.67 0.57 c p3
202.43 59.67 0.57 c p3
202.41 59.67 0.57 c p3
202.38 59.68 0.57 c p3
202.35 59.68 0.57 c p3
202.32 59.68 0.57 c p3
202.30 59.68 0.57 c p3
202.27 59.69 0.57 c p3
202.24 59.69 0.57 c p3
202.21 59.69 0.57 c p3
202.19 59.70 0.57 c p3
202.16 59.70 0.57 c p3
202.13 59.70 0.57 c p3
202.10 59.71 0.57 c p3
202.07 59.71 0.57 c p3
202.05 59.71 0.57 c p3
202.02 59.71 0.57 c p3
201.99 59.71 0.57 c p3
201.96 59.72 0.57 c p3
201.93 59.72 0.57 c p3
201.90 59.72 0.57 c p3
201.87 59.73 0.57 c p3
201.84 59.73 0.57 c p3
201.82 59.73 0.57 c p3
201.79 59.73 0.57 c p3
201.76 59.74 0.57 c p3
201.73 59.74 0.57 c p3
201.70 59.74 0.57 c p3
201.67 59.74 0.57 c p3
201.64 59.75 0.57 c p3
201.61 59.75 0.57 c p3
201.58 59.75 0.57 c p3
201.55 59.76 0.57 c p3
201.52 59.76 0.57 c p3
201.48 59.76 0.57 c p3
201.45 59.77 0.57 c p3
201.42 59.77 0.57 c p3
201.39 59.78 0.57 c p3
201.36 59.78 0.57 c p3
201.33 59.78 0.57 c p3
201.30 59.78 0.57 c p3
201.27 59.79 0.57 c p3
201.23 59.79 0.57 c p3
201.20 59.80 0.57 c p3
201.17 59.80 0.57 c p3
201.14 59.80 0.57 c p3
201.10 59.80 0.57 c p3
201.07 59.81 0.57 c p3
201.04 59.81 0.57 c p3
201.01 59.82 0.57 c p3
200.97 59.82 0.57 c p3
200.94 59.82 0.57 c p3
200.91 59.83 0.57 c p3
200.87 59.83 0.57 c p3
200.84 59.84 0.57 c p3
200.81 59.84 0.57 c p3
200.77 59.85 0.57 c p3
200.74 59.85 0.57 c p3
200.70 59.86 0.57 c p3
200.67 59.86 0.57 c p3
200.63 59.87 0.57 c p3
200.60 59.87 0.57 c p3
200.56 59.88 0.57 c p3
200.53 59.88 0.57 c p3
200.49 59.88 0.57 c p3
200.46 59.89 0.57 c p3
200.42 59.89 0.57 c p3
200.38 59.90 0.57 c p3
200.35 59.91 0.57 c p3
200.31 59.91 0.57 c p3
200.28 59.92 0.57 c p3
200.24 59.92 0.57 c p3
200.20 59.93 0.57 c p3
200.16 59.93 0.57 c p3
200.13 59.94 0.57 c p3
200.09 59.94 0.57 c p3
200.05 59.95 0.57 c p3
200.01 59.95 0.57 c p3
199.98 59.96 0.57 c p3
199.94 59.96 0.57 c p3
199.90 59.97 0.57 c p3
199.86 59.97 0.57 c p3
199.82 59.98 0.57 c p3
199.78 59.99 0.57 c p3
199.74 59.99 0.57 c p3
199.70 60.00 0.57 c p3
199.66 60.01 0.57 c p3
199.62 60.01 0.57 c p3
199.58 60.02 0.57 c p3
199.54 60.02 0.57 c p3
199.50 60.03 0.57 c p3
199.46 60.04 0.57 c p3
199.42 60.04 0.57 c p3
199.37 60.05 0.57 c p3
199.33 60.06 0.57 c p3
199.29 60.06 0.57 c p3
199.25 60.07 0.57 c p3
199.21 60.08 0.57 c p3
199.16 60.09 0.57 c p3
199.12 60.10 0.57 c p3
199.08 60.10 0.57 c p3
199.03 60.11 0.57 c p3
198.99 60.12 0.57 c p3
198.94 60.12 0.57 c p3
198.90 60.13 0.57 c p3
198.85 60.14 0.57 c p3
198.81 60.15 0.57 c p3
198.76 60.16 0.57 c p3
198.72 60.17 0.57 c p3
198.67 60.18 0.57 c p3
198.62 60.19 0.57 c p3
198.58 60.20 0.57 c p3
198.53 60.20 0.57 c p3
198.48 60.21 0.57 c p3
198.44 60.22 0.57 c p3
198.39 60.23 0.57 c p3
198.34 60.24 0.57 c p3
198.29 60.25 0.57 c p3
198.24 60.26 0.57 c p3
198.19 60.27 0.57 c p3
198.14 60.28 0.57 c p3
198.09 60.29 0.57 c p3
198.04 60.30 0.57 c p3
197.99 60.31 0.57 c p3
197.94 60.32 0.57 c p3
197.89 60.33 0.57 c p3
197.83 60.34 0.57 c p3
197.78 60.35 0.57 c p3
197.73 60.37 0.57 c p3
197.68 60.38 0.57 c p3
197.62 60.39 0.57 c p3
197.57 60.41 0.57 c p3
197.51 60.42 0.57 c p3
197.46 60.44 0.57 c p3
197.40 60.45 0.57 c p3
197.35 60.46 0.57 c p3
197.29 60.47 0.57 c p3
197.23 60.49 0.57 c p3
197.18 60.50 0.57 c p3
197.12 60.52 0.57 c p3
197.06 60.53 0.57 c p3
197.00 60.54 0.57 c p3
196.94 60.56 0.57 c p3
196.88 60.57 0.57 c p3
196.82 60.59 0.57 c p3
196.76 60.60 0.57 c p3
196.70 60.61 0.57 c p3
196.64 60.63 0.57 c p3
196.58 60.65 0.57 c p3
196.51 60.66 0.57 c p3
196.45 60.68 0.57 c p3
196.39 60.70 0.57 c p3
196.32 60.71 0.57 c p3
196.26 60.72 0.57 c p3
196.19 60.74 0.57 c p3
196.12 60.76 0.57 c p3
196.06 60.79 0.57 c p3
195.99 60.80 0.57 c p3
195.92 60.82 0.57 c p3
195.85 60.83 0.57 c p3
195.78 60.86 0.57 c p3
195.71 60.88 0.57 c p3
195.64 60.89 0.57 c p3
195.56 60.92 0.57 c p3
195.49 60.94 0.57 c p3
195.42 60.96 0.57 c p3
195.34 60.98 0.57 c p3
195.27 61.01 0.57 c p3
195.19 61.03 0.57 c p3
195.11 61.06 0.57 c p3
195.04 61.08 0.57 c p3
194.96 61.11 0.57 c p3
194.88 61.14 0.57 c p3
194.80 61.16 0.57 c p3
194.72 61.19 0.57 c p3
194.63 61.22 0.57 c p3
194.55 61.25 0.57 c p3
194.46 61.28 0.57 c p3
194.38 61.31 0.57 c p3
194.29 61.35 0.57 c p3
194.20 61.38 0.57 c p3
194.11 61.41 0.57 c p3
194.02 61.45 0.57 c p3
193.93 61.48 0.57 c p3
193.84 61.52 0.57 c p3
193.75 61.55 0.57 c p3
193.65 61.60 0.57 c p3
193.55 61.63 0.57 c p3
193.46 61.67 0.57 c p3
193.36 61.71 0.57 c p3
193.26 61.76 0.57 c p3
193.15 61.80 0.57 c p3
193.05 61.85 0.57 c p3
192.95 61.90 0.57 c p3
192.84 61.93 0.57 c p3
192.73 61.98 0.57 c p3
192.62 62.04 0.57 c p3
192.51 62.08 0.57 c p3
192.39 62.13 0.57 c p3
192.28 62.19 0.57 c p3
192.16 62.24 0.57 c p3
192.04 62.30 0.57 c p3
191.92 62.37 0.57 c p3
191.79 62.43 0.57 c p3
191.67 62.51 0.57 c p3
191.54 62.57 0.57 c p3
191.41 62.64 0.57 c p3
191.27 62.71 0.57 c p3
191.13 62.79 0.57 c p3
191.00 62.89 0.57 c p3
190.85 62.97 0.57 c p3
190.71 63.07 0.57 c p3
190.56 63.16 0.57 c p3
190.41 63.25 0.57 c p3
190.25 63.34 0.57 c p3
190.09 63.44 0.57 c p3
189.93 63.55 0.57 c p3
189.76 63.66 0.57 c p3
189.59 63.79 0.57 c p3
189.42 63.93 0.57 c p3
189.24 64.06 0.57 c p3
189.06 64.20 0.57 c p3
188.87 64.35 0.57 c p3
188.67 64.50 0.57 c p3
188.47 64.68 0.57 c p3
188.27 64.86 0.57 c p3
188.05 65.04 0.57 c p3
187.84 65.23 0.57 c p3
187.61 65.42 0.57 c p3
187.37 65.63 0.57 c p3
187.13 65.86 0.57 c p3
186.88 66.09 0.57 c p3
186.62 66.36 0.57 c p3
186.35 66.66 0.57 c p3
186.07 66.97 0.57 c p3
185.78 67.28 0.57 c p3
185.47 67.63 0.57 c p3
185.15 68.01 0.57 c p3
184.81 68.42 0.57 c p3
184.46 68.85 0.57 c p3
184.08 69.35 0.57 c p3
183.69 69.87 0.57 c p3
183.27 70.49 0.57 c p3
182.83 71.14 0.57 c p3
182.35 71.88 0.57 c p3
181.84 72.73 0.57 c p3
181.28 73.70 0.57 c p3
180.68 74.83 0.57 c p3
180.03 76.13 0.57 c p3
179.30 77.65 0.57 c p3
178.49 79.53 0.57 c p3
177.56 81.83 0.57 c p3
176.50 84.77 0.57 c p3
175.24 88.67 0.57 c p3
173.70 94.04 0.57 c p3
171.72 102.36 0.57 c p3
168.92 117.05 0.57 c p3
164.13 152.94 0.57 c p3
0.4980 0.4980 0.4980 srgb
1.07 setlinewidth
[] 0 setdash
159.45 54.65 102.98 102.98 r p1
0.00 0.00 595.28 198.43 cl
268.41 54.65 371.39 157.63 cl
/bg { 1 1 1 srgb } def
268.41 54.65 102.98 102.98 r p2
0.9804 0.9804 0.9804 srgb
1.07 setlinewidth
[] 0 setdash
0 setlinecap
1 setlinejoin
10.00 setmiterlimit
np
268.41 71.03 m
102.98 0 l
o
np
268.41 94.43 m
102.98 0 l
o
np
268.41 117.84 m
102.98 0 l
o
np
268.41 141.24 m
102.98 0 l
o
np
273.09 54.65 m
0 102.98 l
o
np
304.87 54.65 m
0 102.98 l
o
np
336.66 54.65 m
0 102.98 l
o
np
368.44 54.65 m
0 102.98 l
o
0.8980 0.8980 0.8980 srgb
0.43 setlinewidth
[] 0 setdash
np
268.41 59.33 m
102.98 0 l
o
np
268.41 82.73 m
102.98 0 l
o
np
268.41 106.14 m
102.98 0 l
o
np
268.41 129.54 m
102.98 0 l
o
np
268.41 152.94 m
102.98 0 l
o
np
288.98 54.65 m
0 102.98 l
o
np
320.77 54.65 m
0 102.98 l
o
np
352.55 54.65 m
0 102.98 l
o
/bg { 0 0 0 srgb } def
0 0 0 srgb
0.71 setlinewidth
[] 0 setdash
1 setlinecap
334.81 59.33 0.57 c p3
322.65 59.34 0.57 c p3
322.23 59.35 0.57 c p3
321.06 59.36 0.57 c p3
319.03 59.36 0.57 c p3
318.87 59.37 0.57 c p3
317.37 59.38 0.57 c p3
317.11 59.38 0.57 c p3
316.74 59.39 0.57 c p3
316.49 59.40 0.57 c p3
316.45 59.40 0.57 c p3
316.28 59.41 0.57 c p3
315.64 59.42 0.57 c p3
315.54 59.42 0.57 c p3
314.11 59.43 0.57 c p3
313.64 59.44 0.57 c p3
313.32 59.44 0.57 c p3
313.28 59.45 0.57 c p3
313.22 59.46 0.57 c p3
313.20 59.46 0.57 c p3
312.84 59.47 0.57 c p3
312.66 59.48 0.57 c p3
312.62 59.48 0.57 c p3
312.27 59.49 0.57 c p3
312.25 59.50 0.57 c p3
312.20 59.50 0.57 c p3
312.03 59.51 0.57 c p3
311.96 59.52 0.57 c p3
311.93 59.52 0.57 c p3
311.75 59.54 0.57 c p3
311.33 59.54 0.57 c p3
311.06 59.55 0.57 c p3
310.94 59.56 0.57 c p3
310.80 59.56 0.57 c p3
310.74 59.57 0.57 c p3
310.65 59.58 0.57 c p3
310.59 59.58 0.57 c p3
310.53 59.59 0.57 c p3
310.16 59.60 0.57 c p3
310.06 59.60 0.57 c p3
310.03 59.61 0.57 c p3
309.86 59.62 0.57 c p3
309.69 59.63 0.57 c p3
309.62 59.64 0.57 c p3
309.59 59.65 0.57 c p3
309.48 59.65 0.57 c p3
309.45 59.66 0.57 c p3
309.38 59.67 0.57 c p3
309.34 59.67 0.57 c p3
309.19 59.69 0.57 c p3
309.01 59.69 0.57 c p3
308.93 59.70 0.57 c p3
308.78 59.71 0.57 c p3
308.74 59.71 0.57 c p3
308.62 59.72 0.57 c p3
308.50 59.73 0.57 c p3
308.37 59.74 0.57 c p3
308.29 59.75 0.57 c p3
308.20 59.75 0.57 c p3
308.12 59.76 0.57 c p3
307.94 59.77 0.57 c p3
307.81 59.78 0.57 c p3
307.76 59.79 0.57 c p3
307.20 59.81 0.57 c p3
307.15 59.82 0.57 c p3
307.00 59.83 0.57 c p3
306.89 59.84 0.57 c p3
306.84 59.85 0.57 c p3
306.79 59.86 0.57 c p3
306.68 59.87 0.57 c p3
306.63 59.89 0.57 c p3
306.52 59.89 0.57 c p3
306.47 59.90 0.57 c p3
306.25 59.91 0.57 c p3
306.19 59.93 0.57 c p3
306.13 59.94 0.57 c p3
306.07 59.95 0.57 c p3
306.02 59.96 0.57 c p3
305.96 59.98 0.57 c p3
305.90 59.99 0.57 c p3
305.84 60.00 0.57 c p3
305.66 60.02 0.57 c p3
305.47 60.02 0.57 c p3
305.41 60.03 0.57 c p3
305.28 60.05 0.57 c p3
305.21 60.07 0.57 c p3
305.08 60.08 0.57 c p3
305.01 60.10 0.57 c p3
304.94 60.12 0.57 c p3
304.87 60.13 0.57 c p3
304.59 60.15 0.57 c p3
304.52 60.16 0.57 c p3
304.45 60.19 0.57 c p3
304.37 60.20 0.57 c p3
304.30 60.22 0.57 c p3
304.15 60.23 0.57 c p3
304.07 60.26 0.57 c p3
303.99 60.29 0.57 c p3
303.91 60.31 0.57 c p3
303.83 60.33 0.57 c p3
303.75 60.33 0.57 c p3
303.67 60.35 0.57 c p3
303.59 60.40 0.57 c p3
303.50 60.41 0.57 c p3
303.33 60.42 0.57 c p3
303.25 60.44 0.57 c p3
303.16 60.45 0.57 c p3
303.07 60.47 0.57 c p3
302.98 60.51 0.57 c p3
302.89 60.54 0.57 c p3
302.80 60.56 0.57 c p3
302.70 60.58 0.57 c p3
302.61 60.59 0.57 c p3
302.51 60.60 0.57 c p3
302.41 60.62 0.57 c p3
302.21 60.66 0.57 c p3
302.11 60.68 0.57 c p3
302.01 60.70 0.57 c p3
301.90 60.71 0.57 c p3
301.79 60.72 0.57 c p3
301.69 60.74 0.57 c p3
301.57 60.75 0.57 c p3
301.46 60.83 0.57 c p3
301.35 60.85 0.57 c p3
301.23 60.89 0.57 c p3
301.11 60.94 0.57 c p3
300.99 60.98 0.57 c p3
300.87 60.99 0.57 c p3
300.75 61.05 0.57 c p3
300.62 61.10 0.57 c p3
300.49 61.17 0.57 c p3
300.36 61.22 0.57 c p3
300.23 61.27 0.57 c p3
300.09 61.32 0.57 c p3
299.95 61.36 0.57 c p3
299.81 61.43 0.57 c p3
299.66 61.49 0.57 c p3
299.51 61.53 0.57 c p3
299.36 61.58 0.57 c p3
299.21 61.65 0.57 c p3
299.05 61.71 0.57 c p3
298.89 61.79 0.57 c p3
298.72 61.84 0.57 c p3
298.55 61.90 0.57 c p3
298.38 62.01 0.57 c p3
298.20 62.07 0.57 c p3
298.01 62.12 0.57 c p3
297.82 62.22 0.57 c p3
297.63 62.30 0.57 c p3
297.43 62.36 0.57 c p3
297.22 62.43 0.57 c p3
297.01 62.54 0.57 c p3
296.79 62.70 0.57 c p3
296.56 62.83 0.57 c p3
296.33 63.00 0.57 c p3
296.09 63.17 0.57 c p3
295.84 63.37 0.57 c p3
295.58 63.52 0.57 c p3
295.31 63.73 0.57 c p3
295.02 63.96 0.57 c p3
294.73 64.18 0.57 c p3
294.42 64.41 0.57 c p3
294.10 64.61 0.57 c p3
293.77 64.89 0.57 c p3
293.41 65.19 0.57 c p3
293.04 65.54 0.57 c p3
292.64 65.95 0.57 c p3
292.23 66.45 0.57 c p3
291.78 66.89 0.57 c p3
291.30 67.59 0.57 c p3
290.79 68.23 0.57 c p3
290.24 69.02 0.57 c p3
289.64 69.87 0.57 c p3
288.98 71.05 0.57 c p3
288.25 72.50 0.57 c p3
287.44 74.20 0.57 c p3
286.52 76.27 0.57 c p3
285.46 79.05 0.57 c p3
284.20 83.07 0.57 c p3
282.66 88.81 0.57 c p3
280.67 97.85 0.57 c p3
277.87 114.10 0.57 c p3
273.09 152.94 0.57 c p3
0.4980 0.4980 0.4980 srgb
1.07 setlinewidth
[] 0 setdash
268.41 54.65 102.98 102.98 r p1
0.00 0.00 595.28 198.43 cl
377.36 54.65 480.34 157.63 cl
/bg { 1 1 1 srgb } def
377.36 54.65 102.98 102.98 r p2
0.9804 0.9804 0.9804 srgb
1.07 setlinewidth
[] 0 setdash
0 setlinecap
1 setlinejoin
10.00 setmiterlimit
np
377.36 71.03 m
102.98 0 l
o
np
377.36 94.43 m
102.98 0 l
o
np
377.36 117.84 m
102.98 0 l
o
np
377.36 141.24 m
102.98 0 l
o
np
382.05 54.65 m
0 102.98 l
o
np
413.83 54.65 m
0 102.98 l
o
np
445.61 54.65 m
0 102.98 l
o
np
477.40 54.65 m
0 102.98 l
o
0.8980 0.8980 0.8980 srgb
0.43 setlinewidth
[] 0 setdash
np
377.36 59.33 m
102.98 0 l
o
np
377.36 82.73 m
102.98 0 l
o
np
377.36 106.14 m
102.98 0 l
o
np
377.36 129.54 m
102.98 0 l
o
np
377.36 152.94 m
102.98 0 l
o
np
397.94 54.65 m
0 102.98 l
o
np
429.72 54.65 m
0 102.98 l
o
np
461.50 54.65 m
0 102.98 l
o
/bg { 0 0 0 srgb } def
0 0 0 srgb
0.71 setlinewidth
[] 0 setdash
1 setlinecap
461.02 59.33 0.57 c p3
452.00 59.33 0.57 c p3
451.98 59.34 0.57 c p3
449.73 59.34 0.57 c p3
449.35 59.34 0.57 c p3
447.31 59.35 0.57 c p3
446.32 59.35 0.57 c p3
445.62 59.35 0.57 c p3
444.84 59.36 0.57 c p3
444.54 59.36 0.57 c p3
444.39 59.36 0.57 c p3
443.92 59.37 0.57 c p3
443.67 59.37 0.57 c p3
443.18 59.37 0.57 c p3
443.02 59.37 0.57 c p3
442.26 59.38 0.57 c p3
442.25 59.38 0.57 c p3
441.75 59.38 0.57 c p3
441.64 59.39 0.57 c p3
441.54 59.39 0.57 c p3
441.53 59.39 0.57 c p3
441.18 59.40 0.57 c p3
440.68 59.40 0.57 c p3
440.55 59.40 0.57 c p3
440.40 59.41 0.57 c p3
440.30 59.41 0.57 c p3
440.24 59.41 0.57 c p3
440.23 59.41 0.57 c p3
440.20 59.42 0.57 c p3
440.04 59.42 0.57 c p3
439.99 59.42 0.57 c p3
439.98 59.43 0.57 c p3
439.96 59.43 0.57 c p3
439.94 59.43 0.57 c p3
439.88 59.44 0.57 c p3
439.55 59.44 0.57 c p3
439.38 59.44 0.57 c p3
439.28 59.45 0.57 c p3
439.02 59.45 0.57 c p3
439.01 59.45 0.57 c p3
439.00 59.45 0.57 c p3
438.90 59.46 0.57 c p3
438.85 59.46 0.57 c p3
438.79 59.46 0.57 c p3
438.63 59.47 0.57 c p3
438.61 59.47 0.57 c p3
438.54 59.47 0.57 c p3
438.51 59.48 0.57 c p3
438.48 59.48 0.57 c p3
438.46 59.49 0.57 c p3
438.42 59.49 0.57 c p3
438.28 59.49 0.57 c p3
438.19 59.49 0.57 c p3
438.02 59.50 0.57 c p3
437.98 59.50 0.57 c p3
437.96 59.50 0.57 c p3
437.57 59.51 0.57 c p3
437.50 59.51 0.57 c p3
437.43 59.51 0.57 c p3
437.39 59.52 0.57 c p3
437.37 59.52 0.57 c p3
437.34 59.52 0.57 c p3
437.29 59.53 0.57 c p3
437.09 59.53 0.57 c p3
436.85 59.53 0.57 c p3
436.76 59.54 0.57 c p3
436.71 59.54 0.57 c p3
436.71 59.54 0.57 c p3
436.66 59.55 0.57 c p3
436.65 59.55 0.57 c p3
436.64 59.55 0.57 c p3
436.59 59.56 0.57 c p3
436.40 59.56 0.57 c p3
436.39 59.56 0.57 c p3
436.36 59.57 0.57 c p3
436.23 59.57 0.57 c p3
436.23 59.57 0.57 c p3
436.15 59.57 0.57 c p3
436.03 59.58 0.57 c p3
435.89 59.58 0.57 c p3
435.82 59.58 0.57 c p3
435.79 59.59 0.57 c p3
435.74 59.59 0.57 c p3
435.69 59.59 0.57 c p3
435.60 59.60 0.57 c p3
435.53 59.60 0.57 c p3
435.52 59.60 0.57 c p3
435.48 59.61 0.57 c p3
435.47 59.61 0.57 c p3
435.34 59.61 0.57 c p3
435.27 59.62 0.57 c p3
435.26 59.62 0.57 c p3
435.14 59.62 0.57 c p3
435.04 59.62 0.57 c p3
435.03 59.63 0.57 c p3
435.03 59.63 0.57 c p3
434.99 59.63 0.57 c p3
434.97 59.64 0.57 c p3
434.95 59.64 0.57 c p3
434.94 59.64 0.57 c p3
434.94 59.65 0.57 c p3
434.79 59.65 0.57 c p3
434.73 59.65 0.57 c p3
434.70 59.66 0.57 c p3
434.63 59.66 0.57 c p3
434.61 59.66 0.57 c p3
434.55 59.66 0.57 c p3
434.53 59.67 0.57 c p3
434.44 59.67 0.57 c p3
434.44 59.67 0.57 c p3
434.29 59.68 0.57 c p3
434.26 59.68 0.57 c p3
433.99 59.68 0.57 c p3
433.96 59.69 0.57 c p3
433.83 59.69 0.57 c p3
433.78 59.69 0.57 c p3
433.77 59.70 0.57 c p3
433.76 59.70 0.57 c p3
433.70 59.70 0.57 c p3
433.61 59.70 0.57 c p3
433.60 59.71 0.57 c p3
433.58 59.71 0.57 c p3
433.51 59.71 0.57 c p3
433.46 59.72 0.57 c p3
433.45 59.72 0.57 c p3
433.42 59.72 0.57 c p3
433.35 59.73 0.57 c p3
433.25 59.73 0.57 c p3
433.15 59.73 0.57 c p3
433.06 59.74 0.57 c p3
433.00 59.74 0.57 c p3
432.91 59.74 0.57 c p3
432.86 59.74 0.57 c p3
432.83 59.75 0.57 c p3
432.75 59.75 0.57 c p3
432.73 59.75 0.57 c p3
432.71 59.76 0.57 c p3
432.56 59.76 0.57 c p3
432.55 59.77 0.57 c p3
432.53 59.77 0.57 c p3
432.52 59.78 0.57 c p3
432.46 59.78 0.57 c p3
432.41 59.78 0.57 c p3
432.40 59.78 0.57 c p3
432.37 59.79 0.57 c p3
432.33 59.79 0.57 c p3
432.27 59.79 0.57 c p3
432.26 59.80 0.57 c p3
432.20 59.80 0.57 c p3
432.19 59.80 0.57 c p3
432.10 59.81 0.57 c p3
432.07 59.81 0.57 c p3
431.96 59.81 0.57 c p3
431.89 59.82 0.57 c p3
431.78 59.82 0.57 c p3
431.77 59.82 0.57 c p3
431.69 59.83 0.57 c p3
431.68 59.83 0.57 c p3
431.67 59.83 0.57 c p3
431.63 59.84 0.57 c p3
431.56 59.84 0.57 c p3
431.56 59.84 0.57 c p3
431.53 59.85 0.57 c p3
431.48 59.85 0.57 c p3
431.45 59.86 0.57 c p3
431.41 59.86 0.57 c p3
431.38 59.86 0.57 c p3
431.38 59.87 0.57 c p3
431.37 59.87 0.57 c p3
431.34 59.87 0.57 c p3
431.27 59.88 0.57 c p3
431.26 59.88 0.57 c p3
431.24 59.88 0.57 c p3
431.23 59.89 0.57 c p3
431.21 59.89 0.57 c p3
431.19 59.89 0.57 c p3
431.12 59.90 0.57 c p3
431.06 59.90 0.57 c p3
431.05 59.90 0.57 c p3
431.00 59.91 0.57 c p3
430.99 59.91 0.57 c p3
430.97 59.91 0.57 c p3
430.91 59.92 0.57 c p3
430.82 59.92 0.57 c p3
430.75 59.93 0.57 c p3
430.70 59.93 0.57 c p3
430.67 59.93 0.57 c p3
430.62 59.94 0.57 c p3
430.56 59.94 0.57 c p3
430.56 59.94 0.57 c p3
430.51 59.95 0.57 c p3
430.48 59.95 0.57 c p3
430.39 59.95 0.57 c p3
430.38 59.96 0.57 c p3
430.33 59.96 0.57 c p3
430.32 59.96 0.57 c p3
430.30 59.97 0.57 c p3
430.27 59.97 0.57 c p3
430.23 59.97 0.57 c p3
430.19 59.98 0.57 c p3
430.18 59.98 0.57 c p3
430.15 59.99 0.57 c p3
430.11 59.99 0.57 c p3
430.07 59.99 0.57 c p3
430.05 59.99 0.57 c p3
430.03 60.00 0.57 c p3
429.99 60.00 0.57 c p3
429.98 60.00 0.57 c p3
429.95 60.01 0.57 c p3
429.95 60.01 0.57 c p3
429.91 60.01 0.57 c p3
429.89 60.02 0.57 c p3
429.82 60.02 0.57 c p3
429.68 60.02 0.57 c p3
429.66 60.03 0.57 c p3
429.64 60.03 0.57 c p3
429.57 60.03 0.57 c p3
429.45 60.03 0.57 c p3
429.42 60.04 0.57 c p3
429.34 60.04 0.57 c p3
429.31 60.04 0.57 c p3
429.28 60.05 0.57 c p3
429.24 60.05 0.57 c p3
429.16 60.06 0.57 c p3
429.11 60.06 0.57 c p3
429.09 60.07 0.57 c p3
429.03 60.07 0.57 c p3
429.02 60.07 0.57 c p3
428.99 60.08 0.57 c p3
428.97 60.08 0.57 c p3
428.92 60.09 0.57 c p3
428.91 60.09 0.57 c p3
428.85 60.10 0.57 c p3
428.84 60.10 0.57 c p3
428.82 60.10 0.57 c p3
428.79 60.11 0.57 c p3
428.78 60.11 0.57 c p3
428.77 60.11 0.57 c p3
428.76 60.11 0.57 c p3
428.66 60.12 0.57 c p3
428.58 60.12 0.57 c p3
428.55 60.12 0.57 c p3
428.53 60.13 0.57 c p3
428.52 60.13 0.57 c p3
428.48 60.13 0.57 c p3
428.47 60.14 0.57 c p3
428.42 60.14 0.57 c p3
428.38 60.15 0.57 c p3
428.35 60.15 0.57 c p3
428.32 60.15 0.57 c p3
428.31 60.16 0.57 c p3
428.27 60.16 0.57 c p3
428.25 60.16 0.57 c p3
428.23 60.17 0.57 c p3
428.19 60.17 0.57 c p3
428.18 60.18 0.57 c p3
428.16 60.18 0.57 c p3
428.15 60.19 0.57 c p3
428.14 60.19 0.57 c p3
428.13 60.20 0.57 c p3
428.10 60.21 0.57 c p3
428.09 60.21 0.57 c p3
428.06 60.22 0.57 c p3
428.05 60.22 0.57 c p3
428.02 60.22 0.57 c p3
428.00 60.23 0.57 c p3
427.95 60.23 0.57 c p3
427.94 60.23 0.57 c p3
427.85 60.23 0.57 c p3
427.84 60.24 0.57 c p3
427.79 60.25 0.57 c p3
427.76 60.25 0.57 c p3
427.73 60.26 0.57 c p3
427.70 60.26 0.57 c p3
427.68 60.26 0.57 c p3
427.67 60.27 0.57 c p3
427.66 60.27 0.57 c p3
427.63 60.27 0.57 c p3
427.57 60.28 0.57 c p3
427.56 60.28 0.57 c p3
427.51 60.28 0.57 c p3
427.43 60.29 0.57 c p3
427.39 60.29 0.57 c p3
427.37 60.29 0.57 c p3
427.31 60.30 0.57 c p3
427.27 60.31 0.57 c p3
427.23 60.31 0.57 c p3
427.22 60.32 0.57 c p3
427.17 60.32 0.57 c p3
427.15 60.32 0.57 c p3
427.13 60.32 0.57 c p3
427.12 60.33 0.57 c p3
427.10 60.33 0.57 c p3
427.09 60.33 0.57 c p3
427.08 60.34 0.57 c p3
427.06 60.35 0.57 c p3
427.02 60.36 0.57 c p3
426.97 60.36 0.57 c p3
426.95 60.36 0.57 c p3
426.93 60.36 0.57 c p3
426.90 60.37 0.57 c p3
426.86 60.37 0.57 c p3
426.83 60.37 0.57 c p3
426.82 60.38 0.57 c p3
426.79 60.38 0.57 c p3
426.77 60.39 0.57 c p3
426.76 60.39 0.57 c p3
426.75 60.39 0.57 c p3
426.74 60.40 0.57 c p3
426.73 60.40 0.57 c p3
426.72 60.40 0.57 c p3
426.71 60.40 0.57 c p3
426.69 60.41 0.57 c p3
426.67 60.41 0.57 c p3
426.64 60.42 0.57 c p3
426.62 60.42 0.57 c p3
426.61 60.43 0.57 c p3
426.59 60.43 0.57 c p3
426.55 60.43 0.57 c p3
426.53 60.44 0.57 c p3
426.46 60.44 0.57 c p3
426.43 60.44 0.57 c p3
426.42 60.44 0.57 c p3
426.41 60.45 0.57 c p3
426.37 60.46 0.57 c p3
426.31 60.46 0.57 c p3
426.30 60.46 0.57 c p3
426.28 60.47 0.57 c p3
426.25 60.47 0.57 c p3
426.23 60.47 0.57 c p3
426.20 60.48 0.57 c p3
426.16 60.48 0.57 c p3
426.14 60.48 0.57 c p3
426.11 60.48 0.57 c p3
426.10 60.49 0.57 c p3
426.09 60.49 0.57 c p3
426.07 60.50 0.57 c p3
426.02 60.50 0.57 c p3
425.97 60.51 0.57 c p3
425.96 60.52 0.57 c p3
425.94 60.52 0.57 c p3
425.93 60.52 0.57 c p3
425.91 60.53 0.57 c p3
425.89 60.54 0.57 c p3
425.77 60.54 0.57 c p3
425.74 60.54 0.57 c p3
425.72 60.55 0.57 c p3
425.71 60.55 0.57 c p3
425.68 60.56 0.57 c p3
425.66 60.56 0.57 c p3
425.65 60.56 0.57 c p3
425.63 60.57 0.57 c p3
425.61 60.57 0.57 c p3
425.60 60.58 0.57 c p3
425.58 60.58 0.57 c p3
425.56 60.59 0.57 c p3
425.53 60.60 0.57 c p3
425.51 60.60 0.57 c p3
425.49 60.60 0.57 c p3
425.46 60.61 0.57 c p3
425.44 60.61 0.57 c p3
425.42 60.61 0.57 c p3
425.40 60.62 0.57 c p3
425.38 60.62 0.57 c p3
425.34 60.63 0.57 c p3
425.33 60.63 0.57 c p3
425.31 60.64 0.57 c p3
425.29 60.64 0.57 c p3
425.27 60.64 0.57 c p3
425.26 60.65 0.57 c p3
425.23 60.65 0.57 c p3
425.17 60.65 0.57 c p3
425.14 60.66 0.57 c p3
425.06 60.66 0.57 c p3
425.02 60.66 0.57 c p3
424.98 60.67 0.57 c p3
424.96 60.67 0.57 c p3
424.94 60.68 0.57 c p3
424.90 60.68 0.57 c p3
424.84 60.68 0.57 c p3
424.83 60.69 0.57 c p3
424.80 60.69 0.57 c p3
424.77 60.70 0.57 c p3
424.74 60.70 0.57 c p3
424.71 60.71 0.57 c p3
424.67 60.71 0.57 c p3
424.66 60.72 0.57 c p3
424.64 60.72 0.57 c p3
424.61 60.73 0.57 c p3
424.60 60.73 0.57 c p3
424.58 60.73 0.57 c p3
424.57 60.74 0.57 c p3
424.50 60.74 0.57 c p3
424.48 60.75 0.57 c p3
424.47 60.75 0.57 c p3
424.44 60.76 0.57 c p3
424.39 60.76 0.57 c p3
424.38 60.77 0.57 c p3
424.36 60.77 0.57 c p3
424.33 60.77 0.57 c p3
424.32 60.78 0.57 c p3
424.30 60.78 0.57 c p3
424.29 60.78 0.57 c p3
424.27 60.79 0.57 c p3
424.24 60.79 0.57 c p3
424.23 60.79 0.57 c p3
424.19 60.80 0.57 c p3
424.18 60.80 0.57 c p3
424.16 60.81 0.57 c p3
424.15 60.81 0.57 c p3
424.13 60.81 0.57 c p3
424.09 60.82 0.57 c p3
424.07 60.82 0.57 c p3
424.05 60.83 0.57 c p3
424.02 60.84 0.57 c p3
424.01 60.85 0.57 c p3
423.98 60.85 0.57 c p3
423.96 60.85 0.57 c p3
423.94 60.86 0.57 c p3
423.93 60.86 0.57 c p3
423.91 60.86 0.57 c p3
423.88 60.87 0.57 c p3
423.86 60.88 0.57 c p3
423.85 60.89 0.57 c p3
423.82 60.89 0.57 c p3
423.78 60.89 0.57 c p3
423.77 60.89 0.57 c p3
423.72 60.90 0.57 c p3
423.70 60.91 0.57 c p3
423.68 60.91 0.57 c p3
423.65 60.92 0.57 c p3
423.60 60.93 0.57 c p3
423.58 60.93 0.57 c p3
423.57 60.93 0.57 c p3
423.55 60.94 0.57 c p3
423.53 60.94 0.57 c p3
423.50 60.95 0.57 c p3
423.41 60.95 0.57 c p3
423.36 60.96 0.57 c p3
423.35 60.96 0.57 c p3
423.31 60.97 0.57 c p3
423.29 60.98 0.57 c p3
423.28 60.98 0.57 c p3
423.26 60.99 0.57 c p3
423.24 61.00 0.57 c p3
423.22 61.00 0.57 c p3
423.20 61.00 0.57 c p3
423.15 61.01 0.57 c p3
423.13 61.01 0.57 c p3
423.12 61.02 0.57 c p3
423.08 61.02 0.57 c p3
423.04 61.03 0.57 c p3
423.01 61.04 0.57 c p3
422.99 61.05 0.57 c p3
422.97 61.05 0.57 c p3
422.95 61.06 0.57 c p3
422.93 61.06 0.57 c p3
422.88 61.06 0.57 c p3
422.86 61.07 0.57 c p3
422.84 61.07 0.57 c p3
422.82 61.08 0.57 c p3
422.80 61.08 0.57 c p3
422.77 61.08 0.57 c p3
422.75 61.09 0.57 c p3
422.73 61.09 0.57 c p3
422.67 61.10 0.57 c p3
422.65 61.10 0.57 c p3
422.61 61.10 0.57 c p3
422.59 61.11 0.57 c p3
422.57 61.11 0.57 c p3
422.55 61.12 0.57 c p3
422.53 61.12 0.57 c p3
422.51 61.13 0.57 c p3
422.50 61.14 0.57 c p3
422.48 61.14 0.57 c p3
422.46 61.14 0.57 c p3
422.44 61.15 0.57 c p3
422.42 61.15 0.57 c p3
422.38 61.16 0.57 c p3
422.36 61.18 0.57 c p3
422.34 61.18 0.57 c p3
422.32 61.18 0.57 c p3
422.30 61.18 0.57 c p3
422.28 61.19 0.57 c p3
422.21 61.20 0.57 c p3
422.19 61.21 0.57 c p3
422.17 61.21 0.57 c p3
422.15 61.22 0.57 c p3
422.13 61.22 0.57 c p3
422.11 61.22 0.57 c p3
422.09 61.23 0.57 c p3
422.07 61.24 0.57 c p3
422.05 61.24 0.57 c p3
422.03 61.25 0.57 c p3
421.99 61.26 0.57 c p3
421.96 61.26 0.57 c p3
421.94 61.26 0.57 c p3
421.92 61.27 0.57 c p3
421.90 61.27 0.57 c p3
421.88 61.28 0.57 c p3
421.86 61.28 0.57 c p3
421.84 61.30 0.57 c p3
421.81 61.30 0.57 c p3
421.79 61.31 0.57 c p3
421.77 61.32 0.57 c p3
421.75 61.33 0.57 c p3
421.73 61.33 0.57 c p3
421.70 61.34 0.57 c p3
421.68 61.35 0.57 c p3
421.64 61.35 0.57 c p3
421.62 61.36 0.57 c p3
421.59 61.36 0.57 c p3
421.57 61.37 0.57 c p3
421.55 61.38 0.57 c p3
421.50 61.39 0.57 c p3
421.48 61.39 0.57 c p3
421.46 61.39 0.57 c p3
421.43 61.40 0.57 c p3
421.41 61.41 0.57 c p3
421.39 61.41 0.57 c p3
421.37 61.42 0.57 c p3
421.34 61.42 0.57 c p3
421.32 61.43 0.57 c p3
421.30 61.43 0.57 c p3
421.27 61.44 0.57 c p3
421.25 61.45 0.57 c p3
421.23 61.45 0.57 c p3
421.20 61.46 0.57 c p3
421.18 61.46 0.57 c p3
421.15 61.48 0.57 c p3
421.13 61.48 0.57 c p3
421.11 61.49 0.57 c p3
421.01 61.49 0.57 c p3
420.98 61.50 0.57 c p3
420.96 61.51 0.57 c p3
420.94 61.52 0.57 c p3
420.91 61.53 0.57 c p3
420.89 61.53 0.57 c p3
420.86 61.54 0.57 c p3
420.84 61.55 0.57 c p3
420.81 61.55 0.57 c p3
420.79 61.56 0.57 c p3
420.76 61.56 0.57 c p3
420.71 61.57 0.57 c p3
420.68 61.57 0.57 c p3
420.66 61.58 0.57 c p3
420.63 61.59 0.57 c p3
420.61 61.59 0.57 c p3
420.58 61.61 0.57 c p3
420.56 61.61 0.57 c p3
420.53 61.62 0.57 c p3
420.50 61.63 0.57 c p3
420.48 61.63 0.57 c p3
420.45 61.64 0.57 c p3
420.42 61.65 0.57 c p3
420.40 61.66 0.57 c p3
420.37 61.67 0.57 c p3
420.34 61.68 0.57 c p3
420.32 61.69 0.57 c p3
420.29 61.69 0.57 c p3
420.26 61.70 0.57 c p3
420.24 61.71 0.57 c p3
420.21 61.72 0.57 c p3
420.18 61.72 0.57 c p3
420.15 61.73 0.57 c p3
420.13 61.74 0.57 c p3
420.10 61.75 0.57 c p3
420.07 61.76 0.57 c p3
420.04 61.76 0.57 c p3
420.01 61.77 0.57 c p3
419.96 61.78 0.57 c p3
419.93 61.79 0.57 c p3
419.90 61.80 0.57 c p3
419.87 61.82 0.57 c p3
419.84 61.83 0.57 c p3
419.81 61.83 0.57 c p3
419.78 61.84 0.57 c p3
419.76 61.85 0.57 c p3
419.73 61.86 0.57 c p3
419.70 61.87 0.57 c p3
419.67 61.87 0.57 c p3
419.64 61.88 0.57 c p3
419.61 61.89 0.57 c p3
419.58 61.90 0.57 c p3
419.52 61.90 0.57 c p3
419.49 61.91 0.57 c p3
419.46 61.93 0.57 c p3
419.43 61.93 0.57 c p3
419.40 61.94 0.57 c p3
419.36 61.96 0.57 c p3
419.33 61.97 0.57 c p3
419.30 61.97 0.57 c p3
419.27 61.98 0.57 c p3
419.24 61.99 0.57 c p3
419.21 61.99 0.57 c p3
419.18 62.00 0.57 c p3
419.14 62.01 0.57 c p3
419.11 62.01 0.57 c p3
419.08 62.01 0.57 c p3
419.05 62.02 0.57 c p3
419.02 62.03 0.57 c p3
418.98 62.04 0.57 c p3
418.95 62.05 0.57 c p3
418.92 62.05 0.57 c p3
418.88 62.08 0.57 c p3
418.85 62.09 0.57 c p3
418.78 62.10 0.57 c p3
418.75 62.10 0.57 c p3
418.72 62.11 0.57 c p3
418.68 62.12 0.57 c p3
418.65 62.13 0.57 c p3
418.61 62.13 0.57 c p3
418.58 62.16 0.57 c p3
418.54 62.19 0.57 c p3
418.51 62.20 0.57 c p3
418.47 62.22 0.57 c p3
418.44 62.23 0.57 c p3
418.40 62.24 0.57 c p3
418.37 62.25 0.57 c p3
418.33 62.27 0.57 c p3
418.30 62.27 0.57 c p3
418.26 62.28 0.57 c p3
418.22 62.28 0.57 c p3
418.19 62.30 0.57 c p3
418.15 62.31 0.57 c p3
418.11 62.32 0.57 c p3
418.08 62.33 0.57 c p3
418.04 62.35 0.57 c p3
418.00 62.36 0.57 c p3
417.96 62.37 0.57 c p3
417.92 62.38 0.57 c p3
417.89 62.41 0.57 c p3
417.85 62.42 0.57 c p3
417.81 62.43 0.57 c p3
417.77 62.46 0.57 c p3
417.73 62.46 0.57 c p3
417.69 62.48 0.57 c p3
417.65 62.49 0.57 c p3
417.61 62.50 0.57 c p3
417.57 62.50 0.57 c p3
417.53 62.54 0.57 c p3
417.49 62.55 0.57 c p3
417.45 62.57 0.57 c p3
417.41 62.59 0.57 c p3
417.37 62.60 0.57 c p3
417.33 62.62 0.57 c p3
417.29 62.64 0.57 c p3
417.24 62.66 0.57 c p3
417.20 62.67 0.57 c p3
417.16 62.68 0.57 c p3
417.12 62.70 0.57 c p3
417.07 62.72 0.57 c p3
417.03 62.73 0.57 c p3
416.99 62.75 0.57 c p3
416.94 62.77 0.57 c p3
416.90 62.78 0.57 c p3
416.85 62.81 0.57 c p3
416.81 62.84 0.57 c p3
416.76 62.85 0.57 c p3
416.72 62.87 0.57 c p3
416.67 62.89 0.57 c p3
416.63 62.92 0.57 c p3
416.58 62.93 0.57 c p3
416.54 62.94 0.57 c p3
416.49 62.96 0.57 c p3
416.44 62.97 0.57 c p3
416.39 62.99 0.57 c p3
416.35 63.01 0.57 c p3
416.30 63.03 0.57 c p3
416.25 63.05 0.57 c p3
416.20 63.07 0.57 c p3
416.15 63.08 0.57 c p3
416.10 63.10 0.57 c p3
416.05 63.12 0.57 c p3
416.00 63.13 0.57 c p3
415.95 63.15 0.57 c p3
415.90 63.16 0.57 c p3
415.85 63.17 0.57 c p3
415.80 63.19 0.57 c p3
415.75 63.23 0.57 c p3
415.69 63.25 0.57 c p3
415.64 63.28 0.57 c p3
415.59 63.29 0.57 c p3
415.53 63.32 0.57 c p3
415.48 63.33 0.57 c p3
415.42 63.34 0.57 c p3
415.37 63.36 0.57 c p3
415.31 63.39 0.57 c p3
415.26 63.42 0.57 c p3
415.20 63.43 0.57 c p3
415.14 63.45 0.57 c p3
415.09 63.46 0.57 c p3
415.03 63.46 0.57 c p3
414.97 63.49 0.57 c p3
414.91 63.51 0.57 c p3
414.85 63.56 0.57 c p3
414.79 63.59 0.57 c p3
414.73 63.62 0.57 c p3
414.67 63.64 0.57 c p3
414.61 63.67 0.57 c p3
414.55 63.71 0.57 c p3
414.49 63.72 0.57 c p3
414.42 63.74 0.57 c p3
414.36 63.80 0.57 c p3
414.30 63.83 0.57 c p3
414.23 63.86 0.57 c p3
414.17 63.90 0.57 c p3
414.10 63.93 0.57 c p3
414.03 63.97 0.57 c p3
413.97 64.01 0.57 c p3
413.90 64.04 0.57 c p3
413.83 64.08 0.57 c p3
413.76 64.12 0.57 c p3
413.69 64.14 0.57 c p3
413.62 64.17 0.57 c p3
413.55 64.20 0.57 c p3
413.48 64.24 0.57 c p3
413.40 64.27 0.57 c p3
413.33 64.30 0.57 c p3
413.25 64.36 0.57 c p3
413.18 64.40 0.57 c p3
413.10 64.43 0.57 c p3
413.03 64.45 0.57 c p3
412.95 64.50 0.57 c p3
412.87 64.55 0.57 c p3
412.79 64.59 0.57 c p3
412.71 64.63 0.57 c p3
412.63 64.68 0.57 c p3
412.54 64.72 0.57 c p3
412.46 64.76 0.57 c p3
412.37 64.80 0.57 c p3
412.29 64.86 0.57 c p3
412.20 64.92 0.57 c p3
412.11 64.98 0.57 c p3
412.03 65.01 0.57 c p3
411.94 65.06 0.57 c p3
411.84 65.12 0.57 c p3
411.75 65.15 0.57 c p3
411.66 65.22 0.57 c p3
411.56 65.28 0.57 c p3
411.47 65.33 0.57 c p3
411.37 65.37 0.57 c p3
411.27 65.44 0.57 c p3
411.17 65.50 0.57 c p3
411.07 65.56 0.57 c p3
410.96 65.62 0.57 c p3
410.86 65.68 0.57 c p3
410.75 65.72 0.57 c p3
410.64 65.78 0.57 c p3
410.53 65.83 0.57 c p3
410.42 65.93 0.57 c p3
410.30 65.99 0.57 c p3
410.19 66.08 0.57 c p3
410.07 66.14 0.57 c p3
409.95 66.22 0.57 c p3
409.83 66.30 0.57 c p3
409.70 66.34 0.57 c p3
409.58 66.41 0.57 c p3
409.45 66.50 0.57 c p3
409.32 66.58 0.57 c p3
409.18 66.65 0.57 c p3
409.05 66.75 0.57 c p3
408.91 66.83 0.57 c p3
408.76 66.94 0.57 c p3
408.62 67.08 0.57 c p3
408.47 67.20 0.57 c p3
408.32 67.37 0.57 c p3
408.16 67.49 0.57 c p3
408.00 67.64 0.57 c p3
407.84 67.78 0.57 c p3
407.68 67.93 0.57 c p3
407.51 68.04 0.57 c p3
407.33 68.17 0.57 c p3
407.15 68.34 0.57 c p3
406.97 68.52 0.57 c p3
406.78 68.68 0.57 c p3
406.58 68.89 0.57 c p3
406.38 69.05 0.57 c p3
406.18 69.24 0.57 c p3
405.97 69.43 0.57 c p3
405.75 69.59 0.57 c p3
405.52 69.79 0.57 c p3
405.29 69.98 0.57 c p3
405.04 70.20 0.57 c p3
404.79 70.48 0.57 c p3
404.53 70.75 0.57 c p3
404.26 71.06 0.57 c p3
403.98 71.42 0.57 c p3
403.69 71.71 0.57 c p3
403.38 72.09 0.57 c p3
403.06 72.53 0.57 c p3
402.72 72.96 0.57 c p3
402.37 73.46 0.57 c p3
401.99 73.98 0.57 c p3
401.60 74.54 0.57 c p3
401.18 75.10 0.57 c p3
400.74 75.76 0.57 c p3
400.26 76.46 0.57 c p3
399.75 77.38 0.57 c p3
399.20 78.30 0.57 c p3
398.60 79.40 0.57 c p3
397.94 80.77 0.57 c p3
397.21 82.30 0.57 c p3
396.40 84.00 0.57 c p3
395.48 86.14 0.57 c p3
394.41 88.69 0.57 c p3
393.15 92.10 0.57 c p3
391.61 96.88 0.57 c p3
389.63 104.51 0.57 c p3
386.83 118.07 0.57 c p3
382.05 152.94 0.57 c p3
0.4980 0.4980 0.4980 srgb
1.07 setlinewidth
[] 0 setdash
377.36 54.65 102.98 102.98 r p1
0.00 0.00 595.28 198.43 cl
486.32 54.65 589.30 157.63 cl
/bg { 1 1 1 srgb } def
486.32 54.65 102.98 102.98 r p2
0.9804 0.9804 0.9804 srgb
1.07 setlinewidth
[] 0 setdash
0 setlinecap
1 setlinejoin
10.00 setmiterlimit
np
486.32 71.03 m
102.98 0 l
o
np
486.32 94.43 m
102.98 0 l
o
np
486.32 117.84 m
102.98 0 l
o
np
486.32 141.24 m
102.98 0 l
o
np
491.00 54.65 m
0 102.98 l
o
np
522.78 54.65 m
0 102.98 l
o
np
554.57 54.65 m
0 102.98 l
o
np
586.35 54.65 m
0 102.98 l
o
0.8980 0.8980 0.8980 srgb
0.43 setlinewidth
[] 0 setdash
np
486.32 59.33 m
102.98 0 l
o
np
486.32 82.73 m
102.98 0 l
o
np
486.32 106.14 m
102.98 0 l
o
np
486.32 129.54 m
102.98 0 l
o
np
486.32 152.94 m
102.98 0 l
o
np
506.89 54.65 m
0 102.98 l
o
np
538.68 54.65 m
0 102.98 l
o
np
570.46 54.65 m
0 102.98 l
o
/bg { 0 0 0 srgb } def
0 0 0 srgb
0.71 setlinewidth
[] 0 setdash
1 setlinecap
584.62 59.33 0.57 c p3
554.98 59.33 0.57 c p3
552.94 59.33 0.57 c p3
551.20 59.33 0.57 c p3
550.56 59.33 0.57 c p3
550.37 59.33 0.57 c p3
549.86 59.33 0.57 c p3
549.42 59.33 0.57 c p3
548.65 59.33 0.57 c p3
548.60 59.33 0.57 c p3
548.35 59.33 0.57 c p3
547.45 59.33 0.57 c p3
547.24 59.33 0.57 c p3
547.17 59.33 0.57 c p3
547.11 59.33 0.57 c p3
547.04 59.33 0.57 c p3
546.29 59.33 0.57 c p3
546.28 59.33 0.57 c p3
545.62 59.33 0.57 c p3
545.55 59.33 0.57 c p3
545.39 59.33 0.57 c p3
545.11 59.33 0.57 c p3
544.99 59.33 0.57 c p3
544.51 59.33 0.57 c p3
544.46 59.34 0.57 c p3
543.99 59.34 0.57 c p3
543.53 59.34 0.57 c p3
543.44 59.34 0.57 c p3
543.28 59.34 0.57 c p3
543.20 59.34 0.57 c p3
543.05 59.34 0.57 c p3
542.90 59.34 0.57 c p3
542.73 59.34 0.57 c p3
542.67 59.34 0.57 c p3
542.58 59.34 0.57 c p3
542.53 59.34 0.57 c p3
542.48 59.34 0.57 c p3
542.45 59.34 0.57 c p3
542.44 59.34 0.57 c p3
542.33 59.34 0.57 c p3
542.31 59.34 0.57 c p3
542.20 59.34 0.57 c p3
542.20 59.34 0.57 c p3
542.15 59.34 0.57 c p3
542.13 59.34 0.57 c p3
542.03 59.34 0.57 c p3
542.02 59.34 0.57 c p3
542.01 59.34 0.57 c p3
542.01 59.34 0.57 c p3
541.92 59.34 0.57 c p3
541.91 59.34 0.57 c p3
541.79 59.34 0.57 c p3
541.77 59.34 0.57 c p3
541.72 59.34 0.57 c p3
541.66 59.34 0.57 c p3
541.42 59.34 0.57 c p3
541.36 59.34 0.57 c p3
541.31 59.34 0.57 c p3
541.21 59.35 0.57 c p3
541.14 59.35 0.57 c p3
541.13 59.35 0.57 c p3
541.08 59.35 0.57 c p3
541.00 59.35 0.57 c p3
540.94 59.35 0.57 c p3
540.85 59.35 0.57 c p3
540.83 59.35 0.57 c p3
540.77 59.35 0.57 c p3
540.74 59.35 0.57 c p3
540.71 59.35 0.57 c p3
540.64 59.35 0.57 c p3
540.63 59.35 0.57 c p3
540.61 59.35 0.57 c p3
540.54 59.35 0.57 c p3
540.53 59.35 0.57 c p3
540.51 59.35 0.57 c p3
540.49 59.35 0.57 c p3
540.44 59.35 0.57 c p3
540.43 59.35 0.57 c p3
540.39 59.35 0.57 c p3
540.36 59.35 0.57 c p3
540.31 59.35 0.57 c p3
540.26 59.35 0.57 c p3
540.21 59.35 0.57 c p3
540.13 59.35 0.57 c p3
540.11 59.35 0.57 c p3
540.04 59.35 0.57 c p3
540.03 59.35 0.57 c p3
540.02 59.35 0.57 c p3
539.92 59.35 0.57 c p3
539.87 59.35 0.57 c p3
539.83 59.36 0.57 c p3
539.80 59.36 0.57 c p3
539.80 59.36 0.57 c p3
539.78 59.36 0.57 c p3
539.74 59.36 0.57 c p3
539.73 59.36 0.57 c p3
539.71 59.36 0.57 c p3
539.71 59.36 0.57 c p3
539.69 59.36 0.57 c p3
539.67 59.36 0.57 c p3
539.60 59.36 0.57 c p3
539.57 59.36 0.57 c p3
539.56 59.36 0.57 c p3
539.55 59.36 0.57 c p3
539.54 59.36 0.57 c p3
539.53 59.36 0.57 c p3
539.53 59.36 0.57 c p3
539.52 59.36 0.57 c p3
539.46 59.36 0.57 c p3
539.45 59.36 0.57 c p3
539.37 59.36 0.57 c p3
539.36 59.36 0.57 c p3
539.34 59.36 0.57 c p3
539.32 59.36 0.57 c p3
539.32 59.36 0.57 c p3
539.30 59.36 0.57 c p3
539.25 59.36 0.57 c p3
539.23 59.36 0.57 c p3
539.19 59.36 0.57 c p3
539.15 59.36 0.57 c p3
539.10 59.36 0.57 c p3
539.05 59.37 0.57 c p3
539.04 59.37 0.57 c p3
539.03 59.37 0.57 c p3
539.02 59.37 0.57 c p3
538.89 59.37 0.57 c p3
538.82 59.37 0.57 c p3
538.81 59.37 0.57 c p3
538.81 59.37 0.57 c p3
538.75 59.37 0.57 c p3
538.68 59.37 0.57 c p3
538.66 59.37 0.57 c p3
538.63 59.37 0.57 c p3
538.60 59.37 0.57 c p3
538.54 59.37 0.57 c p3
538.54 59.37 0.57 c p3
538.52 59.37 0.57 c p3
538.49 59.37 0.57 c p3
538.48 59.37 0.57 c p3
538.46 59.37 0.57 c p3
538.45 59.37 0.57 c p3
538.45 59.37 0.57 c p3
538.42 59.37 0.57 c p3
538.38 59.37 0.57 c p3
538.37 59.37 0.57 c p3
538.34 59.37 0.57 c p3
538.32 59.37 0.57 c p3
538.32 59.37 0.57 c p3
538.30 59.37 0.57 c p3
538.26 59.37 0.57 c p3
538.25 59.37 0.57 c p3
538.23 59.37 0.57 c p3
538.21 59.38 0.57 c p3
538.14 59.38 0.57 c p3
538.11 59.38 0.57 c p3
538.09 59.38 0.57 c p3
538.07 59.38 0.57 c p3
538.06 59.38 0.57 c p3
538.06 59.38 0.57 c p3
538.00 59.38 0.57 c p3
537.98 59.38 0.57 c p3
537.94 59.38 0.57 c p3
537.93 59.38 0.57 c p3
537.90 59.38 0.57 c p3
537.86 59.38 0.57 c p3
537.86 59.38 0.57 c p3
537.84 59.38 0.57 c p3
537.76 59.38 0.57 c p3
537.75 59.38 0.57 c p3
537.74 59.38 0.57 c p3
537.71 59.38 0.57 c p3
537.65 59.38 0.57 c p3
537.62 59.38 0.57 c p3
537.61 59.38 0.57 c p3
537.60 59.38 0.57 c p3
537.60 59.38 0.57 c p3
537.59 59.38 0.57 c p3
537.55 59.38 0.57 c p3
537.52 59.38 0.57 c p3
537.47 59.39 0.57 c p3
537.46 59.39 0.57 c p3
537.42 59.39 0.57 c p3
537.41 59.39 0.57 c p3
537.40 59.39 0.57 c p3
537.37 59.39 0.57 c p3
537.30 59.39 0.57 c p3
537.28 59.39 0.57 c p3
537.26 59.39 0.57 c p3
537.17 59.39 0.57 c p3
537.15 59.39 0.57 c p3
537.10 59.39 0.57 c p3
537.09 59.39 0.57 c p3
537.08 59.39 0.57 c p3
537.08 59.39 0.57 c p3
537.05 59.39 0.57 c p3
537.03 59.39 0.57 c p3
537.01 59.39 0.57 c p3
537.01 59.39 0.57 c p3
536.97 59.39 0.57 c p3
536.95 59.39 0.57 c p3
536.94 59.39 0.57 c p3
536.93 59.39 0.57 c p3
536.92 59.39 0.57 c p3
536.89 59.39 0.57 c p3
536.88 59.39 0.57 c p3
536.87 59.39 0.57 c p3
536.85 59.39 0.57 c p3
536.77 59.39 0.57 c p3
536.76 59.40 0.57 c p3
536.75 59.40 0.57 c p3
536.74 59.40 0.57 c p3
536.72 59.40 0.57 c p3
536.70 59.40 0.57 c p3
536.68 59.40 0.57 c p3
536.67 59.40 0.57 c p3
536.62 59.40 0.57 c p3
536.59 59.40 0.57 c p3
536.58 59.40 0.57 c p3
536.57 59.40 0.57 c p3
536.55 59.40 0.57 c p3
536.54 59.40 0.57 c p3
536.52 59.40 0.57 c p3
536.51 59.40 0.57 c p3
536.50 59.40 0.57 c p3
536.49 59.40 0.57 c p3
536.46 59.40 0.57 c p3
536.42 59.40 0.57 c p3
536.40 59.40 0.57 c p3
536.38 59.40 0.57 c p3
536.36 59.40 0.57 c p3
536.35 59.40 0.57 c p3
536.32 59.40 0.57 c p3
536.31 59.40 0.57 c p3
536.27 59.41 0.57 c p3
536.24 59.41 0.57 c p3
536.21 59.41 0.57 c p3
536.20 59.41 0.57 c p3
536.15 59.41 0.57 c p3
536.13 59.41 0.57 c p3
536.10 59.41 0.57 c p3
536.08 59.41 0.57 c p3
536.07 59.41 0.57 c p3
536.06 59.41 0.57 c p3
536.04 59.41 0.57 c p3
536.03 59.41 0.57 c p3
535.99 59.41 0.57 c p3
535.97 59.41 0.57 c p3
535.95 59.41 0.57 c p3
535.94 59.41 0.57 c p3
535.92 59.41 0.57 c p3
535.90 59.41 0.57 c p3
535.88 59.41 0.57 c p3
535.84 59.41 0.57 c p3
535.83 59.41 0.57 c p3
535.81 59.41 0.57 c p3
535.80 59.41 0.57 c p3
535.79 59.41 0.57 c p3
535.75 59.41 0.57 c p3
535.74 59.41 0.57 c p3
535.71 59.41 0.57 c p3
535.68 59.41 0.57 c p3
535.64 59.42 0.57 c p3
535.63 59.42 0.57 c p3
535.61 59.42 0.57 c p3
535.59 59.42 0.57 c p3
535.57 59.42 0.57 c p3
535.53 59.42 0.57 c p3
535.52 59.42 0.57 c p3
535.51 59.42 0.57 c p3
535.43 59.42 0.57 c p3
535.38 59.42 0.57 c p3
535.37 59.42 0.57 c p3
535.34 59.42 0.57 c p3
535.32 59.42 0.57 c p3
535.31 59.42 0.57 c p3
535.30 59.42 0.57 c p3
535.28 59.42 0.57 c p3
535.25 59.42 0.57 c p3
535.24 59.42 0.57 c p3
535.23 59.42 0.57 c p3
535.22 59.42 0.57 c p3
535.15 59.42 0.57 c p3
535.14 59.42 0.57 c p3
535.12 59.42 0.57 c p3
535.09 59.42 0.57 c p3
535.08 59.43 0.57 c p3
535.06 59.43 0.57 c p3
535.04 59.43 0.57 c p3
535.01 59.43 0.57 c p3
535.00 59.43 0.57 c p3
534.99 59.43 0.57 c p3
534.98 59.43 0.57 c p3
534.96 59.43 0.57 c p3
534.95 59.43 0.57 c p3
534.94 59.43 0.57 c p3
534.92 59.43 0.57 c p3
534.91 59.43 0.57 c p3
534.89 59.43 0.57 c p3
534.88 59.43 0.57 c p3
534.86 59.43 0.57 c p3
534.85 59.43 0.57 c p3
534.82 59.43 0.57 c p3
534.77 59.43 0.57 c p3
534.75 59.43 0.57 c p3
534.74 59.43 0.57 c p3
534.72 59.43 0.57 c p3
534.70 59.43 0.57 c p3
534.69 59.43 0.57 c p3
534.67 59.43 0.57 c p3
534.66 59.43 0.57 c p3
534.64 59.44 0.57 c p3
534.61 59.44 0.57 c p3
534.60 59.44 0.57 c p3
534.58 59.44 0.57 c p3
534.56 59.44 0.57 c p3
534.55 59.44 0.57 c p3
534.53 59.44 0.57 c p3
534.49 59.44 0.57 c p3
534.47 59.44 0.57 c p3
534.45 59.44 0.57 c p3
534.44 59.44 0.57 c p3
534.42 59.44 0.57 c p3
534.40 59.44 0.57 c p3
534.37 59.44 0.57 c p3
534.35 59.44 0.57 c p3
534.31 59.44 0.57 c p3
534.28 59.44 0.57 c p3
534.23 59.44 0.57 c p3
534.20 59.44 0.57 c p3
534.18 59.44 0.57 c p3
534.16 59.44 0.57 c p3
534.15 59.44 0.57 c p3
534.14 59.44 0.57 c p3
534.12 59.44 0.57 c p3
534.11 59.45 0.57 c p3
534.07 59.45 0.57 c p3
534.06 59.45 0.57 c p3
534.04 59.45 0.57 c p3
534.02 59.45 0.57 c p3
534.00 59.45 0.57 c p3
533.99 59.45 0.57 c p3
533.98 59.45 0.57 c p3
533.91 59.45 0.57 c p3
533.89 59.45 0.57 c p3
533.88 59.45 0.57 c p3
533.87 59.45 0.57 c p3
533.84 59.45 0.57 c p3
533.81 59.45 0.57 c p3
533.80 59.45 0.57 c p3
533.77 59.45 0.57 c p3
533.75 59.45 0.57 c p3
533.74 59.45 0.57 c p3
533.73 59.46 0.57 c p3
533.71 59.46 0.57 c p3
533.70 59.46 0.57 c p3
533.68 59.46 0.57 c p3
533.67 59.46 0.57 c p3
533.65 59.46 0.57 c p3
533.63 59.46 0.57 c p3
533.61 59.46 0.57 c p3
533.60 59.46 0.57 c p3
533.57 59.46 0.57 c p3
533.55 59.46 0.57 c p3
533.52 59.46 0.57 c p3
533.49 59.46 0.57 c p3
533.47 59.46 0.57 c p3
533.45 59.46 0.57 c p3
533.42 59.46 0.57 c p3
533.41 59.47 0.57 c p3
533.39 59.47 0.57 c p3
533.38 59.47 0.57 c p3
533.36 59.47 0.57 c p3
533.35 59.47 0.57 c p3
533.33 59.47 0.57 c p3
533.32 59.47 0.57 c p3
533.30 59.47 0.57 c p3
533.27 59.47 0.57 c p3
533.24 59.47 0.57 c p3
533.21 59.47 0.57 c p3
533.20 59.47 0.57 c p3
533.18 59.47 0.57 c p3
533.17 59.47 0.57 c p3
533.15 59.47 0.57 c p3
533.13 59.48 0.57 c p3
533.12 59.48 0.57 c p3
533.09 59.48 0.57 c p3
533.07 59.48 0.57 c p3
533.04 59.48 0.57 c p3
533.01 59.48 0.57 c p3
532.99 59.48 0.57 c p3
532.98 59.48 0.57 c p3
532.96 59.48 0.57 c p3
532.95 59.48 0.57 c p3
532.93 59.48 0.57 c p3
532.92 59.48 0.57 c p3
532.90 59.48 0.57 c p3
532.88 59.48 0.57 c p3
532.85 59.48 0.57 c p3
532.84 59.48 0.57 c p3
532.82 59.48 0.57 c p3
532.79 59.48 0.57 c p3
532.77 59.48 0.57 c p3
532.75 59.49 0.57 c p3
532.74 59.49 0.57 c p3
532.72 59.49 0.57 c p3
532.66 59.49 0.57 c p3
532.64 59.49 0.57 c p3
532.62 59.49 0.57 c p3
532.61 59.49 0.57 c p3
532.59 59.49 0.57 c p3
532.57 59.49 0.57 c p3
532.56 59.49 0.57 c p3
532.54 59.49 0.57 c p3
532.52 59.49 0.57 c p3
532.51 59.50 0.57 c p3
532.49 59.50 0.57 c p3
532.47 59.50 0.57 c p3
532.46 59.50 0.57 c p3
532.44 59.50 0.57 c p3
532.42 59.50 0.57 c p3
532.40 59.50 0.57 c p3
532.37 59.50 0.57 c p3
532.34 59.50 0.57 c p3
532.32 59.50 0.57 c p3
532.30 59.50 0.57 c p3
532.27 59.50 0.57 c p3
532.25 59.50 0.57 c p3
532.23 59.50 0.57 c p3
532.21 59.50 0.57 c p3
532.20 59.50 0.57 c p3
532.18 59.51 0.57 c p3
532.16 59.51 0.57 c p3
532.14 59.51 0.57 c p3
532.12 59.51 0.57 c p3
532.11 59.51 0.57 c p3
532.09 59.51 0.57 c p3
532.07 59.51 0.57 c p3
532.05 59.51 0.57 c p3
532.03 59.51 0.57 c p3
532.02 59.51 0.57 c p3
532.00 59.51 0.57 c p3
531.98 59.51 0.57 c p3
531.96 59.51 0.57 c p3
531.94 59.51 0.57 c p3
531.93 59.52 0.57 c p3
531.91 59.52 0.57 c p3
531.89 59.52 0.57 c p3
531.87 59.52 0.57 c p3
531.83 59.52 0.57 c p3
531.81 59.52 0.57 c p3
531.80 59.52 0.57 c p3
531.78 59.52 0.57 c p3
531.76 59.52 0.57 c p3
531.74 59.52 0.57 c p3
531.70 59.52 0.57 c p3
531.68 59.53 0.57 c p3
531.66 59.53 0.57 c p3
531.64 59.53 0.57 c p3
531.63 59.53 0.57 c p3
531.61 59.53 0.57 c p3
531.59 59.53 0.57 c p3
531.57 59.53 0.57 c p3
531.55 59.53 0.57 c p3
531.53 59.53 0.57 c p3
531.51 59.53 0.57 c p3
531.49 59.53 0.57 c p3
531.47 59.54 0.57 c p3
531.45 59.54 0.57 c p3
531.43 59.54 0.57 c p3
531.41 59.54 0.57 c p3
531.39 59.54 0.57 c p3
531.37 59.54 0.57 c p3
531.35 59.54 0.57 c p3
531.33 59.54 0.57 c p3
531.29 59.54 0.57 c p3
531.27 59.54 0.57 c p3
531.25 59.54 0.57 c p3
531.23 59.54 0.57 c p3
531.21 59.55 0.57 c p3
531.19 59.55 0.57 c p3
531.17 59.55 0.57 c p3
531.15 59.55 0.57 c p3
531.13 59.55 0.57 c p3
531.11 59.55 0.57 c p3
531.09 59.55 0.57 c p3
531.07 59.55 0.57 c p3
531.05 59.55 0.57 c p3
531.02 59.55 0.57 c p3
531.00 59.55 0.57 c p3
530.98 59.55 0.57 c p3
530.96 59.56 0.57 c p3
530.94 59.56 0.57 c p3
530.92 59.56 0.57 c p3
530.90 59.56 0.57 c p3
530.88 59.56 0.57 c p3
530.86 59.56 0.57 c p3
530.83 59.56 0.57 c p3
530.81 59.56 0.57 c p3
530.79 59.56 0.57 c p3
530.77 59.56 0.57 c p3
530.75 59.56 0.57 c p3
530.73 59.56 0.57 c p3
530.70 59.56 0.57 c p3
530.68 59.57 0.57 c p3
530.66 59.57 0.57 c p3
530.64 59.57 0.57 c p3
530.62 59.57 0.57 c p3
530.59 59.57 0.57 c p3
530.57 59.57 0.57 c p3
530.55 59.57 0.57 c p3
530.53 59.57 0.57 c p3
530.50 59.57 0.57 c p3
530.48 59.57 0.57 c p3
530.46 59.57 0.57 c p3
530.44 59.58 0.57 c p3
530.41 59.58 0.57 c p3
530.39 59.58 0.57 c p3
530.37 59.58 0.57 c p3
530.34 59.58 0.57 c p3
530.32 59.58 0.57 c p3
530.30 59.58 0.57 c p3
530.27 59.58 0.57 c p3
530.25 59.58 0.57 c p3
530.23 59.59 0.57 c p3
530.20 59.59 0.57 c p3
530.18 59.59 0.57 c p3
530.16 59.59 0.57 c p3
530.13 59.59 0.57 c p3
530.11 59.59 0.57 c p3
530.09 59.59 0.57 c p3
530.06 59.60 0.57 c p3
530.04 59.60 0.57 c p3
530.01 59.60 0.57 c p3
529.99 59.60 0.57 c p3
529.96 59.60 0.57 c p3
529.94 59.60 0.57 c p3
529.92 59.60 0.57 c p3
529.89 59.60 0.57 c p3
529.87 59.60 0.57 c p3
529.84 59.61 0.57 c p3
529.82 59.61 0.57 c p3
529.79 59.61 0.57 c p3
529.77 59.61 0.57 c p3
529.74 59.61 0.57 c p3
529.72 59.61 0.57 c p3
529.69 59.61 0.57 c p3
529.67 59.62 0.57 c p3
529.64 59.62 0.57 c p3
529.61 59.62 0.57 c p3
529.59 59.62 0.57 c p3
529.56 59.62 0.57 c p3
529.54 59.62 0.57 c p3
529.51 59.62 0.57 c p3
529.48 59.63 0.57 c p3
529.46 59.63 0.57 c p3
529.43 59.63 0.57 c p3
529.41 59.63 0.57 c p3
529.38 59.63 0.57 c p3
529.35 59.63 0.57 c p3
529.33 59.63 0.57 c p3
529.30 59.64 0.57 c p3
529.27 59.64 0.57 c p3
529.25 59.64 0.57 c p3
529.22 59.64 0.57 c p3
529.19 59.64 0.57 c p3
529.16 59.64 0.57 c p3
529.14 59.64 0.57 c p3
529.11 59.65 0.57 c p3
529.08 59.65 0.57 c p3
529.05 59.65 0.57 c p3
529.03 59.65 0.57 c p3
529.00 59.65 0.57 c p3
528.97 59.65 0.57 c p3
528.94 59.65 0.57 c p3
528.91 59.66 0.57 c p3
528.88 59.66 0.57 c p3
528.86 59.66 0.57 c p3
528.83 59.66 0.57 c p3
528.80 59.67 0.57 c p3
528.77 59.67 0.57 c p3
528.74 59.67 0.57 c p3
528.71 59.67 0.57 c p3
528.68 59.67 0.57 c p3
528.65 59.67 0.57 c p3
528.62 59.68 0.57 c p3
528.59 59.68 0.57 c p3
528.56 59.68 0.57 c p3
528.53 59.68 0.57 c p3
528.50 59.69 0.57 c p3
528.47 59.69 0.57 c p3
528.44 59.69 0.57 c p3
528.41 59.69 0.57 c p3
528.38 59.69 0.57 c p3
528.35 59.69 0.57 c p3
528.32 59.70 0.57 c p3
528.29 59.70 0.57 c p3
528.26 59.70 0.57 c p3
528.23 59.70 0.57 c p3
528.20 59.71 0.57 c p3
528.16 59.71 0.57 c p3
528.13 59.71 0.57 c p3
528.10 59.71 0.57 c p3
528.07 59.72 0.57 c p3
528.04 59.72 0.57 c p3
528.00 59.72 0.57 c p3
527.97 59.73 0.57 c p3
527.94 59.73 0.57 c p3
527.91 59.73 0.57 c p3
527.87 59.73 0.57 c p3
527.84 59.73 0.57 c p3
527.81 59.74 0.57 c p3
527.77 59.74 0.57 c p3
527.74 59.74 0.57 c p3
527.71 59.75 0.57 c p3
527.67 59.75 0.57 c p3
527.64 59.75 0.57 c p3
527.60 59.75 0.57 c p3
527.57 59.76 0.57 c p3
527.53 59.76 0.57 c p3
527.50 59.76 0.57 c p3
527.46 59.77 0.57 c p3
527.43 59.77 0.57 c p3
527.39 59.77 0.57 c p3
527.36 59.78 0.57 c p3
527.32 59.78 0.57 c p3
527.29 59.78 0.57 c p3
527.25 59.79 0.57 c p3
527.21 59.79 0.57 c p3
527.18 59.79 0.57 c p3
527.14 59.80 0.57 c p3
527.10 59.80 0.57 c p3
527.07 59.80 0.57 c p3
527.03 59.80 0.57 c p3
526.99 59.81 0.57 c p3
526.96 59.81 0.57 c p3
526.92 59.81 0.57 c p3
526.88 59.82 0.57 c p3
526.84 59.82 0.57 c p3
526.80 59.82 0.57 c p3
526.76 59.82 0.57 c p3
526.73 59.83 0.57 c p3
526.69 59.83 0.57 c p3
526.65 59.84 0.57 c p3
526.61 59.84 0.57 c p3
526.57 59.84 0.57 c p3
526.53 59.85 0.57 c p3
526.49 59.85 0.57 c p3
526.45 59.86 0.57 c p3
526.41 59.86 0.57 c p3
526.37 59.86 0.57 c p3
526.32 59.87 0.57 c p3
526.28 59.87 0.57 c p3
526.24 59.87 0.57 c p3
526.20 59.88 0.57 c p3
526.16 59.88 0.57 c p3
526.11 59.89 0.57 c p3
526.07 59.89 0.57 c p3
526.03 59.89 0.57 c p3
525.99 59.90 0.57 c p3
525.94 59.90 0.57 c p3
525.90 59.91 0.57 c p3
525.85 59.91 0.57 c p3
525.81 59.92 0.57 c p3
525.76 59.93 0.57 c p3
525.72 59.93 0.57 c p3
525.67 59.94 0.57 c p3
525.63 59.94 0.57 c p3
525.58 59.95 0.57 c p3
525.54 59.95 0.57 c p3
525.49 59.96 0.57 c p3
525.44 59.96 0.57 c p3
525.40 59.97 0.57 c p3
525.35 59.98 0.57 c p3
525.30 59.98 0.57 c p3
525.25 59.99 0.57 c p3
525.20 60.00 0.57 c p3
525.16 60.00 0.57 c p3
525.11 60.01 0.57 c p3
525.06 60.02 0.57 c p3
525.01 60.02 0.57 c p3
524.96 60.03 0.57 c p3
524.91 60.04 0.57 c p3
524.86 60.04 0.57 c p3
524.80 60.05 0.57 c p3
524.75 60.06 0.57 c p3
524.70 60.07 0.57 c p3
524.65 60.07 0.57 c p3
524.60 60.08 0.57 c p3
524.54 60.09 0.57 c p3
524.49 60.09 0.57 c p3
524.43 60.10 0.57 c p3
524.38 60.11 0.57 c p3
524.32 60.11 0.57 c p3
524.27 60.12 0.57 c p3
524.21 60.13 0.57 c p3
524.16 60.14 0.57 c p3
524.10 60.14 0.57 c p3
524.04 60.15 0.57 c p3
523.99 60.16 0.57 c p3
523.93 60.17 0.57 c p3
523.87 60.18 0.57 c p3
523.81 60.18 0.57 c p3
523.75 60.20 0.57 c p3
523.69 60.21 0.57 c p3
523.63 60.22 0.57 c p3
523.57 60.22 0.57 c p3
523.50 60.24 0.57 c p3
523.44 60.25 0.57 c p3
523.38 60.26 0.57 c p3
523.32 60.27 0.57 c p3
523.25 60.28 0.57 c p3
523.19 60.29 0.57 c p3
523.12 60.31 0.57 c p3
523.06 60.32 0.57 c p3
522.99 60.33 0.57 c p3
522.92 60.34 0.57 c p3
522.85 60.36 0.57 c p3
522.78 60.37 0.57 c p3
522.72 60.38 0.57 c p3
522.65 60.40 0.57 c p3
522.57 60.41 0.57 c p3
522.50 60.43 0.57 c p3
522.43 60.45 0.57 c p3
522.36 60.46 0.57 c p3
522.28 60.48 0.57 c p3
522.21 60.49 0.57 c p3
522.13 60.51 0.57 c p3
522.06 60.53 0.57 c p3
521.98 60.54 0.57 c p3
521.90 60.56 0.57 c p3
521.82 60.58 0.57 c p3
521.74 60.59 0.57 c p3
521.66 60.61 0.57 c p3
521.58 60.63 0.57 c p3
521.50 60.65 0.57 c p3
521.42 60.67 0.57 c p3
521.33 60.69 0.57 c p3
521.24 60.71 0.57 c p3
521.16 60.73 0.57 c p3
521.07 60.75 0.57 c p3
520.98 60.77 0.57 c p3
520.89 60.80 0.57 c p3
520.80 60.82 0.57 c p3
520.71 60.85 0.57 c p3
520.61 60.87 0.57 c p3
520.52 60.90 0.57 c p3
520.42 60.92 0.57 c p3
520.32 60.95 0.57 c p3
520.22 60.98 0.57 c p3
520.12 61.01 0.57 c p3
520.02 61.04 0.57 c p3
519.92 61.07 0.57 c p3
519.81 61.10 0.57 c p3
519.70 61.14 0.57 c p3
519.60 61.18 0.57 c p3
519.49 61.21 0.57 c p3
519.37 61.24 0.57 c p3
519.26 61.28 0.57 c p3
519.14 61.33 0.57 c p3
519.03 61.37 0.57 c p3
518.91 61.41 0.57 c p3
518.78 61.45 0.57 c p3
518.66 61.49 0.57 c p3
518.53 61.54 0.57 c p3
518.40 61.59 0.57 c p3
518.27 61.64 0.57 c p3
518.14 61.69 0.57 c p3
518.00 61.75 0.57 c p3
517.86 61.80 0.57 c p3
517.72 61.87 0.57 c p3
517.57 61.93 0.57 c p3
517.43 61.99 0.57 c p3
517.27 62.06 0.57 c p3
517.12 62.13 0.57 c p3
516.96 62.20 0.57 c p3
516.80 62.27 0.57 c p3
516.63 62.35 0.57 c p3
516.46 62.43 0.57 c p3
516.29 62.52 0.57 c p3
516.11 62.62 0.57 c p3
515.92 62.71 0.57 c p3
515.73 62.82 0.57 c p3
515.54 62.93 0.57 c p3
515.34 63.06 0.57 c p3
515.13 63.20 0.57 c p3
514.92 63.33 0.57 c p3
514.70 63.47 0.57 c p3
514.48 63.62 0.57 c p3
514.24 63.77 0.57 c p3
514.00 63.95 0.57 c p3
513.75 64.13 0.57 c p3
513.49 64.32 0.57 c p3
513.22 64.53 0.57 c p3
512.94 64.75 0.57 c p3
512.64 65.01 0.57 c p3
512.33 65.27 0.57 c p3
512.01 65.58 0.57 c p3
511.68 65.88 0.57 c p3
511.32 66.23 0.57 c p3
510.95 66.62 0.57 c p3
510.56 67.06 0.57 c p3
510.14 67.57 0.57 c p3
509.69 68.10 0.57 c p3
509.22 68.73 0.57 c p3
508.70 69.40 0.57 c p3
508.15 70.27 0.57 c p3
507.55 71.22 0.57 c p3
506.89 72.32 0.57 c p3
506.17 73.69 0.57 c p3
505.35 75.38 0.57 c p3
504.43 77.49 0.57 c p3
503.37 80.22 0.57 c p3
502.11 83.87 0.57 c p3
500.57 89.06 0.57 c p3
498.58 97.12 0.57 c p3
495.78 111.76 0.57 c p3
491.00 152.94 0.57 c p3
0.4980 0.4980 0.4980 srgb
1.07 setlinewidth
[] 0 setdash
486.32 54.65 102.98 102.98 r p1
0.00 0.00 595.28 198.43 cl
0.00 0.00 595.28 198.43 cl
0.00 0.00 595.28 198.43 cl
0.00 0.00 595.28 198.43 cl
0.00 0.00 595.28 198.43 cl
0.00 0.00 595.28 198.43 cl
/Font1 findfont 12 s
0 0 0 srgb
45.12 55.02 (0.00) 1 0 t
45.12 78.42 (0.25) 1 0 t
45.12 101.83 (0.50) 1 0 t
45.12 125.23 (0.75) 1 0 t
45.12 148.64 (1.00) 1 0 t
0.00 0.00 595.28 198.43 cl
0.00 0.00 595.28 198.43 cl
0 0 0 srgb
1.07 setlinewidth
[] 0 setdash
0 setlinecap
1 setlinejoin
10.00 setmiterlimit
np
47.51 59.33 m
2.99 0 l
o
np
47.51 82.73 m
2.99 0 l
o
np
47.51 106.14 m
2.99 0 l
o
np
47.51 129.54 m
2.99 0 l
o
np
47.51 152.94 m
2.99 0 l
o
0.00 0.00 595.28 198.43 cl
0.00 0.00 595.28 198.43 cl
0.00 0.00 595.28 198.43 cl
0.00 0.00 595.28 198.43 cl
0.00 0.00 595.28 198.43 cl
0.00 0.00 595.28 198.43 cl
0.00 0.00 595.28 198.43 cl
0.00 0.00 595.28 198.43 cl
0 0 0 srgb
1.07 setlinewidth
[] 0 setdash
0 setlinecap
1 setlinejoin
10.00 setmiterlimit
np
71.07 51.66 m
0 2.99 l
o
np
102.85 51.66 m
0 2.99 l
o
np
134.64 51.66 m
0 2.99 l
o
0.00 0.00 595.28 198.43 cl
0.00 0.00 595.28 198.43 cl
/Font1 findfont 12 s
0 0 0 srgb
62.18 37.68 (10) 0 0 t
/Font1 findfont 8 s
75.52 43.64 (1) 0 0 t
/Font1 findfont 12 s
93.96 37.68 (10) 0 0 t
/Font1 findfont 8 s
107.30 43.64 (3) 0 0 t
/Font1 findfont 12 s
125.74 37.80 (10) 0 0 t
/Font1 findfont 8 s
139.09 43.76 (5) 0 0 t
0.00 0.00 595.28 198.43 cl
0.00 0.00 595.28 198.43 cl
0.00 0.00 595.28 198.43 cl
0.00 0.00 595.28 198.43 cl
0.00 0.00 595.28 198.43 cl
0.00 0.00 595.28 198.43 cl
0.00 0.00 595.28 198.43 cl
0.00 0.00 595.28 198.43 cl
0 0 0 srgb
1.07 setlinewidth
[] 0 setdash
0 setlinecap
1 setlinejoin
10.00 setmiterlimit
np
180.03 51.66 m
0 2.99 l
o
np
211.81 51.66 m
0 2.99 l
o
np
243.59 51.66 m
0 2.99 l
o
0.00 0.00 595.28 198.43 cl
0.00 0.00 595.28 198.43 cl
/Font1 findfont 12 s
0 0 0 srgb
171.13 37.68 (10) 0 0 t
/Font1 findfont 8 s
184.47 43.64 (1) 0 0 t
/Font1 findfont 12 s
202.91 37.68 (10) 0 0 t
/Font1 findfont 8 s
216.26 43.64 (3) 0 0 t
/Font1 findfont 12 s
234.70 37.80 (10) 0 0 t
/Font1 findfont 8 s
248.04 43.76 (5) 0 0 t
0.00 0.00 595.28 198.43 cl
0.00 0.00 595.28 198.43 cl
0.00 0.00 595.28 198.43 cl
0.00 0.00 595.28 198.43 cl
0.00 0.00 595.28 198.43 cl
0.00 0.00 595.28 198.43 cl
0.00 0.00 595.28 198.43 cl
0.00 0.00 595.28 198.43 cl
0 0 0 srgb
1.07 setlinewidth
[] 0 setdash
0 setlinecap
1 setlinejoin
10.00 setmiterlimit
np
288.98 51.66 m
0 2.99 l
o
np
320.77 51.66 m
0 2.99 l
o
np
352.55 51.66 m
0 2.99 l
o
0.00 0.00 595.28 198.43 cl
0.00 0.00 595.28 198.43 cl
/Font1 findfont 12 s
0 0 0 srgb
280.09 37.68 (10) 0 0 t
/Font1 findfont 8 s
293.43 43.64 (1) 0 0 t
/Font1 findfont 12 s
311.87 37.68 (10) 0 0 t
/Font1 findfont 8 s
325.21 43.64 (3) 0 0 t
/Font1 findfont 12 s
343.65 37.80 (10) 0 0 t
/Font1 findfont 8 s
357.00 43.76 (5) 0 0 t
0.00 0.00 595.28 198.43 cl
0.00 0.00 595.28 198.43 cl
0.00 0.00 595.28 198.43 cl
0.00 0.00 595.28 198.43 cl
0.00 0.00 595.28 198.43 cl
0.00 0.00 595.28 198.43 cl
0.00 0.00 595.28 198.43 cl
0.00 0.00 595.28 198.43 cl
0 0 0 srgb
1.07 setlinewidth
[] 0 setdash
0 setlinecap
1 setlinejoin
10.00 setmiterlimit
np
397.94 51.66 m
0 2.99 l
o
np
429.72 51.66 m
0 2.99 l
o
np
461.50 51.66 m
0 2.99 l
o
0.00 0.00 595.28 198.43 cl
0.00 0.00 595.28 198.43 cl
/Font1 findfont 12 s
0 0 0 srgb
389.04 37.68 (10) 0 0 t
/Font1 findfont 8 s
402.39 43.64 (1) 0 0 t
/Font1 findfont 12 s
420.83 37.68 (10) 0 0 t
/Font1 findfont 8 s
434.17 43.64 (3) 0 0 t
/Font1 findfont 12 s
452.61 37.80 (10) 0 0 t
/Font1 findfont 8 s
465.95 43.76 (5) 0 0 t
0.00 0.00 595.28 198.43 cl
0.00 0.00 595.28 198.43 cl
0.00 0.00 595.28 198.43 cl
0.00 0.00 595.28 198.43 cl
0.00 0.00 595.28 198.43 cl
0.00 0.00 595.28 198.43 cl
0.00 0.00 595.28 198.43 cl
0.00 0.00 595.28 198.43 cl
0 0 0 srgb
1.07 setlinewidth
[] 0 setdash
0 setlinecap
1 setlinejoin
10.00 setmiterlimit
np
506.89 51.66 m
0 2.99 l
o
np
538.68 51.66 m
0 2.99 l
o
np
570.46 51.66 m
0 2.99 l
o
0.00 0.00 595.28 198.43 cl
0.00 0.00 595.28 198.43 cl
/Font1 findfont 12 s
0 0 0 srgb
498.00 37.68 (10) 0 0 t
/Font1 findfont 8 s
511.34 43.64 (1) 0 0 t
/Font1 findfont 12 s
529.78 37.68 (10) 0 0 t
/Font1 findfont 8 s
543.12 43.64 (3) 0 0 t
/Font1 findfont 12 s
561.56 37.80 (10) 0 0 t
/Font1 findfont 8 s
574.91 43.76 (5) 0 0 t
0.00 0.00 595.28 198.43 cl
0.00 0.00 595.28 198.43 cl
0.00 0.00 595.28 198.43 cl
0.00 0.00 595.28 198.43 cl
/Font1 findfont 12 s
0 0 0 srgb
319.90 24.06 (posts) .5 0 t
0.00 0.00 595.28 198.43 cl
0.00 0.00 595.28 198.43 cl
/Font1 findfont 12 s
0 0 0 srgb
16.98 106.14 (ccdf) .5 90 t
0.00 0.00 595.28 198.43 cl
0.00 0.00 595.28 198.43 cl
0.00 0.00 595.28 198.43 cl
0.00 0.00 595.28 198.43 cl
ep
%%Trailer
%%Pages: 1
%%EOF
