%!PS-Adobe-3.0 EPSF-3.0
%%DocumentNeededResources: font Helvetica
%%+ font Helvetica-Bold
%%+ font Helvetica-Oblique
%%+ font Helvetica-BoldOblique
%%+ font Symbol
%%Title: R Graphics Output
%%Creator: R Software
%%Pages: (atend)
%%BoundingBox: 0 0 595 213
%%EndComments
%%BeginProlog
/bp  { gs sRGB gs } def
% begin .ps.prolog
/gs  { gsave } bind def
/gr  { grestore } bind def
/ep  { showpage gr gr } bind def
/m   { moveto } bind def
/l  { rlineto } bind def
/np  { newpath } bind def
/cp  { closepath } bind def
/f   { fill } bind def
/o   { stroke } bind def
/c   { newpath 0 360 arc } bind def
/r   { 4 2 roll moveto 1 copy 3 -1 roll exch 0 exch rlineto 0 rlineto -1 mul 0 exch rlineto closepath } bind def
/p1  { stroke } bind def
/p2  { gsave bg fill grestore newpath } bind def
/p3  { gsave bg fill grestore stroke } bind def
/p6  { gsave bg eofill grestore newpath } bind def
/p7  { gsave bg eofill grestore stroke } bind def
/t   { 5 -2 roll moveto gsave rotate
       1 index stringwidth pop
       mul neg 0 rmoveto show grestore } bind def
/ta  { 4 -2 roll moveto gsave rotate show } bind def
/tb  { 2 -1 roll 0 rmoveto show } bind def
/cl  { grestore gsave newpath 3 index 3 index moveto 1 index
       4 -1 roll lineto  exch 1 index lineto lineto
       closepath clip newpath } bind def
/rgb { setrgbcolor } bind def
/s   { scalefont setfont } bind def
% end   .ps.prolog
/sRGB { [ /CIEBasedABC
          << /DecodeLMN
               [ { dup 0.03928 le
                        {12.92321 div}
                        {0.055 add 1.055 div 2.4 exp }
                     ifelse
                 } bind dup dup
               ]
             /MatrixLMN [0.412457 0.212673 0.019334
                         0.357576 0.715152 0.119192
                         0.180437 0.072175 0.950301]
             /WhitePoint [0.9505 1.0 1.0890]
           >>
         ] setcolorspace } bind def
/srgb { setcolor } bind def
%%IncludeResource: font Helvetica
/Helvetica findfont
dup length dict begin
  {1 index /FID ne {def} {pop pop} ifelse} forall
  /Encoding ISOLatin1Encoding def
  currentdict
  end
/Font1 exch definefont pop
%%IncludeResource: font Helvetica-Bold
/Helvetica-Bold findfont
dup length dict begin
  {1 index /FID ne {def} {pop pop} ifelse} forall
  /Encoding ISOLatin1Encoding def
  currentdict
  end
/Font2 exch definefont pop
%%IncludeResource: font Helvetica-Oblique
/Helvetica-Oblique findfont
dup length dict begin
  {1 index /FID ne {def} {pop pop} ifelse} forall
  /Encoding ISOLatin1Encoding def
  currentdict
  end
/Font3 exch definefont pop
%%IncludeResource: font Helvetica-BoldOblique
/Helvetica-BoldOblique findfont
dup length dict begin
  {1 index /FID ne {def} {pop pop} ifelse} forall
  /Encoding ISOLatin1Encoding def
  currentdict
  end
/Font4 exch definefont pop
%%IncludeResource: font Symbol
/Symbol findfont
dup length dict begin
  {1 index /FID ne {def} {pop pop} ifelse} forall
  currentdict
  end
/Font5 exch definefont pop
%%EndProlog
%%Page: 1 1
bp
0.00 0.00 595.28 212.60 cl
0.00 0.00 595.28 212.60 cl
0.00 0.00 595.28 212.60 cl
0.00 0.00 595.28 212.60 cl
0.00 0.00 595.28 212.60 cl
0.00 0.00 595.28 212.60 cl
0.00 0.00 595.28 212.60 cl
0.00 0.00 595.28 212.60 cl
0.00 0.00 595.28 212.60 cl
0.00 0.00 595.28 212.60 cl
0.00 0.00 595.28 212.60 cl
0.00 0.00 595.28 212.60 cl
0.00 0.00 595.28 212.60 cl
0.00 5.07 595.28 207.53 cl
/bg { 1 1 1 srgb } def
1 1 1 srgb
1.07 setlinewidth
[] 0 setdash
1 setlinecap
1 setlinejoin
10.00 setmiterlimit
0.00 5.07 595.28 202.45 r p3
0.00 0.00 595.28 212.60 cl
41.05 182.41 219.81 201.55 cl
/bg { 1 1 1 srgb } def
0.4980 0.4980 0.4980 srgb
0.43 setlinewidth
[] 0 setdash
1 setlinecap
1 setlinejoin
10.00 setmiterlimit
41.05 182.41 178.77 19.14 r p3
/Font1 findfont 10 s
0.1020 0.1020 0.1020 srgb
116.53 188.39 (fr) 0 ta
-0.100 (ance) tb gr
41.05 182.41 219.81 201.55 cl
0.00 0.00 595.28 212.60 cl
225.79 182.41 404.55 201.55 cl
/bg { 1 1 1 srgb } def
0.4980 0.4980 0.4980 srgb
0.43 setlinewidth
[] 0 setdash
1 setlinecap
1 setlinejoin
10.00 setmiterlimit
225.79 182.41 178.77 19.14 r p3
/Font1 findfont 10 s
0.1020 0.1020 0.1020 srgb
315.17 188.39 (podemos) .5 0 t
225.79 182.41 404.55 201.55 cl
0.00 0.00 595.28 212.60 cl
410.53 182.41 589.30 201.55 cl
/bg { 1 1 1 srgb } def
0.4980 0.4980 0.4980 srgb
0.43 setlinewidth
[] 0 setdash
1 setlinecap
1 setlinejoin
10.00 setmiterlimit
410.53 182.41 178.77 19.14 r p3
/Font1 findfont 10 s
0.1020 0.1020 0.1020 srgb
499.92 188.39 (gameofthrones) .5 0 t
410.53 182.41 589.30 201.55 cl
0.00 0.00 595.28 212.60 cl
41.05 39.40 219.81 182.41 cl
/bg { 1 1 1 srgb } def
41.05 39.40 178.77 143.01 r p2
0.9804 0.9804 0.9804 srgb
1.07 setlinewidth
[] 0 setdash
0 setlinecap
1 setlinejoin
10.00 setmiterlimit
np
41.05 58.23 m
178.76 0 l
o
np
41.05 83.21 m
178.76 0 l
o
np
41.05 108.19 m
178.76 0 l
o
np
41.05 133.16 m
178.76 0 l
o
np
41.05 158.14 m
178.76 0 l
o
0.8980 0.8980 0.8980 srgb
0.43 setlinewidth
[] 0 setdash
np
41.05 45.74 m
178.76 0 l
o
np
41.05 70.72 m
178.76 0 l
o
np
41.05 95.70 m
178.76 0 l
o
np
41.05 120.67 m
178.76 0 l
o
np
41.05 145.65 m
178.76 0 l
o
np
41.05 170.63 m
178.76 0 l
o
np
51.56 39.40 m
0 143.01 l
o
np
69.09 39.40 m
0 143.01 l
o
np
86.61 39.40 m
0 143.01 l
o
np
104.14 39.40 m
0 143.01 l
o
np
121.67 39.40 m
0 143.01 l
o
np
139.19 39.40 m
0 143.01 l
o
np
156.72 39.40 m
0 143.01 l
o
np
174.24 39.40 m
0 143.01 l
o
np
191.77 39.40 m
0 143.01 l
o
np
209.30 39.40 m
0 143.01 l
o
0.9725 0.4627 0.4275 srgb
1.07 setlinewidth
[] 0 setdash
1.00 setmiterlimit
np
51.56 49.06 m
17.53 94.40 l
17.52 -22.59 l
17.53 -51.76 l
17.53 -6.31 l
17.52 1.32 l
17.53 -7.84 l
17.52 -7.27 l
17.53 -2.59 l
17.53 -0.38 l
o
0.7686 0.6039 0 srgb
np
51.56 49.39 m
17.53 70.99 l
17.52 26.85 l
17.53 -87.21 l
17.53 -1.44 l
17.52 12.93 l
17.53 -13.96 l
17.52 -7.67 l
17.53 -3.26 l
17.53 -0.61 l
o
0.3255 0.7059 0 srgb
np
51.56 49.72 m
17.53 58.58 l
17.52 -5.82 l
17.53 -3.56 l
17.53 -21.14 l
17.52 -15.66 l
17.53 2.63 l
17.52 -14.29 l
17.53 -3.91 l
17.53 -0.45 l
o
0 0.7529 0.5804 srgb
np
51.56 84.09 m
17.53 -4.85 l
17.52 -3.97 l
17.53 -2.79 l
17.53 -6.46 l
17.52 -9.70 l
17.53 4.85 l
17.52 52.60 l
17.53 -61.42 l
17.53 -5.88 l
o
/bg { 0.9725 0.4627 0.4275 srgb } def
51.56 49.06 1.95 c p2
69.09 143.46 1.95 c p2
86.61 120.87 1.95 c p2
104.14 69.11 1.95 c p2
121.67 62.80 1.95 c p2
139.19 64.12 1.95 c p2
156.72 56.28 1.95 c p2
174.24 49.01 1.95 c p2
191.77 46.42 1.95 c p2
209.30 46.04 1.95 c p2
/bg { 0.7686 0.6039 0 srgb } def
np
 51.56 52.43 m
2.63 -4.56 l
-5.26 0 l
cp p2
np
 69.09 123.42 m
2.63 -4.56 l
-5.26 0 l
cp p2
np
 86.61 150.27 m
2.64 -4.56 l
-5.27 0 l
cp p2
np
 104.14 63.06 m
2.63 -4.56 l
-5.26 0 l
cp p2
np
 121.67 61.62 m
2.63 -4.56 l
-5.27 0 l
cp p2
np
 139.19 74.55 m
2.63 -4.56 l
-5.26 0 l
cp p2
np
 156.72 60.59 m
2.63 -4.56 l
-5.26 0 l
cp p2
np
 174.24 52.92 m
2.64 -4.56 l
-5.27 0 l
cp p2
np
 191.77 49.66 m
2.63 -4.56 l
-5.26 0 l
cp p2
np
 209.30 49.05 m
2.63 -4.56 l
-5.27 0 l
cp p2
/bg { 0.3255 0.7059 0 srgb } def
np
 49.61 47.76 m
3.91 0 l
0 3.91 l
-3.91 0 l
cp p2
np
 67.13 106.35 m
3.91 0 l
0 3.91 l
-3.91 0 l
cp p2
np
 84.66 100.53 m
3.91 0 l
0 3.91 l
-3.91 0 l
cp p2
np
 102.19 96.96 m
3.90 0 l
0 3.91 l
-3.90 0 l
cp p2
np
 119.71 75.83 m
3.91 0 l
0 3.91 l
-3.91 0 l
cp p2
np
 137.24 60.16 m
3.91 0 l
0 3.91 l
-3.91 0 l
cp p2
np
 154.76 62.80 m
3.91 0 l
0 3.91 l
-3.91 0 l
cp p2
np
 172.29 48.50 m
3.91 0 l
0 3.91 l
-3.91 0 l
cp p2
np
 189.82 44.59 m
3.91 0 l
0 3.91 l
-3.91 0 l
cp p2
np
 207.34 44.15 m
3.91 0 l
0 3.91 l
-3.91 0 l
cp p2
0.71 setlinewidth
[] 0 setdash
1 setlinecap
10.00 setmiterlimit
np
48.80 84.09 m
5.53 0 l
o
np
51.56 81.32 m
0 5.53 l
o
np
66.32 79.24 m
5.53 0 l
o
np
69.09 76.48 m
0 5.52 l
o
np
83.85 75.27 m
5.53 0 l
o
np
86.61 72.51 m
0 5.53 l
o
np
101.38 72.48 m
5.52 0 l
o
np
104.14 69.72 m
0 5.53 l
o
np
118.90 66.02 m
5.53 0 l
o
np
121.67 63.25 m
0 5.53 l
o
np
136.43 56.32 m
5.53 0 l
o
np
139.19 53.55 m
0 5.53 l
o
np
153.95 61.17 m
5.53 0 l
o
np
156.72 58.40 m
0 5.53 l
o
np
171.48 113.77 m
5.53 0 l
o
np
174.24 111.00 m
0 5.53 l
o
np
189.01 52.35 m
5.52 0 l
o
np
191.77 49.59 m
0 5.53 l
o
np
206.53 46.47 m
5.53 0 l
o
np
209.30 43.71 m
0 5.53 l
o
0.4980 0.4980 0.4980 srgb
1.07 setlinewidth
[] 0 setdash
41.05 39.40 178.77 143.01 r p1
0.00 0.00 595.28 212.60 cl
225.79 39.40 404.55 182.41 cl
/bg { 1 1 1 srgb } def
225.79 39.40 178.77 143.01 r p2
0.9804 0.9804 0.9804 srgb
1.07 setlinewidth
[] 0 setdash
0 setlinecap
1 setlinejoin
10.00 setmiterlimit
np
225.79 58.23 m
178.76 0 l
o
np
225.79 83.21 m
178.76 0 l
o
np
225.79 108.19 m
178.76 0 l
o
np
225.79 133.16 m
178.76 0 l
o
np
225.79 158.14 m
178.76 0 l
o
0.8980 0.8980 0.8980 srgb
0.43 setlinewidth
[] 0 setdash
np
225.79 45.74 m
178.76 0 l
o
np
225.79 70.72 m
178.76 0 l
o
np
225.79 95.70 m
178.76 0 l
o
np
225.79 120.67 m
178.76 0 l
o
np
225.79 145.65 m
178.76 0 l
o
np
225.79 170.63 m
178.76 0 l
o
np
236.31 39.40 m
0 143.01 l
o
np
253.83 39.40 m
0 143.01 l
o
np
271.36 39.40 m
0 143.01 l
o
np
288.88 39.40 m
0 143.01 l
o
np
306.41 39.40 m
0 143.01 l
o
np
323.94 39.40 m
0 143.01 l
o
np
341.46 39.40 m
0 143.01 l
o
np
358.99 39.40 m
0 143.01 l
o
np
376.51 39.40 m
0 143.01 l
o
np
394.04 39.40 m
0 143.01 l
o
0.9725 0.4627 0.4275 srgb
1.07 setlinewidth
[] 0 setdash
1.00 setmiterlimit
np
236.31 53.63 m
17.52 75.46 l
17.53 -26.31 l
17.52 -6.17 l
17.53 -28.64 l
17.53 -13.34 l
17.52 -1.74 l
17.53 0.64 l
17.52 -4.58 l
17.53 -1.84 l
o
0.7686 0.6039 0 srgb
np
236.31 51.42 m
17.52 24.24 l
17.53 -10.49 l
17.52 110.74 l
17.53 -88.49 l
17.53 -38.35 l
17.52 5.97 l
17.53 -1.61 l
17.52 -5.72 l
17.53 -1.36 l
o
0.3255 0.7059 0 srgb
np
236.31 54.13 m
17.52 56.38 l
17.53 28.91 l
17.52 -66.01 l
17.53 -9.14 l
17.53 -1.27 l
17.52 -9.36 l
17.53 0.03 l
17.52 -5.51 l
17.53 -1.20 l
o
0 0.7529 0.5804 srgb
np
236.31 52.44 m
17.52 49.00 l
17.53 -13.88 l
17.52 42.33 l
17.53 -48.86 l
17.53 -28.75 l
17.52 3.23 l
17.53 -3.35 l
17.52 -4.02 l
17.53 -1.41 l
o
0 0.7137 0.9216 srgb
np
236.31 53.72 m
17.52 37.13 l
17.53 18.06 l
17.52 -4.66 l
17.53 -23.54 l
17.53 -23.27 l
17.52 2.45 l
17.53 -2.93 l
17.52 -9.39 l
17.53 -0.69 l
o
0.6471 0.5412 1 srgb
np
236.31 97.08 m
17.52 -23.16 l
17.53 -10.97 l
17.52 15.96 l
17.53 -21.91 l
17.53 -8.38 l
17.52 1.06 l
17.53 88.04 l
17.52 -82.64 l
17.53 -8.86 l
o
0.9843 0.3804 0.8431 srgb
np
236.31 95.29 m
17.52 -7.85 l
17.53 -6.66 l
17.52 6.50 l
17.53 -28.18 l
17.53 -6.68 l
17.52 -2.51 l
17.53 11.01 l
17.52 21.03 l
17.53 -29.87 l
o
/bg { 0.9725 0.4627 0.4275 srgb } def
236.31 53.63 1.95 c p2
253.83 129.09 1.95 c p2
271.36 102.78 1.95 c p2
288.88 96.61 1.95 c p2
306.41 67.97 1.95 c p2
323.94 54.63 1.95 c p2
341.46 52.89 1.95 c p2
358.99 53.53 1.95 c p2
376.51 48.95 1.95 c p2
394.04 47.11 1.95 c p2
/bg { 0.7686 0.6039 0 srgb } def
np
 236.31 54.46 m
2.63 -4.56 l
-5.27 0 l
cp p2
np
 253.83 78.70 m
2.63 -4.56 l
-5.26 0 l
cp p2
np
 271.36 68.21 m
2.63 -4.56 l
-5.27 0 l
cp p2
np
 288.88 178.95 m
2.64 -4.56 l
-5.27 0 l
cp p2
np
 306.41 90.46 m
2.63 -4.56 l
-5.26 0 l
cp p2
np
 323.94 52.11 m
2.63 -4.56 l
-5.27 0 l
cp p2
np
 341.46 58.08 m
2.63 -4.56 l
-5.26 0 l
cp p2
np
 358.99 56.47 m
2.63 -4.56 l
-5.27 0 l
cp p2
np
 376.51 50.75 m
2.64 -4.56 l
-5.27 0 l
cp p2
np
 394.04 49.39 m
2.63 -4.56 l
-5.26 0 l
cp p2
/bg { 0.3255 0.7059 0 srgb } def
np
 234.35 52.18 m
3.91 0 l
0 3.91 l
-3.91 0 l
cp p2
np
 251.88 108.56 m
3.91 0 l
0 3.91 l
-3.91 0 l
cp p2
np
 269.40 137.47 m
3.91 0 l
0 3.91 l
-3.91 0 l
cp p2
np
 286.93 71.45 m
3.91 0 l
0 3.91 l
-3.91 0 l
cp p2
np
 304.45 62.32 m
3.91 0 l
0 3.91 l
-3.91 0 l
cp p2
np
 321.98 61.05 m
3.91 0 l
0 3.91 l
-3.91 0 l
cp p2
np
 339.51 51.68 m
3.91 0 l
0 3.91 l
-3.91 0 l
cp p2
np
 357.03 51.72 m
3.91 0 l
0 3.91 l
-3.91 0 l
cp p2
np
 374.56 46.21 m
3.91 0 l
0 3.91 l
-3.91 0 l
cp p2
np
 392.08 45.00 m
3.91 0 l
0 3.91 l
-3.91 0 l
cp p2
0 0.7529 0.5804 srgb
0.71 setlinewidth
[] 0 setdash
1 setlinecap
10.00 setmiterlimit
np
233.54 52.44 m
5.53 0 l
o
np
236.31 49.68 m
0 5.53 l
o
np
251.07 101.44 m
5.53 0 l
o
np
253.83 98.67 m
0 5.53 l
o
np
268.59 87.56 m
5.53 0 l
o
np
271.36 84.79 m
0 5.53 l
o
np
286.12 129.89 m
5.53 0 l
o
np
288.88 127.13 m
0 5.53 l
o
np
303.64 81.03 m
5.53 0 l
o
np
306.41 78.27 m
0 5.53 l
o
np
321.17 52.28 m
5.53 0 l
o
np
323.94 49.51 m
0 5.53 l
o
np
338.70 55.51 m
5.53 0 l
o
np
341.46 52.74 m
0 5.53 l
o
np
356.22 52.16 m
5.53 0 l
o
np
358.99 49.40 m
0 5.52 l
o
np
373.75 48.14 m
5.53 0 l
o
np
376.51 45.37 m
0 5.53 l
o
np
391.27 46.73 m
5.53 0 l
o
np
394.04 43.96 m
0 5.53 l
o
0 0.7137 0.9216 srgb
234.35 51.76 3.91 3.91 r p1
np
234.35 51.76 m
3.91 3.91 l
o
np
234.35 55.67 m
3.91 -3.91 l
o
251.88 88.89 3.91 3.91 r p1
np
251.88 88.89 m
3.91 3.91 l
o
np
251.88 92.80 m
3.91 -3.91 l
o
269.40 106.96 3.91 3.91 r p1
np
269.40 106.96 m
3.91 3.91 l
o
np
269.40 110.87 m
3.91 -3.91 l
o
286.93 102.30 3.91 3.91 r p1
np
286.93 102.30 m
3.91 3.90 l
o
np
286.93 106.20 m
3.91 -3.90 l
o
304.45 78.76 3.91 3.91 r p1
np
304.45 78.76 m
3.91 3.90 l
o
np
304.45 82.66 m
3.91 -3.90 l
o
321.98 55.48 3.91 3.91 r p1
np
321.98 55.48 m
3.91 3.91 l
o
np
321.98 59.39 m
3.91 -3.91 l
o
339.51 57.93 3.91 3.91 r p1
np
339.51 57.93 m
3.91 3.91 l
o
np
339.51 61.84 m
3.91 -3.91 l
o
357.03 55.01 3.91 3.91 r p1
np
357.03 55.01 m
3.91 3.91 l
o
np
357.03 58.92 m
3.91 -3.91 l
o
374.56 45.62 3.91 3.91 r p1
np
374.56 45.62 m
3.91 3.91 l
o
np
374.56 49.53 m
3.91 -3.91 l
o
392.08 44.93 3.91 3.91 r p1
np
392.08 44.93 m
3.91 3.91 l
o
np
392.08 48.84 m
3.91 -3.91 l
o
0.6471 0.5412 1 srgb
np
234.35 95.12 m
3.91 3.91 l
o
np
234.35 99.03 m
3.91 -3.91 l
o
np
233.54 97.08 m
5.53 0 l
o
np
236.31 94.31 m
0 5.53 l
o
np
251.88 71.96 m
3.91 3.91 l
o
np
251.88 75.87 m
3.91 -3.91 l
o
np
251.07 73.92 m
5.53 0 l
o
np
253.83 71.15 m
0 5.53 l
o
np
269.40 61.00 m
3.91 3.91 l
o
np
269.40 64.91 m
3.91 -3.91 l
o
np
268.59 62.95 m
5.53 0 l
o
np
271.36 60.19 m
0 5.53 l
o
np
286.93 76.96 m
3.91 3.91 l
o
np
286.93 80.87 m
3.91 -3.91 l
o
np
286.12 78.91 m
5.53 0 l
o
np
288.88 76.15 m
0 5.53 l
o
np
304.45 55.04 m
3.91 3.91 l
o
np
304.45 58.95 m
3.91 -3.91 l
o
np
303.64 57.00 m
5.53 0 l
o
np
306.41 54.23 m
0 5.53 l
o
np
321.98 46.67 m
3.91 3.91 l
o
np
321.98 50.58 m
3.91 -3.91 l
o
np
321.17 48.62 m
5.53 0 l
o
np
323.94 45.86 m
0 5.53 l
o
np
339.51 47.73 m
3.91 3.91 l
o
np
339.51 51.64 m
3.91 -3.91 l
o
np
338.70 49.68 m
5.53 0 l
o
np
341.46 46.92 m
0 5.53 l
o
np
357.03 135.77 m
3.91 3.91 l
o
np
357.03 139.68 m
3.91 -3.91 l
o
np
356.22 137.72 m
5.53 0 l
o
np
358.99 134.96 m
0 5.52 l
o
np
374.56 53.12 m
3.91 3.91 l
o
np
374.56 57.03 m
3.91 -3.91 l
o
np
373.75 55.08 m
5.53 0 l
o
np
376.51 52.31 m
0 5.53 l
o
np
392.08 44.27 m
3.91 3.91 l
o
np
392.08 48.18 m
3.91 -3.91 l
o
np
391.27 46.22 m
5.53 0 l
o
np
394.04 43.46 m
0 5.53 l
o
0.4980 0.4980 0.4980 srgb
1.07 setlinewidth
[] 0 setdash
225.79 39.40 178.77 143.01 r p1
0.00 0.00 595.28 212.60 cl
410.53 39.40 589.30 182.41 cl
/bg { 1 1 1 srgb } def
410.53 39.40 178.77 143.01 r p2
0.9804 0.9804 0.9804 srgb
1.07 setlinewidth
[] 0 setdash
0 setlinecap
1 setlinejoin
10.00 setmiterlimit
np
410.53 58.23 m
178.77 0 l
o
np
410.53 83.21 m
178.77 0 l
o
np
410.53 108.19 m
178.77 0 l
o
np
410.53 133.16 m
178.77 0 l
o
np
410.53 158.14 m
178.77 0 l
o
0.8980 0.8980 0.8980 srgb
0.43 setlinewidth
[] 0 setdash
np
410.53 45.74 m
178.77 0 l
o
np
410.53 70.72 m
178.77 0 l
o
np
410.53 95.70 m
178.77 0 l
o
np
410.53 120.67 m
178.77 0 l
o
np
410.53 145.65 m
178.77 0 l
o
np
410.53 170.63 m
178.77 0 l
o
np
421.05 39.40 m
0 143.01 l
o
np
438.57 39.40 m
0 143.01 l
o
np
456.10 39.40 m
0 143.01 l
o
np
473.63 39.40 m
0 143.01 l
o
np
491.15 39.40 m
0 143.01 l
o
np
508.68 39.40 m
0 143.01 l
o
np
526.20 39.40 m
0 143.01 l
o
np
543.73 39.40 m
0 143.01 l
o
np
561.26 39.40 m
0 143.01 l
o
np
578.78 39.40 m
0 143.01 l
o
0.9725 0.4627 0.4275 srgb
1.07 setlinewidth
[] 0 setdash
1.00 setmiterlimit
np
421.05 46.98 m
17.52 110.17 l
17.53 -42.91 l
17.53 -43.84 l
17.52 -14.24 l
17.53 14.27 l
17.52 -18.25 l
17.53 -4.49 l
17.53 -1.64 l
17.52 -0.15 l
o
0.7686 0.6039 0 srgb
np
421.05 47.29 m
17.52 54.30 l
17.53 -20.20 l
17.53 53.77 l
17.52 -56.21 l
17.53 -20.73 l
17.52 5.97 l
17.53 -15.75 l
17.53 -2.50 l
17.52 0.06 l
o
0.3255 0.7059 0 srgb
np
421.05 47.48 m
17.52 68.96 l
17.53 -11.38 l
17.53 -7.41 l
17.52 -25.84 l
17.53 -4.97 l
17.52 -5.98 l
17.53 -11.83 l
17.53 -2.94 l
17.52 -0.18 l
o
/bg { 0.9725 0.4627 0.4275 srgb } def
421.05 46.98 1.95 c p2
438.57 157.15 1.95 c p2
456.10 114.24 1.95 c p2
473.63 70.40 1.95 c p2
491.15 56.16 1.95 c p2
508.68 70.43 1.95 c p2
526.20 52.18 1.95 c p2
543.73 47.69 1.95 c p2
561.26 46.05 1.95 c p2
578.78 45.90 1.95 c p2
/bg { 0.7686 0.6039 0 srgb } def
np
 421.05 50.33 m
2.63 -4.56 l
-5.26 0 l
cp p2
np
 438.57 104.63 m
2.64 -4.56 l
-5.27 0 l
cp p2
np
 456.10 84.43 m
2.63 -4.56 l
-5.26 0 l
cp p2
np
 473.63 138.20 m
2.63 -4.56 l
-5.27 0 l
cp p2
np
 491.15 81.99 m
2.63 -4.55 l
-5.26 0 l
cp p2
np
 508.68 61.26 m
2.63 -4.56 l
-5.26 0 l
cp p2
np
 526.20 67.23 m
2.64 -4.56 l
-5.27 0 l
cp p2
np
 543.73 51.48 m
2.63 -4.56 l
-5.26 0 l
cp p2
np
 561.26 48.98 m
2.63 -4.56 l
-5.27 0 l
cp p2
np
 578.78 49.04 m
2.64 -4.56 l
-5.27 0 l
cp p2
/bg { 0.3255 0.7059 0 srgb } def
np
 419.09 45.52 m
3.91 0 l
0 3.91 l
-3.91 0 l
cp p2
np
 436.62 114.48 m
3.91 0 l
0 3.91 l
-3.91 0 l
cp p2
np
 454.15 103.11 m
3.91 0 l
0 3.91 l
-3.91 0 l
cp p2
np
 471.67 95.70 m
3.91 0 l
0 3.91 l
-3.91 0 l
cp p2
np
 489.20 69.86 m
3.91 0 l
0 3.91 l
-3.91 0 l
cp p2
np
 506.72 64.88 m
3.91 0 l
0 3.91 l
-3.91 0 l
cp p2
np
 524.25 58.91 m
3.91 0 l
0 3.91 l
-3.91 0 l
cp p2
np
 541.78 47.08 m
3.91 0 l
0 3.91 l
-3.91 0 l
cp p2
np
 559.30 44.14 m
3.91 0 l
0 3.91 l
-3.91 0 l
cp p2
np
 576.83 43.95 m
3.91 0 l
0 3.91 l
-3.91 0 l
cp p2
0.4980 0.4980 0.4980 srgb
1 setlinecap
10.00 setmiterlimit
410.53 39.40 178.77 143.01 r p1
0.00 0.00 595.28 212.60 cl
0.00 0.00 595.28 212.60 cl
0.00 0.00 595.28 212.60 cl
0.00 0.00 595.28 212.60 cl
0.00 0.00 595.28 212.60 cl
0.00 0.00 595.28 212.60 cl
/Font1 findfont 10 s
0 0 0 srgb
35.67 42.15 (0.0) 1 0 t
35.67 67.13 (0.1) 1 0 t
35.67 92.11 (0.2) 1 0 t
35.67 117.08 (0.3) 1 0 t
35.67 142.06 (0.4) 1 0 t
35.67 167.04 (0.5) 1 0 t
0.00 0.00 595.28 212.60 cl
0.00 0.00 595.28 212.60 cl
0 0 0 srgb
1.07 setlinewidth
[] 0 setdash
0 setlinecap
1 setlinejoin
10.00 setmiterlimit
np
38.06 45.74 m
2.99 0 l
o
np
38.06 70.72 m
2.99 0 l
o
np
38.06 95.70 m
2.99 0 l
o
np
38.06 120.67 m
2.99 0 l
o
np
38.06 145.65 m
2.99 0 l
o
np
38.06 170.63 m
2.99 0 l
o
0.00 0.00 595.28 212.60 cl
0.00 0.00 595.28 212.60 cl
0.00 0.00 595.28 212.60 cl
0.00 0.00 595.28 212.60 cl
0.00 0.00 595.28 212.60 cl
0.00 0.00 595.28 212.60 cl
0.00 0.00 595.28 212.60 cl
0.00 0.00 595.28 212.60 cl
0 0 0 srgb
1.07 setlinewidth
[] 0 setdash
0 setlinecap
1 setlinejoin
10.00 setmiterlimit
np
51.56 36.41 m
0 2.99 l
o
np
69.09 36.41 m
0 2.99 l
o
np
86.61 36.41 m
0 2.99 l
o
np
104.14 36.41 m
0 2.99 l
o
np
121.67 36.41 m
0 2.99 l
o
np
139.19 36.41 m
0 2.99 l
o
np
156.72 36.41 m
0 2.99 l
o
np
174.24 36.41 m
0 2.99 l
o
np
191.77 36.41 m
0 2.99 l
o
np
209.30 36.41 m
0 2.99 l
o
0.00 0.00 595.28 212.60 cl
0.00 0.00 595.28 212.60 cl
/Font1 findfont 10 s
0 0 0 srgb
51.56 26.84 (0) .5 0 t
69.09 26.84 (1) .5 0 t
86.61 26.84 (2) .5 0 t
104.14 26.84 (3) .5 0 t
121.67 26.84 (4) .5 0 t
139.19 26.84 (5) .5 0 t
156.72 26.84 (6) .5 0 t
174.24 26.84 (7) .5 0 t
191.77 26.84 (9) .5 0 t
209.30 26.84 (11) .5 0 t
0.00 0.00 595.28 212.60 cl
0.00 0.00 595.28 212.60 cl
0.00 0.00 595.28 212.60 cl
0.00 0.00 595.28 212.60 cl
0.00 0.00 595.28 212.60 cl
0.00 0.00 595.28 212.60 cl
0.00 0.00 595.28 212.60 cl
0.00 0.00 595.28 212.60 cl
0 0 0 srgb
1.07 setlinewidth
[] 0 setdash
0 setlinecap
1 setlinejoin
10.00 setmiterlimit
np
236.31 36.41 m
0 2.99 l
o
np
253.83 36.41 m
0 2.99 l
o
np
271.36 36.41 m
0 2.99 l
o
np
288.88 36.41 m
0 2.99 l
o
np
306.41 36.41 m
0 2.99 l
o
np
323.94 36.41 m
0 2.99 l
o
np
341.46 36.41 m
0 2.99 l
o
np
358.99 36.41 m
0 2.99 l
o
np
376.51 36.41 m
0 2.99 l
o
np
394.04 36.41 m
0 2.99 l
o
0.00 0.00 595.28 212.60 cl
0.00 0.00 595.28 212.60 cl
/Font1 findfont 10 s
0 0 0 srgb
236.31 26.84 (0) .5 0 t
253.83 26.84 (1) .5 0 t
271.36 26.84 (2) .5 0 t
288.88 26.84 (3) .5 0 t
306.41 26.84 (4) .5 0 t
323.94 26.84 (5) .5 0 t
341.46 26.84 (6) .5 0 t
358.99 26.84 (7) .5 0 t
376.51 26.84 (9) .5 0 t
394.04 26.84 (11) .5 0 t
0.00 0.00 595.28 212.60 cl
0.00 0.00 595.28 212.60 cl
0.00 0.00 595.28 212.60 cl
0.00 0.00 595.28 212.60 cl
0.00 0.00 595.28 212.60 cl
0.00 0.00 595.28 212.60 cl
0.00 0.00 595.28 212.60 cl
0.00 0.00 595.28 212.60 cl
0 0 0 srgb
1.07 setlinewidth
[] 0 setdash
0 setlinecap
1 setlinejoin
10.00 setmiterlimit
np
421.05 36.41 m
0 2.99 l
o
np
438.57 36.41 m
0 2.99 l
o
np
456.10 36.41 m
0 2.99 l
o
np
473.63 36.41 m
0 2.99 l
o
np
491.15 36.41 m
0 2.99 l
o
np
508.68 36.41 m
0 2.99 l
o
np
526.20 36.41 m
0 2.99 l
o
np
543.73 36.41 m
0 2.99 l
o
np
561.26 36.41 m
0 2.99 l
o
np
578.78 36.41 m
0 2.99 l
o
0.00 0.00 595.28 212.60 cl
0.00 0.00 595.28 212.60 cl
/Font1 findfont 10 s
0 0 0 srgb
421.05 26.84 (0) .5 0 t
438.57 26.84 (1) .5 0 t
456.10 26.84 (2) .5 0 t
473.63 26.84 (3) .5 0 t
491.15 26.84 (4) .5 0 t
508.68 26.84 (5) .5 0 t
526.20 26.84 (6) .5 0 t
543.73 26.84 (7) .5 0 t
561.26 26.84 (9) .5 0 t
578.78 26.84 (11) .5 0 t
0.00 0.00 595.28 212.60 cl
0.00 0.00 595.28 212.60 cl
0.00 0.00 595.28 212.60 cl
0.00 0.00 595.28 212.60 cl
/Font1 findfont 12 s
0 0 0 srgb
315.17 13.44 (motif) .5 0 t
0.00 0.00 595.28 212.60 cl
0.00 0.00 595.28 212.60 cl
/Font1 findfont 12 s
0 0 0 srgb
16.98 110.91 (probability) .5 90 t
0.00 0.00 595.28 212.60 cl
0.00 0.00 595.28 212.60 cl
0.00 0.00 595.28 212.60 cl
0.00 0.00 595.28 212.60 cl
ep
%%Trailer
%%Pages: 1
%%EOF
