%!PS-Adobe-3.0 EPSF-3.0
%%DocumentNeededResources: font Helvetica
%%+ font Helvetica-Bold
%%+ font Helvetica-Oblique
%%+ font Helvetica-BoldOblique
%%+ font Symbol
%%Title: R Graphics Output
%%Creator: R Software
%%Pages: (atend)
%%BoundingBox: 0 0 595 283
%%EndComments
%%BeginProlog
/bp  { gs sRGB gs } def
% begin .ps.prolog
/gs  { gsave } bind def
/gr  { grestore } bind def
/ep  { showpage gr gr } bind def
/m   { moveto } bind def
/l  { rlineto } bind def
/np  { newpath } bind def
/cp  { closepath } bind def
/f   { fill } bind def
/o   { stroke } bind def
/c   { newpath 0 360 arc } bind def
/r   { 4 2 roll moveto 1 copy 3 -1 roll exch 0 exch rlineto 0 rlineto -1 mul 0 exch rlineto closepath } bind def
/p1  { stroke } bind def
/p2  { gsave bg fill grestore newpath } bind def
/p3  { gsave bg fill grestore stroke } bind def
/p6  { gsave bg eofill grestore newpath } bind def
/p7  { gsave bg eofill grestore stroke } bind def
/t   { 5 -2 roll moveto gsave rotate
       1 index stringwidth pop
       mul neg 0 rmoveto show grestore } bind def
/ta  { 4 -2 roll moveto gsave rotate show } bind def
/tb  { 2 -1 roll 0 rmoveto show } bind def
/cl  { grestore gsave newpath 3 index 3 index moveto 1 index
       4 -1 roll lineto  exch 1 index lineto lineto
       closepath clip newpath } bind def
/rgb { setrgbcolor } bind def
/s   { scalefont setfont } bind def
% end   .ps.prolog
/sRGB { [ /CIEBasedABC
          << /DecodeLMN
               [ { dup 0.03928 le
                        {12.92321 div}
                        {0.055 add 1.055 div 2.4 exp }
                     ifelse
                 } bind dup dup
               ]
             /MatrixLMN [0.412457 0.212673 0.019334
                         0.357576 0.715152 0.119192
                         0.180437 0.072175 0.950301]
             /WhitePoint [0.9505 1.0 1.0890]
           >>
         ] setcolorspace } bind def
/srgb { setcolor } bind def
%%IncludeResource: font Helvetica
/Helvetica findfont
dup length dict begin
  {1 index /FID ne {def} {pop pop} ifelse} forall
  /Encoding ISOLatin1Encoding def
  currentdict
  end
/Font1 exch definefont pop
%%IncludeResource: font Helvetica-Bold
/Helvetica-Bold findfont
dup length dict begin
  {1 index /FID ne {def} {pop pop} ifelse} forall
  /Encoding ISOLatin1Encoding def
  currentdict
  end
/Font2 exch definefont pop
%%IncludeResource: font Helvetica-Oblique
/Helvetica-Oblique findfont
dup length dict begin
  {1 index /FID ne {def} {pop pop} ifelse} forall
  /Encoding ISOLatin1Encoding def
  currentdict
  end
/Font3 exch definefont pop
%%IncludeResource: font Helvetica-BoldOblique
/Helvetica-BoldOblique findfont
dup length dict begin
  {1 index /FID ne {def} {pop pop} ifelse} forall
  /Encoding ISOLatin1Encoding def
  currentdict
  end
/Font4 exch definefont pop
%%IncludeResource: font Symbol
/Symbol findfont
dup length dict begin
  {1 index /FID ne {def} {pop pop} ifelse} forall
  currentdict
  end
/Font5 exch definefont pop
%%EndProlog
%%Page: 1 1
bp
0.00 0.00 595.28 283.46 cl
0.00 0.00 595.28 283.46 cl
0.00 0.00 595.28 283.46 cl
0.00 0.00 595.28 283.46 cl
0.00 0.00 595.28 283.46 cl
0.00 0.00 595.28 283.46 cl
0.00 0.00 595.28 283.46 cl
0.00 0.00 595.28 283.46 cl
0.00 0.00 595.28 283.46 cl
0.00 0.00 595.28 283.46 cl
0.00 0.00 595.28 283.46 cl
0.00 0.00 595.28 283.46 cl
0.00 0.00 595.28 283.46 cl
0.00 19.11 595.28 264.35 cl
/bg { 1 1 1 srgb } def
1 1 1 srgb
1.07 setlinewidth
[] 0 setdash
1 setlinecap
1 setlinejoin
10.00 setmiterlimit
0.00 19.11 595.28 245.24 r p3
0.00 0.00 595.28 283.46 cl
41.05 239.24 219.81 258.38 cl
/bg { 1 1 1 srgb } def
0.4980 0.4980 0.4980 srgb
0.43 setlinewidth
[] 0 setdash
1 setlinecap
1 setlinejoin
10.00 setmiterlimit
41.05 239.24 178.77 19.14 r p3
/Font1 findfont 10 s
0.1020 0.1020 0.1020 srgb
116.53 245.22 (fr) 0 ta
-0.100 (ance) tb gr
41.05 239.24 219.81 258.38 cl
0.00 0.00 595.28 283.46 cl
225.79 239.24 404.55 258.38 cl
/bg { 1 1 1 srgb } def
0.4980 0.4980 0.4980 srgb
0.43 setlinewidth
[] 0 setdash
1 setlinecap
1 setlinejoin
10.00 setmiterlimit
225.79 239.24 178.77 19.14 r p3
/Font1 findfont 10 s
0.1020 0.1020 0.1020 srgb
315.17 245.22 (podemos) .5 0 t
225.79 239.24 404.55 258.38 cl
0.00 0.00 595.28 283.46 cl
410.53 239.24 589.30 258.38 cl
/bg { 1 1 1 srgb } def
0.4980 0.4980 0.4980 srgb
0.43 setlinewidth
[] 0 setdash
1 setlinecap
1 setlinejoin
10.00 setmiterlimit
410.53 239.24 178.77 19.14 r p3
/Font1 findfont 10 s
0.1020 0.1020 0.1020 srgb
499.92 245.22 (gameofthrones) .5 0 t
410.53 239.24 589.30 258.38 cl
0.00 0.00 595.28 283.46 cl
41.05 96.23 219.81 239.24 cl
/bg { 1 1 1 srgb } def
41.05 96.23 178.77 143.01 r p2
0.9804 0.9804 0.9804 srgb
1.07 setlinewidth
[] 0 setdash
0 setlinecap
1 setlinejoin
10.00 setmiterlimit
np
41.05 124.43 m
178.76 0 l
o
np
41.05 159.34 m
178.76 0 l
o
np
41.05 194.24 m
178.76 0 l
o
np
41.05 229.14 m
178.76 0 l
o
0.8980 0.8980 0.8980 srgb
0.43 setlinewidth
[] 0 setdash
np
41.05 106.98 m
178.76 0 l
o
np
41.05 141.89 m
178.76 0 l
o
np
41.05 176.79 m
178.76 0 l
o
np
41.05 211.69 m
178.76 0 l
o
np
51.56 96.23 m
0 143.01 l
o
np
69.09 96.23 m
0 143.01 l
o
np
86.61 96.23 m
0 143.01 l
o
np
104.14 96.23 m
0 143.01 l
o
np
121.67 96.23 m
0 143.01 l
o
np
139.19 96.23 m
0 143.01 l
o
np
156.72 96.23 m
0 143.01 l
o
np
174.24 96.23 m
0 143.01 l
o
np
191.77 96.23 m
0 143.01 l
o
np
209.30 96.23 m
0 143.01 l
o
/bg { 0.9725 0.4627 0.4275 srgb } def
69.09 232.74 2.49 c p2
104.14 121.45 2.49 c p2
139.19 106.82 2.49 c p2
/bg { 0.7176 0.6235 0 srgb } def
np
 69.09 193.97 m
3.35 -5.81 l
-6.70 0 l
cp p2
np
 121.67 134.35 m
3.35 -5.80 l
-6.70 0 l
cp p2
np
 86.61 128.62 m
3.36 -5.81 l
-6.71 0 l
cp p2
/bg { 0 0.7294 0.2196 srgb } def
np
 66.60 175.15 m
4.98 0 l
0 4.97 l
-4.98 0 l
cp p2
np
 101.65 143.56 m
4.98 0 l
0 4.98 l
-4.98 0 l
cp p2
np
 84.13 117.25 m
4.97 0 l
0 4.98 l
-4.97 0 l
cp p2
0 0.7490 0.7686 srgb
0.71 setlinewidth
[] 0 setdash
1 setlinecap
np
83.10 171.26 m
7.03 0 l
o
np
86.61 167.74 m
0 7.04 l
o
np
118.15 146.40 m
7.04 0 l
o
np
121.67 142.88 m
0 7.04 l
o
np
65.57 133.82 m
7.04 0 l
o
np
69.09 130.30 m
0 7.03 l
o
0.3804 0.6118 1 srgb
189.28 173.92 4.98 4.98 r p1
np
189.28 173.92 m
4.98 4.98 l
o
np
189.28 178.90 m
4.98 -4.98 l
o
66.60 123.05 4.98 4.98 r p1
np
66.60 123.05 m
4.98 4.98 l
o
np
66.60 128.03 m
4.98 -4.98 l
o
49.07 112.97 4.98 4.98 r p1
np
49.07 112.97 m
4.98 4.97 l
o
np
49.07 117.94 m
4.98 -4.97 l
o
0.9608 0.3922 0.8902 srgb
np
154.23 228.10 m
4.98 4.97 l
o
np
154.23 233.07 m
4.98 -4.97 l
o
np
153.20 230.58 m
7.04 0 l
o
np
156.72 227.06 m
0 7.04 l
o
np
171.76 169.79 m
4.97 4.98 l
o
np
171.76 174.77 m
4.97 -4.98 l
o
np
170.73 172.28 m
7.03 0 l
o
np
174.24 168.76 m
0 7.04 l
o
np
101.65 132.25 m
4.98 4.98 l
o
np
101.65 137.23 m
4.98 -4.98 l
o
np
100.62 134.74 m
7.04 0 l
o
np
104.14 131.22 m
0 7.04 l
o
0.9725 0.4627 0.4275 srgb
0.43 setlinewidth
[] 0 setdash
0 setlinecap
1.00 setmiterlimit
np
69.09 232.74 m
35.05 -111.29 l
35.05 -14.63 l
o
0.7176 0.6235 0 srgb
np
69.09 190.10 m
17.52 -65.35 l
35.06 5.73 l
o
0 0.7294 0.2196 srgb
np
69.09 177.63 m
17.52 -57.89 l
17.53 26.31 l
o
0 0.7490 0.7686 srgb
np
69.09 133.82 m
17.52 37.44 l
35.06 -24.86 l
o
0.3804 0.6118 1 srgb
np
51.56 115.45 m
17.53 10.09 l
122.68 50.87 l
o
0.9608 0.3922 0.8902 srgb
np
104.14 134.74 m
52.58 95.84 l
17.52 -58.30 l
o
0.4980 0.4980 0.4980 srgb
1.07 setlinewidth
[] 0 setdash
1 setlinecap
10.00 setmiterlimit
41.05 96.23 178.77 143.01 r p1
0.00 0.00 595.28 283.46 cl
225.79 96.23 404.55 239.24 cl
/bg { 1 1 1 srgb } def
225.79 96.23 178.77 143.01 r p2
0.9804 0.9804 0.9804 srgb
1.07 setlinewidth
[] 0 setdash
0 setlinecap
1 setlinejoin
10.00 setmiterlimit
np
225.79 124.43 m
178.76 0 l
o
np
225.79 159.34 m
178.76 0 l
o
np
225.79 194.24 m
178.76 0 l
o
np
225.79 229.14 m
178.76 0 l
o
0.8980 0.8980 0.8980 srgb
0.43 setlinewidth
[] 0 setdash
np
225.79 106.98 m
178.76 0 l
o
np
225.79 141.89 m
178.76 0 l
o
np
225.79 176.79 m
178.76 0 l
o
np
225.79 211.69 m
178.76 0 l
o
np
236.31 96.23 m
0 143.01 l
o
np
253.83 96.23 m
0 143.01 l
o
np
271.36 96.23 m
0 143.01 l
o
np
288.88 96.23 m
0 143.01 l
o
np
306.41 96.23 m
0 143.01 l
o
np
323.94 96.23 m
0 143.01 l
o
np
341.46 96.23 m
0 143.01 l
o
np
358.99 96.23 m
0 143.01 l
o
np
376.51 96.23 m
0 143.01 l
o
np
394.04 96.23 m
0 143.01 l
o
/bg { 0.9725 0.4627 0.4275 srgb } def
271.36 218.34 2.49 c p2
306.41 132.79 2.49 c p2
253.83 119.07 2.49 c p2
/bg { 0.7176 0.6235 0 srgb } def
np
 253.83 216.20 m
3.35 -5.80 l
-6.70 0 l
cp p2
np
 271.36 118.54 m
3.35 -5.81 l
-6.70 0 l
cp p2
np
 306.41 111.34 m
3.35 -5.81 l
-6.70 0 l
cp p2
/bg { 0 0.7294 0.2196 srgb } def
np
 251.34 158.58 m
4.98 0 l
0 4.98 l
-4.98 0 l
cp p2
np
 303.92 146.94 m
4.98 0 l
0 4.98 l
-4.98 0 l
cp p2
np
 268.87 140.78 m
4.98 0 l
0 4.97 l
-4.98 0 l
cp p2
0 0.7490 0.7686 srgb
0.71 setlinewidth
[] 0 setdash
1 setlinecap
np
250.31 166.76 m
7.04 0 l
o
np
253.83 163.24 m
0 7.04 l
o
np
267.84 152.96 m
7.04 0 l
o
np
271.36 149.44 m
0 7.04 l
o
np
285.36 110.26 m
7.04 0 l
o
np
288.88 106.74 m
0 7.04 l
o
0.3804 0.6118 1 srgb
233.82 162.51 4.98 4.98 r p1
np
233.82 162.51 m
4.97 4.97 l
o
np
233.82 167.48 m
4.97 -4.97 l
o
251.34 137.38 4.98 4.98 r p1
np
251.34 137.38 m
4.98 4.98 l
o
np
251.34 142.36 m
4.98 -4.98 l
o
268.87 122.51 4.98 4.98 r p1
np
268.87 122.51 m
4.98 4.98 l
o
np
268.87 127.49 m
4.98 -4.98 l
o
0.9608 0.3922 0.8902 srgb
np
374.03 218.80 m
4.97 4.98 l
o
np
374.03 223.78 m
4.97 -4.98 l
o
np
372.99 221.29 m
7.04 0 l
o
np
376.51 217.77 m
0 7.04 l
o
np
391.55 121.98 m
4.98 4.97 l
o
np
391.55 126.95 m
4.98 -4.97 l
o
np
390.52 124.47 m
7.04 0 l
o
np
394.04 120.95 m
0 7.04 l
o
np
268.87 111.37 m
4.98 4.98 l
o
np
268.87 116.35 m
4.98 -4.98 l
o
np
267.84 113.86 m
7.04 0 l
o
np
271.36 110.34 m
0 7.04 l
o
0.9725 0.4627 0.4275 srgb
0.43 setlinewidth
[] 0 setdash
0 setlinecap
1.00 setmiterlimit
np
253.83 119.07 m
17.53 99.27 l
35.05 -85.55 l
o
0.7176 0.6235 0 srgb
np
253.83 212.33 m
17.53 -97.66 l
35.05 -7.20 l
o
0 0.7294 0.2196 srgb
np
253.83 161.07 m
17.53 -17.81 l
35.05 6.17 l
o
0 0.7490 0.7686 srgb
np
253.83 166.76 m
17.53 -13.80 l
17.52 -42.70 l
o
0.3804 0.6118 1 srgb
np
236.31 165.00 m
17.52 -25.13 l
17.53 -14.87 l
o
0.9608 0.3922 0.8902 srgb
np
271.36 113.86 m
105.15 107.43 l
17.53 -96.82 l
o
0.4980 0.4980 0.4980 srgb
1.07 setlinewidth
[] 0 setdash
1 setlinecap
10.00 setmiterlimit
225.79 96.23 178.77 143.01 r p1
0.00 0.00 595.28 283.46 cl
410.53 96.23 589.30 239.24 cl
/bg { 1 1 1 srgb } def
410.53 96.23 178.77 143.01 r p2
0.9804 0.9804 0.9804 srgb
1.07 setlinewidth
[] 0 setdash
0 setlinecap
1 setlinejoin
10.00 setmiterlimit
np
410.53 124.43 m
178.77 0 l
o
np
410.53 159.34 m
178.77 0 l
o
np
410.53 194.24 m
178.77 0 l
o
np
410.53 229.14 m
178.77 0 l
o
0.8980 0.8980 0.8980 srgb
0.43 setlinewidth
[] 0 setdash
np
410.53 106.98 m
178.77 0 l
o
np
410.53 141.89 m
178.77 0 l
o
np
410.53 176.79 m
178.77 0 l
o
np
410.53 211.69 m
178.77 0 l
o
np
421.05 96.23 m
0 143.01 l
o
np
438.57 96.23 m
0 143.01 l
o
np
456.10 96.23 m
0 143.01 l
o
np
473.63 96.23 m
0 143.01 l
o
np
491.15 96.23 m
0 143.01 l
o
np
508.68 96.23 m
0 143.01 l
o
np
526.20 96.23 m
0 143.01 l
o
np
543.73 96.23 m
0 143.01 l
o
np
561.26 96.23 m
0 143.01 l
o
np
578.78 96.23 m
0 143.01 l
o
/bg { 0.9725 0.4627 0.4275 srgb } def
438.57 182.12 2.49 c p2
473.63 173.27 2.49 c p2
456.10 107.67 2.49 c p2
/bg { 0.7176 0.6235 0 srgb } def
np
 438.57 221.57 m
3.36 -5.80 l
-6.71 0 l
cp p2
np
 473.63 136.34 m
3.35 -5.80 l
-6.70 0 l
cp p2
np
 508.68 106.60 m
3.35 -5.81 l
-6.70 0 l
cp p2
/bg { 0 0.7294 0.2196 srgb } def
np
 436.09 171.11 m
4.97 0 l
0 4.98 l
-4.97 0 l
cp p2
np
 453.61 139.81 m
4.98 0 l
0 4.98 l
-4.98 0 l
cp p2
np
 488.66 121.63 m
4.98 0 l
0 4.98 l
-4.98 0 l
cp p2
0 0.7490 0.7686 srgb
0.71 setlinewidth
[] 0 setdash
1 setlinecap
np
452.58 192.57 m
7.04 0 l
o
np
456.10 189.05 m
0 7.04 l
o
np
487.63 136.55 m
7.04 0 l
o
np
491.15 133.03 m
0 7.04 l
o
np
435.06 134.94 m
7.03 0 l
o
np
438.57 131.42 m
0 7.04 l
o
0.9725 0.4627 0.4275 srgb
0.43 setlinewidth
[] 0 setdash
0 setlinecap
1.00 setmiterlimit
np
438.57 182.12 m
17.53 -74.45 l
17.53 65.60 l
o
0.7176 0.6235 0 srgb
np
438.57 217.70 m
35.06 -85.23 l
35.05 -29.74 l
o
0 0.7294 0.2196 srgb
np
438.57 173.60 m
17.53 -31.30 l
35.05 -18.18 l
o
0 0.7490 0.7686 srgb
np
438.57 134.94 m
17.53 57.63 l
35.05 -56.02 l
o
0.4980 0.4980 0.4980 srgb
1.07 setlinewidth
[] 0 setdash
1 setlinecap
10.00 setmiterlimit
410.53 96.23 178.77 143.01 r p1
0.00 0.00 595.28 283.46 cl
0.00 0.00 595.28 283.46 cl
0.00 0.00 595.28 283.46 cl
0.00 0.00 595.28 283.46 cl
0.00 0.00 595.28 283.46 cl
0.00 0.00 595.28 283.46 cl
/Font1 findfont 10 s
0 0 0 srgb
35.67 103.39 (0.1) 1 0 t
35.67 138.30 (0.2) 1 0 t
35.67 173.20 (0.3) 1 0 t
35.67 208.10 (0.4) 1 0 t
0.00 0.00 595.28 283.46 cl
0.00 0.00 595.28 283.46 cl
0 0 0 srgb
1.07 setlinewidth
[] 0 setdash
0 setlinecap
1 setlinejoin
10.00 setmiterlimit
np
38.06 106.98 m
2.99 0 l
o
np
38.06 141.89 m
2.99 0 l
o
np
38.06 176.79 m
2.99 0 l
o
np
38.06 211.69 m
2.99 0 l
o
0.00 0.00 595.28 283.46 cl
0.00 0.00 595.28 283.46 cl
0.00 0.00 595.28 283.46 cl
0.00 0.00 595.28 283.46 cl
0.00 0.00 595.28 283.46 cl
0.00 0.00 595.28 283.46 cl
0.00 0.00 595.28 283.46 cl
0.00 0.00 595.28 283.46 cl
0 0 0 srgb
1.07 setlinewidth
[] 0 setdash
0 setlinecap
1 setlinejoin
10.00 setmiterlimit
np
51.56 93.24 m
0 2.99 l
o
np
69.09 93.24 m
0 2.99 l
o
np
86.61 93.24 m
0 2.99 l
o
np
104.14 93.24 m
0 2.99 l
o
np
121.67 93.24 m
0 2.99 l
o
np
139.19 93.24 m
0 2.99 l
o
np
156.72 93.24 m
0 2.99 l
o
np
174.24 93.24 m
0 2.99 l
o
np
191.77 93.24 m
0 2.99 l
o
np
209.30 93.24 m
0 2.99 l
o
0.00 0.00 595.28 283.46 cl
0.00 0.00 595.28 283.46 cl
/Font1 findfont 10 s
0 0 0 srgb
51.56 83.67 (0) .5 0 t
69.09 83.67 (1) .5 0 t
86.61 83.67 (2) .5 0 t
104.14 83.67 (3) .5 0 t
121.67 83.67 (4) .5 0 t
139.19 83.67 (5) .5 0 t
156.72 83.67 (6) .5 0 t
174.24 83.67 (8) .5 0 t
191.77 83.67 (9) .5 0 t
209.30 83.67 (13) .5 0 t
0.00 0.00 595.28 283.46 cl
0.00 0.00 595.28 283.46 cl
0.00 0.00 595.28 283.46 cl
0.00 0.00 595.28 283.46 cl
0.00 0.00 595.28 283.46 cl
0.00 0.00 595.28 283.46 cl
0.00 0.00 595.28 283.46 cl
0.00 0.00 595.28 283.46 cl
0 0 0 srgb
1.07 setlinewidth
[] 0 setdash
0 setlinecap
1 setlinejoin
10.00 setmiterlimit
np
236.31 93.24 m
0 2.99 l
o
np
253.83 93.24 m
0 2.99 l
o
np
271.36 93.24 m
0 2.99 l
o
np
288.88 93.24 m
0 2.99 l
o
np
306.41 93.24 m
0 2.99 l
o
np
323.94 93.24 m
0 2.99 l
o
np
341.46 93.24 m
0 2.99 l
o
np
358.99 93.24 m
0 2.99 l
o
np
376.51 93.24 m
0 2.99 l
o
np
394.04 93.24 m
0 2.99 l
o
0.00 0.00 595.28 283.46 cl
0.00 0.00 595.28 283.46 cl
/Font1 findfont 10 s
0 0 0 srgb
236.31 83.67 (0) .5 0 t
253.83 83.67 (1) .5 0 t
271.36 83.67 (2) .5 0 t
288.88 83.67 (3) .5 0 t
306.41 83.67 (4) .5 0 t
323.94 83.67 (5) .5 0 t
341.46 83.67 (6) .5 0 t
358.99 83.67 (8) .5 0 t
376.51 83.67 (9) .5 0 t
394.04 83.67 (13) .5 0 t
0.00 0.00 595.28 283.46 cl
0.00 0.00 595.28 283.46 cl
0.00 0.00 595.28 283.46 cl
0.00 0.00 595.28 283.46 cl
0.00 0.00 595.28 283.46 cl
0.00 0.00 595.28 283.46 cl
0.00 0.00 595.28 283.46 cl
0.00 0.00 595.28 283.46 cl
0 0 0 srgb
1.07 setlinewidth
[] 0 setdash
0 setlinecap
1 setlinejoin
10.00 setmiterlimit
np
421.05 93.24 m
0 2.99 l
o
np
438.57 93.24 m
0 2.99 l
o
np
456.10 93.24 m
0 2.99 l
o
np
473.63 93.24 m
0 2.99 l
o
np
491.15 93.24 m
0 2.99 l
o
np
508.68 93.24 m
0 2.99 l
o
np
526.20 93.24 m
0 2.99 l
o
np
543.73 93.24 m
0 2.99 l
o
np
561.26 93.24 m
0 2.99 l
o
np
578.78 93.24 m
0 2.99 l
o
0.00 0.00 595.28 283.46 cl
0.00 0.00 595.28 283.46 cl
/Font1 findfont 10 s
0 0 0 srgb
421.05 83.67 (0) .5 0 t
438.57 83.67 (1) .5 0 t
456.10 83.67 (2) .5 0 t
473.63 83.67 (3) .5 0 t
491.15 83.67 (4) .5 0 t
508.68 83.67 (5) .5 0 t
526.20 83.67 (6) .5 0 t
543.73 83.67 (8) .5 0 t
561.26 83.67 (9) .5 0 t
578.78 83.67 (13) .5 0 t
0.00 0.00 595.28 283.46 cl
0.00 0.00 595.28 283.46 cl
0.00 0.00 595.28 283.46 cl
0.00 0.00 595.28 283.46 cl
/Font1 findfont 12 s
0 0 0 srgb
315.17 70.27 (motif) .5 0 t
0.00 0.00 595.28 283.46 cl
0.00 0.00 595.28 283.46 cl
/Font1 findfont 12 s
0 0 0 srgb
16.98 167.74 (probability) .5 90 t
0.00 0.00 595.28 283.46 cl
0.00 0.00 595.28 283.46 cl
0.00 0.00 595.28 283.46 cl
0.00 0.00 595.28 283.46 cl
/bg { 1 1 1 srgb } def
210.69 33.59 208.96 25.78 r p2
0.00 0.00 595.28 283.46 cl
0.00 0.00 595.28 283.46 cl
/Font1 findfont 12 s
0 0 0 srgb
214.94 42.18 (cluster) 0 0 t
0.00 0.00 595.28 283.46 cl
0.00 0.00 595.28 283.46 cl
0.00 0.00 595.28 283.46 cl
0.00 0.00 595.28 283.46 cl
/bg { 0.9725 0.4627 0.4275 srgb } def
263.24 46.48 2.49 c p2
0.00 0.00 595.28 283.46 cl
0.00 0.00 595.28 283.46 cl
0.9725 0.4627 0.4275 srgb
0.43 setlinewidth
[] 0 setdash
0 setlinecap
1 setlinejoin
10.00 setmiterlimit
np
256.33 46.48 m
13.82 0 l
o
0.00 0.00 595.28 283.46 cl
0.00 0.00 595.28 283.46 cl
0.00 0.00 595.28 283.46 cl
0.00 0.00 595.28 283.46 cl
/bg { 0.7176 0.6235 0 srgb } def
np
 290.40 50.35 m
3.35 -5.80 l
-6.70 0 l
cp p2
0.00 0.00 595.28 283.46 cl
0.00 0.00 595.28 283.46 cl
0.7176 0.6235 0 srgb
0.43 setlinewidth
[] 0 setdash
0 setlinecap
1 setlinejoin
10.00 setmiterlimit
np
283.49 46.48 m
13.82 0 l
o
0.00 0.00 595.28 283.46 cl
0.00 0.00 595.28 283.46 cl
0.00 0.00 595.28 283.46 cl
0.00 0.00 595.28 283.46 cl
/bg { 0 0.7294 0.2196 srgb } def
np
 315.07 44.00 m
4.98 0 l
0 4.97 l
-4.98 0 l
cp p2
0.00 0.00 595.28 283.46 cl
0.00 0.00 595.28 283.46 cl
0 0.7294 0.2196 srgb
0.43 setlinewidth
[] 0 setdash
0 setlinecap
1 setlinejoin
10.00 setmiterlimit
np
310.65 46.48 m
13.82 0 l
o
0.00 0.00 595.28 283.46 cl
0.00 0.00 595.28 283.46 cl
0.00 0.00 595.28 283.46 cl
0.00 0.00 595.28 283.46 cl
0 0.7490 0.7686 srgb
0.71 setlinewidth
[] 0 setdash
1 setlinecap
1 setlinejoin
10.00 setmiterlimit
np
341.20 46.48 m
7.04 0 l
o
np
344.72 42.97 m
0 7.03 l
o
0.00 0.00 595.28 283.46 cl
0.00 0.00 595.28 283.46 cl
0 0.7490 0.7686 srgb
0.43 setlinewidth
[] 0 setdash
0 setlinecap
1 setlinejoin
10.00 setmiterlimit
np
337.81 46.48 m
13.82 0 l
o
0.00 0.00 595.28 283.46 cl
0.00 0.00 595.28 283.46 cl
0.00 0.00 595.28 283.46 cl
0.00 0.00 595.28 283.46 cl
0.3804 0.6118 1 srgb
0.71 setlinewidth
[] 0 setdash
1 setlinecap
1 setlinejoin
10.00 setmiterlimit
369.39 44.00 4.98 4.98 r p1
np
369.39 44.00 m
4.98 4.97 l
o
np
369.39 48.97 m
4.98 -4.97 l
o
0.00 0.00 595.28 283.46 cl
0.00 0.00 595.28 283.46 cl
0.3804 0.6118 1 srgb
0.43 setlinewidth
[] 0 setdash
0 setlinecap
1 setlinejoin
10.00 setmiterlimit
np
364.97 46.48 m
13.82 0 l
o
0.00 0.00 595.28 283.46 cl
0.00 0.00 595.28 283.46 cl
0.00 0.00 595.28 283.46 cl
0.00 0.00 595.28 283.46 cl
0.9608 0.3922 0.8902 srgb
0.71 setlinewidth
[] 0 setdash
1 setlinecap
1 setlinejoin
10.00 setmiterlimit
np
396.55 44.00 m
4.98 4.97 l
o
np
396.55 48.97 m
4.98 -4.97 l
o
np
395.52 46.48 m
7.04 0 l
o
np
399.04 42.97 m
0 7.03 l
o
0.00 0.00 595.28 283.46 cl
0.00 0.00 595.28 283.46 cl
0.9608 0.3922 0.8902 srgb
0.43 setlinewidth
[] 0 setdash
0 setlinecap
1 setlinejoin
10.00 setmiterlimit
np
392.13 46.48 m
13.82 0 l
o
0.00 0.00 595.28 283.46 cl
0.00 0.00 595.28 283.46 cl
/Font1 findfont 10 s
0 0 0 srgb
274.04 42.89 (1) 0 0 t
0.00 0.00 595.28 283.46 cl
0.00 0.00 595.28 283.46 cl
/Font1 findfont 10 s
0 0 0 srgb
301.20 42.89 (2) 0 0 t
0.00 0.00 595.28 283.46 cl
0.00 0.00 595.28 283.46 cl
/Font1 findfont 10 s
0 0 0 srgb
328.36 42.89 (3) 0 0 t
0.00 0.00 595.28 283.46 cl
0.00 0.00 595.28 283.46 cl
/Font1 findfont 10 s
0 0 0 srgb
355.52 42.89 (4) 0 0 t
0.00 0.00 595.28 283.46 cl
0.00 0.00 595.28 283.46 cl
/Font1 findfont 10 s
0 0 0 srgb
382.68 42.89 (5) 0 0 t
0.00 0.00 595.28 283.46 cl
0.00 0.00 595.28 283.46 cl
/Font1 findfont 10 s
0 0 0 srgb
409.84 42.89 (6) 0 0 t
0.00 0.00 595.28 283.46 cl
0.00 0.00 595.28 283.46 cl
0.00 0.00 595.28 283.46 cl
0.00 0.00 595.28 283.46 cl
0.00 0.00 595.28 283.46 cl
0.00 0.00 595.28 283.46 cl
ep
%%Trailer
%%Pages: 1
%%EOF
