%!PS-Adobe-3.0 EPSF-3.0
%%DocumentNeededResources: font Helvetica
%%+ font Helvetica-Bold
%%+ font Helvetica-Oblique
%%+ font Helvetica-BoldOblique
%%+ font Symbol
%%Title: R Graphics Output
%%Creator: R Software
%%Pages: (atend)
%%BoundingBox: 0 0 432 432
%%EndComments
%%BeginProlog
/bp  { gs sRGB gs } def
% begin .ps.prolog
/gs  { gsave } bind def
/gr  { grestore } bind def
/ep  { showpage gr gr } bind def
/m   { moveto } bind def
/l  { rlineto } bind def
/np  { newpath } bind def
/cp  { closepath } bind def
/f   { fill } bind def
/o   { stroke } bind def
/c   { newpath 0 360 arc } bind def
/r   { 4 2 roll moveto 1 copy 3 -1 roll exch 0 exch rlineto 0 rlineto -1 mul 0 exch rlineto closepath } bind def
/p1  { stroke } bind def
/p2  { gsave bg fill grestore newpath } bind def
/p3  { gsave bg fill grestore stroke } bind def
/p6  { gsave bg eofill grestore newpath } bind def
/p7  { gsave bg eofill grestore stroke } bind def
/t   { 5 -2 roll moveto gsave rotate
       1 index stringwidth pop
       mul neg 0 rmoveto show grestore } bind def
/ta  { 4 -2 roll moveto gsave rotate show } bind def
/tb  { 2 -1 roll 0 rmoveto show } bind def
/cl  { grestore gsave newpath 3 index 3 index moveto 1 index
       4 -1 roll lineto  exch 1 index lineto lineto
       closepath clip newpath } bind def
/rgb { setrgbcolor } bind def
/s   { scalefont setfont } bind def
% end   .ps.prolog
/sRGB { [ /CIEBasedABC
          << /DecodeLMN
               [ { dup 0.03928 le
                        {12.92321 div}
                        {0.055 add 1.055 div 2.4 exp }
                     ifelse
                 } bind dup dup
               ]
             /MatrixLMN [0.412457 0.212673 0.019334
                         0.357576 0.715152 0.119192
                         0.180437 0.072175 0.950301]
             /WhitePoint [0.9505 1.0 1.0890]
           >>
         ] setcolorspace } bind def
/srgb { setcolor } bind def
%%IncludeResource: font Helvetica
/Helvetica findfont
dup length dict begin
  {1 index /FID ne {def} {pop pop} ifelse} forall
  /Encoding ISOLatin1Encoding def
  currentdict
  end
/Font1 exch definefont pop
%%IncludeResource: font Helvetica-Bold
/Helvetica-Bold findfont
dup length dict begin
  {1 index /FID ne {def} {pop pop} ifelse} forall
  /Encoding ISOLatin1Encoding def
  currentdict
  end
/Font2 exch definefont pop
%%IncludeResource: font Helvetica-Oblique
/Helvetica-Oblique findfont
dup length dict begin
  {1 index /FID ne {def} {pop pop} ifelse} forall
  /Encoding ISOLatin1Encoding def
  currentdict
  end
/Font3 exch definefont pop
%%IncludeResource: font Helvetica-BoldOblique
/Helvetica-BoldOblique findfont
dup length dict begin
  {1 index /FID ne {def} {pop pop} ifelse} forall
  /Encoding ISOLatin1Encoding def
  currentdict
  end
/Font4 exch definefont pop
%%IncludeResource: font Symbol
/Symbol findfont
dup length dict begin
  {1 index /FID ne {def} {pop pop} ifelse} forall
  currentdict
  end
/Font5 exch definefont pop
%%EndProlog
%%Page: 1 1
bp
0.00 0.00 432.00 432.00 cl
59.04 73.44 401.76 372.96 cl
0.6627 0.6627 0.6627 srgb
0.75 setlinewidth
[] 0 setdash
1 setlinecap
1 setlinejoin
10.00 setmiterlimit
np
220.06 318.08 m
-0.04 -0.08 l
-0.27 -0.53 l
-0.67 -1.35 l
-1.20 -2.41 l
-1.78 -3.55 l
-2.33 -4.66 l
-2.80 -5.60 l
-3.14 -6.27 l
-3.33 -6.67 l
-3.39 -6.78 l
-3.34 -6.68 l
-3.21 -6.43 l
-3.04 -6.07 l
-2.84 -5.69 l
-2.66 -5.31 l
-2.48 -4.97 l
-2.34 -4.67 l
-2.22 -4.45 l
-2.14 -4.28 l
-2.10 -4.19 l
-2.07 -4.14 l
-0.05 -0.10 l
-2.07 -4.14 l
-2.09 -4.19 l
-2.14 -4.28 l
-2.22 -4.44 l
-2.33 -4.66 l
-2.48 -4.96 l
-2.66 -5.31 l
-2.84 -5.68 l
-3.03 -6.06 l
-3.21 -6.42 l
-3.33 -6.67 l
-3.40 -6.79 l
-3.33 -6.67 l
-3.15 -6.29 l
-2.80 -5.61 l
-2.35 -4.69 l
-1.79 -3.58 l
-1.21 -2.43 l
-0.69 -1.37 l
-0.28 -0.56 l
-0.04 -0.08 l
0 0 l
o
np
240.74 318.08 m
0.04 -0.08 l
0.27 -0.53 l
0.67 -1.35 l
1.20 -2.41 l
1.78 -3.55 l
2.33 -4.66 l
2.80 -5.60 l
3.14 -6.27 l
3.33 -6.67 l
3.39 -6.78 l
3.34 -6.68 l
3.21 -6.43 l
3.04 -6.07 l
2.84 -5.69 l
2.66 -5.31 l
2.48 -4.97 l
2.34 -4.67 l
2.22 -4.45 l
2.14 -4.28 l
2.10 -4.19 l
2.07 -4.14 l
0.05 -0.10 l
2.07 -4.14 l
2.09 -4.19 l
2.14 -4.28 l
2.22 -4.44 l
2.33 -4.66 l
2.48 -4.96 l
2.66 -5.31 l
2.84 -5.68 l
3.03 -6.06 l
3.21 -6.42 l
3.33 -6.67 l
3.40 -6.79 l
3.33 -6.67 l
3.15 -6.29 l
2.80 -5.61 l
2.35 -4.69 l
1.79 -3.58 l
1.21 -2.43 l
0.69 -1.37 l
0.28 -0.56 l
0.04 -0.08 l
0 0 l
o
/bg { 1 0 0 srgb } def
0 0 0 srgb
230.40 338.76 23.11 c p3
114.84 107.64 23.11 c p3
/bg { 0 0 0 srgb } def
345.96 107.64 23.11 c p3
0.00 0.00 432.00 432.00 cl
ep
%%Trailer
%%Pages: 1
%%EOF
