%!PS-Adobe-3.0 EPSF-3.0
%%DocumentNeededResources: font Helvetica
%%+ font Helvetica-Bold
%%+ font Helvetica-Oblique
%%+ font Helvetica-BoldOblique
%%+ font Symbol
%%Title: R Graphics Output
%%Creator: R Software
%%Pages: (atend)
%%BoundingBox: 0 0 595 213
%%EndComments
%%BeginProlog
/bp  { gs sRGB gs } def
% begin .ps.prolog
/gs  { gsave } bind def
/gr  { grestore } bind def
/ep  { showpage gr gr } bind def
/m   { moveto } bind def
/l  { rlineto } bind def
/np  { newpath } bind def
/cp  { closepath } bind def
/f   { fill } bind def
/o   { stroke } bind def
/c   { newpath 0 360 arc } bind def
/r   { 4 2 roll moveto 1 copy 3 -1 roll exch 0 exch rlineto 0 rlineto -1 mul 0 exch rlineto closepath } bind def
/p1  { stroke } bind def
/p2  { gsave bg fill grestore newpath } bind def
/p3  { gsave bg fill grestore stroke } bind def
/p6  { gsave bg eofill grestore newpath } bind def
/p7  { gsave bg eofill grestore stroke } bind def
/t   { 5 -2 roll moveto gsave rotate
       1 index stringwidth pop
       mul neg 0 rmoveto show grestore } bind def
/ta  { 4 -2 roll moveto gsave rotate show } bind def
/tb  { 2 -1 roll 0 rmoveto show } bind def
/cl  { grestore gsave newpath 3 index 3 index moveto 1 index
       4 -1 roll lineto  exch 1 index lineto lineto
       closepath clip newpath } bind def
/rgb { setrgbcolor } bind def
/s   { scalefont setfont } bind def
% end   .ps.prolog
/sRGB { [ /CIEBasedABC
          << /DecodeLMN
               [ { dup 0.03928 le
                        {12.92321 div}
                        {0.055 add 1.055 div 2.4 exp }
                     ifelse
                 } bind dup dup
               ]
             /MatrixLMN [0.412457 0.212673 0.019334
                         0.357576 0.715152 0.119192
                         0.180437 0.072175 0.950301]
             /WhitePoint [0.9505 1.0 1.0890]
           >>
         ] setcolorspace } bind def
/srgb { setcolor } bind def
%%IncludeResource: font Helvetica
/Helvetica findfont
dup length dict begin
  {1 index /FID ne {def} {pop pop} ifelse} forall
  /Encoding ISOLatin1Encoding def
  currentdict
  end
/Font1 exch definefont pop
%%IncludeResource: font Helvetica-Bold
/Helvetica-Bold findfont
dup length dict begin
  {1 index /FID ne {def} {pop pop} ifelse} forall
  /Encoding ISOLatin1Encoding def
  currentdict
  end
/Font2 exch definefont pop
%%IncludeResource: font Helvetica-Oblique
/Helvetica-Oblique findfont
dup length dict begin
  {1 index /FID ne {def} {pop pop} ifelse} forall
  /Encoding ISOLatin1Encoding def
  currentdict
  end
/Font3 exch definefont pop
%%IncludeResource: font Helvetica-BoldOblique
/Helvetica-BoldOblique findfont
dup length dict begin
  {1 index /FID ne {def} {pop pop} ifelse} forall
  /Encoding ISOLatin1Encoding def
  currentdict
  end
/Font4 exch definefont pop
%%IncludeResource: font Symbol
/Symbol findfont
dup length dict begin
  {1 index /FID ne {def} {pop pop} ifelse} forall
  currentdict
  end
/Font5 exch definefont pop
%%EndProlog
%%Page: 1 1
bp
0.00 0.00 595.28 212.60 cl
0.00 0.00 595.28 212.60 cl
0.00 0.00 595.28 212.60 cl
0.00 0.00 595.28 212.60 cl
0.00 0.00 595.28 212.60 cl
0.00 0.00 595.28 212.60 cl
0.00 0.00 595.28 212.60 cl
0.00 0.00 595.28 212.60 cl
0.00 0.00 595.28 212.60 cl
0.00 0.00 595.28 212.60 cl
0.00 0.00 595.28 212.60 cl
0.00 0.00 595.28 212.60 cl
0.00 0.00 595.28 212.60 cl
38.41 0.00 556.87 212.60 cl
/bg { 1 1 1 srgb } def
1 1 1 srgb
1.07 setlinewidth
[] 0 setdash
1 setlinecap
1 setlinejoin
10.00 setmiterlimit
38.41 0.00 518.46 212.60 r p3
0.00 0.00 595.28 212.60 cl
79.46 187.49 232.62 206.62 cl
/bg { 1 1 1 srgb } def
0.4980 0.4980 0.4980 srgb
0.43 setlinewidth
[] 0 setdash
1 setlinecap
1 setlinejoin
10.00 setmiterlimit
79.46 187.49 153.16 19.14 r p3
/Font1 findfont 10 s
0.1020 0.1020 0.1020 srgb
142.14 193.46 (fr) 0 ta
-0.100 (ance) tb gr
79.46 187.49 232.62 206.62 cl
0.00 0.00 595.28 212.60 cl
238.59 187.49 391.75 206.62 cl
/bg { 1 1 1 srgb } def
0.4980 0.4980 0.4980 srgb
0.43 setlinewidth
[] 0 setdash
1 setlinecap
1 setlinejoin
10.00 setmiterlimit
238.59 187.49 153.16 19.14 r p3
/Font1 findfont 10 s
0.1020 0.1020 0.1020 srgb
315.17 193.46 (gameofthrones) .5 0 t
238.59 187.49 391.75 206.62 cl
0.00 0.00 595.28 212.60 cl
397.73 187.49 550.89 206.62 cl
/bg { 1 1 1 srgb } def
0.4980 0.4980 0.4980 srgb
0.43 setlinewidth
[] 0 setdash
1 setlinecap
1 setlinejoin
10.00 setmiterlimit
397.73 187.49 153.16 19.14 r p3
/Font1 findfont 10 s
0.1020 0.1020 0.1020 srgb
474.31 193.46 (podemos) .5 0 t
397.73 187.49 550.89 206.62 cl
0.00 0.00 595.28 212.60 cl
79.46 34.33 232.62 187.49 cl
/bg { 1 1 1 srgb } def
79.46 34.33 153.16 153.16 r p2
0.9804 0.9804 0.9804 srgb
1.07 setlinewidth
[] 0 setdash
0 setlinecap
1 setlinejoin
10.00 setmiterlimit
np
79.46 59.45 m
153.16 0 l
o
np
79.46 99.81 m
153.16 0 l
o
np
79.46 140.17 m
153.16 0 l
o
np
79.46 180.52 m
153.16 0 l
o
0.8980 0.8980 0.8980 srgb
0.43 setlinewidth
[] 0 setdash
np
79.46 39.27 m
153.16 0 l
o
np
79.46 79.63 m
153.16 0 l
o
np
79.46 119.99 m
153.16 0 l
o
np
79.46 160.34 m
153.16 0 l
o
np
84.01 34.33 m
0 153.16 l
o
np
99.17 34.33 m
0 153.16 l
o
np
114.33 34.33 m
0 153.16 l
o
np
129.50 34.33 m
0 153.16 l
o
np
144.66 34.33 m
0 153.16 l
o
np
159.83 34.33 m
0 153.16 l
o
np
174.99 34.33 m
0 153.16 l
o
np
190.16 34.33 m
0 153.16 l
o
np
205.32 34.33 m
0 153.16 l
o
np
220.48 34.33 m
0 153.16 l
o
/bg { 0.2000 0.2000 0.2000 srgb } def
0.2000 0.2000 0.2000 srgb
0.71 setlinewidth
[] 0 setdash
1 setlinecap
84.01 75.00 0.89 c p3
84.01 74.27 0.89 c p3
84.01 78.80 0.89 c p3
84.01 73.92 0.89 c p3
84.01 80.45 0.89 c p3
84.01 75.59 0.89 c p3
84.01 84.11 0.89 c p3
84.01 71.56 0.89 c p3
84.01 88.69 0.89 c p3
1.07 setlinewidth
[] 0 setdash
0 setlinecap
np
84.01 55.58 m
0 13.96 l
o
np
84.01 45.32 m
0 -4.03 l
o
/bg { 0.9725 0.4627 0.4275 srgb } def
1 setlinecap
np
 81.16 55.58 m
0 -10.26 l
5.69 0 l
0 10.26 l
-5.69 0 l
cp p3
2.13 setlinewidth
[] 0 setdash
0 setlinecap
np
81.16 49.78 m
5.69 0 l
o
/bg { 0.2000 0.2000 0.2000 srgb } def
0.71 setlinewidth
[] 0 setdash
1 setlinecap
91.59 86.63 0.89 c p3
91.59 80.04 0.89 c p3
91.59 87.70 0.89 c p3
1.07 setlinewidth
[] 0 setdash
0 setlinecap
np
91.59 63.73 m
0 14.66 l
o
np
91.59 53.40 m
0 -9.93 l
o
/bg { 0.9176 0.5137 0.1922 srgb } def
1 setlinecap
np
 88.74 63.73 m
0 -10.33 l
5.69 0 l
0 10.33 l
-5.69 0 l
cp p3
2.13 setlinewidth
[] 0 setdash
0 setlinecap
np
88.74 57.61 m
5.69 0 l
o
/bg { 0.2000 0.2000 0.2000 srgb } def
0.71 setlinewidth
[] 0 setdash
1 setlinecap
99.17 70.16 0.89 c p3
1.07 setlinewidth
[] 0 setdash
0 setlinecap
np
99.17 55.91 m
0 11.61 l
o
np
99.17 47.63 m
0 -6.30 l
o
/bg { 0.8471 0.5647 0 srgb } def
1 setlinecap
np
 96.33 55.91 m
0 -8.28 l
5.68 0 l
0 8.28 l
-5.68 0 l
cp p3
2.13 setlinewidth
[] 0 setdash
0 setlinecap
np
96.33 53.54 m
5.68 0 l
o
/bg { 0.2000 0.2000 0.2000 srgb } def
0.71 setlinewidth
[] 0 setdash
1 setlinecap
106.75 80.04 0.89 c p3
106.75 93.75 0.89 c p3
106.75 82.51 0.89 c p3
1.07 setlinewidth
[] 0 setdash
0 setlinecap
np
106.75 59.65 m
0 17.96 l
o
np
106.75 47.38 m
0 -6.05 l
o
/bg { 0.7529 0.6078 0 srgb } def
1 setlinecap
np
 103.91 59.65 m
0 -12.27 l
5.68 0 l
0 12.27 l
-5.68 0 l
cp p3
2.13 setlinewidth
[] 0 setdash
0 setlinecap
np
103.91 53.40 m
5.68 0 l
o
/bg { 0.2000 0.2000 0.2000 srgb } def
0.71 setlinewidth
[] 0 setdash
1 setlinecap
114.33 68.10 0.89 c p3
1.07 setlinewidth
[] 0 setdash
0 setlinecap
np
114.33 53.95 m
0 12.09 l
o
np
114.33 45.58 m
0 -4.27 l
o
/bg { 0.6392 0.6471 0 srgb } def
1 setlinecap
np
 111.49 53.95 m
0 -8.37 l
5.69 0 l
0 8.37 l
-5.69 0 l
cp p3
2.13 setlinewidth
[] 0 setdash
0 setlinecap
np
111.49 49.67 m
5.69 0 l
o
1.07 setlinewidth
[] 0 setdash
np
121.92 53.54 m
0 10.44 l
o
np
121.92 45.58 m
0 -4.27 l
o
/bg { 0.4863 0.6824 0 srgb } def
1 setlinecap
np
 119.07 53.54 m
0 -7.96 l
5.69 0 l
0 7.96 l
-5.69 0 l
cp p3
2.13 setlinewidth
[] 0 setdash
0 setlinecap
np
119.07 49.57 m
5.69 0 l
o
/bg { 0.2000 0.2000 0.2000 srgb } def
0.71 setlinewidth
[] 0 setdash
1 setlinecap
129.50 70.16 0.89 c p3
129.50 69.84 0.89 c p3
1.07 setlinewidth
[] 0 setdash
0 setlinecap
np
129.50 53.40 m
0 10.33 l
o
np
129.50 45.32 m
0 -4.03 l
o
/bg { 0.2235 0.7137 0 srgb } def
1 setlinecap
np
 126.65 53.40 m
0 -8.08 l
5.69 0 l
0 8.08 l
-5.69 0 l
cp p3
2.13 setlinewidth
[] 0 setdash
0 setlinecap
np
126.65 47.51 m
5.69 0 l
o
/bg { 0.2000 0.2000 0.2000 srgb } def
0.71 setlinewidth
[] 0 setdash
1 setlinecap
137.08 57.99 0.89 c p3
137.08 55.58 0.89 c p3
137.08 53.68 0.89 c p3
137.08 51.88 0.89 c p3
1.07 setlinewidth
[] 0 setdash
0 setlinecap
np
137.08 45.51 m
0 4.27 l
o
np
137.08 41.33 m
0 -0.04 l
o
/bg { 0 0.7333 0.3059 srgb } def
1 setlinecap
np
 134.24 45.51 m
0 -4.18 l
5.68 0 l
0 4.18 l
-5.68 0 l
cp p3
2.13 setlinewidth
[] 0 setdash
0 setlinecap
np
134.24 43.39 m
5.68 0 l
o
/bg { 0.2000 0.2000 0.2000 srgb } def
0.71 setlinewidth
[] 0 setdash
1 setlinecap
144.66 53.40 0.89 c p3
144.66 55.58 0.89 c p3
1.07 setlinewidth
[] 0 setdash
0 setlinecap
np
144.66 45.45 m
0 6.05 l
o
np
144.66 41.33 m
0 -0.04 l
o
/bg { 0 0.7490 0.4902 srgb } def
1 setlinecap
np
 141.82 45.45 m
0 -4.12 l
5.69 0 l
0 4.12 l
-5.69 0 l
cp p3
2.13 setlinewidth
[] 0 setdash
0 setlinecap
np
141.82 43.39 m
5.69 0 l
o
1.07 setlinewidth
[] 0 setdash
np
152.24 44.86 m
0 4.71 l
o
np
152.24 41.33 m
0 -0.04 l
o
/bg { 0 0.7569 0.6392 srgb } def
1 setlinecap
np
 149.40 44.86 m
0 -3.53 l
5.69 0 l
0 3.53 l
-5.69 0 l
cp p3
2.13 setlinewidth
[] 0 setdash
0 setlinecap
np
149.40 43.35 m
5.69 0 l
o
/bg { 0.2000 0.2000 0.2000 srgb } def
0.71 setlinewidth
[] 0 setdash
1 setlinecap
159.83 53.98 0.89 c p3
159.83 55.58 0.89 c p3
1.07 setlinewidth
[] 0 setdash
0 setlinecap
np
159.83 47.44 m
0 6.10 l
o
np
159.83 43.35 m
0 -2.06 l
o
/bg { 0 0.7490 0.7686 srgb } def
1 setlinecap
np
 156.98 47.44 m
0 -4.09 l
5.69 0 l
0 4.09 l
-5.69 0 l
cp p3
2.13 setlinewidth
[] 0 setdash
0 setlinecap
np
156.98 44.44 m
5.69 0 l
o
1.07 setlinewidth
[] 0 setdash
np
167.41 47.34 m
0 8.24 l
o
np
167.41 41.37 m
0 -0.08 l
o
/bg { 0 0.7294 0.8784 srgb } def
1 setlinecap
np
 164.57 47.34 m
0 -5.97 l
5.68 0 l
0 5.97 l
-5.68 0 l
cp p3
2.13 setlinewidth
[] 0 setdash
0 setlinecap
np
164.57 43.47 m
5.68 0 l
o
/bg { 0.2000 0.2000 0.2000 srgb } def
0.71 setlinewidth
[] 0 setdash
1 setlinecap
174.99 53.68 0.89 c p3
174.99 57.43 0.89 c p3
174.99 53.68 0.89 c p3
1.07 setlinewidth
[] 0 setdash
0 setlinecap
np
174.99 47.42 m
0 6.12 l
o
np
174.99 43.31 m
0 -2.02 l
o
/bg { 0 0.6902 0.9647 srgb } def
1 setlinecap
np
 172.15 47.42 m
0 -4.11 l
5.68 0 l
0 4.11 l
-5.68 0 l
cp p3
2.13 setlinewidth
[] 0 setdash
0 setlinecap
np
172.15 43.43 m
5.68 0 l
o
/bg { 0.2000 0.2000 0.2000 srgb } def
0.71 setlinewidth
[] 0 setdash
1 setlinecap
182.57 55.91 0.89 c p3
1.07 setlinewidth
[] 0 setdash
0 setlinecap
np
182.57 47.51 m
0 5.89 l
o
np
182.57 43.31 m
0 -2.02 l
o
/bg { 0.2078 0.6353 1 srgb } def
1 setlinecap
np
 179.73 47.51 m
0 -4.20 l
5.69 0 l
0 4.20 l
-5.69 0 l
cp p3
2.13 setlinewidth
[] 0 setdash
0 setlinecap
np
179.73 43.52 m
5.69 0 l
o
/bg { 0.2000 0.2000 0.2000 srgb } def
0.71 setlinewidth
[] 0 setdash
1 setlinecap
190.16 51.50 0.89 c p3
1.07 setlinewidth
[] 0 setdash
0 setlinecap
np
190.16 43.47 m
0 1.92 l
o
np
190.16 41.31 m
0 -0.02 l
o
/bg { 0.5843 0.5647 1 srgb } def
1 setlinecap
np
 187.31 43.47 m
0 -2.16 l
5.69 0 l
0 2.16 l
-5.69 0 l
cp p3
2.13 setlinewidth
[] 0 setdash
0 setlinecap
np
187.31 41.33 m
5.69 0 l
o
/bg { 0.2000 0.2000 0.2000 srgb } def
0.71 setlinewidth
[] 0 setdash
1 setlinecap
197.74 45.39 0.89 c p3
197.74 43.39 0.89 c p3
197.74 43.35 0.89 c p3
197.74 43.31 0.89 c p3
1.07 setlinewidth
[] 0 setdash
0 setlinecap
np
197.74 41.39 m
0 0.03 l
o
np
197.74 41.31 m
0 -0.02 l
o
/bg { 0.7804 0.4863 1 srgb } def
1 setlinecap
np
 194.89 41.39 m
0 -0.08 l
5.69 0 l
0 0.08 l
-5.69 0 l
cp p3
2.13 setlinewidth
[] 0 setdash
0 setlinecap
np
194.89 41.35 m
5.69 0 l
o
/bg { 0.2000 0.2000 0.2000 srgb } def
0.71 setlinewidth
[] 0 setdash
1 setlinecap
205.32 53.54 0.89 c p3
205.32 53.40 0.89 c p3
1.07 setlinewidth
[] 0 setdash
0 setlinecap
np
205.32 45.51 m
0 5.87 l
o
np
205.32 41.36 m
0 -0.07 l
o
/bg { 0.9059 0.4196 0.9529 srgb } def
1 setlinecap
np
 202.48 45.51 m
0 -4.15 l
5.68 0 l
0 4.15 l
-5.68 0 l
cp p3
2.13 setlinewidth
[] 0 setdash
0 setlinecap
np
202.48 43.39 m
5.68 0 l
o
/bg { 0.2000 0.2000 0.2000 srgb } def
0.71 setlinewidth
[] 0 setdash
1 setlinecap
212.90 53.54 0.89 c p3
1.07 setlinewidth
[] 0 setdash
0 setlinecap
np
212.90 45.43 m
0 5.95 l
o
np
212.90 41.35 m
0 -0.06 l
o
/bg { 0.9804 0.3843 0.8588 srgb } def
1 setlinecap
np
 210.06 45.43 m
0 -4.08 l
5.68 0 l
0 4.08 l
-5.68 0 l
cp p3
2.13 setlinewidth
[] 0 setdash
0 setlinecap
np
210.06 43.35 m
5.68 0 l
o
/bg { 0.2000 0.2000 0.2000 srgb } def
0.71 setlinewidth
[] 0 setdash
1 setlinecap
220.48 51.50 0.89 c p3
220.48 51.75 0.89 c p3
220.48 53.54 0.89 c p3
220.48 51.50 0.89 c p3
1.07 setlinewidth
[] 0 setdash
0 setlinecap
np
220.48 45.32 m
0 4.46 l
o
np
220.48 41.33 m
0 -0.04 l
o
/bg { 1 0.3843 0.7373 srgb } def
1 setlinecap
np
 217.64 45.32 m
0 -3.99 l
5.69 0 l
0 3.99 l
-5.69 0 l
cp p3
2.13 setlinewidth
[] 0 setdash
0 setlinecap
np
217.64 42.36 m
5.69 0 l
o
/bg { 0.2000 0.2000 0.2000 srgb } def
0.71 setlinewidth
[] 0 setdash
1 setlinecap
228.07 47.34 0.89 c p3
228.07 49.57 0.89 c p3
1.07 setlinewidth
[] 0 setdash
0 setlinecap
np
228.07 43.35 m
0 2.16 l
o
np
228.07 41.31 m
0 -0.02 l
o
/bg { 1 0.4157 0.5961 srgb } def
1 setlinecap
np
 225.22 43.35 m
0 -2.04 l
5.69 0 l
0 2.04 l
-5.69 0 l
cp p3
2.13 setlinewidth
[] 0 setdash
0 setlinecap
np
225.22 41.37 m
5.69 0 l
o
0.4980 0.4980 0.4980 srgb
1.07 setlinewidth
[] 0 setdash
1 setlinecap
79.46 34.33 153.16 153.16 r p1
0.00 0.00 595.28 212.60 cl
238.59 34.33 391.75 187.49 cl
/bg { 1 1 1 srgb } def
238.59 34.33 153.16 153.16 r p2
0.9804 0.9804 0.9804 srgb
1.07 setlinewidth
[] 0 setdash
0 setlinecap
1 setlinejoin
10.00 setmiterlimit
np
238.59 59.45 m
153.16 0 l
o
np
238.59 99.81 m
153.16 0 l
o
np
238.59 140.17 m
153.16 0 l
o
np
238.59 180.52 m
153.16 0 l
o
0.8980 0.8980 0.8980 srgb
0.43 setlinewidth
[] 0 setdash
np
238.59 39.27 m
153.16 0 l
o
np
238.59 79.63 m
153.16 0 l
o
np
238.59 119.99 m
153.16 0 l
o
np
238.59 160.34 m
153.16 0 l
o
np
243.14 34.33 m
0 153.16 l
o
np
258.31 34.33 m
0 153.16 l
o
np
273.47 34.33 m
0 153.16 l
o
np
288.63 34.33 m
0 153.16 l
o
np
303.80 34.33 m
0 153.16 l
o
np
318.96 34.33 m
0 153.16 l
o
np
334.13 34.33 m
0 153.16 l
o
np
349.29 34.33 m
0 153.16 l
o
np
364.46 34.33 m
0 153.16 l
o
np
379.62 34.33 m
0 153.16 l
o
/bg { 0.2000 0.2000 0.2000 srgb } def
0.2000 0.2000 0.2000 srgb
0.71 setlinewidth
[] 0 setdash
1 setlinecap
243.14 153.41 0.89 c p3
243.14 180.52 0.89 c p3
243.14 180.52 0.89 c p3
243.14 143.22 0.89 c p3
1.07 setlinewidth
[] 0 setdash
0 setlinecap
np
243.14 84.17 m
0 43.89 l
o
np
243.14 53.54 m
0 -12.25 l
o
/bg { 0.9725 0.4627 0.4275 srgb } def
1 setlinecap
np
 240.30 84.17 m
0 -30.63 l
5.69 0 l
0 30.63 l
-5.69 0 l
cp p3
2.13 setlinewidth
[] 0 setdash
0 setlinecap
np
240.30 64.50 m
5.69 0 l
o
/bg { 0.2000 0.2000 0.2000 srgb } def
0.71 setlinewidth
[] 0 setdash
1 setlinecap
250.72 82.51 0.89 c p3
250.72 78.80 0.89 c p3
250.72 80.04 0.89 c p3
250.72 82.51 0.89 c p3
1.07 setlinewidth
[] 0 setdash
0 setlinecap
np
250.72 59.65 m
0 18.35 l
o
np
250.72 47.42 m
0 -6.13 l
o
/bg { 0.9176 0.5137 0.1922 srgb } def
1 setlinecap
np
 247.88 59.65 m
0 -12.23 l
5.69 0 l
0 12.23 l
-5.69 0 l
cp p3
2.13 setlinewidth
[] 0 setdash
0 setlinecap
np
247.88 53.40 m
5.69 0 l
o
/bg { 0.2000 0.2000 0.2000 srgb } def
0.71 setlinewidth
[] 0 setdash
1 setlinecap
258.31 93.36 0.89 c p3
258.31 94.30 0.89 c p3
258.31 104.50 0.89 c p3
258.31 106.53 0.89 c p3
1.07 setlinewidth
[] 0 setdash
0 setlinecap
np
258.31 66.04 m
0 24.19 l
o
np
258.31 49.36 m
0 -8.05 l
o
/bg { 0.8471 0.5647 0 srgb } def
1 setlinecap
np
 255.46 66.04 m
0 -16.68 l
5.69 0 l
0 16.68 l
-5.69 0 l
cp p3
2.13 setlinewidth
[] 0 setdash
0 setlinecap
np
255.46 55.91 m
5.69 0 l
o
/bg { 0.2000 0.2000 0.2000 srgb } def
0.71 setlinewidth
[] 0 setdash
1 setlinecap
265.89 60.07 0.89 c p3
265.89 74.27 0.89 c p3
265.89 63.73 0.89 c p3
265.89 59.45 0.89 c p3
265.89 67.81 0.89 c p3
265.89 75.38 0.89 c p3
265.89 57.99 0.89 c p3
265.89 58.39 0.89 c p3
1.07 setlinewidth
[] 0 setdash
0 setlinecap
np
265.89 48.00 m
0 9.80 l
o
np
265.89 41.41 m
0 -0.12 l
o
/bg { 0.7529 0.6078 0 srgb } def
1 setlinecap
np
 263.05 48.00 m
0 -6.59 l
5.68 0 l
0 6.59 l
-5.68 0 l
cp p3
2.13 setlinewidth
[] 0 setdash
0 setlinecap
np
263.05 45.42 m
5.68 0 l
o
/bg { 0.2000 0.2000 0.2000 srgb } def
0.71 setlinewidth
[] 0 setdash
1 setlinecap
273.47 90.23 0.89 c p3
1.07 setlinewidth
[] 0 setdash
0 setlinecap
np
273.47 57.80 m
0 13.76 l
o
np
273.47 45.64 m
0 -4.35 l
o
/bg { 0.6392 0.6471 0 srgb } def
1 setlinecap
np
 270.63 57.80 m
0 -12.16 l
5.68 0 l
0 12.16 l
-5.68 0 l
cp p3
2.13 setlinewidth
[] 0 setdash
0 setlinecap
np
270.63 51.75 m
5.68 0 l
o
/bg { 0.2000 0.2000 0.2000 srgb } def
0.71 setlinewidth
[] 0 setdash
1 setlinecap
281.05 55.91 0.89 c p3
281.05 55.41 0.89 c p3
1.07 setlinewidth
[] 0 setdash
0 setlinecap
np
281.05 47.77 m
0 5.91 l
o
np
281.05 43.32 m
0 -2.03 l
o
/bg { 0.4863 0.6824 0 srgb } def
1 setlinecap
np
 278.21 47.77 m
0 -4.45 l
5.69 0 l
0 4.45 l
-5.69 0 l
cp p3
2.13 setlinewidth
[] 0 setdash
0 setlinecap
np
278.21 45.45 m
5.69 0 l
o
/bg { 0.2000 0.2000 0.2000 srgb } def
0.71 setlinewidth
[] 0 setdash
1 setlinecap
288.63 66.31 0.89 c p3
288.63 71.56 0.89 c p3
288.63 69.54 0.89 c p3
288.63 67.52 0.89 c p3
288.63 67.52 0.89 c p3
1.07 setlinewidth
[] 0 setdash
0 setlinecap
np
288.63 53.68 m
0 11.82 l
o
np
288.63 45.34 m
0 -4.05 l
o
/bg { 0.2235 0.7137 0 srgb } def
1 setlinecap
np
 285.79 53.68 m
0 -8.34 l
5.69 0 l
0 8.34 l
-5.69 0 l
cp p3
2.13 setlinewidth
[] 0 setdash
0 setlinecap
np
285.79 48.61 m
5.69 0 l
o
/bg { 0.2000 0.2000 0.2000 srgb } def
0.71 setlinewidth
[] 0 setdash
1 setlinecap
296.22 82.07 0.89 c p3
296.22 66.04 0.89 c p3
296.22 61.69 0.89 c p3
296.22 68.39 0.89 c p3
1.07 setlinewidth
[] 0 setdash
0 setlinecap
np
296.22 50.00 m
0 9.65 l
o
np
296.22 43.31 m
0 -2.02 l
o
/bg { 0 0.7333 0.3059 srgb } def
1 setlinecap
np
 293.37 50.00 m
0 -6.69 l
5.69 0 l
0 6.69 l
-5.69 0 l
cp p3
2.13 setlinewidth
[] 0 setdash
0 setlinecap
np
293.37 45.58 m
5.69 0 l
o
/bg { 0.2000 0.2000 0.2000 srgb } def
0.71 setlinewidth
[] 0 setdash
1 setlinecap
303.80 71.88 0.89 c p3
303.80 61.47 0.89 c p3
303.80 60.07 0.89 c p3
1.07 setlinewidth
[] 0 setdash
0 setlinecap
np
303.80 49.36 m
0 8.07 l
o
np
303.80 43.35 m
0 -2.06 l
o
/bg { 0 0.7490 0.4902 srgb } def
1 setlinecap
np
 300.96 49.36 m
0 -6.01 l
5.68 0 l
0 6.01 l
-5.68 0 l
cp p3
2.13 setlinewidth
[] 0 setdash
0 setlinecap
np
300.96 45.39 m
5.68 0 l
o
/bg { 0.2000 0.2000 0.2000 srgb } def
0.71 setlinewidth
[] 0 setdash
1 setlinecap
311.38 53.54 0.89 c p3
311.38 53.68 0.89 c p3
311.38 53.40 0.89 c p3
311.38 51.50 0.89 c p3
311.38 53.54 0.89 c p3
311.38 53.54 0.89 c p3
311.38 51.38 0.89 c p3
1.07 setlinewidth
[] 0 setdash
0 setlinecap
np
311.38 45.32 m
0 2.45 l
o
np
311.38 41.38 m
0 -0.09 l
o
/bg { 0 0.7569 0.6392 srgb } def
1 setlinecap
np
 308.54 45.32 m
0 -3.94 l
5.68 0 l
0 3.94 l
-5.68 0 l
cp p3
2.13 setlinewidth
[] 0 setdash
0 setlinecap
np
308.54 43.35 m
5.68 0 l
o
/bg { 0.2000 0.2000 0.2000 srgb } def
0.71 setlinewidth
[] 0 setdash
1 setlinecap
318.96 55.74 0.89 c p3
318.96 54.46 0.89 c p3
318.96 57.61 0.89 c p3
1.07 setlinewidth
[] 0 setdash
0 setlinecap
np
318.96 47.51 m
0 5.89 l
o
np
318.96 43.31 m
0 -2.02 l
o
/bg { 0 0.7490 0.7686 srgb } def
1 setlinecap
np
 316.12 47.51 m
0 -4.20 l
5.69 0 l
0 4.20 l
-5.69 0 l
cp p3
2.13 setlinewidth
[] 0 setdash
0 setlinecap
np
316.12 45.32 m
5.69 0 l
o
/bg { 0.2000 0.2000 0.2000 srgb } def
0.71 setlinewidth
[] 0 setdash
1 setlinecap
326.55 61.69 0.89 c p3
326.55 57.43 0.89 c p3
326.55 70.16 0.89 c p3
326.55 63.49 0.89 c p3
1.07 setlinewidth
[] 0 setdash
0 setlinecap
np
326.55 47.51 m
0 6.32 l
o
np
326.55 41.43 m
0 -0.14 l
o
/bg { 0 0.7294 0.8784 srgb } def
1 setlinecap
np
 323.70 47.51 m
0 -6.08 l
5.69 0 l
0 6.08 l
-5.69 0 l
cp p3
2.13 setlinewidth
[] 0 setdash
0 setlinecap
np
323.70 45.35 m
5.69 0 l
o
/bg { 0.2000 0.2000 0.2000 srgb } def
0.71 setlinewidth
[] 0 setdash
1 setlinecap
334.13 51.88 0.89 c p3
334.13 55.58 0.89 c p3
1.07 setlinewidth
[] 0 setdash
0 setlinecap
np
334.13 45.40 m
0 5.98 l
o
np
334.13 41.31 m
0 -0.02 l
o
/bg { 0 0.6902 0.9647 srgb } def
1 setlinecap
np
 331.28 45.40 m
0 -4.09 l
5.69 0 l
0 4.09 l
-5.69 0 l
cp p3
2.13 setlinewidth
[] 0 setdash
0 setlinecap
np
331.28 43.31 m
5.69 0 l
o
/bg { 0.2000 0.2000 0.2000 srgb } def
0.71 setlinewidth
[] 0 setdash
1 setlinecap
341.71 55.74 0.89 c p3
341.71 51.75 0.89 c p3
341.71 53.40 0.89 c p3
341.71 60.07 0.89 c p3
1.07 setlinewidth
[] 0 setdash
0 setlinecap
np
341.71 45.45 m
0 5.93 l
o
np
341.71 41.33 m
0 -0.04 l
o
/bg { 0.2078 0.6353 1 srgb } def
1 setlinecap
np
 338.87 45.45 m
0 -4.12 l
5.68 0 l
0 4.12 l
-5.68 0 l
cp p3
2.13 setlinewidth
[] 0 setdash
0 setlinecap
np
338.87 43.39 m
5.68 0 l
o
/bg { 0.2000 0.2000 0.2000 srgb } def
0.71 setlinewidth
[] 0 setdash
1 setlinecap
349.29 55.58 0.89 c p3
349.29 49.89 0.89 c p3
349.29 51.62 0.89 c p3
1.07 setlinewidth
[] 0 setdash
0 setlinecap
np
349.29 44.04 m
0 3.47 l
o
np
349.29 41.32 m
0 -0.03 l
o
/bg { 0.5843 0.5647 1 srgb } def
1 setlinecap
np
 346.45 44.04 m
0 -2.72 l
5.69 0 l
0 2.72 l
-5.69 0 l
cp p3
2.13 setlinewidth
[] 0 setdash
0 setlinecap
np
346.45 41.42 m
5.69 0 l
o
/bg { 0.2000 0.2000 0.2000 srgb } def
0.71 setlinewidth
[] 0 setdash
1 setlinecap
356.87 80.45 0.89 c p3
356.87 129.66 0.89 c p3
356.87 114.41 0.89 c p3
1.07 setlinewidth
[] 0 setdash
0 setlinecap
np
356.87 50.90 m
0 11.02 l
o
np
356.87 41.41 m
0 -0.12 l
o
/bg { 0.7804 0.4863 1 srgb } def
1 setlinecap
np
 354.03 50.90 m
0 -9.49 l
5.69 0 l
0 9.49 l
-5.69 0 l
cp p3
2.13 setlinewidth
[] 0 setdash
0 setlinecap
np
354.03 45.32 m
5.69 0 l
o
/bg { 0.2000 0.2000 0.2000 srgb } def
0.71 setlinewidth
[] 0 setdash
1 setlinecap
364.46 55.41 0.89 c p3
1.07 setlinewidth
[] 0 setdash
0 setlinecap
np
364.46 45.32 m
0 4.25 l
o
np
364.46 41.31 m
0 -0.02 l
o
/bg { 0.9059 0.4196 0.9529 srgb } def
1 setlinecap
np
 361.61 45.32 m
0 -4.01 l
5.69 0 l
0 4.01 l
-5.69 0 l
cp p3
2.13 setlinewidth
[] 0 setdash
0 setlinecap
np
361.61 43.31 m
5.69 0 l
o
/bg { 0.2000 0.2000 0.2000 srgb } def
0.71 setlinewidth
[] 0 setdash
1 setlinecap
372.04 47.59 0.89 c p3
372.04 47.34 0.89 c p3
372.04 47.42 0.89 c p3
372.04 47.77 0.89 c p3
372.04 47.42 0.89 c p3
1.07 setlinewidth
[] 0 setdash
0 setlinecap
np
372.04 43.46 m
0 1.99 l
o
np
372.04 41.31 m
0 -0.02 l
o
/bg { 0.9804 0.3843 0.8588 srgb } def
1 setlinecap
np
 369.19 43.46 m
0 -2.15 l
5.69 0 l
0 2.15 l
-5.69 0 l
cp p3
2.13 setlinewidth
[] 0 setdash
0 setlinecap
np
369.19 41.35 m
5.69 0 l
o
/bg { 0.2000 0.2000 0.2000 srgb } def
0.71 setlinewidth
[] 0 setdash
1 setlinecap
379.62 47.34 0.89 c p3
379.62 49.46 0.89 c p3
1.07 setlinewidth
[] 0 setdash
0 setlinecap
np
379.62 43.39 m
0 2.25 l
o
np
379.62 41.31 m
0 -0.02 l
o
/bg { 1 0.3843 0.7373 srgb } def
1 setlinecap
np
 376.78 43.39 m
0 -2.08 l
5.68 0 l
0 2.08 l
-5.68 0 l
cp p3
2.13 setlinewidth
[] 0 setdash
0 setlinecap
np
376.78 41.35 m
5.68 0 l
o
/bg { 0.2000 0.2000 0.2000 srgb } def
0.71 setlinewidth
[] 0 setdash
1 setlinecap
387.20 47.34 0.89 c p3
387.20 47.34 0.89 c p3
1.07 setlinewidth
[] 0 setdash
0 setlinecap
np
387.20 43.39 m
0 2.25 l
o
np
387.20 41.31 m
0 -0.02 l
o
/bg { 1 0.4157 0.5961 srgb } def
1 setlinecap
np
 384.36 43.39 m
0 -2.08 l
5.69 0 l
0 2.08 l
-5.69 0 l
cp p3
2.13 setlinewidth
[] 0 setdash
0 setlinecap
np
384.36 41.37 m
5.69 0 l
o
0.4980 0.4980 0.4980 srgb
1.07 setlinewidth
[] 0 setdash
1 setlinecap
238.59 34.33 153.16 153.16 r p1
0.00 0.00 595.28 212.60 cl
397.73 34.33 550.89 187.49 cl
/bg { 1 1 1 srgb } def
397.73 34.33 153.16 153.16 r p2
0.9804 0.9804 0.9804 srgb
1.07 setlinewidth
[] 0 setdash
0 setlinecap
1 setlinejoin
10.00 setmiterlimit
np
397.73 59.45 m
153.16 0 l
o
np
397.73 99.81 m
153.16 0 l
o
np
397.73 140.17 m
153.16 0 l
o
np
397.73 180.52 m
153.16 0 l
o
0.8980 0.8980 0.8980 srgb
0.43 setlinewidth
[] 0 setdash
np
397.73 39.27 m
153.16 0 l
o
np
397.73 79.63 m
153.16 0 l
o
np
397.73 119.99 m
153.16 0 l
o
np
397.73 160.34 m
153.16 0 l
o
np
402.28 34.33 m
0 153.16 l
o
np
417.44 34.33 m
0 153.16 l
o
np
432.61 34.33 m
0 153.16 l
o
np
447.77 34.33 m
0 153.16 l
o
np
462.94 34.33 m
0 153.16 l
o
np
478.10 34.33 m
0 153.16 l
o
np
493.26 34.33 m
0 153.16 l
o
np
508.43 34.33 m
0 153.16 l
o
np
523.59 34.33 m
0 153.16 l
o
np
538.76 34.33 m
0 153.16 l
o
/bg { 0.2000 0.2000 0.2000 srgb } def
0.2000 0.2000 0.2000 srgb
0.71 setlinewidth
[] 0 setdash
1 setlinecap
402.28 154.29 0.89 c p3
402.28 156.31 0.89 c p3
402.28 154.29 0.89 c p3
1.07 setlinewidth
[] 0 setdash
0 setlinecap
np
402.28 99.71 m
0 43.51 l
o
np
402.28 63.86 m
0 -22.40 l
o
/bg { 0.9725 0.4627 0.4275 srgb } def
1 setlinecap
np
 399.44 99.71 m
0 -35.85 l
5.68 0 l
0 35.85 l
-5.68 0 l
cp p3
2.13 setlinewidth
[] 0 setdash
0 setlinecap
np
399.44 80.66 m
5.68 0 l
o
1.07 setlinewidth
[] 0 setdash
np
409.86 63.67 m
0 11.92 l
o
np
409.86 51.72 m
0 -10.43 l
o
/bg { 0.9176 0.5137 0.1922 srgb } def
1 setlinecap
np
 407.02 63.67 m
0 -11.95 l
5.68 0 l
0 11.95 l
-5.68 0 l
cp p3
2.13 setlinewidth
[] 0 setdash
0 setlinecap
np
407.02 57.03 m
5.68 0 l
o
/bg { 0.2000 0.2000 0.2000 srgb } def
0.71 setlinewidth
[] 0 setdash
1 setlinecap
417.44 61.69 0.89 c p3
417.44 57.43 0.89 c p3
417.44 75.59 0.89 c p3
1.07 setlinewidth
[] 0 setdash
0 setlinecap
np
417.44 47.34 m
0 8.24 l
o
np
417.44 41.39 m
0 -0.10 l
o
/bg { 0.8471 0.5647 0 srgb } def
1 setlinecap
np
 414.60 47.34 m
0 -5.95 l
5.69 0 l
0 5.95 l
-5.69 0 l
cp p3
2.13 setlinewidth
[] 0 setdash
0 setlinecap
np
414.60 43.39 m
5.69 0 l
o
/bg { 0.2000 0.2000 0.2000 srgb } def
0.71 setlinewidth
[] 0 setdash
1 setlinecap
425.03 83.66 0.89 c p3
425.03 85.68 0.89 c p3
1.07 setlinewidth
[] 0 setdash
0 setlinecap
np
425.03 61.69 m
0 20.38 l
o
np
425.03 47.34 m
0 -6.05 l
o
/bg { 0.7529 0.6078 0 srgb } def
1 setlinecap
np
 422.18 61.69 m
0 -14.35 l
5.69 0 l
0 14.35 l
-5.69 0 l
cp p3
2.13 setlinewidth
[] 0 setdash
0 setlinecap
np
422.18 53.40 m
5.69 0 l
o
/bg { 0.2000 0.2000 0.2000 srgb } def
0.71 setlinewidth
[] 0 setdash
1 setlinecap
432.61 63.49 0.89 c p3
432.61 69.54 0.89 c p3
1.07 setlinewidth
[] 0 setdash
0 setlinecap
np
432.61 50.43 m
0 9.22 l
o
np
432.61 43.34 m
0 -2.05 l
o
/bg { 0.6392 0.6471 0 srgb } def
1 setlinecap
np
 429.76 50.43 m
0 -7.09 l
5.69 0 l
0 7.09 l
-5.69 0 l
cp p3
2.13 setlinewidth
[] 0 setdash
0 setlinecap
np
429.76 47.34 m
5.69 0 l
o
/bg { 0.2000 0.2000 0.2000 srgb } def
0.71 setlinewidth
[] 0 setdash
1 setlinecap
440.19 61.92 0.89 c p3
440.19 62.15 0.89 c p3
440.19 75.96 0.89 c p3
440.19 65.50 0.89 c p3
1.07 setlinewidth
[] 0 setdash
0 setlinecap
np
440.19 51.50 m
0 9.24 l
o
np
440.19 45.32 m
0 -4.03 l
o
/bg { 0.4863 0.6824 0 srgb } def
1 setlinecap
np
 437.35 51.50 m
0 -6.18 l
5.68 0 l
0 6.18 l
-5.68 0 l
cp p3
2.13 setlinewidth
[] 0 setdash
0 setlinecap
np
437.35 47.34 m
5.68 0 l
o
/bg { 0.2000 0.2000 0.2000 srgb } def
0.71 setlinewidth
[] 0 setdash
1 setlinecap
447.77 65.50 0.89 c p3
1.07 setlinewidth
[] 0 setdash
0 setlinecap
np
447.77 45.35 m
0 4.11 l
o
np
447.77 41.33 m
0 -0.04 l
o
/bg { 0.2235 0.7137 0 srgb } def
1 setlinecap
np
 444.93 45.35 m
0 -4.02 l
5.68 0 l
0 4.02 l
-5.68 0 l
cp p3
2.13 setlinewidth
[] 0 setdash
0 setlinecap
np
444.93 43.35 m
5.68 0 l
o
/bg { 0.2000 0.2000 0.2000 srgb } def
0.71 setlinewidth
[] 0 setdash
1 setlinecap
455.35 71.56 0.89 c p3
455.35 80.04 0.89 c p3
1.07 setlinewidth
[] 0 setdash
0 setlinecap
np
455.35 53.72 m
0 12.32 l
o
np
455.35 45.32 m
0 -4.03 l
o
/bg { 0 0.7333 0.3059 srgb } def
1 setlinecap
np
 452.51 53.72 m
0 -8.40 l
5.69 0 l
0 8.40 l
-5.69 0 l
cp p3
2.13 setlinewidth
[] 0 setdash
0 setlinecap
np
452.51 49.36 m
5.69 0 l
o
/bg { 0.2000 0.2000 0.2000 srgb } def
0.71 setlinewidth
[] 0 setdash
1 setlinecap
462.94 79.63 0.89 c p3
462.94 75.59 0.89 c p3
462.94 69.54 0.89 c p3
462.94 71.56 0.89 c p3
1.07 setlinewidth
[] 0 setdash
0 setlinecap
np
462.94 49.46 m
0 8.15 l
o
np
462.94 43.31 m
0 -2.02 l
o
/bg { 0 0.7490 0.4902 srgb } def
1 setlinecap
np
 460.09 49.46 m
0 -6.15 l
5.69 0 l
0 6.15 l
-5.69 0 l
cp p3
2.13 setlinewidth
[] 0 setdash
0 setlinecap
np
460.09 45.39 m
5.69 0 l
o
1.07 setlinewidth
[] 0 setdash
np
470.52 49.46 m
0 8.15 l
o
np
470.52 43.35 m
0 -2.06 l
o
/bg { 0 0.7569 0.6392 srgb } def
1 setlinecap
np
 467.67 49.46 m
0 -6.11 l
5.69 0 l
0 6.11 l
-5.69 0 l
cp p3
2.13 setlinewidth
[] 0 setdash
0 setlinecap
np
467.67 45.45 m
5.69 0 l
o
/bg { 0.2000 0.2000 0.2000 srgb } def
0.71 setlinewidth
[] 0 setdash
1 setlinecap
478.10 49.46 0.89 c p3
478.10 47.77 0.89 c p3
478.10 47.42 0.89 c p3
478.10 49.57 0.89 c p3
478.10 51.38 0.89 c p3
478.10 49.36 0.89 c p3
1.07 setlinewidth
[] 0 setdash
0 setlinecap
np
478.10 43.56 m
0 2.08 l
o
np
478.10 41.31 m
0 -0.02 l
o
/bg { 0 0.7490 0.7686 srgb } def
1 setlinecap
np
 475.26 43.56 m
0 -2.25 l
5.68 0 l
0 2.25 l
-5.68 0 l
cp p3
2.13 setlinewidth
[] 0 setdash
0 setlinecap
np
475.26 41.35 m
5.68 0 l
o
1.07 setlinewidth
[] 0 setdash
np
485.68 43.31 m
0 2.40 l
o
np
485.68 41.29 m
0 0 l
o
/bg { 0 0.7294 0.8784 srgb } def
1 setlinecap
np
 482.84 43.31 m
0 -2.02 l
5.69 0 l
0 2.02 l
-5.69 0 l
cp p3
2.13 setlinewidth
[] 0 setdash
0 setlinecap
np
482.84 41.33 m
5.69 0 l
o
1.07 setlinewidth
[] 0 setdash
np
493.26 43.31 m
0 2.14 l
o
np
493.26 41.29 m
0 0 l
o
/bg { 0 0.6902 0.9647 srgb } def
1 setlinecap
np
 490.42 43.31 m
0 -2.02 l
5.69 0 l
0 2.02 l
-5.69 0 l
cp p3
2.13 setlinewidth
[] 0 setdash
0 setlinecap
np
490.42 41.32 m
5.69 0 l
o
/bg { 0.2000 0.2000 0.2000 srgb } def
0.71 setlinewidth
[] 0 setdash
1 setlinecap
500.85 43.31 0.89 c p3
500.85 45.39 0.89 c p3
500.85 43.61 0.89 c p3
500.85 43.39 0.89 c p3
500.85 45.32 0.89 c p3
500.85 45.32 0.89 c p3
500.85 45.39 0.89 c p3
500.85 51.38 0.89 c p3
500.85 43.31 0.89 c p3
500.85 45.32 0.89 c p3
1.07 setlinewidth
[] 0 setdash
0 setlinecap
np
500.85 41.38 m
0 0.04 l
o
np
500.85 41.29 m
0 0 l
o
/bg { 0.2078 0.6353 1 srgb } def
1 setlinecap
np
 498.00 41.38 m
0 -0.09 l
5.69 0 l
0 0.09 l
-5.69 0 l
cp p3
2.13 setlinewidth
[] 0 setdash
0 setlinecap
np
498.00 41.31 m
5.69 0 l
o
/bg { 0.2000 0.2000 0.2000 srgb } def
0.71 setlinewidth
[] 0 setdash
1 setlinecap
508.43 77.11 0.89 c p3
508.43 71.13 0.89 c p3
508.43 62.64 0.89 c p3
508.43 73.57 0.89 c p3
508.43 122.99 0.89 c p3
508.43 70.16 0.89 c p3
508.43 74.64 0.89 c p3
508.43 81.65 0.89 c p3
1.07 setlinewidth
[] 0 setdash
0 setlinecap
np
508.43 49.78 m
0 9.67 l
o
np
508.43 43.31 m
0 -2.02 l
o
/bg { 0.5843 0.5647 1 srgb } def
1 setlinecap
np
 505.59 49.78 m
0 -6.47 l
5.68 0 l
0 6.47 l
-5.68 0 l
cp p3
2.13 setlinewidth
[] 0 setdash
0 setlinecap
np
505.59 46.53 m
5.68 0 l
o
/bg { 0.2000 0.2000 0.2000 srgb } def
0.71 setlinewidth
[] 0 setdash
1 setlinecap
516.01 73.57 0.89 c p3
516.01 61.92 0.89 c p3
516.01 65.77 0.89 c p3
516.01 117.97 0.89 c p3
516.01 79.63 0.89 c p3
516.01 57.43 0.89 c p3
1.07 setlinewidth
[] 0 setdash
0 setlinecap
np
516.01 47.34 m
0 6.06 l
o
np
516.01 41.31 m
0 -0.02 l
o
/bg { 0.7804 0.4863 1 srgb } def
1 setlinecap
np
 513.17 47.34 m
0 -6.03 l
5.68 0 l
0 6.03 l
-5.68 0 l
cp p3
2.13 setlinewidth
[] 0 setdash
0 setlinecap
np
513.17 43.33 m
5.68 0 l
o
/bg { 0.2000 0.2000 0.2000 srgb } def
0.71 setlinewidth
[] 0 setdash
1 setlinecap
523.59 51.50 0.89 c p3
1.07 setlinewidth
[] 0 setdash
0 setlinecap
np
523.59 44.85 m
0 3.01 l
o
np
523.59 41.31 m
0 -0.02 l
o
/bg { 0.9059 0.4196 0.9529 srgb } def
1 setlinecap
np
 520.75 44.85 m
0 -3.54 l
5.69 0 l
0 3.54 l
-5.69 0 l
cp p3
2.13 setlinewidth
[] 0 setdash
0 setlinecap
np
520.75 41.33 m
5.69 0 l
o
/bg { 0.2000 0.2000 0.2000 srgb } def
0.71 setlinewidth
[] 0 setdash
1 setlinecap
531.18 57.43 0.89 c p3
531.18 47.59 0.89 c p3
531.18 47.42 0.89 c p3
531.18 47.42 0.89 c p3
1.07 setlinewidth
[] 0 setdash
0 setlinecap
np
531.18 43.39 m
0 2.12 l
o
np
531.18 41.31 m
0 -0.02 l
o
/bg { 0.9804 0.3843 0.8588 srgb } def
1 setlinecap
np
 528.33 43.39 m
0 -2.08 l
5.69 0 l
0 2.08 l
-5.69 0 l
cp p3
2.13 setlinewidth
[] 0 setdash
0 setlinecap
np
528.33 41.44 m
5.69 0 l
o
/bg { 0.2000 0.2000 0.2000 srgb } def
0.71 setlinewidth
[] 0 setdash
1 setlinecap
538.76 47.34 0.89 c p3
1.07 setlinewidth
[] 0 setdash
0 setlinecap
np
538.76 43.35 m
0 2.16 l
o
np
538.76 41.29 m
0 0 l
o
/bg { 1 0.3843 0.7373 srgb } def
1 setlinecap
np
 535.91 43.35 m
0 -2.06 l
5.69 0 l
0 2.06 l
-5.69 0 l
cp p3
2.13 setlinewidth
[] 0 setdash
0 setlinecap
np
535.91 41.33 m
5.69 0 l
o
/bg { 0.2000 0.2000 0.2000 srgb } def
0.71 setlinewidth
[] 0 setdash
1 setlinecap
546.34 47.59 0.89 c p3
546.34 47.34 0.89 c p3
1.07 setlinewidth
[] 0 setdash
0 setlinecap
np
546.34 43.32 m
0 2.46 l
o
np
546.34 41.31 m
0 -0.02 l
o
/bg { 1 0.4157 0.5961 srgb } def
1 setlinecap
np
 543.50 43.32 m
0 -2.01 l
5.68 0 l
0 2.01 l
-5.68 0 l
cp p3
2.13 setlinewidth
[] 0 setdash
0 setlinecap
np
543.50 41.35 m
5.68 0 l
o
0.4980 0.4980 0.4980 srgb
1.07 setlinewidth
[] 0 setdash
1 setlinecap
397.73 34.33 153.16 153.16 r p1
0.00 0.00 595.28 212.60 cl
0.00 0.00 595.28 212.60 cl
0.00 0.00 595.28 212.60 cl
0.00 0.00 595.28 212.60 cl
0.00 0.00 595.28 212.60 cl
0.00 0.00 595.28 212.60 cl
/Font1 findfont 10 s
0 0 0 srgb
74.08 35.68 (0.0) 1 0 t
74.08 76.04 (0.2) 1 0 t
74.08 116.40 (0.4) 1 0 t
74.08 156.75 (0.6) 1 0 t
0.00 0.00 595.28 212.60 cl
0.00 0.00 595.28 212.60 cl
0 0 0 srgb
1.07 setlinewidth
[] 0 setdash
0 setlinecap
1 setlinejoin
10.00 setmiterlimit
np
76.47 39.27 m
2.99 0 l
o
np
76.47 79.63 m
2.99 0 l
o
np
76.47 119.99 m
2.99 0 l
o
np
76.47 160.34 m
2.99 0 l
o
0.00 0.00 595.28 212.60 cl
0.00 0.00 595.28 212.60 cl
0.00 0.00 595.28 212.60 cl
0.00 0.00 595.28 212.60 cl
0.00 0.00 595.28 212.60 cl
0.00 0.00 595.28 212.60 cl
0.00 0.00 595.28 212.60 cl
0.00 0.00 595.28 212.60 cl
0 0 0 srgb
1.07 setlinewidth
[] 0 setdash
0 setlinecap
1 setlinejoin
10.00 setmiterlimit
np
84.01 31.34 m
0 2.99 l
o
np
99.17 31.34 m
0 2.99 l
o
np
114.33 31.34 m
0 2.99 l
o
np
129.50 31.34 m
0 2.99 l
o
np
144.66 31.34 m
0 2.99 l
o
np
159.83 31.34 m
0 2.99 l
o
np
174.99 31.34 m
0 2.99 l
o
np
190.16 31.34 m
0 2.99 l
o
np
205.32 31.34 m
0 2.99 l
o
np
220.48 31.34 m
0 2.99 l
o
0.00 0.00 595.28 212.60 cl
0.00 0.00 595.28 212.60 cl
/Font1 findfont 10 s
0 0 0 srgb
84.01 21.77 (1) .5 0 t
99.17 21.77 (3) .5 0 t
114.33 21.77 (5) .5 0 t
129.50 21.77 (7) .5 0 t
144.66 21.77 (9) .5 0 t
159.83 21.77 (11) .5 0 t
174.99 21.77 (13) .5 0 t
190.16 21.77 (15) .5 0 t
205.32 21.77 (17) .5 0 t
220.48 21.77 (19) .5 0 t
0.00 0.00 595.28 212.60 cl
0.00 0.00 595.28 212.60 cl
0.00 0.00 595.28 212.60 cl
0.00 0.00 595.28 212.60 cl
0.00 0.00 595.28 212.60 cl
0.00 0.00 595.28 212.60 cl
0.00 0.00 595.28 212.60 cl
0.00 0.00 595.28 212.60 cl
0 0 0 srgb
1.07 setlinewidth
[] 0 setdash
0 setlinecap
1 setlinejoin
10.00 setmiterlimit
np
243.14 31.34 m
0 2.99 l
o
np
258.31 31.34 m
0 2.99 l
o
np
273.47 31.34 m
0 2.99 l
o
np
288.63 31.34 m
0 2.99 l
o
np
303.80 31.34 m
0 2.99 l
o
np
318.96 31.34 m
0 2.99 l
o
np
334.13 31.34 m
0 2.99 l
o
np
349.29 31.34 m
0 2.99 l
o
np
364.46 31.34 m
0 2.99 l
o
np
379.62 31.34 m
0 2.99 l
o
0.00 0.00 595.28 212.60 cl
0.00 0.00 595.28 212.60 cl
/Font1 findfont 10 s
0 0 0 srgb
243.14 21.77 (1) .5 0 t
258.31 21.77 (3) .5 0 t
273.47 21.77 (5) .5 0 t
288.63 21.77 (7) .5 0 t
303.80 21.77 (9) .5 0 t
318.96 21.77 (11) .5 0 t
334.13 21.77 (13) .5 0 t
349.29 21.77 (15) .5 0 t
364.46 21.77 (17) .5 0 t
379.62 21.77 (19) .5 0 t
0.00 0.00 595.28 212.60 cl
0.00 0.00 595.28 212.60 cl
0.00 0.00 595.28 212.60 cl
0.00 0.00 595.28 212.60 cl
0.00 0.00 595.28 212.60 cl
0.00 0.00 595.28 212.60 cl
0.00 0.00 595.28 212.60 cl
0.00 0.00 595.28 212.60 cl
0 0 0 srgb
1.07 setlinewidth
[] 0 setdash
0 setlinecap
1 setlinejoin
10.00 setmiterlimit
np
402.28 31.34 m
0 2.99 l
o
np
417.44 31.34 m
0 2.99 l
o
np
432.61 31.34 m
0 2.99 l
o
np
447.77 31.34 m
0 2.99 l
o
np
462.94 31.34 m
0 2.99 l
o
np
478.10 31.34 m
0 2.99 l
o
np
493.26 31.34 m
0 2.99 l
o
np
508.43 31.34 m
0 2.99 l
o
np
523.59 31.34 m
0 2.99 l
o
np
538.76 31.34 m
0 2.99 l
o
0.00 0.00 595.28 212.60 cl
0.00 0.00 595.28 212.60 cl
/Font1 findfont 10 s
0 0 0 srgb
402.28 21.77 (1) .5 0 t
417.44 21.77 (3) .5 0 t
432.61 21.77 (5) .5 0 t
447.77 21.77 (7) .5 0 t
462.94 21.77 (9) .5 0 t
478.10 21.77 (11) .5 0 t
493.26 21.77 (13) .5 0 t
508.43 21.77 (15) .5 0 t
523.59 21.77 (17) .5 0 t
538.76 21.77 (19) .5 0 t
0.00 0.00 595.28 212.60 cl
0.00 0.00 595.28 212.60 cl
0.00 0.00 595.28 212.60 cl
0.00 0.00 595.28 212.60 cl
/Font1 findfont 12 s
0 0 0 srgb
315.17 8.37 (motif) .5 0 t
0.00 0.00 595.28 212.60 cl
0.00 0.00 595.28 212.60 cl
/Font1 findfont 12 s
0 0 0 srgb
55.39 110.91 (probability) .5 90 t
0.00 0.00 595.28 212.60 cl
0.00 0.00 595.28 212.60 cl
0.00 0.00 595.28 212.60 cl
0.00 0.00 595.28 212.60 cl
ep
%%Trailer
%%Pages: 1
%%EOF
