%!PS-Adobe-3.0 EPSF-3.0
%%DocumentNeededResources: font Helvetica
%%+ font Helvetica-Bold
%%+ font Helvetica-Oblique
%%+ font Helvetica-BoldOblique
%%+ font Symbol
%%Title: R Graphics Output
%%Creator: R Software
%%Pages: (atend)
%%BoundingBox: 0 0 432 432
%%EndComments
%%BeginProlog
/bp  { gs sRGB gs } def
% begin .ps.prolog
/gs  { gsave } bind def
/gr  { grestore } bind def
/ep  { showpage gr gr } bind def
/m   { moveto } bind def
/l  { rlineto } bind def
/np  { newpath } bind def
/cp  { closepath } bind def
/f   { fill } bind def
/o   { stroke } bind def
/c   { newpath 0 360 arc } bind def
/r   { 4 2 roll moveto 1 copy 3 -1 roll exch 0 exch rlineto 0 rlineto -1 mul 0 exch rlineto closepath } bind def
/p1  { stroke } bind def
/p2  { gsave bg fill grestore newpath } bind def
/p3  { gsave bg fill grestore stroke } bind def
/p6  { gsave bg eofill grestore newpath } bind def
/p7  { gsave bg eofill grestore stroke } bind def
/t   { 5 -2 roll moveto gsave rotate
       1 index stringwidth pop
       mul neg 0 rmoveto show grestore } bind def
/ta  { 4 -2 roll moveto gsave rotate show } bind def
/tb  { 2 -1 roll 0 rmoveto show } bind def
/cl  { grestore gsave newpath 3 index 3 index moveto 1 index
       4 -1 roll lineto  exch 1 index lineto lineto
       closepath clip newpath } bind def
/rgb { setrgbcolor } bind def
/s   { scalefont setfont } bind def
% end   .ps.prolog
/sRGB { [ /CIEBasedABC
          << /DecodeLMN
               [ { dup 0.03928 le
                        {12.92321 div}
                        {0.055 add 1.055 div 2.4 exp }
                     ifelse
                 } bind dup dup
               ]
             /MatrixLMN [0.412457 0.212673 0.019334
                         0.357576 0.715152 0.119192
                         0.180437 0.072175 0.950301]
             /WhitePoint [0.9505 1.0 1.0890]
           >>
         ] setcolorspace } bind def
/srgb { setcolor } bind def
%%IncludeResource: font Helvetica
/Helvetica findfont
dup length dict begin
  {1 index /FID ne {def} {pop pop} ifelse} forall
  /Encoding ISOLatin1Encoding def
  currentdict
  end
/Font1 exch definefont pop
%%IncludeResource: font Helvetica-Bold
/Helvetica-Bold findfont
dup length dict begin
  {1 index /FID ne {def} {pop pop} ifelse} forall
  /Encoding ISOLatin1Encoding def
  currentdict
  end
/Font2 exch definefont pop
%%IncludeResource: font Helvetica-Oblique
/Helvetica-Oblique findfont
dup length dict begin
  {1 index /FID ne {def} {pop pop} ifelse} forall
  /Encoding ISOLatin1Encoding def
  currentdict
  end
/Font3 exch definefont pop
%%IncludeResource: font Helvetica-BoldOblique
/Helvetica-BoldOblique findfont
dup length dict begin
  {1 index /FID ne {def} {pop pop} ifelse} forall
  /Encoding ISOLatin1Encoding def
  currentdict
  end
/Font4 exch definefont pop
%%IncludeResource: font Symbol
/Symbol findfont
dup length dict begin
  {1 index /FID ne {def} {pop pop} ifelse} forall
  currentdict
  end
/Font5 exch definefont pop
%%EndProlog
%%Page: 1 1
bp
0.00 0.00 432.00 432.00 cl
59.04 73.44 401.76 372.96 cl
0.6627 0.6627 0.6627 srgb
0.75 setlinewidth
[] 0 setdash
1 setlinecap
1 setlinejoin
10.00 setmiterlimit
np
230.40 315.64 m
0 -0.15 l
0 -0.95 l
0 -2.18 l
0 -3.35 l
0 -4.11 l
0 -4.32 l
0 -4.13 l
0 -3.73 l
0 -3.31 l
0 -2.97 l
0 -2.76 l
0 -2.65 l
0 -0.05 l
0 -2.66 l
0 -2.75 l
0 -2.96 l
0 -3.31 l
0 -3.72 l
0 -4.12 l
0 -4.32 l
0 -4.12 l
0 -3.37 l
0 -2.20 l
0 -0.98 l
0 -0.16 l
0 0 l
o
np
214.06 206.86 m
-0.09 -0.09 l
-0.54 -0.54 l
-1.33 -1.33 l
-2.23 -2.23 l
-3.05 -3.05 l
-3.65 -3.65 l
-3.94 -3.94 l
-3.96 -3.96 l
-3.79 -3.79 l
-3.50 -3.50 l
-3.21 -3.21 l
-2.92 -2.92 l
-2.70 -2.70 l
-2.55 -2.55 l
-2.46 -2.46 l
-1.52 -1.52 l
-2.43 -2.43 l
-2.49 -2.49 l
-2.59 -2.59 l
-2.78 -2.78 l
-3.02 -3.02 l
-3.32 -3.32 l
-3.62 -3.62 l
-3.86 -3.86 l
-3.98 -3.98 l
-3.87 -3.87 l
-3.46 -3.46 l
-2.77 -2.77 l
-1.89 -1.89 l
-1.00 -1.00 l
-0.33 -0.33 l
-0.02 -0.02 l
o
np
246.74 206.86 m
0.09 -0.09 l
0.54 -0.54 l
1.33 -1.33 l
2.23 -2.23 l
3.05 -3.05 l
3.65 -3.65 l
3.94 -3.94 l
3.96 -3.96 l
3.79 -3.79 l
3.50 -3.50 l
3.21 -3.21 l
2.92 -2.92 l
2.70 -2.70 l
2.55 -2.55 l
2.46 -2.46 l
1.52 -1.52 l
2.43 -2.43 l
2.49 -2.49 l
2.59 -2.59 l
2.78 -2.78 l
3.02 -3.02 l
3.32 -3.32 l
3.62 -3.62 l
3.86 -3.86 l
3.98 -3.98 l
3.87 -3.87 l
3.46 -3.46 l
2.77 -2.77 l
1.89 -1.89 l
1.00 -1.00 l
0.33 -0.33 l
0.02 -0.02 l
o
/bg { 0 0 0 srgb } def
0 0 0 srgb
230.40 338.76 23.11 c p3
230.40 223.20 23.11 c p3
/bg { 1 0 0 srgb } def
114.84 107.64 23.11 c p3
/bg { 0 0 0 srgb } def
345.96 107.64 23.11 c p3
0.00 0.00 432.00 432.00 cl
ep
%%Trailer
%%Pages: 1
%%EOF
