%!PS-Adobe-3.0 EPSF-3.0
%%DocumentNeededResources: font Helvetica
%%+ font Helvetica-Bold
%%+ font Helvetica-Oblique
%%+ font Helvetica-BoldOblique
%%+ font Symbol
%%Title: R Graphics Output
%%Creator: R Software
%%Pages: (atend)
%%BoundingBox: 0 0 595 213
%%EndComments
%%BeginProlog
/bp  { gs sRGB gs } def
% begin .ps.prolog
/gs  { gsave } bind def
/gr  { grestore } bind def
/ep  { showpage gr gr } bind def
/m   { moveto } bind def
/l  { rlineto } bind def
/np  { newpath } bind def
/cp  { closepath } bind def
/f   { fill } bind def
/o   { stroke } bind def
/c   { newpath 0 360 arc } bind def
/r   { 4 2 roll moveto 1 copy 3 -1 roll exch 0 exch rlineto 0 rlineto -1 mul 0 exch rlineto closepath } bind def
/p1  { stroke } bind def
/p2  { gsave bg fill grestore newpath } bind def
/p3  { gsave bg fill grestore stroke } bind def
/p6  { gsave bg eofill grestore newpath } bind def
/p7  { gsave bg eofill grestore stroke } bind def
/t   { 5 -2 roll moveto gsave rotate
       1 index stringwidth pop
       mul neg 0 rmoveto show grestore } bind def
/ta  { 4 -2 roll moveto gsave rotate show } bind def
/tb  { 2 -1 roll 0 rmoveto show } bind def
/cl  { grestore gsave newpath 3 index 3 index moveto 1 index
       4 -1 roll lineto  exch 1 index lineto lineto
       closepath clip newpath } bind def
/rgb { setrgbcolor } bind def
/s   { scalefont setfont } bind def
% end   .ps.prolog
/sRGB { [ /CIEBasedABC
          << /DecodeLMN
               [ { dup 0.03928 le
                        {12.92321 div}
                        {0.055 add 1.055 div 2.4 exp }
                     ifelse
                 } bind dup dup
               ]
             /MatrixLMN [0.412457 0.212673 0.019334
                         0.357576 0.715152 0.119192
                         0.180437 0.072175 0.950301]
             /WhitePoint [0.9505 1.0 1.0890]
           >>
         ] setcolorspace } bind def
/srgb { setcolor } bind def
%%IncludeResource: font Helvetica
/Helvetica findfont
dup length dict begin
  {1 index /FID ne {def} {pop pop} ifelse} forall
  /Encoding ISOLatin1Encoding def
  currentdict
  end
/Font1 exch definefont pop
%%IncludeResource: font Helvetica-Bold
/Helvetica-Bold findfont
dup length dict begin
  {1 index /FID ne {def} {pop pop} ifelse} forall
  /Encoding ISOLatin1Encoding def
  currentdict
  end
/Font2 exch definefont pop
%%IncludeResource: font Helvetica-Oblique
/Helvetica-Oblique findfont
dup length dict begin
  {1 index /FID ne {def} {pop pop} ifelse} forall
  /Encoding ISOLatin1Encoding def
  currentdict
  end
/Font3 exch definefont pop
%%IncludeResource: font Helvetica-BoldOblique
/Helvetica-BoldOblique findfont
dup length dict begin
  {1 index /FID ne {def} {pop pop} ifelse} forall
  /Encoding ISOLatin1Encoding def
  currentdict
  end
/Font4 exch definefont pop
%%IncludeResource: font Symbol
/Symbol findfont
dup length dict begin
  {1 index /FID ne {def} {pop pop} ifelse} forall
  currentdict
  end
/Font5 exch definefont pop
%%EndProlog
%%Page: 1 1
bp
0.00 0.00 595.28 212.60 cl
0.00 0.00 595.28 212.60 cl
0.00 0.00 595.28 212.60 cl
0.00 0.00 595.28 212.60 cl
0.00 0.00 595.28 212.60 cl
0.00 0.00 595.28 212.60 cl
0.00 0.00 595.28 212.60 cl
0.00 0.00 595.28 212.60 cl
0.00 0.00 595.28 212.60 cl
0.00 0.00 595.28 212.60 cl
0.00 0.00 595.28 212.60 cl
0.00 0.00 595.28 212.60 cl
0.00 0.00 595.28 212.60 cl
35.63 0.00 559.65 212.60 cl
/bg { 1 1 1 srgb } def
1 1 1 srgb
1.07 setlinewidth
[] 0 setdash
1 setlinecap
1 setlinejoin
10.00 setmiterlimit
35.63 0.00 524.02 212.60 r p3
0.00 0.00 595.28 212.60 cl
82.24 187.49 235.40 206.62 cl
/bg { 1 1 1 srgb } def
0.4980 0.4980 0.4980 srgb
0.43 setlinewidth
[] 0 setdash
1 setlinecap
1 setlinejoin
10.00 setmiterlimit
82.24 187.49 153.16 19.14 r p3
/Font1 findfont 10 s
0.1020 0.1020 0.1020 srgb
144.92 193.46 (fr) 0 ta
-0.100 (ance) tb gr
82.24 187.49 235.40 206.62 cl
0.00 0.00 595.28 212.60 cl
241.37 187.49 394.53 206.62 cl
/bg { 1 1 1 srgb } def
0.4980 0.4980 0.4980 srgb
0.43 setlinewidth
[] 0 setdash
1 setlinecap
1 setlinejoin
10.00 setmiterlimit
241.37 187.49 153.16 19.14 r p3
/Font1 findfont 10 s
0.1020 0.1020 0.1020 srgb
317.95 193.46 (gameofthrones) .5 0 t
241.37 187.49 394.53 206.62 cl
0.00 0.00 595.28 212.60 cl
400.51 187.49 553.67 206.62 cl
/bg { 1 1 1 srgb } def
0.4980 0.4980 0.4980 srgb
0.43 setlinewidth
[] 0 setdash
1 setlinecap
1 setlinejoin
10.00 setmiterlimit
400.51 187.49 153.16 19.14 r p3
/Font1 findfont 10 s
0.1020 0.1020 0.1020 srgb
477.09 193.46 (podemos) .5 0 t
400.51 187.49 553.67 206.62 cl
0.00 0.00 595.28 212.60 cl
82.24 34.33 235.40 187.49 cl
/bg { 1 1 1 srgb } def
82.24 34.33 153.16 153.16 r p2
0.9804 0.9804 0.9804 srgb
1.07 setlinewidth
[] 0 setdash
0 setlinecap
1 setlinejoin
10.00 setmiterlimit
np
82.24 55.77 m
153.16 0 l
o
np
82.24 87.86 m
153.16 0 l
o
np
82.24 119.94 m
153.16 0 l
o
np
82.24 152.03 m
153.16 0 l
o
np
82.24 184.12 m
153.16 0 l
o
0.8980 0.8980 0.8980 srgb
0.43 setlinewidth
[] 0 setdash
np
82.24 39.72 m
153.16 0 l
o
np
82.24 71.81 m
153.16 0 l
o
np
82.24 103.90 m
153.16 0 l
o
np
82.24 135.99 m
153.16 0 l
o
np
82.24 168.08 m
153.16 0 l
o
np
86.79 34.33 m
0 153.16 l
o
np
117.11 34.33 m
0 153.16 l
o
np
155.02 34.33 m
0 153.16 l
o
np
192.94 34.33 m
0 153.16 l
o
np
230.85 34.33 m
0 153.16 l
o
/bg { 0 0 0 srgb } def
0 0 0 srgb
0.71 setlinewidth
[] 0 setdash
1 setlinecap
86.79 79.23 0.89 c p3
94.37 102.51 0.89 c p3
101.95 82.49 0.89 c p3
109.53 86.92 0.89 c p3
117.11 76.30 0.89 c p3
124.70 74.86 0.89 c p3
132.28 69.19 0.89 c p3
139.86 51.46 0.89 c p3
147.44 52.50 0.89 c p3
155.02 49.05 0.89 c p3
162.61 57.39 0.89 c p3
170.19 56.22 0.89 c p3
177.77 56.93 0.89 c p3
185.35 54.26 0.89 c p3
192.94 42.27 0.89 c p3
200.52 41.29 0.89 c p3
208.10 53.94 0.89 c p3
215.68 52.05 0.89 c p3
223.26 49.96 0.89 c p3
230.85 46.11 0.89 c p3
0.4980 0.4980 0.4980 srgb
1.07 setlinewidth
[] 0 setdash
82.24 34.33 153.16 153.16 r p1
0.00 0.00 595.28 212.60 cl
241.37 34.33 394.53 187.49 cl
/bg { 1 1 1 srgb } def
241.37 34.33 153.16 153.16 r p2
0.9804 0.9804 0.9804 srgb
1.07 setlinewidth
[] 0 setdash
0 setlinecap
1 setlinejoin
10.00 setmiterlimit
np
241.37 55.77 m
153.16 0 l
o
np
241.37 87.86 m
153.16 0 l
o
np
241.37 119.94 m
153.16 0 l
o
np
241.37 152.03 m
153.16 0 l
o
np
241.37 184.12 m
153.16 0 l
o
0.8980 0.8980 0.8980 srgb
0.43 setlinewidth
[] 0 setdash
np
241.37 39.72 m
153.16 0 l
o
np
241.37 71.81 m
153.16 0 l
o
np
241.37 103.90 m
153.16 0 l
o
np
241.37 135.99 m
153.16 0 l
o
np
241.37 168.08 m
153.16 0 l
o
np
245.92 34.33 m
0 153.16 l
o
np
276.25 34.33 m
0 153.16 l
o
np
314.16 34.33 m
0 153.16 l
o
np
352.07 34.33 m
0 153.16 l
o
np
389.98 34.33 m
0 153.16 l
o
/bg { 0 0 0 srgb } def
0 0 0 srgb
0.71 setlinewidth
[] 0 setdash
1 setlinecap
245.92 147.77 0.89 c p3
253.50 87.81 0.89 c p3
261.09 103.08 0.89 c p3
268.67 60.73 0.89 c p3
276.25 80.83 0.89 c p3
283.83 58.97 0.89 c p3
291.41 70.46 0.89 c p3
299.00 62.23 0.89 c p3
306.58 59.62 0.89 c p3
314.16 51.60 0.89 c p3
321.74 54.86 0.89 c p3
329.33 56.69 0.89 c p3
336.91 49.84 0.89 c p3
344.49 51.73 0.89 c p3
352.07 43.70 0.89 c p3
359.65 51.99 0.89 c p3
367.24 49.05 0.89 c p3
374.82 45.66 0.89 c p3
382.40 45.47 0.89 c p3
389.98 45.40 0.89 c p3
0.4980 0.4980 0.4980 srgb
1.07 setlinewidth
[] 0 setdash
241.37 34.33 153.16 153.16 r p1
0.00 0.00 595.28 212.60 cl
400.51 34.33 553.67 187.49 cl
/bg { 1 1 1 srgb } def
400.51 34.33 153.16 153.16 r p2
0.9804 0.9804 0.9804 srgb
1.07 setlinewidth
[] 0 setdash
0 setlinecap
1 setlinejoin
10.00 setmiterlimit
np
400.51 55.77 m
153.16 0 l
o
np
400.51 87.86 m
153.16 0 l
o
np
400.51 119.94 m
153.16 0 l
o
np
400.51 152.03 m
153.16 0 l
o
np
400.51 184.12 m
153.16 0 l
o
0.8980 0.8980 0.8980 srgb
0.43 setlinewidth
[] 0 setdash
np
400.51 39.72 m
153.16 0 l
o
np
400.51 71.81 m
153.16 0 l
o
np
400.51 103.90 m
153.16 0 l
o
np
400.51 135.99 m
153.16 0 l
o
np
400.51 168.08 m
153.16 0 l
o
np
405.06 34.33 m
0 153.16 l
o
np
435.39 34.33 m
0 153.16 l
o
np
473.30 34.33 m
0 153.16 l
o
np
511.21 34.33 m
0 153.16 l
o
np
549.12 34.33 m
0 153.16 l
o
/bg { 0 0 0 srgb } def
0 0 0 srgb
0.71 setlinewidth
[] 0 setdash
1 setlinecap
405.06 180.52 0.89 c p3
412.64 93.23 0.89 c p3
420.22 53.85 0.89 c p3
427.81 84.25 0.89 c p3
435.39 62.18 0.89 c p3
442.97 65.96 0.89 c p3
450.55 48.77 0.89 c p3
458.13 72.34 0.89 c p3
465.72 60.36 0.89 c p3
473.30 59.90 0.89 c p3
480.88 47.54 0.89 c p3
488.46 43.24 0.89 c p3
496.04 43.69 0.89 c p3
503.63 43.95 0.89 c p3
511.21 63.03 0.89 c p3
518.79 55.35 0.89 c p3
526.37 45.06 0.89 c p3
533.96 44.35 0.89 c p3
541.54 43.82 0.89 c p3
549.12 45.06 0.89 c p3
0.4980 0.4980 0.4980 srgb
1.07 setlinewidth
[] 0 setdash
400.51 34.33 153.16 153.16 r p1
0.00 0.00 595.28 212.60 cl
0.00 0.00 595.28 212.60 cl
0.00 0.00 595.28 212.60 cl
0.00 0.00 595.28 212.60 cl
0.00 0.00 595.28 212.60 cl
0.00 0.00 595.28 212.60 cl
/Font1 findfont 10 s
0 0 0 srgb
76.86 36.13 (0.00) 1 0 t
76.86 68.22 (0.05) 1 0 t
76.86 100.31 (0.10) 1 0 t
76.86 132.40 (0.15) 1 0 t
76.86 164.49 (0.20) 1 0 t
0.00 0.00 595.28 212.60 cl
0.00 0.00 595.28 212.60 cl
0 0 0 srgb
1.07 setlinewidth
[] 0 setdash
0 setlinecap
1 setlinejoin
10.00 setmiterlimit
np
79.25 39.72 m
2.99 0 l
o
np
79.25 71.81 m
2.99 0 l
o
np
79.25 103.90 m
2.99 0 l
o
np
79.25 135.99 m
2.99 0 l
o
np
79.25 168.08 m
2.99 0 l
o
0.00 0.00 595.28 212.60 cl
0.00 0.00 595.28 212.60 cl
0.00 0.00 595.28 212.60 cl
0.00 0.00 595.28 212.60 cl
0.00 0.00 595.28 212.60 cl
0.00 0.00 595.28 212.60 cl
0.00 0.00 595.28 212.60 cl
0.00 0.00 595.28 212.60 cl
0 0 0 srgb
1.07 setlinewidth
[] 0 setdash
0 setlinecap
1 setlinejoin
10.00 setmiterlimit
np
86.79 31.34 m
0 2.99 l
o
np
117.11 31.34 m
0 2.99 l
o
np
155.02 31.34 m
0 2.99 l
o
np
192.94 31.34 m
0 2.99 l
o
np
230.85 31.34 m
0 2.99 l
o
0.00 0.00 595.28 212.60 cl
0.00 0.00 595.28 212.60 cl
/Font1 findfont 10 s
0 0 0 srgb
86.79 21.77 (1) .5 0 t
117.11 21.77 (5) .5 0 t
155.02 21.77 (10) .5 0 t
192.94 21.77 (15) .5 0 t
230.85 21.77 (20) .5 0 t
0.00 0.00 595.28 212.60 cl
0.00 0.00 595.28 212.60 cl
0.00 0.00 595.28 212.60 cl
0.00 0.00 595.28 212.60 cl
0.00 0.00 595.28 212.60 cl
0.00 0.00 595.28 212.60 cl
0.00 0.00 595.28 212.60 cl
0.00 0.00 595.28 212.60 cl
0 0 0 srgb
1.07 setlinewidth
[] 0 setdash
0 setlinecap
1 setlinejoin
10.00 setmiterlimit
np
245.92 31.34 m
0 2.99 l
o
np
276.25 31.34 m
0 2.99 l
o
np
314.16 31.34 m
0 2.99 l
o
np
352.07 31.34 m
0 2.99 l
o
np
389.98 31.34 m
0 2.99 l
o
0.00 0.00 595.28 212.60 cl
0.00 0.00 595.28 212.60 cl
/Font1 findfont 10 s
0 0 0 srgb
245.92 21.77 (1) .5 0 t
276.25 21.77 (5) .5 0 t
314.16 21.77 (10) .5 0 t
352.07 21.77 (15) .5 0 t
389.98 21.77 (20) .5 0 t
0.00 0.00 595.28 212.60 cl
0.00 0.00 595.28 212.60 cl
0.00 0.00 595.28 212.60 cl
0.00 0.00 595.28 212.60 cl
0.00 0.00 595.28 212.60 cl
0.00 0.00 595.28 212.60 cl
0.00 0.00 595.28 212.60 cl
0.00 0.00 595.28 212.60 cl
0 0 0 srgb
1.07 setlinewidth
[] 0 setdash
0 setlinecap
1 setlinejoin
10.00 setmiterlimit
np
405.06 31.34 m
0 2.99 l
o
np
435.39 31.34 m
0 2.99 l
o
np
473.30 31.34 m
0 2.99 l
o
np
511.21 31.34 m
0 2.99 l
o
np
549.12 31.34 m
0 2.99 l
o
0.00 0.00 595.28 212.60 cl
0.00 0.00 595.28 212.60 cl
/Font1 findfont 10 s
0 0 0 srgb
405.06 21.77 (1) .5 0 t
435.39 21.77 (5) .5 0 t
473.30 21.77 (10) .5 0 t
511.21 21.77 (15) .5 0 t
549.12 21.77 (20) .5 0 t
0.00 0.00 595.28 212.60 cl
0.00 0.00 595.28 212.60 cl
0.00 0.00 595.28 212.60 cl
0.00 0.00 595.28 212.60 cl
/Font1 findfont 12 s
0 0 0 srgb
317.95 8.37 (motif) .5 0 t
0.00 0.00 595.28 212.60 cl
0.00 0.00 595.28 212.60 cl
/Font1 findfont 12 s
0 0 0 srgb
52.61 110.91 (probability) .5 90 t
0.00 0.00 595.28 212.60 cl
0.00 0.00 595.28 212.60 cl
0.00 0.00 595.28 212.60 cl
0.00 0.00 595.28 212.60 cl
ep
%%Trailer
%%Pages: 1
%%EOF
