%!PS-Adobe-3.0 EPSF-3.0
%%DocumentNeededResources: font Helvetica
%%+ font Helvetica-Bold
%%+ font Helvetica-Oblique
%%+ font Helvetica-BoldOblique
%%+ font Symbol
%%Title: R Graphics Output
%%Creator: R Software
%%Pages: (atend)
%%BoundingBox: 0 0 595 213
%%EndComments
%%BeginProlog
/bp  { gs sRGB gs } def
% begin .ps.prolog
/gs  { gsave } bind def
/gr  { grestore } bind def
/ep  { showpage gr gr } bind def
/m   { moveto } bind def
/l  { rlineto } bind def
/np  { newpath } bind def
/cp  { closepath } bind def
/f   { fill } bind def
/o   { stroke } bind def
/c   { newpath 0 360 arc } bind def
/r   { 4 2 roll moveto 1 copy 3 -1 roll exch 0 exch rlineto 0 rlineto -1 mul 0 exch rlineto closepath } bind def
/p1  { stroke } bind def
/p2  { gsave bg fill grestore newpath } bind def
/p3  { gsave bg fill grestore stroke } bind def
/p6  { gsave bg eofill grestore newpath } bind def
/p7  { gsave bg eofill grestore stroke } bind def
/t   { 5 -2 roll moveto gsave rotate
       1 index stringwidth pop
       mul neg 0 rmoveto show grestore } bind def
/ta  { 4 -2 roll moveto gsave rotate show } bind def
/tb  { 2 -1 roll 0 rmoveto show } bind def
/cl  { grestore gsave newpath 3 index 3 index moveto 1 index
       4 -1 roll lineto  exch 1 index lineto lineto
       closepath clip newpath } bind def
/rgb { setrgbcolor } bind def
/s   { scalefont setfont } bind def
% end   .ps.prolog
/sRGB { [ /CIEBasedABC
          << /DecodeLMN
               [ { dup 0.03928 le
                        {12.92321 div}
                        {0.055 add 1.055 div 2.4 exp }
                     ifelse
                 } bind dup dup
               ]
             /MatrixLMN [0.412457 0.212673 0.019334
                         0.357576 0.715152 0.119192
                         0.180437 0.072175 0.950301]
             /WhitePoint [0.9505 1.0 1.0890]
           >>
         ] setcolorspace } bind def
/srgb { setcolor } bind def
%%IncludeResource: font Helvetica
/Helvetica findfont
dup length dict begin
  {1 index /FID ne {def} {pop pop} ifelse} forall
  /Encoding ISOLatin1Encoding def
  currentdict
  end
/Font1 exch definefont pop
%%IncludeResource: font Helvetica-Bold
/Helvetica-Bold findfont
dup length dict begin
  {1 index /FID ne {def} {pop pop} ifelse} forall
  /Encoding ISOLatin1Encoding def
  currentdict
  end
/Font2 exch definefont pop
%%IncludeResource: font Helvetica-Oblique
/Helvetica-Oblique findfont
dup length dict begin
  {1 index /FID ne {def} {pop pop} ifelse} forall
  /Encoding ISOLatin1Encoding def
  currentdict
  end
/Font3 exch definefont pop
%%IncludeResource: font Helvetica-BoldOblique
/Helvetica-BoldOblique findfont
dup length dict begin
  {1 index /FID ne {def} {pop pop} ifelse} forall
  /Encoding ISOLatin1Encoding def
  currentdict
  end
/Font4 exch definefont pop
%%IncludeResource: font Symbol
/Symbol findfont
dup length dict begin
  {1 index /FID ne {def} {pop pop} ifelse} forall
  currentdict
  end
/Font5 exch definefont pop
%%EndProlog
%%Page: 1 1
bp
0.00 0.00 595.28 212.60 cl
0.00 0.00 595.28 212.60 cl
0.00 0.00 595.28 212.60 cl
0.00 0.00 595.28 212.60 cl
0.00 0.00 595.28 212.60 cl
0.00 0.00 595.28 212.60 cl
0.00 0.00 595.28 212.60 cl
0.00 0.00 595.28 212.60 cl
0.00 0.00 595.28 212.60 cl
0.00 0.00 595.28 212.60 cl
0.00 0.00 595.28 212.60 cl
0.00 0.00 595.28 212.60 cl
0.00 0.00 595.28 212.60 cl
0.00 8.66 595.28 203.94 cl
/bg { 1 1 1 srgb } def
1 1 1 srgb
1.07 setlinewidth
[] 0 setdash
1 setlinecap
1 setlinejoin
10.00 setmiterlimit
0.00 8.66 595.28 195.27 r p3
0.00 0.00 595.28 212.60 cl
41.05 178.82 219.81 197.96 cl
/bg { 1 1 1 srgb } def
0.4980 0.4980 0.4980 srgb
0.43 setlinewidth
[] 0 setdash
1 setlinecap
1 setlinejoin
10.00 setmiterlimit
41.05 178.82 178.77 19.14 r p3
/Font1 findfont 10 s
0.1020 0.1020 0.1020 srgb
116.53 184.80 (fr) 0 ta
-0.100 (ance) tb gr
41.05 178.82 219.81 197.96 cl
0.00 0.00 595.28 212.60 cl
225.79 178.82 404.55 197.96 cl
/bg { 1 1 1 srgb } def
0.4980 0.4980 0.4980 srgb
0.43 setlinewidth
[] 0 setdash
1 setlinecap
1 setlinejoin
10.00 setmiterlimit
225.79 178.82 178.77 19.14 r p3
/Font1 findfont 10 s
0.1020 0.1020 0.1020 srgb
315.17 184.80 (podemos) .5 0 t
225.79 178.82 404.55 197.96 cl
0.00 0.00 595.28 212.60 cl
410.53 178.82 589.30 197.96 cl
/bg { 1 1 1 srgb } def
0.4980 0.4980 0.4980 srgb
0.43 setlinewidth
[] 0 setdash
1 setlinecap
1 setlinejoin
10.00 setmiterlimit
410.53 178.82 178.77 19.14 r p3
/Font1 findfont 10 s
0.1020 0.1020 0.1020 srgb
499.92 184.80 (gameofthrones) .5 0 t
410.53 178.82 589.30 197.96 cl
0.00 0.00 595.28 212.60 cl
41.05 35.81 219.81 178.82 cl
/bg { 1 1 1 srgb } def
41.05 35.81 178.77 143.01 r p2
0.8980 0.8980 0.8980 srgb
0.43 setlinewidth
[] 0 setdash
0 setlinecap
1 setlinejoin
10.00 setmiterlimit
np
130.43 107.32 m
12.58 63.56 l
o
np
130.43 107.32 m
36.52 57.34 l
o
np
130.43 107.32 m
56.88 45.50 l
o
np
130.43 107.32 m
71.68 29.21 l
o
np
130.43 107.32 m
79.45 10.06 l
o
np
130.43 107.32 m
79.45 -10.07 l
o
np
130.43 107.32 m
71.68 -29.22 l
o
np
130.43 107.32 m
56.88 -45.51 l
o
np
130.43 107.32 m
36.52 -57.35 l
o
np
130.43 107.32 m
12.58 -63.57 l
o
np
130.43 107.32 m
-12.59 -63.57 l
o
np
130.43 107.32 m
-36.52 -57.35 l
o
np
130.43 107.32 m
-56.88 -45.51 l
o
np
130.43 107.32 m
-71.68 -29.22 l
o
np
130.43 107.32 m
-79.45 -10.07 l
o
np
130.43 107.32 m
-79.45 10.06 l
o
np
130.43 107.32 m
-71.68 29.21 l
o
np
130.43 107.32 m
-56.88 45.50 l
o
np
130.43 107.32 m
-36.52 57.34 l
o
np
130.43 107.32 m
-12.59 63.56 l
o
np
130.43 107.32 m
0 0 l
0 0 l
0 0 l
0 0 l
0 0 l
0 0 l
0 0 l
0 0 l
0 0 l
0 0 l
0 0 l
0 0 l
0 0 l
0 0 l
0 0 l
0 0 l
0 0 l
0 0 l
0 0 l
0 0 l
0 0 l
0 0 l
0 0 l
0 0 l
0 0 l
0 0 l
0 0 l
0 0 l
0 0 l
0 0 l
0 0 l
0 0 l
0 0 l
0 0 l
0 0 l
0 0 l
0 0 l
0 0 l
0 0 l
0 0 l
0 0 l
0 0 l
0 0 l
0 0 l
0 0 l
0 0 l
0 0 l
0 0 l
0 0 l
0 0 l
0 0 l
0 0 l
0 0 l
0 0 l
0 0 l
0 0 l
0 0 l
0 0 l
0 0 l
0 0 l
0 0 l
0 0 l
0 0 l
0 0 l
0 0 l
0 0 l
0 0 l
0 0 l
0 0 l
0 0 l
0 0 l
0 0 l
0 0 l
0 0 l
0 0 l
0 0 l
0 0 l
0 0 l
0 0 l
0 0 l
0 0 l
0 0 l
0 0 l
0 0 l
0 0 l
0 0 l
0 0 l
0 0 l
0 0 l
0 0 l
0 0 l
0 0 l
0 0 l
0 0 l
0 0 l
0 0 l
0 0 l
0 0 l
0 0 l
o
np
130.43 118.96 m
0.92 -0.02 l
0.92 -0.07 l
0.91 -0.12 l
0.91 -0.16 l
0.88 -0.21 l
0.87 -0.25 l
0.85 -0.30 l
0.82 -0.34 l
0.79 -0.38 l
0.76 -0.42 l
0.73 -0.45 l
0.69 -0.50 l
0.64 -0.52 l
0.61 -0.56 l
0.56 -0.59 l
0.51 -0.61 l
0.46 -0.64 l
0.41 -0.67 l
0.36 -0.68 l
0.30 -0.70 l
0.25 -0.71 l
0.19 -0.72 l
0.13 -0.73 l
0.07 -0.74 l
0.02 -0.74 l
-0.05 -0.74 l
-0.10 -0.73 l
-0.16 -0.73 l
-0.22 -0.72 l
-0.27 -0.70 l
-0.33 -0.69 l
-0.39 -0.68 l
-0.43 -0.65 l
-0.49 -0.63 l
-0.54 -0.60 l
-0.58 -0.57 l
-0.63 -0.54 l
-0.66 -0.51 l
-0.71 -0.48 l
-0.75 -0.44 l
-0.77 -0.40 l
-0.81 -0.36 l
-0.83 -0.31 l
-0.86 -0.28 l
-0.88 -0.23 l
-0.89 -0.18 l
-0.91 -0.14 l
-0.92 -0.10 l
-0.92 -0.04 l
-0.92 0 l
-0.92 0.04 l
-0.92 0.10 l
-0.91 0.14 l
-0.89 0.18 l
-0.88 0.23 l
-0.86 0.28 l
-0.83 0.31 l
-0.81 0.36 l
-0.78 0.40 l
-0.74 0.44 l
-0.71 0.48 l
-0.67 0.51 l
-0.62 0.54 l
-0.59 0.57 l
-0.53 0.60 l
-0.49 0.63 l
-0.43 0.65 l
-0.39 0.68 l
-0.33 0.69 l
-0.27 0.70 l
-0.22 0.72 l
-0.16 0.73 l
-0.10 0.73 l
-0.05 0.74 l
0.02 0.74 l
0.07 0.74 l
0.13 0.73 l
0.19 0.72 l
0.25 0.71 l
0.30 0.70 l
0.36 0.68 l
0.41 0.67 l
0.46 0.64 l
0.51 0.61 l
0.56 0.59 l
0.61 0.56 l
0.64 0.52 l
0.69 0.50 l
0.73 0.45 l
0.76 0.42 l
0.79 0.38 l
0.82 0.34 l
0.85 0.30 l
0.87 0.25 l
0.88 0.21 l
0.90 0.16 l
0.92 0.12 l
0.92 0.07 l
0.92 0.02 l
o
np
130.43 130.61 m
1.85 -0.05 l
1.84 -0.14 l
1.82 -0.23 l
1.80 -0.33 l
1.77 -0.41 l
1.74 -0.51 l
1.69 -0.59 l
1.65 -0.68 l
1.58 -0.76 l
1.52 -0.84 l
1.45 -0.91 l
1.38 -0.99 l
1.30 -1.05 l
1.21 -1.12 l
1.12 -1.17 l
1.02 -1.23 l
0.92 -1.28 l
0.82 -1.33 l
0.72 -1.36 l
0.60 -1.40 l
0.49 -1.42 l
0.38 -1.45 l
0.27 -1.46 l
0.14 -1.48 l
0.03 -1.47 l
-0.09 -1.48 l
-0.20 -1.47 l
-0.32 -1.45 l
-0.44 -1.44 l
-0.55 -1.41 l
-0.66 -1.38 l
-0.76 -1.35 l
-0.88 -1.30 l
-0.97 -1.26 l
-1.07 -1.20 l
-1.17 -1.15 l
-1.25 -1.08 l
-1.34 -1.02 l
-1.41 -0.95 l
-1.49 -0.88 l
-1.55 -0.80 l
-1.62 -0.72 l
-1.67 -0.63 l
-1.71 -0.55 l
-1.76 -0.46 l
-1.79 -0.37 l
-1.81 -0.28 l
-1.83 -0.19 l
-1.85 -0.09 l
-1.84 0 l
-1.85 0.09 l
-1.83 0.19 l
-1.82 0.28 l
-1.78 0.37 l
-1.76 0.46 l
-1.71 0.55 l
-1.67 0.63 l
-1.62 0.72 l
-1.55 0.80 l
-1.49 0.88 l
-1.41 0.95 l
-1.34 1.02 l
-1.26 1.08 l
-1.16 1.15 l
-1.07 1.20 l
-0.98 1.26 l
-0.87 1.30 l
-0.77 1.35 l
-0.66 1.38 l
-0.54 1.41 l
-0.44 1.44 l
-0.32 1.45 l
-0.21 1.47 l
-0.08 1.48 l
0.03 1.47 l
0.14 1.48 l
0.27 1.46 l
0.37 1.45 l
0.50 1.42 l
0.60 1.40 l
0.71 1.36 l
0.82 1.33 l
0.93 1.28 l
1.02 1.23 l
1.12 1.17 l
1.21 1.12 l
1.30 1.05 l
1.37 0.99 l
1.46 0.91 l
1.52 0.84 l
1.58 0.76 l
1.65 0.68 l
1.69 0.59 l
1.73 0.51 l
1.78 0.41 l
1.80 0.33 l
1.82 0.23 l
1.84 0.14 l
1.85 0.05 l
o
np
130.43 142.26 m
2.77 -0.08 l
2.76 -0.21 l
2.73 -0.35 l
2.71 -0.48 l
2.66 -0.63 l
2.60 -0.76 l
2.54 -0.89 l
2.46 -1.01 l
2.38 -1.14 l
2.28 -1.26 l
2.18 -1.37 l
2.07 -1.48 l
1.94 -1.58 l
1.82 -1.67 l
1.67 -1.77 l
1.54 -1.84 l
1.39 -1.92 l
1.23 -1.99 l
1.07 -2.04 l
0.90 -2.10 l
0.74 -2.14 l
0.57 -2.17 l
0.39 -2.19 l
0.22 -2.21 l
0.05 -2.22 l
-0.13 -2.21 l
-0.31 -2.21 l
-0.48 -2.18 l
-0.66 -2.15 l
-0.82 -2.12 l
-0.99 -2.07 l
-1.15 -2.02 l
-1.31 -1.95 l
-1.46 -1.89 l
-1.61 -1.80 l
-1.74 -1.72 l
-1.88 -1.63 l
-2.01 -1.53 l
-2.12 -1.43 l
-2.24 -1.31 l
-2.33 -1.20 l
-2.42 -1.08 l
-2.50 -0.95 l
-2.57 -0.83 l
-2.64 -0.69 l
-2.68 -0.55 l
-2.72 -0.42 l
-2.75 -0.28 l
-2.77 -0.15 l
-2.77 0 l
-2.76 0.15 l
-2.75 0.28 l
-2.72 0.42 l
-2.69 0.55 l
-2.63 0.69 l
-2.57 0.83 l
-2.50 0.95 l
-2.42 1.08 l
-2.34 1.20 l
-2.23 1.31 l
-2.12 1.43 l
-2.01 1.53 l
-1.88 1.63 l
-1.74 1.72 l
-1.61 1.80 l
-1.46 1.89 l
-1.31 1.95 l
-1.15 2.02 l
-0.99 2.07 l
-0.83 2.12 l
-0.65 2.15 l
-0.48 2.18 l
-0.31 2.21 l
-0.13 2.21 l
0.04 2.22 l
0.22 2.21 l
0.40 2.19 l
0.57 2.17 l
0.74 2.14 l
0.90 2.10 l
1.07 2.04 l
1.23 1.99 l
1.39 1.92 l
1.53 1.84 l
1.68 1.77 l
1.82 1.67 l
1.94 1.58 l
2.07 1.48 l
2.17 1.37 l
2.29 1.26 l
2.38 1.14 l
2.46 1.01 l
2.54 0.89 l
2.60 0.76 l
2.66 0.63 l
2.70 0.48 l
2.74 0.35 l
2.76 0.21 l
2.77 0.08 l
o
np
130.43 153.90 m
3.69 -0.09 l
3.68 -0.28 l
3.65 -0.47 l
3.60 -0.65 l
3.55 -0.83 l
3.47 -1.02 l
3.39 -1.18 l
3.28 -1.36 l
3.17 -1.51 l
3.05 -1.68 l
2.90 -1.83 l
2.75 -1.97 l
2.60 -2.11 l
2.42 -2.23 l
2.23 -2.35 l
2.05 -2.46 l
1.85 -2.56 l
1.64 -2.65 l
1.43 -2.73 l
1.20 -2.79 l
0.99 -2.85 l
0.76 -2.89 l
0.52 -2.93 l
0.29 -2.95 l
0.06 -2.95 l
-0.17 -2.96 l
-0.41 -2.93 l
-0.64 -2.91 l
-0.87 -2.88 l
-1.10 -2.82 l
-1.32 -2.76 l
-1.54 -2.69 l
-1.74 -2.61 l
-1.95 -2.51 l
-2.14 -2.41 l
-2.33 -2.29 l
-2.51 -2.17 l
-2.67 -2.04 l
-2.83 -1.90 l
-2.98 -1.76 l
-3.11 -1.59 l
-3.23 -1.44 l
-3.33 -1.27 l
-3.43 -1.10 l
-3.52 -0.92 l
-3.57 -0.74 l
-3.63 -0.56 l
-3.67 -0.38 l
-3.68 -0.19 l
-3.70 0 l
-3.69 0.19 l
-3.66 0.38 l
-3.63 0.56 l
-3.58 0.74 l
-3.51 0.92 l
-3.43 1.10 l
-3.33 1.27 l
-3.23 1.44 l
-3.11 1.59 l
-2.98 1.76 l
-2.83 1.90 l
-2.67 2.04 l
-2.51 2.17 l
-2.33 2.29 l
-2.14 2.41 l
-1.95 2.51 l
-1.75 2.61 l
-1.53 2.69 l
-1.32 2.76 l
-1.10 2.82 l
-0.87 2.88 l
-0.64 2.91 l
-0.41 2.93 l
-0.18 2.96 l
0.06 2.95 l
0.30 2.95 l
0.52 2.93 l
0.76 2.89 l
0.98 2.85 l
1.21 2.79 l
1.43 2.73 l
1.64 2.65 l
1.85 2.56 l
2.05 2.46 l
2.23 2.35 l
2.42 2.23 l
2.59 2.11 l
2.76 1.97 l
2.90 1.83 l
3.05 1.68 l
3.17 1.51 l
3.28 1.36 l
3.39 1.18 l
3.47 1.02 l
3.54 0.83 l
3.61 0.65 l
3.65 0.47 l
3.68 0.28 l
3.69 0.09 l
o
np
130.43 171.67 m
5.10 -0.13 l
5.08 -0.39 l
5.04 -0.64 l
4.98 -0.90 l
4.90 -1.15 l
4.80 -1.40 l
4.67 -1.64 l
4.54 -1.87 l
4.38 -2.09 l
4.21 -2.32 l
4.01 -2.52 l
3.80 -2.73 l
3.58 -2.91 l
3.35 -3.08 l
3.09 -3.25 l
2.82 -3.40 l
2.56 -3.54 l
2.26 -3.66 l
1.98 -3.77 l
1.67 -3.86 l
1.36 -3.93 l
1.04 -4.00 l
0.73 -4.04 l
0.40 -4.07 l
0.08 -4.08 l
-0.24 -4.08 l
-0.57 -4.06 l
-0.88 -4.02 l
-1.21 -3.97 l
-1.51 -3.90 l
-1.82 -3.82 l
-2.12 -3.71 l
-2.41 -3.60 l
-2.70 -3.47 l
-2.96 -3.33 l
-3.21 -3.17 l
-3.47 -3.00 l
-3.69 -2.82 l
-3.91 -2.62 l
-4.11 -2.42 l
-4.30 -2.21 l
-4.46 -1.99 l
-4.61 -1.75 l
-4.74 -1.52 l
-4.85 -1.27 l
-4.94 -1.03 l
-5.01 -0.77 l
-5.06 -0.52 l
-5.10 -0.26 l
-5.10 0 l
-5.10 0.26 l
-5.06 0.52 l
-5.01 0.77 l
-4.94 1.03 l
-4.85 1.27 l
-4.74 1.52 l
-4.61 1.75 l
-4.46 1.99 l
-4.30 2.21 l
-4.11 2.42 l
-3.91 2.62 l
-3.69 2.82 l
-3.47 3.00 l
-3.22 3.17 l
-2.96 3.33 l
-2.69 3.47 l
-2.41 3.60 l
-2.12 3.71 l
-1.82 3.82 l
-1.52 3.90 l
-1.20 3.97 l
-0.89 4.02 l
-0.56 4.06 l
-0.25 4.08 l
0.09 4.08 l
0.40 4.07 l
0.73 4.04 l
1.04 4.00 l
1.36 3.93 l
1.67 3.86 l
1.97 3.77 l
2.27 3.66 l
2.55 3.54 l
2.83 3.40 l
3.09 3.25 l
3.35 3.08 l
3.58 2.91 l
3.80 2.73 l
4.01 2.52 l
4.21 2.32 l
4.38 2.09 l
4.53 1.87 l
4.68 1.64 l
4.80 1.40 l
4.90 1.15 l
4.98 0.90 l
5.04 0.64 l
5.08 0.39 l
5.10 0.13 l
o
0.0745 0.1686 0.2627 srgb
1.07 setlinewidth
[] 0 setdash
1.00 setmiterlimit
np
130.51 107.74 m
0.42 1.88 l
0.50 1.86 l
0.58 1.86 l
0.65 1.84 l
0.73 1.82 l
0.80 1.81 l
0.88 1.78 l
0.96 1.77 l
1.03 1.74 l
1.10 1.72 l
1.17 1.70 l
1.25 1.66 l
1.32 1.64 l
1.38 1.62 l
1.46 1.58 l
1.53 1.54 l
1.59 1.52 l
1.66 1.48 l
1.73 1.44 l
0.11 -2.23 l
-0.05 -2.20 l
-0.19 -2.17 l
-0.35 -2.13 l
-0.48 -2.09 l
-0.64 -2.04 l
-0.77 -1.98 l
-0.90 -1.92 l
-1.04 -1.86 l
-1.16 -1.78 l
1.62 -2.42 l
1.08 -2.51 l
1.95 -2.15 l
1.54 -2.47 l
-2.47 -1.53 l
-2.62 -1.20 l
-2.72 -0.87 l
-2.78 -0.52 l
-2.83 -0.73 l
-2.78 -0.06 l
-0.81 -1.44 l
-2.60 0.58 l
-1.44 0.55 l
-0.64 1.71 l
-0.32 0.04 l
-0.08 0.30 l
0.27 0.32 l
0.11 0.09 l
-0.12 0.06 l
-0.21 0.17 l
0.43 -0.15 l
-0.03 0.10 l
0.08 -0.07 l
o
0.1216 0.2627 0.3922 srgb
np
130.50 107.67 m
0.40 1.88 l
0.46 1.87 l
0.51 1.86 l
0.56 1.85 l
0.61 1.85 l
0.67 1.83 l
0.72 1.82 l
0.76 1.81 l
0.82 1.80 l
0.87 1.79 l
0.92 1.77 l
0.98 1.75 l
1.02 1.75 l
1.07 1.72 l
1.12 1.71 l
1.17 1.69 l
1.22 1.68 l
1.27 1.65 l
1.31 1.64 l
1.37 1.62 l
1.41 1.60 l
1.45 1.57 l
1.51 1.56 l
1.55 1.53 l
1.59 1.51 l
1.65 1.48 l
1.68 1.46 l
1.73 1.44 l
-0.36 -2.05 l
-0.42 -2.04 l
-0.48 -2.02 l
-0.54 -2.00 l
-0.60 -1.99 l
-0.66 -1.96 l
-0.72 -1.94 l
-0.78 -1.93 l
-0.84 -1.89 l
-0.89 -1.88 l
-0.95 -1.85 l
-1.01 -1.83 l
-1.07 -1.80 l
-1.11 -1.77 l
-1.18 -1.75 l
-1.22 -1.72 l
-1.28 -1.69 l
-1.33 -1.66 l
-1.39 -1.63 l
-1.43 -1.59 l
-1.48 -1.57 l
-1.53 -1.53 l
-1.58 -1.50 l
-1.63 -1.46 l
2.16 0.95 l
2.32 0.75 l
2.46 0.54 l
2.58 0.30 l
2.67 0.08 l
-1.55 -1.90 l
-1.79 -1.66 l
-2.00 -1.39 l
-2.17 -1.11 l
1.96 -1.35 l
1.65 -1.81 l
-2.52 -0.72 l
-2.52 -0.31 l
-2.45 0.07 l
-1.83 -1.20 l
-3.40 1.52 l
-1.23 0.76 l
-0.47 0.96 l
-0.23 0.14 l
0.09 0.37 l
0.06 0.12 l
0.15 0.09 l
-0.27 0.05 l
-0.11 0.14 l
0.35 -0.11 l
0.06 -0.02 l
0.01 0.07 l
o
0.1725 0.3647 0.5255 srgb
np
131.21 111.24 m
0.71 1.91 l
0.93 1.86 l
1.14 1.80 l
1.35 1.74 l
1.55 1.65 l
1.74 1.55 l
1.92 1.46 l
0.35 -2.23 l
-0.03 -2.16 l
-0.37 -2.07 l
-0.71 -1.94 l
-0.55 -2.37 l
-1.20 -2.02 l
2.93 0.13 l
3.02 -0.33 l
3.02 -0.80 l
-2.55 -1.04 l
-2.64 -0.78 l
-2.70 -0.50 l
-2.73 -0.23 l
-2.71 0.03 l
-1.75 -0.20 l
2.06 -2.23 l
-2.75 1.57 l
1.04 -1.78 l
0.97 -1.80 l
0.88 -1.84 l
0.79 -1.86 l
0.71 -1.89 l
0.62 -1.92 l
0.54 -1.93 l
0.45 -1.95 l
0.36 -1.98 l
0.27 -1.98 l
0.18 -2.00 l
0.09 -2.01 l
0 -2.03 l
-0.09 -2.02 l
-0.18 -2.04 l
-0.27 -2.04 l
-0.36 -2.04 l
-1.13 1.79 l
-1.04 1.82 l
-0.95 1.83 l
-0.87 1.85 l
-0.78 1.86 l
-0.69 1.88 l
-0.61 1.89 l
-0.51 1.89 l
-0.43 1.91 l
-0.35 1.91 l
-0.25 1.91 l
-0.17 1.92 l
-0.07 1.91 l
0.01 1.91 l
0.09 1.91 l
0.19 1.90 l
0.27 1.90 l
-1.24 -1.84 l
-1.96 -1.54 l
0.59 1.97 l
1.06 1.80 l
1.47 1.56 l
-2.65 -1.42 l
-3.14 -0.72 l
2.86 1.68 l
3.29 0.88 l
0.10 0.04 l
-3.25 1.35 l
3.27 -1.30 l
-0.01 0.08 l
-0.06 0.63 l
o
0.2275 0.4706 0.6667 srgb
np
130.47 107.51 m
0.46 1.92 l
0.62 1.89 l
0.76 1.85 l
0.91 1.83 l
1.05 1.78 l
1.20 1.73 l
1.33 1.68 l
1.47 1.62 l
1.60 1.56 l
1.74 1.50 l
1.88 1.29 l
2.00 1.21 l
2.13 1.12 l
2.23 1.02 l
2.35 0.92 l
2.45 0.81 l
2.55 0.71 l
2.63 0.59 l
2.72 0.47 l
-1.00 -1.97 l
-1.09 -1.92 l
-1.19 -1.86 l
-1.29 -1.80 l
-1.37 -1.74 l
-1.47 -1.67 l
-1.55 -1.61 l
-1.63 -1.54 l
-1.70 -1.46 l
-1.79 -1.40 l
-1.85 -1.32 l
-1.92 -1.24 l
-1.99 -1.16 l
2.58 0.40 l
2.65 0.21 l
2.70 0.04 l
2.73 -0.14 l
2.75 -0.34 l
2.75 -0.52 l
2.74 -0.70 l
-2.24 -1.03 l
-2.30 -0.91 l
-2.33 -0.79 l
-2.37 -0.67 l
-2.39 -0.55 l
-2.41 -0.43 l
-2.43 -0.31 l
-2.43 -0.19 l
-2.42 -0.07 l
-2.42 0.05 l
-3.58 -0.63 l
-0.20 -1.36 l
-1.49 -0.47 l
-1.84 1.74 l
-0.48 0.90 l
-0.38 -0.07 l
-0.88 -0.29 l
1.19 1.04 l
-0.06 0.05 l
-0.30 0.11 l
0.31 0.03 l
0.20 -0.05 l
-0.04 0.12 l
0.09 -0.10 l
o
0.2824 0.5804 0.8157 srgb
np
130.43 107.32 m
0.61 2.04 l
1.02 1.96 l
1.39 1.83 l
1.76 1.67 l
-0.66 -2.12 l
-1.03 -1.98 l
-1.38 -1.80 l
-1.71 -1.60 l
1.90 1.43 l
2.02 1.33 l
2.12 1.23 l
2.22 1.13 l
2.31 1.02 l
2.40 0.91 l
2.48 0.79 l
2.55 0.67 l
2.61 0.55 l
2.68 0.43 l
-2.01 -1.48 l
-2.09 -1.37 l
-2.18 -1.26 l
-2.26 -1.13 l
-2.32 -1.02 l
-2.39 -0.90 l
-2.45 -0.77 l
-2.49 -0.65 l
-2.53 -0.52 l
-2.57 -0.39 l
0.50 -0.07 l
2.39 -0.33 l
2.39 -0.37 l
2.37 -0.42 l
2.36 -0.47 l
2.35 -0.51 l
2.34 -0.55 l
2.32 -0.59 l
2.30 -0.64 l
2.29 -0.69 l
2.27 -0.72 l
2.25 -0.77 l
2.24 -0.81 l
2.21 -0.86 l
2.19 -0.89 l
2.17 -0.94 l
2.15 -0.98 l
2.12 -1.02 l
2.09 -1.06 l
2.08 -1.10 l
2.04 -1.14 l
2.02 -1.18 l
1.98 -1.22 l
1.96 -1.26 l
1.93 -1.30 l
1.90 -1.34 l
1.86 -1.37 l
1.84 -1.42 l
-2.53 0.37 l
-2.50 0.40 l
-2.48 0.45 l
-2.46 0.50 l
-2.45 0.53 l
-2.41 0.58 l
-2.40 0.62 l
-2.37 0.66 l
-2.35 0.70 l
-2.32 0.75 l
-2.29 0.78 l
-2.26 0.82 l
-2.24 0.87 l
-2.21 0.90 l
-2.17 0.94 l
-2.15 0.98 l
-2.11 1.02 l
-2.08 1.05 l
-2.05 1.09 l
-2.01 1.13 l
-1.98 1.17 l
-1.94 1.19 l
-1.91 1.24 l
-1.87 1.27 l
-1.83 1.30 l
-1.79 1.34 l
-1.75 1.37 l
1.71 -1.42 l
1.64 -1.47 l
1.57 -1.51 l
1.50 -1.56 l
1.43 -1.61 l
1.36 -1.65 l
1.29 -1.69 l
1.21 -1.74 l
1.13 -1.77 l
1.05 -1.81 l
0.98 -1.85 l
0.89 -1.87 l
0.81 -1.92 l
0.73 -1.94 l
0.64 -1.97 l
0.56 -1.99 l
149.40 77.53 lineto
-1.76 1.49 l
-1.69 1.53 l
-1.62 1.58 l
-1.53 1.61 l
-1.46 1.65 l
-1.38 1.68 l
-1.29 1.72 l
-1.21 1.74 l
-1.13 1.78 l
-1.04 1.80 l
-0.96 1.83 l
-0.87 1.85 l
-0.78 1.87 l
-0.70 1.89 l
-0.60 1.91 l
-0.52 1.92 l
-0.43 1.94 l
0 0 l
0 0 l
0 0 l
0 0 l
0 0 l
-0.50 0.06 l
0.50 -0.06 l
0 0 l
0 0 l
0 0 l
o
/bg { 0.0745 0.1686 0.2627 srgb } def
130.51 107.74 1.95 c p2
151.25 140.00 1.95 c p2
145.78 119.60 1.95 c p2
148.48 114.67 1.95 c p2
151.97 110.05 1.95 c p2
141.38 105.93 1.95 c p2
135.77 105.14 1.95 c p2
134.96 103.70 1.95 c p2
132.36 104.28 1.95 c p2
130.92 104.83 1.95 c p2
130.28 106.54 1.95 c p2
129.96 106.58 1.95 c p2
129.88 106.88 1.95 c p2
130.15 107.20 1.95 c p2
130.26 107.29 1.95 c p2
130.14 107.35 1.95 c p2
129.93 107.52 1.95 c p2
130.36 107.37 1.95 c p2
130.33 107.47 1.95 c p2
130.41 107.40 1.95 c p2
/bg { 0.1216 0.2627 0.3922 srgb } def
np
 130.50 110.71 m
2.63 -4.56 l
-5.26 0 l
cp p2
np
 160.90 158.20 m
2.63 -4.56 l
-5.26 0 l
cp p2
np
 136.42 115.15 m
2.64 -4.56 l
-5.27 0 l
cp p2
np
 148.61 117.77 m
2.63 -4.56 l
-5.26 0 l
cp p2
np
 141.10 111.71 m
2.63 -4.56 l
-5.26 0 l
cp p2
np
 144.71 108.55 m
2.63 -4.56 l
-5.27 0 l
cp p2
np
 137.22 107.59 m
2.63 -4.56 l
-5.26 0 l
cp p2
np
 135.39 106.39 m
2.63 -4.56 l
-5.26 0 l
cp p2
np
 131.99 107.91 m
2.63 -4.56 l
-5.26 0 l
cp p2
np
 130.76 108.67 m
2.64 -4.56 l
-5.27 0 l
cp p2
np
 130.29 109.63 m
2.63 -4.56 l
-5.27 0 l
cp p2
np
 130.06 109.77 m
2.63 -4.56 l
-5.27 0 l
cp p2
np
 130.15 110.14 m
2.64 -4.56 l
-5.27 0 l
cp p2
np
 130.21 110.26 m
2.63 -4.56 l
-5.27 0 l
cp p2
np
 130.36 110.35 m
2.64 -4.56 l
-5.27 0 l
cp p2
np
 130.09 110.40 m
2.64 -4.56 l
-5.27 0 l
cp p2
np
 129.98 110.54 m
2.63 -4.56 l
-5.27 0 l
cp p2
np
 130.33 110.43 m
2.63 -4.56 l
-5.26 0 l
cp p2
np
 130.39 110.41 m
2.64 -4.56 l
-5.27 0 l
cp p2
np
 130.40 110.48 m
2.64 -4.56 l
-5.27 0 l
cp p2
/bg { 0.1725 0.3647 0.5255 srgb } def
np
 129.25 109.29 m
3.91 0 l
0 3.91 l
-3.91 0 l
cp p2
np
 138.60 121.26 m
3.91 0 l
0 3.91 l
-3.91 0 l
cp p2
np
 137.84 112.85 m
3.91 0 l
0 3.91 l
-3.91 0 l
cp p2
np
 136.09 108.47 m
3.91 0 l
0 3.91 l
-3.91 0 l
cp p2
np
 145.06 107.46 m
3.91 0 l
0 3.91 l
-3.91 0 l
cp p2
np
 131.72 104.95 m
3.91 0 l
0 3.91 l
-3.91 0 l
cp p2
np
 129.97 104.75 m
3.91 0 l
0 3.91 l
-3.91 0 l
cp p2
np
 132.03 102.51 m
3.91 0 l
0 3.91 l
-3.91 0 l
cp p2
np
 129.29 104.09 m
3.91 0 l
0 3.91 l
-3.91 0 l
cp p2
np
 135.28 70.98 m
3.91 0 l
0 3.91 l
-3.91 0 l
cp p2
np
 128.00 102.96 m
3.91 0 l
0 3.91 l
-3.91 0 l
cp p2
np
 124.79 99.58 m
3.91 0 l
0 3.91 l
-3.91 0 l
cp p2
np
 127.91 104.91 m
3.91 0 l
0 3.91 l
-3.91 0 l
cp p2
np
 122.12 102.77 m
3.91 0 l
0 3.91 l
-3.91 0 l
cp p2
np
 128.28 105.34 m
3.91 0 l
0 3.91 l
-3.91 0 l
cp p2
np
 128.37 105.37 m
3.91 0 l
0 3.91 l
-3.91 0 l
cp p2
np
 125.12 106.73 m
3.91 0 l
0 3.91 l
-3.91 0 l
cp p2
np
 128.40 105.42 m
3.91 0 l
0 3.91 l
-3.91 0 l
cp p2
np
 128.38 105.50 m
3.91 0 l
0 3.91 l
-3.91 0 l
cp p2
np
 128.32 106.14 m
3.91 0 l
0 3.91 l
-3.91 0 l
cp p2
0.2275 0.4706 0.6667 srgb
0.71 setlinewidth
[] 0 setdash
1 setlinecap
10.00 setmiterlimit
np
127.70 107.51 m
5.53 0 l
o
np
130.47 104.75 m
0 5.53 l
o
np
138.84 124.87 m
5.53 0 l
o
np
141.61 122.10 m
0 5.53 l
o
np
159.78 133.01 m
5.53 0 l
o
np
162.55 130.25 m
0 5.52 l
o
np
139.95 112.32 m
5.52 0 l
o
np
142.71 109.56 m
0 5.53 l
o
np
158.85 111.27 m
5.53 0 l
o
np
161.61 108.50 m
0 5.53 l
o
np
135.10 106.37 m
5.53 0 l
o
np
137.87 103.61 m
0 5.53 l
o
np
131.53 105.74 m
5.53 0 l
o
np
134.29 102.98 m
0 5.53 l
o
np
131.33 104.38 m
5.53 0 l
o
np
134.09 101.62 m
0 5.53 l
o
np
129.84 103.91 m
5.53 0 l
o
np
132.60 101.14 m
0 5.53 l
o
np
127.99 105.65 m
5.53 0 l
o
np
130.76 102.89 m
0 5.53 l
o
np
127.51 106.55 m
5.53 0 l
o
np
130.28 103.78 m
0 5.53 l
o
np
127.13 106.48 m
5.53 0 l
o
np
129.90 103.72 m
0 5.53 l
o
np
126.26 106.19 m
5.53 0 l
o
np
129.02 103.42 m
0 5.53 l
o
np
127.45 107.23 m
5.53 0 l
o
np
130.21 104.46 m
0 5.53 l
o
np
127.38 107.28 m
5.53 0 l
o
np
130.15 104.52 m
0 5.52 l
o
np
127.08 107.39 m
5.53 0 l
o
np
129.85 104.63 m
0 5.52 l
o
np
127.40 107.42 m
5.53 0 l
o
np
130.16 104.66 m
0 5.53 l
o
np
127.60 107.37 m
5.53 0 l
o
np
130.36 104.61 m
0 5.53 l
o
np
127.55 107.49 m
5.53 0 l
o
np
130.32 104.73 m
0 5.53 l
o
np
127.65 107.39 m
5.53 0 l
o
np
130.41 104.63 m
0 5.53 l
o
0.2824 0.5804 0.8157 srgb
128.47 105.36 3.91 3.91 r p1
np
128.47 105.36 m
3.91 3.91 l
o
np
128.47 109.27 m
3.91 -3.91 l
o
133.25 112.86 3.91 3.91 r p1
np
133.25 112.86 m
3.91 3.91 l
o
np
133.25 116.77 m
3.91 -3.91 l
o
128.47 105.36 3.91 3.91 r p1
np
128.47 105.36 m
3.91 3.91 l
o
np
128.47 109.27 m
3.91 -3.91 l
o
151.76 114.85 3.91 3.91 r p1
np
151.76 114.85 m
3.91 3.91 l
o
np
151.76 118.76 m
3.91 -3.91 l
o
128.47 105.36 3.91 3.91 r p1
np
128.47 105.36 m
3.91 3.91 l
o
np
128.47 109.27 m
3.91 -3.91 l
o
128.97 105.30 3.91 3.91 r p1
np
128.97 105.30 m
3.91 3.91 l
o
np
128.97 109.21 m
3.91 -3.91 l
o
187.38 81.35 3.91 3.91 r p1
np
187.38 81.35 m
3.91 3.91 l
o
np
187.38 85.26 m
3.91 -3.91 l
o
128.47 105.36 3.91 3.91 r p1
np
128.47 105.36 m
3.91 3.91 l
o
np
128.47 109.27 m
3.91 -3.91 l
o
147.45 75.57 3.91 3.91 r p1
np
147.45 75.57 m
3.91 3.91 l
o
np
147.45 79.48 m
3.91 -3.91 l
o
128.47 105.36 3.91 3.91 r p1
np
128.47 105.36 m
3.91 3.91 l
o
np
128.47 109.27 m
3.91 -3.91 l
o
128.47 105.36 3.91 3.91 r p1
np
128.47 105.36 m
3.91 3.91 l
o
np
128.47 109.27 m
3.91 -3.91 l
o
128.47 105.36 3.91 3.91 r p1
np
128.47 105.36 m
3.91 3.91 l
o
np
128.47 109.27 m
3.91 -3.91 l
o
128.47 105.36 3.91 3.91 r p1
np
128.47 105.36 m
3.91 3.91 l
o
np
128.47 109.27 m
3.91 -3.91 l
o
128.47 105.36 3.91 3.91 r p1
np
128.47 105.36 m
3.91 3.91 l
o
np
128.47 109.27 m
3.91 -3.91 l
o
128.47 105.36 3.91 3.91 r p1
np
128.47 105.36 m
3.91 3.91 l
o
np
128.47 109.27 m
3.91 -3.91 l
o
127.98 105.42 3.91 3.91 r p1
np
127.98 105.42 m
3.90 3.91 l
o
np
127.98 109.33 m
3.90 -3.91 l
o
128.47 105.36 3.91 3.91 r p1
np
128.47 105.36 m
3.91 3.91 l
o
np
128.47 109.27 m
3.91 -3.91 l
o
128.47 105.36 3.91 3.91 r p1
np
128.47 105.36 m
3.91 3.91 l
o
np
128.47 109.27 m
3.91 -3.91 l
o
128.47 105.36 3.91 3.91 r p1
np
128.47 105.36 m
3.91 3.91 l
o
np
128.47 109.27 m
3.91 -3.91 l
o
128.47 105.36 3.91 3.91 r p1
np
128.47 105.36 m
3.91 3.91 l
o
np
128.47 109.27 m
3.91 -3.91 l
o
/Font1 findfont 10 s
0 0 0 srgb
143.01 167.29 (0) .5 0 t
166.95 161.07 (1) .5 0 t
187.31 149.23 (2) .5 0 t
202.11 132.94 (3) .5 0 t
209.88 113.79 (4) .5 0 t
209.88 93.66 (5) .5 0 t
202.11 74.51 (6) .5 0 t
187.31 58.22 (7) .5 0 t
166.95 46.38 (8) .5 0 t
143.01 40.16 (9) .5 0 t
117.84 40.16 (10) .5 0 t
93.91 46.38 (11) .5 0 t
73.55 58.22 (12) .5 0 t
58.75 74.51 (13) .5 0 t
50.98 93.66 (14) .5 0 t
50.98 113.79 (15) .5 0 t
58.75 132.94 (16) .5 0 t
73.55 149.23 (17) .5 0 t
93.91 161.07 (18) .5 0 t
117.84 167.29 (19) .5 0 t
0.4980 0.4980 0.4980 srgb
1.07 setlinewidth
[] 0 setdash
41.05 35.81 178.77 143.01 r p1
0.00 0.00 595.28 212.60 cl
225.79 35.81 404.55 178.82 cl
/bg { 1 1 1 srgb } def
225.79 35.81 178.77 143.01 r p2
0.8980 0.8980 0.8980 srgb
0.43 setlinewidth
[] 0 setdash
0 setlinecap
1 setlinejoin
10.00 setmiterlimit
np
315.17 107.32 m
12.59 63.56 l
o
np
315.17 107.32 m
36.52 57.34 l
o
np
315.17 107.32 m
56.89 45.50 l
o
np
315.17 107.32 m
71.68 29.21 l
o
np
315.17 107.32 m
79.46 10.06 l
o
np
315.17 107.32 m
79.46 -10.07 l
o
np
315.17 107.32 m
71.68 -29.22 l
o
np
315.17 107.32 m
56.89 -45.51 l
o
np
315.17 107.32 m
36.52 -57.35 l
o
np
315.17 107.32 m
12.59 -63.57 l
o
np
315.17 107.32 m
-12.58 -63.57 l
o
np
315.17 107.32 m
-36.52 -57.35 l
o
np
315.17 107.32 m
-56.88 -45.51 l
o
np
315.17 107.32 m
-71.67 -29.22 l
o
np
315.17 107.32 m
-79.45 -10.07 l
o
np
315.17 107.32 m
-79.45 10.06 l
o
np
315.17 107.32 m
-71.67 29.21 l
o
np
315.17 107.32 m
-56.88 45.50 l
o
np
315.17 107.32 m
-36.52 57.34 l
o
np
315.17 107.32 m
-12.58 63.56 l
o
np
315.17 107.32 m
0 0 l
0 0 l
0 0 l
0 0 l
0 0 l
0 0 l
0 0 l
0 0 l
0 0 l
0 0 l
0 0 l
0 0 l
0 0 l
0 0 l
0 0 l
0 0 l
0 0 l
0 0 l
0 0 l
0 0 l
0 0 l
0 0 l
0 0 l
0 0 l
0 0 l
0 0 l
0 0 l
0 0 l
0 0 l
0 0 l
0 0 l
0 0 l
0 0 l
0 0 l
0 0 l
0 0 l
0 0 l
0 0 l
0 0 l
0 0 l
0 0 l
0 0 l
0 0 l
0 0 l
0 0 l
0 0 l
0 0 l
0 0 l
0 0 l
0 0 l
0 0 l
0 0 l
0 0 l
0 0 l
0 0 l
0 0 l
0 0 l
0 0 l
0 0 l
0 0 l
0 0 l
0 0 l
0 0 l
0 0 l
0 0 l
0 0 l
0 0 l
0 0 l
0 0 l
0 0 l
0 0 l
0 0 l
0 0 l
0 0 l
0 0 l
0 0 l
0 0 l
0 0 l
0 0 l
0 0 l
0 0 l
0 0 l
0 0 l
0 0 l
0 0 l
0 0 l
0 0 l
0 0 l
0 0 l
0 0 l
0 0 l
0 0 l
0 0 l
0 0 l
0 0 l
0 0 l
0 0 l
0 0 l
0 0 l
o
np
315.17 118.96 m
0.93 -0.02 l
0.92 -0.07 l
0.91 -0.12 l
0.90 -0.16 l
0.88 -0.21 l
0.87 -0.25 l
0.85 -0.30 l
0.82 -0.34 l
0.79 -0.38 l
0.76 -0.42 l
0.73 -0.45 l
0.69 -0.50 l
0.65 -0.52 l
0.60 -0.56 l
0.56 -0.59 l
0.51 -0.61 l
0.46 -0.64 l
0.41 -0.67 l
0.36 -0.68 l
0.30 -0.70 l
0.25 -0.71 l
0.19 -0.72 l
0.13 -0.73 l
0.07 -0.74 l
0.02 -0.74 l
-0.05 -0.74 l
-0.10 -0.73 l
-0.16 -0.73 l
-0.22 -0.72 l
-0.27 -0.70 l
-0.33 -0.69 l
-0.38 -0.68 l
-0.44 -0.65 l
-0.49 -0.63 l
-0.53 -0.60 l
-0.59 -0.57 l
-0.62 -0.54 l
-0.67 -0.51 l
-0.71 -0.48 l
-0.74 -0.44 l
-0.78 -0.40 l
-0.81 -0.36 l
-0.83 -0.31 l
-0.86 -0.28 l
-0.88 -0.23 l
-0.89 -0.18 l
-0.91 -0.14 l
-0.91 -0.10 l
-0.93 -0.04 l
-0.92 0 l
-0.92 0.04 l
-0.92 0.10 l
-0.91 0.14 l
-0.89 0.18 l
-0.88 0.23 l
-0.85 0.28 l
-0.84 0.31 l
-0.81 0.36 l
-0.77 0.40 l
-0.75 0.44 l
-0.70 0.48 l
-0.67 0.51 l
-0.63 0.54 l
-0.58 0.57 l
-0.54 0.60 l
-0.49 0.63 l
-0.43 0.65 l
-0.39 0.68 l
-0.32 0.69 l
-0.28 0.70 l
-0.22 0.72 l
-0.16 0.73 l
-0.10 0.73 l
-0.04 0.74 l
0.01 0.74 l
0.07 0.74 l
0.14 0.73 l
0.18 0.72 l
0.25 0.71 l
0.30 0.70 l
0.36 0.68 l
0.41 0.67 l
0.46 0.64 l
0.51 0.61 l
0.56 0.59 l
0.61 0.56 l
0.65 0.52 l
0.68 0.50 l
0.73 0.45 l
0.76 0.42 l
0.79 0.38 l
0.83 0.34 l
0.84 0.30 l
0.87 0.25 l
0.89 0.21 l
0.90 0.16 l
0.91 0.12 l
0.92 0.07 l
0.92 0.02 l
o
np
315.17 130.61 m
1.85 -0.05 l
1.84 -0.14 l
1.82 -0.23 l
1.80 -0.33 l
1.78 -0.41 l
1.73 -0.51 l
1.70 -0.59 l
1.64 -0.68 l
1.58 -0.76 l
1.53 -0.84 l
1.45 -0.91 l
1.37 -0.99 l
1.30 -1.05 l
1.21 -1.12 l
1.12 -1.17 l
1.02 -1.23 l
0.93 -1.28 l
0.82 -1.33 l
0.71 -1.36 l
0.61 -1.40 l
0.49 -1.42 l
0.38 -1.45 l
0.26 -1.46 l
0.15 -1.48 l
0.02 -1.47 l
-0.08 -1.48 l
-0.21 -1.47 l
-0.32 -1.45 l
-0.43 -1.44 l
-0.55 -1.41 l
-0.66 -1.38 l
-0.77 -1.35 l
-0.87 -1.30 l
-0.98 -1.26 l
-1.07 -1.20 l
-1.16 -1.15 l
-1.26 -1.08 l
-1.33 -1.02 l
-1.42 -0.95 l
-1.49 -0.88 l
-1.55 -0.80 l
-1.62 -0.72 l
-1.66 -0.63 l
-1.72 -0.55 l
-1.75 -0.46 l
-1.79 -0.37 l
-1.82 -0.28 l
-1.83 -0.19 l
-1.84 -0.09 l
-1.85 0 l
-1.85 0.09 l
-1.83 0.19 l
-1.81 0.28 l
-1.79 0.37 l
-1.76 0.46 l
-1.71 0.55 l
-1.67 0.63 l
-1.61 0.72 l
-1.56 0.80 l
-1.49 0.88 l
-1.41 0.95 l
-1.34 1.02 l
-1.25 1.08 l
-1.17 1.15 l
-1.07 1.20 l
-0.97 1.26 l
-0.88 1.30 l
-0.76 1.35 l
-0.66 1.38 l
-0.55 1.41 l
-0.44 1.44 l
-0.32 1.45 l
-0.20 1.47 l
-0.09 1.48 l
0.03 1.47 l
0.15 1.48 l
0.26 1.46 l
0.38 1.45 l
0.49 1.42 l
0.60 1.40 l
0.72 1.36 l
0.82 1.33 l
0.92 1.28 l
1.03 1.23 l
1.11 1.17 l
1.21 1.12 l
1.30 1.05 l
1.38 0.99 l
1.45 0.91 l
1.52 0.84 l
1.59 0.76 l
1.64 0.68 l
1.69 0.59 l
1.74 0.51 l
1.77 0.41 l
1.80 0.33 l
1.83 0.23 l
1.84 0.14 l
1.84 0.05 l
o
np
315.17 142.26 m
2.77 -0.08 l
2.76 -0.21 l
2.74 -0.35 l
2.70 -0.48 l
2.66 -0.63 l
2.60 -0.76 l
2.54 -0.89 l
2.47 -1.01 l
2.37 -1.14 l
2.29 -1.26 l
2.18 -1.37 l
2.06 -1.48 l
1.94 -1.58 l
1.82 -1.67 l
1.68 -1.77 l
1.53 -1.84 l
1.39 -1.92 l
1.23 -1.99 l
1.07 -2.04 l
0.91 -2.10 l
0.73 -2.14 l
0.57 -2.17 l
0.40 -2.19 l
0.22 -2.21 l
0.04 -2.22 l
-0.13 -2.21 l
-0.31 -2.21 l
-0.48 -2.18 l
-0.65 -2.15 l
-0.83 -2.12 l
-0.99 -2.07 l
-1.15 -2.02 l
-1.31 -1.95 l
-1.46 -1.89 l
-1.60 -1.80 l
-1.75 -1.72 l
-1.88 -1.63 l
-2.01 -1.53 l
-2.12 -1.43 l
-2.23 -1.31 l
-2.33 -1.20 l
-2.43 -1.08 l
-2.50 -0.95 l
-2.57 -0.83 l
-2.63 -0.69 l
-2.69 -0.55 l
-2.72 -0.42 l
-2.75 -0.28 l
-2.76 -0.15 l
-2.77 0 l
-2.77 0.15 l
-2.75 0.28 l
-2.72 0.42 l
-2.68 0.55 l
-2.64 0.69 l
-2.57 0.83 l
-2.50 0.95 l
-2.42 1.08 l
-2.33 1.20 l
-2.24 1.31 l
-2.12 1.43 l
-2.00 1.53 l
-1.88 1.63 l
-1.75 1.72 l
-1.61 1.80 l
-1.46 1.89 l
-1.31 1.95 l
-1.15 2.02 l
-0.99 2.07 l
-0.82 2.12 l
-0.66 2.15 l
-0.48 2.18 l
-0.30 2.21 l
-0.14 2.21 l
0.05 2.22 l
0.22 2.21 l
0.39 2.19 l
0.57 2.17 l
0.74 2.14 l
0.90 2.10 l
1.08 2.04 l
1.23 1.99 l
1.38 1.92 l
1.54 1.84 l
1.68 1.77 l
1.81 1.67 l
1.94 1.58 l
2.07 1.48 l
2.18 1.37 l
2.28 1.26 l
2.38 1.14 l
2.46 1.01 l
2.54 0.89 l
2.60 0.76 l
2.66 0.63 l
2.71 0.48 l
2.73 0.35 l
2.76 0.21 l
2.77 0.08 l
o
np
315.17 153.90 m
3.70 -0.09 l
3.67 -0.28 l
3.65 -0.47 l
3.61 -0.65 l
3.54 -0.83 l
3.47 -1.02 l
3.39 -1.18 l
3.28 -1.36 l
3.17 -1.51 l
3.05 -1.68 l
2.90 -1.83 l
2.76 -1.97 l
2.59 -2.11 l
2.42 -2.23 l
2.24 -2.35 l
2.04 -2.46 l
1.85 -2.56 l
1.64 -2.65 l
1.43 -2.73 l
1.21 -2.79 l
0.98 -2.85 l
0.76 -2.89 l
0.53 -2.93 l
0.29 -2.95 l
0.06 -2.95 l
-0.18 -2.96 l
-0.41 -2.93 l
-0.64 -2.91 l
-0.87 -2.88 l
-1.10 -2.82 l
-1.32 -2.76 l
-1.53 -2.69 l
-1.75 -2.61 l
-1.95 -2.51 l
-2.14 -2.41 l
-2.33 -2.29 l
-2.51 -2.17 l
-2.67 -2.04 l
-2.83 -1.90 l
-2.98 -1.76 l
-3.11 -1.59 l
-3.22 -1.44 l
-3.34 -1.27 l
-3.43 -1.10 l
-3.51 -0.92 l
-3.58 -0.74 l
-3.63 -0.56 l
-3.66 -0.38 l
-3.69 -0.19 l
-3.70 0 l
-3.68 0.19 l
-3.67 0.38 l
-3.63 0.56 l
-3.57 0.74 l
-3.51 0.92 l
-3.43 1.10 l
-3.34 1.27 l
-3.23 1.44 l
-3.11 1.59 l
-2.97 1.76 l
-2.83 1.90 l
-2.68 2.04 l
-2.51 2.17 l
-2.33 2.29 l
-2.14 2.41 l
-1.95 2.51 l
-1.74 2.61 l
-1.54 2.69 l
-1.32 2.76 l
-1.09 2.82 l
-0.88 2.88 l
-0.64 2.91 l
-0.41 2.93 l
-0.17 2.96 l
0.06 2.95 l
0.29 2.95 l
0.53 2.93 l
0.75 2.89 l
0.99 2.85 l
1.21 2.79 l
1.42 2.73 l
1.64 2.65 l
1.85 2.56 l
2.05 2.46 l
2.24 2.35 l
2.42 2.23 l
2.59 2.11 l
2.75 1.97 l
2.91 1.83 l
3.04 1.68 l
3.17 1.51 l
3.28 1.36 l
3.39 1.18 l
3.47 1.02 l
3.55 0.83 l
3.60 0.65 l
3.65 0.47 l
3.68 0.28 l
3.69 0.09 l
o
np
315.17 171.67 m
5.10 -0.13 l
5.09 -0.39 l
5.04 -0.64 l
4.98 -0.90 l
4.89 -1.15 l
4.80 -1.40 l
4.68 -1.64 l
4.53 -1.87 l
4.38 -2.09 l
4.21 -2.32 l
4.01 -2.52 l
3.81 -2.73 l
3.58 -2.91 l
3.34 -3.08 l
3.09 -3.25 l
2.83 -3.40 l
2.55 -3.54 l
2.27 -3.66 l
1.97 -3.77 l
1.67 -3.86 l
1.36 -3.93 l
1.04 -4.00 l
0.73 -4.04 l
0.41 -4.07 l
0.08 -4.08 l
-0.25 -4.08 l
-0.56 -4.06 l
-0.89 -4.02 l
-1.20 -3.97 l
-1.52 -3.90 l
-1.82 -3.82 l
-2.12 -3.71 l
-2.41 -3.60 l
-2.69 -3.47 l
-2.96 -3.33 l
-3.22 -3.17 l
-3.47 -3.00 l
-3.69 -2.82 l
-3.91 -2.62 l
-4.11 -2.42 l
-4.30 -2.21 l
-4.46 -1.99 l
-4.61 -1.75 l
-4.73 -1.52 l
-4.85 -1.27 l
-4.94 -1.03 l
-5.02 -0.77 l
-5.06 -0.52 l
-5.10 -0.26 l
-5.10 0 l
-5.09 0.26 l
-5.07 0.52 l
-5.01 0.77 l
-4.94 1.03 l
-4.85 1.27 l
-4.74 1.52 l
-4.61 1.75 l
-4.46 1.99 l
-4.29 2.21 l
-4.12 2.42 l
-3.91 2.62 l
-3.69 2.82 l
-3.46 3.00 l
-3.22 3.17 l
-2.96 3.33 l
-2.69 3.47 l
-2.42 3.60 l
-2.12 3.71 l
-1.82 3.82 l
-1.51 3.90 l
-1.21 3.97 l
-0.88 4.02 l
-0.57 4.06 l
-0.24 4.08 l
0.08 4.08 l
0.40 4.07 l
0.73 4.04 l
1.05 4.00 l
1.36 3.93 l
1.67 3.86 l
1.97 3.77 l
2.26 3.66 l
2.56 3.54 l
2.82 3.40 l
3.10 3.25 l
3.34 3.08 l
3.58 2.91 l
3.80 2.73 l
4.02 2.52 l
4.20 2.32 l
4.38 2.09 l
4.54 1.87 l
4.67 1.64 l
4.80 1.40 l
4.90 1.15 l
4.98 0.90 l
5.04 0.64 l
5.08 0.39 l
5.10 0.13 l
o
0.0745 0.1686 0.2627 srgb
1.07 setlinewidth
[] 0 setdash
1.00 setmiterlimit
np
315.28 107.85 m
0.73 2.24 l
1.16 2.14 l
1.58 2.00 l
1.99 1.82 l
1.23 1.62 l
1.30 1.60 l
1.34 1.57 l
1.39 1.55 l
1.44 1.52 l
1.49 1.50 l
1.54 1.47 l
1.59 1.44 l
1.64 1.41 l
1.68 1.38 l
1.73 1.35 l
1.77 1.31 l
1.82 1.29 l
1.87 1.25 l
1.90 1.22 l
1.95 1.19 l
1.99 1.15 l
2.03 1.12 l
2.07 1.08 l
2.11 1.04 l
2.15 1.01 l
2.19 0.97 l
2.22 0.93 l
2.26 0.89 l
2.29 0.86 l
-1.13 -1.82 l
-1.18 -1.79 l
-1.22 -1.76 l
-1.27 -1.74 l
-1.32 -1.70 l
-1.35 -1.68 l
-1.40 -1.65 l
-1.44 -1.62 l
-1.48 -1.58 l
-1.53 -1.56 l
-1.56 -1.52 l
-1.60 -1.49 l
-1.64 -1.46 l
-1.68 -1.42 l
-1.71 -1.39 l
-1.75 -1.36 l
-1.78 -1.32 l
-1.82 -1.28 l
-1.86 -1.25 l
-1.88 -1.22 l
-1.92 -1.17 l
-1.95 -1.14 l
-1.98 -1.10 l
-2.01 -1.07 l
-2.03 -1.02 l
-2.07 -0.99 l
-2.09 -0.95 l
2.36 0.65 l
2.44 0.49 l
2.49 0.35 l
2.54 0.20 l
2.58 0.04 l
2.60 -0.12 l
2.62 -0.27 l
2.61 -0.43 l
-2.32 -0.97 l
-2.38 -0.84 l
-2.41 -0.71 l
-2.45 -0.56 l
-2.47 -0.43 l
-2.49 -0.29 l
-2.49 -0.15 l
-2.49 -0.02 l
-2.47 0.13 l
-2.70 -0.08 l
-0.07 -0.52 l
0.31 -1.57 l
-0.97 -1.06 l
-1.10 1.95 l
-0.40 0.63 l
-0.48 0.19 l
0.29 0.60 l
-2.13 0 l
2.56 0.45 l
0.22 0.06 l
0.10 0.03 l
-0.02 0.18 l
0.18 -0.16 l
o
0.1216 0.2627 0.3922 srgb
np
315.43 108.61 m
0.43 1.91 l
0.51 1.89 l
0.57 1.89 l
0.64 1.87 l
0.71 1.86 l
0.77 1.85 l
0.84 1.83 l
0.91 1.81 l
0.97 1.80 l
1.04 1.77 l
1.10 1.76 l
1.16 1.73 l
1.23 1.71 l
1.29 1.69 l
1.36 1.66 l
1.41 1.63 l
1.48 1.61 l
1.54 1.59 l
1.59 1.55 l
1.66 1.52 l
1.71 1.49 l
1.77 1.46 l
-0.09 -2.08 l
-0.19 -2.06 l
-0.28 -2.04 l
-0.38 -2.02 l
-0.47 -1.98 l
-0.57 -1.96 l
-0.66 -1.92 l
-0.74 -1.89 l
-0.84 -1.85 l
-0.92 -1.81 l
-1.01 -1.77 l
-1.09 -1.73 l
-1.18 -1.68 l
-1.25 -1.64 l
-1.33 -1.59 l
-0.73 -2.59 l
-1.23 -2.33 l
-1.67 -2.03 l
2.48 -0.88 l
2.35 -1.40 l
-0.76 -1.92 l
-1.11 -1.69 l
-2.59 -0.37 l
-2.57 -0.05 l
-2.50 0.24 l
-2.38 0.55 l
-0.45 -0.91 l
-0.44 -1.45 l
-1.66 0.20 l
-1.45 -0.38 l
0.10 2.82 l
0.19 0.66 l
-0.04 0.17 l
-0.19 0.12 l
-0.84 0.28 l
1.11 -0.02 l
-0.16 0.30 l
0.42 -0.21 l
0.14 -0.11 l
o
0.1725 0.3647 0.5255 srgb
np
315.37 108.30 m
0.46 1.88 l
0.57 1.86 l
0.69 1.84 l
0.80 1.82 l
0.91 1.78 l
1.02 1.76 l
1.12 1.72 l
1.23 1.68 l
1.34 1.64 l
1.44 1.60 l
1.54 1.55 l
1.64 1.50 l
1.73 1.45 l
2.66 0.40 l
2.77 0.22 l
2.88 0.03 l
2.95 -0.16 l
3.02 -0.38 l
-1.04 -1.88 l
-1.12 -1.83 l
-1.23 -1.77 l
-1.31 -1.71 l
-1.40 -1.65 l
-1.48 -1.59 l
-1.57 -1.51 l
-1.64 -1.45 l
-1.72 -1.38 l
-1.79 -1.31 l
-1.86 -1.23 l
-1.92 -1.16 l
-1.98 -1.07 l
2.62 0.47 l
2.71 0.27 l
2.77 0.05 l
2.80 -0.18 l
2.82 -0.40 l
2.82 -0.62 l
-2.24 -1.13 l
-2.30 -0.97 l
-2.36 -0.79 l
-2.40 -0.62 l
-2.43 -0.45 l
-2.45 -0.28 l
-2.44 -0.10 l
-3.28 -0.33 l
-3.12 0.46 l
0.13 -1.06 l
-0.37 -1.39 l
-1.54 0.15 l
-1.14 0.82 l
-0.24 1.31 l
-0.16 0.45 l
0.31 0.47 l
-0.85 0.05 l
0.58 0.29 l
0.43 0.07 l
0 0.16 l
0.15 0.09 l
0.21 -0.12 l
o
0.2275 0.4706 0.6667 srgb
np
315.58 109.36 m
0.54 1.91 l
0.68 1.89 l
0.84 1.85 l
0.98 1.81 l
1.13 1.77 l
1.27 1.73 l
1.41 1.66 l
1.55 1.61 l
1.67 1.54 l
1.81 1.48 l
2.91 -0.57 l
2.90 -0.84 l
2.84 -1.13 l
-1.10 -1.95 l
-1.24 -1.87 l
-1.38 -1.78 l
-1.51 -1.69 l
-1.64 -1.58 l
-1.75 -1.48 l
-1.86 -1.37 l
-1.96 -1.26 l
-2.05 -1.15 l
2.46 0.11 l
2.55 -0.28 l
2.54 -0.68 l
-2.29 -1.28 l
-2.45 -0.88 l
-2.52 -0.47 l
-2.55 -0.23 l
-2.42 0.36 l
0.15 -0.81 l
-0.63 -0.48 l
0.87 -1.78 l
0.67 -1.84 l
0.46 -1.89 l
0.26 -1.93 l
0.05 -1.97 l
-0.17 -1.98 l
-0.38 -1.99 l
-2.14 1.48 l
-1.71 1.64 l
-1.28 1.77 l
-1.02 2.86 l
0.02 2.81 l
0.82 2.34 l
1.61 1.98 l
-2.90 -0.93 l
2.56 1.32 l
-0.21 0.28 l
-0.06 0.36 l
0.36 0.21 l
0.71 -0.43 l
0.07 0.30 l
o
0.2824 0.5804 0.8157 srgb
np
315.57 109.34 m
0.98 2.09 l
1.52 1.93 l
2.03 1.70 l
4.17 -0.47 l
-1.22 -1.89 l
-1.52 -1.69 l
-1.79 -1.45 l
-2.02 -1.21 l
2.48 0.27 l
2.60 -0.34 l
-2.66 -0.96 l
-2.79 -0.28 l
-1.36 -0.06 l
0.39 -0.63 l
-0.43 -0.26 l
1.03 -1.71 l
0.98 -1.74 l
0.92 -1.76 l
0.86 -1.78 l
0.81 -1.79 l
0.74 -1.82 l
0.69 -1.83 l
0.63 -1.85 l
0.57 -1.86 l
0.51 -1.88 l
0.45 -1.89 l
0.39 -1.90 l
0.33 -1.91 l
0.26 -1.93 l
0.21 -1.93 l
0.14 -1.94 l
0.08 -1.95 l
0.02 -1.96 l
-0.04 -1.96 l
-0.11 -1.97 l
-0.16 -1.97 l
-0.23 -1.98 l
-0.30 -1.97 l
-0.35 -1.98 l
-1.21 1.79 l
-1.14 1.80 l
-1.07 1.82 l
-1.00 1.84 l
-0.93 1.85 l
-0.86 1.86 l
-0.79 1.88 l
-0.72 1.88 l
-0.65 1.90 l
-0.58 1.90 l
-0.50 1.91 l
-0.43 1.92 l
-0.37 1.92 l
-0.29 1.92 l
-0.22 1.92 l
-0.14 1.93 l
-0.08 1.92 l
0 1.92 l
0.06 1.92 l
0.14 1.91 l
0.21 1.90 l
-2.65 0.58 l
0.66 2.17 l
1.17 1.97 l
1.63 1.72 l
-1.77 -1.28 l
-1.89 -1.16 l
-2.01 -1.05 l
-2.11 -0.92 l
-2.21 -0.79 l
-2.30 -0.66 l
-2.37 -0.52 l
-2.45 -0.38 l
2.09 1.54 l
2.21 1.37 l
2.33 1.20 l
2.43 1.02 l
2.52 0.84 l
2.59 0.65 l
2.65 0.47 l
0.42 0.16 l
-1.80 0.85 l
1.92 -0.66 l
0.24 -0.14 l
-0.07 0.58 l
o
0.3373 0.6941 0.9686 srgb
np
315.59 109.40 m
0.48 1.91 l
0.59 1.89 l
0.68 1.88 l
0.78 1.85 l
0.88 1.83 l
0.98 1.80 l
1.08 1.77 l
1.16 1.75 l
1.26 1.71 l
1.36 1.67 l
1.44 1.64 l
1.54 1.59 l
1.62 1.56 l
1.71 1.50 l
1.79 1.46 l
-0.26 -2.10 l
-0.39 -2.07 l
-0.50 -2.04 l
-0.63 -1.99 l
-0.75 -1.96 l
-0.86 -1.91 l
-0.98 -1.86 l
-1.09 -1.80 l
-1.20 -1.76 l
-1.30 -1.69 l
-1.40 -1.63 l
-1.50 -1.56 l
0.13 -2.65 l
-1.72 -2.20 l
2.73 -0.67 l
2.53 -1.34 l
-3.10 -0.27 l
-3.03 0.24 l
-2.84 0.71 l
-0.43 -0.29 l
-0.72 0.22 l
0.82 -1.93 l
0.30 -2.06 l
-0.23 -2.11 l
0.06 -1.90 l
-0.08 -1.90 l
-0.21 -1.91 l
-0.34 -1.90 l
-0.49 -1.90 l
-0.61 -1.88 l
-0.75 -1.87 l
-0.89 -1.84 l
-1.02 -1.82 l
-1.14 -1.79 l
-1.28 -1.76 l
-0.63 1.98 l
-0.49 1.99 l
-0.33 1.98 l
-0.18 1.98 l
-0.04 1.96 l
0.11 1.94 l
0.26 1.92 l
0.39 1.88 l
0.54 1.86 l
0.68 1.81 l
0.67 2.23 l
1.08 2.08 l
1.44 1.90 l
1.78 1.69 l
-1.38 -0.51 l
0.65 0.50 l
-1.78 0.44 l
1.16 0.27 l
0.45 0.21 l
0.95 -0.69 l
-0.32 1.86 l
o
/bg { 0.0745 0.1686 0.2627 srgb } def
315.28 107.85 1.95 c p2
320.74 116.05 1.95 c p2
365.73 147.77 1.95 c p2
321.08 109.72 1.95 c p2
341.32 110.63 1.95 c p2
319.35 106.79 1.95 c p2
316.65 106.71 1.95 c p2
316.58 106.19 1.95 c p2
316.89 104.62 1.95 c p2
315.92 103.56 1.95 c p2
314.82 105.51 1.95 c p2
314.42 106.14 1.95 c p2
313.94 106.33 1.95 c p2
314.23 106.93 1.95 c p2
312.10 106.93 1.95 c p2
314.66 107.38 1.95 c p2
314.88 107.44 1.95 c p2
314.98 107.47 1.95 c p2
314.96 107.65 1.95 c p2
315.14 107.49 1.95 c p2
/bg { 0.1216 0.2627 0.3922 srgb } def
np
 315.43 111.65 m
2.63 -4.56 l
-5.26 0 l
cp p2
np
 340.12 149.53 m
2.63 -4.56 l
-5.26 0 l
cp p2
np
 329.12 121.51 m
2.63 -4.56 l
-5.26 0 l
cp p2
np
 325.49 114.56 m
2.64 -4.56 l
-5.27 0 l
cp p2
np
 330.32 112.28 m
2.63 -4.56 l
-5.27 0 l
cp p2
np
 328.45 108.67 m
2.63 -4.56 l
-5.26 0 l
cp p2
np
 318.41 109.04 m
2.63 -4.56 l
-5.26 0 l
cp p2
np
 317.96 108.13 m
2.63 -4.56 l
-5.26 0 l
cp p2
np
 317.52 106.68 m
2.63 -4.56 l
-5.27 0 l
cp p2
np
 315.86 106.88 m
2.63 -4.56 l
-5.26 0 l
cp p2
np
 314.41 106.50 m
2.63 -4.56 l
-5.26 0 l
cp p2
np
 314.51 109.32 m
2.63 -4.56 l
-5.26 0 l
cp p2
np
 314.70 109.98 m
2.64 -4.56 l
-5.27 0 l
cp p2
np
 314.66 110.15 m
2.63 -4.56 l
-5.27 0 l
cp p2
np
 314.47 110.27 m
2.63 -4.56 l
-5.26 0 l
cp p2
np
 313.63 110.55 m
2.64 -4.56 l
-5.27 0 l
cp p2
np
 314.74 110.53 m
2.63 -4.56 l
-5.26 0 l
cp p2
np
 314.58 110.83 m
2.63 -4.56 l
-5.26 0 l
cp p2
np
 315.00 110.62 m
2.63 -4.56 l
-5.26 0 l
cp p2
np
 315.14 110.51 m
2.63 -4.56 l
-5.26 0 l
cp p2
/bg { 0.1725 0.3647 0.5255 srgb } def
np
 313.41 106.35 m
3.91 0 l
0 3.91 l
-3.91 0 l
cp p2
np
 327.91 128.43 m
3.91 0 l
0 3.91 l
-3.91 0 l
cp p2
np
 342.18 128.53 m
3.91 0 l
0 3.91 l
-3.91 0 l
cp p2
np
 322.12 108.99 m
3.91 0 l
0 3.91 l
-3.91 0 l
cp p2
np
 338.66 108.59 m
3.91 0 l
0 3.90 l
-3.91 0 l
cp p2
np
 322.05 104.24 m
3.91 0 l
0 3.91 l
-3.91 0 l
cp p2
np
 315.65 104.37 m
3.90 0 l
0 3.91 l
-3.90 0 l
cp p2
np
 315.77 103.32 m
3.91 0 l
0 3.91 l
-3.91 0 l
cp p2
np
 315.41 101.92 m
3.91 0 l
0 3.91 l
-3.91 0 l
cp p2
np
 313.87 102.07 m
3.91 0 l
0 3.91 l
-3.91 0 l
cp p2
np
 312.73 102.90 m
3.91 0 l
0 3.91 l
-3.91 0 l
cp p2
np
 312.48 104.21 m
3.91 0 l
0 3.91 l
-3.91 0 l
cp p2
np
 312.33 104.65 m
3.91 0 l
0 3.91 l
-3.91 0 l
cp p2
np
 312.64 105.12 m
3.91 0 l
0 3.91 l
-3.91 0 l
cp p2
np
 311.78 105.18 m
3.91 0 l
0 3.91 l
-3.91 0 l
cp p2
np
 312.37 105.47 m
3.91 0 l
0 3.91 l
-3.91 0 l
cp p2
np
 312.80 105.53 m
3.91 0 l
0 3.91 l
-3.91 0 l
cp p2
np
 312.80 105.70 m
3.91 0 l
0 3.91 l
-3.91 0 l
cp p2
np
 312.95 105.78 m
3.91 0 l
0 3.91 l
-3.91 0 l
cp p2
np
 313.16 105.66 m
3.91 0 l
0 3.91 l
-3.91 0 l
cp p2
0.2275 0.4706 0.6667 srgb
0.71 setlinewidth
[] 0 setdash
1 setlinecap
10.00 setmiterlimit
np
312.81 109.36 m
5.53 0 l
o
np
315.58 106.59 m
0 5.53 l
o
np
324.69 126.61 m
5.53 0 l
o
np
327.46 123.84 m
0 5.53 l
o
np
333.35 124.07 m
5.52 0 l
o
np
336.11 121.30 m
0 5.53 l
o
np
318.85 109.94 m
5.53 0 l
o
np
321.62 107.18 m
0 5.53 l
o
np
326.41 109.09 m
5.53 0 l
o
np
329.17 106.33 m
0 5.52 l
o
np
319.15 106.46 m
5.52 0 l
o
np
321.91 103.70 m
0 5.53 l
o
np
314.18 106.59 m
5.53 0 l
o
np
316.94 103.83 m
0 5.53 l
o
np
314.32 105.78 m
5.53 0 l
o
np
317.09 103.02 m
0 5.53 l
o
np
313.69 105.30 m
5.53 0 l
o
np
316.46 102.53 m
0 5.53 l
o
np
315.46 91.92 m
5.52 0 l
o
np
318.22 89.16 m
0 5.53 l
o
np
310.33 96.81 m
5.53 0 l
o
np
313.09 94.04 m
0 5.53 l
o
np
309.32 102.48 m
5.53 0 l
o
np
312.09 99.71 m
0 5.53 l
o
np
311.76 106.80 m
5.53 0 l
o
np
314.52 104.03 m
0 5.53 l
o
np
308.85 105.87 m
5.53 0 l
o
np
311.62 103.10 m
0 5.53 l
o
np
311.42 107.19 m
5.52 0 l
o
np
314.18 104.43 m
0 5.52 l
o
np
311.20 107.47 m
5.53 0 l
o
np
313.97 104.70 m
0 5.53 l
o
np
311.14 107.83 m
5.53 0 l
o
np
313.91 105.07 m
0 5.53 l
o
np
311.50 108.04 m
5.53 0 l
o
np
314.27 105.27 m
0 5.53 l
o
np
312.22 107.61 m
5.53 0 l
o
np
314.98 104.85 m
0 5.53 l
o
np
312.29 107.91 m
5.53 0 l
o
np
315.05 105.15 m
0 5.52 l
o
0.2824 0.5804 0.8157 srgb
313.62 107.38 3.91 3.91 r p1
np
313.62 107.38 m
3.91 3.91 l
o
np
313.62 111.29 m
3.91 -3.91 l
o
318.15 113.11 3.91 3.91 r p1
np
318.15 113.11 m
3.91 3.91 l
o
np
318.15 117.02 m
3.91 -3.91 l
o
322.31 112.64 3.91 3.91 r p1
np
322.31 112.64 m
3.91 3.91 l
o
np
322.31 116.55 m
3.91 -3.91 l
o
315.76 106.40 3.91 3.91 r p1
np
315.76 106.40 m
3.91 3.91 l
o
np
315.76 110.31 m
3.91 -3.91 l
o
320.85 106.33 3.91 3.91 r p1
np
320.85 106.33 m
3.91 3.91 l
o
np
320.85 110.24 m
3.91 -3.91 l
o
315.40 105.08 3.91 3.91 r p1
np
315.40 105.08 m
3.91 3.91 l
o
np
315.40 108.99 m
3.91 -3.91 l
o
314.03 105.03 3.91 3.91 r p1
np
314.03 105.03 m
3.91 3.91 l
o
np
314.03 108.94 m
3.91 -3.91 l
o
314.42 104.40 3.91 3.91 r p1
np
314.42 104.40 m
3.91 3.91 l
o
np
314.42 108.31 m
3.91 -3.91 l
o
314.00 104.14 3.91 3.91 r p1
np
314.00 104.14 m
3.91 3.91 l
o
np
314.00 108.05 m
3.91 -3.91 l
o
322.42 58.88 3.91 3.91 r p1
np
322.42 58.88 m
3.91 3.91 l
o
np
322.42 62.79 m
3.91 -3.91 l
o
311.86 98.49 3.91 3.91 r p1
np
311.86 98.49 m
3.91 3.91 l
o
np
311.86 102.40 m
3.91 -3.91 l
o
309.21 99.07 3.91 3.91 r p1
np
309.21 99.07 m
3.91 3.91 l
o
np
309.21 102.98 m
3.91 -3.91 l
o
312.67 104.92 3.91 3.91 r p1
np
312.67 104.92 m
3.91 3.91 l
o
np
312.67 108.83 m
3.91 -3.91 l
o
295.56 98.16 3.91 3.91 r p1
np
295.56 98.16 m
3.91 3.91 l
o
np
295.56 102.07 m
3.91 -3.91 l
o
312.37 105.25 3.91 3.91 r p1
np
312.37 105.25 m
3.91 3.91 l
o
np
312.37 109.16 m
3.91 -3.91 l
o
312.79 105.41 3.91 3.91 r p1
np
312.79 105.41 m
3.91 3.91 l
o
np
312.79 109.32 m
3.91 -3.91 l
o
311.00 106.27 3.91 3.91 r p1
np
311.00 106.27 m
3.91 3.91 l
o
np
311.00 110.18 m
3.91 -3.91 l
o
312.92 105.60 3.91 3.91 r p1
np
312.92 105.60 m
3.90 3.91 l
o
np
312.92 109.51 m
3.90 -3.91 l
o
313.15 105.46 3.91 3.91 r p1
np
313.15 105.46 m
3.91 3.91 l
o
np
313.15 109.37 m
3.91 -3.91 l
o
313.08 106.04 3.91 3.91 r p1
np
313.08 106.04 m
3.91 3.91 l
o
np
313.08 109.95 m
3.91 -3.91 l
o
0.3373 0.6941 0.9686 srgb
np
313.63 107.45 m
3.91 3.91 l
o
np
313.63 111.36 m
3.91 -3.91 l
o
np
312.82 109.40 m
5.53 0 l
o
np
315.59 106.64 m
0 5.53 l
o
np
330.99 133.26 m
3.91 3.91 l
o
np
330.99 137.17 m
3.91 -3.91 l
o
np
330.18 135.21 m
5.53 0 l
o
np
332.94 132.45 m
0 5.53 l
o
np
320.12 110.89 m
3.91 3.91 l
o
np
320.12 114.80 m
3.91 -3.91 l
o
np
319.31 112.84 m
5.53 0 l
o
np
322.08 110.08 m
0 5.53 l
o
np
320.26 108.23 m
3.91 3.91 l
o
np
320.26 112.14 m
3.91 -3.91 l
o
np
319.45 110.19 m
5.53 0 l
o
np
322.21 107.42 m
0 5.53 l
o
np
318.54 106.04 m
3.91 3.90 l
o
np
318.54 109.94 m
3.91 -3.90 l
o
np
317.73 107.99 m
5.53 0 l
o
np
320.49 105.23 m
0 5.52 l
o
np
323.79 104.02 m
3.91 3.91 l
o
np
323.79 107.93 m
3.91 -3.91 l
o
np
322.98 105.98 m
5.53 0 l
o
np
325.75 103.21 m
0 5.53 l
o
np
314.82 104.71 m
3.91 3.91 l
o
np
314.82 108.62 m
3.91 -3.91 l
o
np
314.01 106.66 m
5.53 0 l
o
np
316.78 103.90 m
0 5.53 l
o
np
314.40 104.42 m
3.91 3.91 l
o
np
314.40 108.33 m
3.91 -3.91 l
o
np
313.59 106.37 m
5.53 0 l
o
np
316.35 103.61 m
0 5.53 l
o
np
313.68 104.64 m
3.91 3.91 l
o
np
313.68 108.55 m
3.91 -3.91 l
o
np
312.87 106.59 m
5.53 0 l
o
np
315.63 103.83 m
0 5.53 l
o
np
314.57 98.53 m
3.91 3.91 l
o
np
314.57 102.44 m
3.91 -3.91 l
o
np
313.76 100.49 m
5.53 0 l
o
np
316.52 97.72 m
0 5.53 l
o
np
307.81 78.07 m
3.91 3.91 l
o
np
307.81 81.98 m
3.91 -3.91 l
o
np
307.00 80.02 m
5.53 0 l
o
np
309.77 77.26 m
0 5.53 l
o
np
308.12 97.36 m
3.91 3.91 l
o
np
308.12 101.27 m
3.91 -3.91 l
o
np
307.31 99.32 m
5.53 0 l
o
np
310.08 96.55 m
0 5.53 l
o
np
313.10 105.27 m
3.91 3.91 l
o
np
313.10 109.18 m
3.91 -3.91 l
o
np
312.29 107.22 m
5.53 0 l
o
np
315.05 104.46 m
0 5.53 l
o
np
311.72 104.75 m
3.91 3.91 l
o
np
311.72 108.66 m
3.91 -3.91 l
o
np
310.91 106.71 m
5.53 0 l
o
np
313.67 103.94 m
0 5.53 l
o
np
312.36 105.25 m
3.91 3.91 l
o
np
312.36 109.16 m
3.91 -3.91 l
o
np
311.55 107.21 m
5.53 0 l
o
np
314.32 104.44 m
0 5.53 l
o
np
310.59 105.69 m
3.91 3.91 l
o
np
310.59 109.60 m
3.91 -3.91 l
o
np
309.78 107.65 m
5.53 0 l
o
np
312.54 104.88 m
0 5.53 l
o
np
311.74 105.96 m
3.91 3.91 l
o
np
311.74 109.87 m
3.91 -3.91 l
o
np
310.93 107.92 m
5.53 0 l
o
np
313.70 105.15 m
0 5.53 l
o
np
312.20 106.18 m
3.91 3.91 l
o
np
312.20 110.09 m
3.91 -3.91 l
o
np
311.39 108.13 m
5.53 0 l
o
np
314.15 105.37 m
0 5.53 l
o
np
313.14 105.48 m
3.91 3.91 l
o
np
313.14 109.39 m
3.91 -3.91 l
o
np
312.33 107.44 m
5.53 0 l
o
np
315.10 104.67 m
0 5.53 l
o
np
312.83 107.34 m
3.90 3.91 l
o
np
312.83 111.25 m
3.90 -3.91 l
o
np
312.02 109.30 m
5.52 0 l
o
np
314.78 106.53 m
0 5.53 l
o
/Font1 findfont 10 s
0 0 0 srgb
327.76 167.29 (0) .5 0 t
351.69 161.07 (1) .5 0 t
372.06 149.23 (2) .5 0 t
386.85 132.94 (3) .5 0 t
394.63 113.79 (4) .5 0 t
394.63 93.66 (5) .5 0 t
386.85 74.51 (6) .5 0 t
372.06 58.22 (7) .5 0 t
351.69 46.38 (8) .5 0 t
327.76 40.16 (9) .5 0 t
302.59 40.16 (10) .5 0 t
278.65 46.38 (11) .5 0 t
258.29 58.22 (12) .5 0 t
243.50 74.51 (13) .5 0 t
235.72 93.66 (14) .5 0 t
235.72 113.79 (15) .5 0 t
243.50 132.94 (16) .5 0 t
258.29 149.23 (17) .5 0 t
278.65 161.07 (18) .5 0 t
302.59 167.29 (19) .5 0 t
0.4980 0.4980 0.4980 srgb
1.07 setlinewidth
[] 0 setdash
225.79 35.81 178.77 143.01 r p1
0.00 0.00 595.28 212.60 cl
410.53 35.81 589.30 178.82 cl
/bg { 1 1 1 srgb } def
410.53 35.81 178.77 143.01 r p2
0.8980 0.8980 0.8980 srgb
0.43 setlinewidth
[] 0 setdash
0 setlinecap
1 setlinejoin
10.00 setmiterlimit
np
499.92 107.32 m
12.58 63.56 l
o
np
499.92 107.32 m
36.52 57.34 l
o
np
499.92 107.32 m
56.88 45.50 l
o
np
499.92 107.32 m
71.67 29.21 l
o
np
499.92 107.32 m
79.45 10.06 l
o
np
499.92 107.32 m
79.45 -10.07 l
o
np
499.92 107.32 m
71.67 -29.22 l
o
np
499.92 107.32 m
56.88 -45.51 l
o
np
499.92 107.32 m
36.52 -57.35 l
o
np
499.92 107.32 m
12.58 -63.57 l
o
np
499.92 107.32 m
-12.59 -63.57 l
o
np
499.92 107.32 m
-36.53 -57.35 l
o
np
499.92 107.32 m
-56.89 -45.51 l
o
np
499.92 107.32 m
-71.68 -29.22 l
o
np
499.92 107.32 m
-79.46 -10.07 l
o
np
499.92 107.32 m
-79.46 10.06 l
o
np
499.92 107.32 m
-71.68 29.21 l
o
np
499.92 107.32 m
-56.89 45.50 l
o
np
499.92 107.32 m
-36.53 57.34 l
o
np
499.92 107.32 m
-12.59 63.56 l
o
np
499.92 107.32 m
0 0 l
0 0 l
0 0 l
0 0 l
0 0 l
0 0 l
0 0 l
0 0 l
0 0 l
0 0 l
0 0 l
0 0 l
0 0 l
0 0 l
0 0 l
0 0 l
0 0 l
0 0 l
0 0 l
0 0 l
0 0 l
0 0 l
0 0 l
0 0 l
0 0 l
0 0 l
0 0 l
0 0 l
0 0 l
0 0 l
0 0 l
0 0 l
0 0 l
0 0 l
0 0 l
0 0 l
0 0 l
0 0 l
0 0 l
0 0 l
0 0 l
0 0 l
0 0 l
0 0 l
0 0 l
0 0 l
0 0 l
0 0 l
0 0 l
0 0 l
0 0 l
0 0 l
0 0 l
0 0 l
0 0 l
0 0 l
0 0 l
0 0 l
0 0 l
0 0 l
0 0 l
0 0 l
0 0 l
0 0 l
0 0 l
0 0 l
0 0 l
0 0 l
0 0 l
0 0 l
0 0 l
0 0 l
0 0 l
0 0 l
0 0 l
0 0 l
0 0 l
0 0 l
0 0 l
0 0 l
0 0 l
0 0 l
0 0 l
0 0 l
0 0 l
0 0 l
0 0 l
0 0 l
0 0 l
0 0 l
0 0 l
0 0 l
0 0 l
0 0 l
0 0 l
0 0 l
0 0 l
0 0 l
0 0 l
o
np
499.92 118.96 m
0.92 -0.02 l
0.92 -0.07 l
0.91 -0.12 l
0.90 -0.16 l
0.89 -0.21 l
0.87 -0.25 l
0.84 -0.30 l
0.82 -0.34 l
0.80 -0.38 l
0.76 -0.42 l
0.72 -0.45 l
0.69 -0.50 l
0.65 -0.52 l
0.60 -0.56 l
0.56 -0.59 l
0.52 -0.61 l
0.46 -0.64 l
0.41 -0.67 l
0.35 -0.68 l
0.31 -0.70 l
0.24 -0.71 l
0.19 -0.72 l
0.13 -0.73 l
0.08 -0.74 l
0.01 -0.74 l
-0.04 -0.74 l
-0.10 -0.73 l
-0.17 -0.73 l
-0.21 -0.72 l
-0.28 -0.70 l
-0.33 -0.69 l
-0.38 -0.68 l
-0.44 -0.65 l
-0.48 -0.63 l
-0.54 -0.60 l
-0.58 -0.57 l
-0.63 -0.54 l
-0.67 -0.51 l
-0.71 -0.48 l
-0.74 -0.44 l
-0.78 -0.40 l
-0.80 -0.36 l
-0.84 -0.31 l
-0.86 -0.28 l
-0.87 -0.23 l
-0.90 -0.18 l
-0.90 -0.14 l
-0.92 -0.10 l
-0.92 -0.04 l
-0.93 0 l
-0.92 0.04 l
-0.91 0.10 l
-0.91 0.14 l
-0.90 0.18 l
-0.87 0.23 l
-0.86 0.28 l
-0.84 0.31 l
-0.80 0.36 l
-0.78 0.40 l
-0.74 0.44 l
-0.71 0.48 l
-0.67 0.51 l
-0.63 0.54 l
-0.58 0.57 l
-0.54 0.60 l
-0.48 0.63 l
-0.44 0.65 l
-0.38 0.68 l
-0.33 0.69 l
-0.28 0.70 l
-0.21 0.72 l
-0.16 0.73 l
-0.11 0.73 l
-0.04 0.74 l
0.01 0.74 l
0.08 0.74 l
0.13 0.73 l
0.19 0.72 l
0.24 0.71 l
0.31 0.70 l
0.35 0.68 l
0.41 0.67 l
0.47 0.64 l
0.51 0.61 l
0.56 0.59 l
0.60 0.56 l
0.65 0.52 l
0.69 0.50 l
0.72 0.45 l
0.76 0.42 l
0.80 0.38 l
0.82 0.34 l
0.84 0.30 l
0.87 0.25 l
0.89 0.21 l
0.90 0.16 l
0.91 0.12 l
0.92 0.07 l
0.93 0.02 l
o
np
499.92 130.61 m
1.84 -0.05 l
1.84 -0.14 l
1.83 -0.23 l
1.80 -0.33 l
1.77 -0.41 l
1.74 -0.51 l
1.69 -0.59 l
1.64 -0.68 l
1.59 -0.76 l
1.52 -0.84 l
1.45 -0.91 l
1.38 -0.99 l
1.29 -1.05 l
1.21 -1.12 l
1.12 -1.17 l
1.03 -1.23 l
0.92 -1.28 l
0.82 -1.33 l
0.71 -1.36 l
0.61 -1.40 l
0.49 -1.42 l
0.38 -1.45 l
0.26 -1.46 l
0.15 -1.48 l
0.03 -1.47 l
-0.09 -1.48 l
-0.21 -1.47 l
-0.32 -1.45 l
-0.43 -1.44 l
-0.55 -1.41 l
-0.66 -1.38 l
-0.77 -1.35 l
-0.87 -1.30 l
-0.97 -1.26 l
-1.08 -1.20 l
-1.16 -1.15 l
-1.25 -1.08 l
-1.34 -1.02 l
-1.42 -0.95 l
-1.48 -0.88 l
-1.56 -0.80 l
-1.61 -0.72 l
-1.67 -0.63 l
-1.72 -0.55 l
-1.75 -0.46 l
-1.79 -0.37 l
-1.81 -0.28 l
-1.84 -0.19 l
-1.84 -0.09 l
-1.85 0 l
-1.84 0.09 l
-1.84 0.19 l
-1.81 0.28 l
-1.79 0.37 l
-1.75 0.46 l
-1.72 0.55 l
-1.67 0.63 l
-1.61 0.72 l
-1.56 0.80 l
-1.48 0.88 l
-1.42 0.95 l
-1.34 1.02 l
-1.25 1.08 l
-1.16 1.15 l
-1.08 1.20 l
-0.97 1.26 l
-0.87 1.30 l
-0.77 1.35 l
-0.66 1.38 l
-0.55 1.41 l
-0.43 1.44 l
-0.32 1.45 l
-0.21 1.47 l
-0.09 1.48 l
0.03 1.47 l
0.15 1.48 l
0.26 1.46 l
0.38 1.45 l
0.49 1.42 l
0.61 1.40 l
0.71 1.36 l
0.82 1.33 l
0.92 1.28 l
1.03 1.23 l
1.12 1.17 l
1.21 1.12 l
1.29 1.05 l
1.38 0.99 l
1.45 0.91 l
1.52 0.84 l
1.59 0.76 l
1.64 0.68 l
1.69 0.59 l
1.74 0.51 l
1.77 0.41 l
1.81 0.33 l
1.82 0.23 l
1.84 0.14 l
1.85 0.05 l
o
np
499.92 142.26 m
2.77 -0.08 l
2.75 -0.21 l
2.74 -0.35 l
2.70 -0.48 l
2.66 -0.63 l
2.61 -0.76 l
2.54 -0.89 l
2.46 -1.01 l
2.38 -1.14 l
2.28 -1.26 l
2.18 -1.37 l
2.06 -1.48 l
1.95 -1.58 l
1.81 -1.67 l
1.68 -1.77 l
1.54 -1.84 l
1.38 -1.92 l
1.23 -1.99 l
1.07 -2.04 l
0.91 -2.10 l
0.74 -2.14 l
0.57 -2.17 l
0.39 -2.19 l
0.22 -2.21 l
0.04 -2.22 l
-0.13 -2.21 l
-0.31 -2.21 l
-0.48 -2.18 l
-0.65 -2.15 l
-0.82 -2.12 l
-0.99 -2.07 l
-1.15 -2.02 l
-1.31 -1.95 l
-1.46 -1.89 l
-1.61 -1.80 l
-1.75 -1.72 l
-1.88 -1.63 l
-2.00 -1.53 l
-2.13 -1.43 l
-2.23 -1.31 l
-2.33 -1.20 l
-2.42 -1.08 l
-2.50 -0.95 l
-2.58 -0.83 l
-2.63 -0.69 l
-2.68 -0.55 l
-2.72 -0.42 l
-2.75 -0.28 l
-2.77 -0.15 l
-2.77 0 l
-2.77 0.15 l
-2.75 0.28 l
-2.72 0.42 l
-2.68 0.55 l
-2.63 0.69 l
-2.57 0.83 l
-2.51 0.95 l
-2.42 1.08 l
-2.33 1.20 l
-2.23 1.31 l
-2.13 1.43 l
-2.00 1.53 l
-1.88 1.63 l
-1.75 1.72 l
-1.61 1.80 l
-1.46 1.89 l
-1.31 1.95 l
-1.15 2.02 l
-0.99 2.07 l
-0.82 2.12 l
-0.65 2.15 l
-0.48 2.18 l
-0.31 2.21 l
-0.13 2.21 l
0.04 2.22 l
0.22 2.21 l
0.40 2.19 l
0.56 2.17 l
0.74 2.14 l
0.91 2.10 l
1.07 2.04 l
1.23 1.99 l
1.38 1.92 l
1.54 1.84 l
1.68 1.77 l
1.81 1.67 l
1.95 1.58 l
2.06 1.48 l
2.18 1.37 l
2.28 1.26 l
2.38 1.14 l
2.46 1.01 l
2.54 0.89 l
2.61 0.76 l
2.66 0.63 l
2.70 0.48 l
2.74 0.35 l
2.76 0.21 l
2.77 0.08 l
o
np
499.92 153.90 m
3.69 -0.09 l
3.68 -0.28 l
3.65 -0.47 l
3.60 -0.65 l
3.55 -0.83 l
3.47 -1.02 l
3.38 -1.18 l
3.29 -1.36 l
3.17 -1.51 l
3.04 -1.68 l
2.91 -1.83 l
2.75 -1.97 l
2.59 -2.11 l
2.42 -2.23 l
2.24 -2.35 l
2.05 -2.46 l
1.84 -2.56 l
1.64 -2.65 l
1.43 -2.73 l
1.21 -2.79 l
0.99 -2.85 l
0.75 -2.89 l
0.53 -2.93 l
0.29 -2.95 l
0.06 -2.95 l
-0.18 -2.96 l
-0.41 -2.93 l
-0.64 -2.91 l
-0.87 -2.88 l
-1.10 -2.82 l
-1.31 -2.76 l
-1.54 -2.69 l
-1.74 -2.61 l
-1.95 -2.51 l
-2.15 -2.41 l
-2.33 -2.29 l
-2.50 -2.17 l
-2.68 -2.04 l
-2.83 -1.90 l
-2.97 -1.76 l
-3.11 -1.59 l
-3.23 -1.44 l
-3.34 -1.27 l
-3.43 -1.10 l
-3.51 -0.92 l
-3.58 -0.74 l
-3.62 -0.56 l
-3.67 -0.38 l
-3.69 -0.19 l
-3.69 0 l
-3.69 0.19 l
-3.67 0.38 l
-3.62 0.56 l
-3.58 0.74 l
-3.51 0.92 l
-3.43 1.10 l
-3.34 1.27 l
-3.23 1.44 l
-3.11 1.59 l
-2.97 1.76 l
-2.83 1.90 l
-2.68 2.04 l
-2.50 2.17 l
-2.33 2.29 l
-2.15 2.41 l
-1.94 2.51 l
-1.75 2.61 l
-1.53 2.69 l
-1.32 2.76 l
-1.10 2.82 l
-0.87 2.88 l
-0.64 2.91 l
-0.41 2.93 l
-0.18 2.96 l
0.06 2.95 l
0.29 2.95 l
0.53 2.93 l
0.76 2.89 l
0.98 2.85 l
1.21 2.79 l
1.43 2.73 l
1.64 2.65 l
1.84 2.56 l
2.05 2.46 l
2.24 2.35 l
2.42 2.23 l
2.59 2.11 l
2.75 1.97 l
2.91 1.83 l
3.04 1.68 l
3.17 1.51 l
3.29 1.36 l
3.38 1.18 l
3.48 1.02 l
3.54 0.83 l
3.60 0.65 l
3.65 0.47 l
3.68 0.28 l
3.70 0.09 l
o
np
499.92 171.67 m
5.10 -0.13 l
5.08 -0.39 l
5.04 -0.64 l
4.98 -0.90 l
4.90 -1.15 l
4.79 -1.40 l
4.68 -1.64 l
4.54 -1.87 l
4.38 -2.09 l
4.20 -2.32 l
4.01 -2.52 l
3.81 -2.73 l
3.58 -2.91 l
3.34 -3.08 l
3.09 -3.25 l
2.83 -3.40 l
2.55 -3.54 l
2.27 -3.66 l
1.97 -3.77 l
1.67 -3.86 l
1.36 -3.93 l
1.05 -4.00 l
0.72 -4.04 l
0.41 -4.07 l
0.08 -4.08 l
-0.24 -4.08 l
-0.57 -4.06 l
-0.89 -4.02 l
-1.20 -3.97 l
-1.51 -3.90 l
-1.83 -3.82 l
-2.12 -3.71 l
-2.41 -3.60 l
-2.69 -3.47 l
-2.96 -3.33 l
-3.22 -3.17 l
-3.46 -3.00 l
-3.70 -2.82 l
-3.91 -2.62 l
-4.11 -2.42 l
-4.29 -2.21 l
-4.46 -1.99 l
-4.61 -1.75 l
-4.74 -1.52 l
-4.85 -1.27 l
-4.94 -1.03 l
-5.01 -0.77 l
-5.07 -0.52 l
-5.09 -0.26 l
-5.11 0 l
-5.09 0.26 l
-5.07 0.52 l
-5.01 0.77 l
-4.94 1.03 l
-4.85 1.27 l
-4.74 1.52 l
-4.61 1.75 l
-4.46 1.99 l
-4.29 2.21 l
-4.11 2.42 l
-3.91 2.62 l
-3.70 2.82 l
-3.46 3.00 l
-3.22 3.17 l
-2.96 3.33 l
-2.69 3.47 l
-2.41 3.60 l
-2.12 3.71 l
-1.82 3.82 l
-1.52 3.90 l
-1.20 3.97 l
-0.89 4.02 l
-0.57 4.06 l
-0.24 4.08 l
0.08 4.08 l
0.41 4.07 l
0.72 4.04 l
1.05 4.00 l
1.36 3.93 l
1.67 3.86 l
1.97 3.77 l
2.27 3.66 l
2.55 3.54 l
2.83 3.40 l
3.09 3.25 l
3.34 3.08 l
3.58 2.91 l
3.81 2.73 l
4.01 2.52 l
4.20 2.32 l
4.38 2.09 l
4.54 1.87 l
4.68 1.64 l
4.79 1.40 l
4.90 1.15 l
4.98 0.90 l
5.04 0.64 l
5.08 0.39 l
5.11 0.13 l
o
0.0745 0.1686 0.2627 srgb
1.07 setlinewidth
[] 0 setdash
1.00 setmiterlimit
np
499.93 107.39 m
0.43 1.96 l
0.51 1.95 l
0.58 1.93 l
0.66 1.92 l
0.73 1.91 l
0.81 1.89 l
0.88 1.87 l
0.96 1.85 l
1.03 1.82 l
1.11 1.81 l
1.17 1.78 l
1.25 1.76 l
1.32 1.73 l
1.39 1.70 l
1.46 1.67 l
1.53 1.64 l
1.59 1.61 l
1.66 1.58 l
1.73 1.54 l
1.80 1.51 l
-0.30 -2.11 l
-0.39 -2.08 l
-0.49 -2.06 l
-0.58 -2.02 l
-0.66 -2.00 l
-0.76 -1.96 l
-0.84 -1.94 l
-0.94 -1.89 l
-1.01 -1.86 l
-1.10 -1.81 l
-1.19 -1.78 l
-1.26 -1.73 l
-1.34 -1.68 l
-1.42 -1.64 l
-1.50 -1.59 l
-1.57 -1.54 l
1.99 1.24 l
2.06 1.16 l
2.13 1.09 l
2.21 1.01 l
2.28 0.92 l
2.33 0.85 l
2.40 0.76 l
2.46 0.67 l
2.51 0.59 l
2.55 0.50 l
2.61 0.40 l
2.64 0.31 l
2.68 0.22 l
-1.85 -1.51 l
-1.90 -1.44 l
-1.96 -1.37 l
-2.02 -1.29 l
-2.07 -1.23 l
-2.12 -1.15 l
-2.17 -1.08 l
-2.21 -1.00 l
-2.26 -0.92 l
-2.29 -0.84 l
-2.32 -0.77 l
-2.36 -0.68 l
-2.38 -0.61 l
-2.41 -0.52 l
-2.43 -0.44 l
2.80 -0.68 l
2.61 -1.37 l
1.44 -1.81 l
0.95 -2.19 l
-2.71 0.24 l
-2.57 0.54 l
-2.39 0.83 l
-2.16 1.09 l
-1.21 -0.67 l
-2.02 2.80 l
-0.18 0.18 l
0.01 0.26 l
-0.02 0.03 l
-0.05 0.01 l
0.01 0.04 l
-0.13 0.05 l
0.22 -0.02 l
-0.02 0.03 l
0.03 -0.01 l
0.02 -0.01 l
o
0.1216 0.2627 0.3922 srgb
np
499.95 107.50 m
0.42 1.88 l
0.51 1.87 l
0.59 1.85 l
0.68 1.83 l
0.77 1.81 l
0.85 1.80 l
0.93 1.77 l
1.01 1.75 l
1.10 1.72 l
1.18 1.69 l
1.26 1.66 l
1.34 1.63 l
1.41 1.60 l
1.50 1.56 l
1.57 1.53 l
1.64 1.49 l
1.72 1.44 l
0.91 -2.15 l
0.68 -2.15 l
0.45 -2.13 l
0.24 -2.09 l
0.02 -2.05 l
-0.19 -1.99 l
0.82 -2.61 l
0.38 -2.55 l
-0.04 -2.46 l
-0.79 -2.44 l
-1.17 -2.19 l
-1.49 -1.93 l
-2.30 -1.65 l
-2.50 -1.24 l
-2.62 -0.82 l
-2.61 -0.77 l
-2.60 -0.17 l
-2.63 -0.14 l
-0.71 -1.24 l
-2.04 2.08 l
-0.52 0.64 l
0.01 0.69 l
-0.20 -0.01 l
0.16 0.22 l
0.04 0.06 l
-0.01 0.05 l
0.02 0.05 l
0.12 -0.03 l
0.02 0.02 l
0.02 0.01 l
o
0.1725 0.3647 0.5255 srgb
np
499.93 107.38 m
0.41 1.93 l
0.48 1.92 l
0.54 1.91 l
0.61 1.90 l
0.66 1.89 l
0.73 1.87 l
0.79 1.86 l
0.85 1.85 l
0.92 1.83 l
0.97 1.81 l
1.03 1.80 l
1.10 1.77 l
1.15 1.76 l
1.21 1.74 l
1.27 1.71 l
1.33 1.70 l
1.38 1.66 l
1.45 1.65 l
1.49 1.62 l
1.56 1.59 l
1.61 1.57 l
1.66 1.54 l
1.72 1.51 l
1.77 1.48 l
-0.26 -2.06 l
-0.34 -2.03 l
-0.41 -2.01 l
-0.49 -1.99 l
-0.56 -1.97 l
-0.64 -1.94 l
-0.71 -1.92 l
-0.78 -1.89 l
-0.86 -1.86 l
-0.92 -1.83 l
-0.99 -1.79 l
-1.07 -1.77 l
-1.13 -1.73 l
-1.19 -1.70 l
-1.26 -1.66 l
-1.33 -1.62 l
-1.38 -1.58 l
-1.45 -1.54 l
-1.51 -1.50 l
2.20 0.65 l
2.33 0.46 l
2.44 0.26 l
2.53 0.04 l
2.59 -0.18 l
-1.81 -1.95 l
-2.02 -1.73 l
-2.21 -1.50 l
-2.36 -1.25 l
-2.49 -1.00 l
1.63 -2.90 l
-2.88 -2.26 l
-3.00 0.11 l
-2.67 0.74 l
-1.09 -1.13 l
-2.37 2.88 l
-0.48 0.01 l
0.06 0.93 l
-0.08 0.07 l
0.14 0.16 l
0.02 0.03 l
-0.04 0.03 l
-0.02 0.05 l
0.10 -0.02 l
0.03 0 l
0.02 -0.02 l
o
0.2275 0.4706 0.6667 srgb
np
499.95 107.48 m
0.46 1.94 l
0.60 1.92 l
0.74 1.89 l
0.87 1.86 l
1.00 1.82 l
1.14 1.78 l
1.27 1.74 l
1.39 1.68 l
1.52 1.63 l
1.64 1.57 l
1.76 1.51 l
1.79 1.18 l
1.89 1.11 l
2.00 1.03 l
2.09 0.94 l
2.18 0.87 l
2.26 0.78 l
2.35 0.68 l
2.43 0.60 l
2.50 0.49 l
2.56 0.40 l
-0.99 -1.97 l
-1.08 -1.92 l
-1.18 -1.87 l
-1.26 -1.81 l
-1.35 -1.76 l
-1.42 -1.69 l
-1.51 -1.64 l
-1.59 -1.57 l
-1.66 -1.51 l
-1.73 -1.44 l
-1.80 -1.37 l
-1.86 -1.30 l
-1.93 -1.23 l
-1.99 -1.15 l
2.69 0.12 l
2.76 -0.13 l
2.78 -0.38 l
2.79 -0.65 l
2.76 -0.90 l
-2.43 -1.21 l
-2.51 -1.02 l
-2.57 -0.84 l
-2.62 -0.65 l
-2.64 -0.46 l
-2.66 -0.27 l
-2.65 -0.08 l
-2.79 -0.45 l
-2.68 0.20 l
-0.70 -0.76 l
-0.40 -1.42 l
-2.00 2.26 l
-0.37 0.72 l
-0.01 0.37 l
-1.14 -0.81 l
1.09 0.93 l
-0.47 -0.01 l
0.49 0.11 l
0.08 0.01 l
0.03 0 l
-0.08 0.16 l
0.12 -0.18 l
o
/bg { 0.0745 0.1686 0.2627 srgb } def
499.93 107.39 1.95 c p2
522.53 142.82 1.95 c p2
507.18 113.13 1.95 c p2
538.03 122.85 1.95 c p2
505.28 108.00 1.95 c p2
510.69 105.95 1.95 c p2
513.08 101.95 1.95 c p2
503.25 104.65 1.95 c p2
502.04 103.98 1.95 c p2
500.02 106.78 1.95 c p2
499.84 106.96 1.95 c p2
499.85 107.22 1.95 c p2
499.83 107.25 1.95 c p2
499.78 107.26 1.95 c p2
499.79 107.30 1.95 c p2
499.66 107.35 1.95 c p2
499.88 107.33 1.95 c p2
499.86 107.36 1.95 c p2
499.89 107.35 1.95 c p2
499.91 107.34 1.95 c p2
/bg { 0.1216 0.2627 0.3922 srgb } def
np
 499.95 110.54 m
2.63 -4.56 l
-5.26 0 l
cp p2
np
 518.43 139.42 m
2.63 -4.56 l
-5.26 0 l
cp p2
np
 520.54 126.86 m
2.64 -4.56 l
-5.27 0 l
cp p2
np
 521.70 119.24 m
2.64 -4.56 l
-5.27 0 l
cp p2
np
 518.25 112.68 m
2.63 -4.56 l
-5.27 0 l
cp p2
np
 510.83 108.97 m
2.64 -4.56 l
-5.27 0 l
cp p2
np
 505.62 108.03 m
2.63 -4.56 l
-5.26 0 l
cp p2
np
 502.99 107.89 m
2.64 -4.56 l
-5.27 0 l
cp p2
np
 502.28 106.65 m
2.63 -4.56 l
-5.27 0 l
cp p2
np
 500.24 108.73 m
2.63 -4.56 l
-5.26 0 l
cp p2
np
 499.72 109.37 m
2.63 -4.56 l
-5.26 0 l
cp p2
np
 499.73 110.06 m
2.63 -4.56 l
-5.26 0 l
cp p2
np
 499.53 110.05 m
2.63 -4.56 l
-5.26 0 l
cp p2
np
 499.69 110.27 m
2.64 -4.56 l
-5.27 0 l
cp p2
np
 499.73 110.33 m
2.63 -4.56 l
-5.26 0 l
cp p2
np
 499.72 110.38 m
2.63 -4.56 l
-5.27 0 l
cp p2
np
 499.74 110.43 m
2.63 -4.56 l
-5.27 0 l
cp p2
np
 499.86 110.40 m
2.63 -4.56 l
-5.27 0 l
cp p2
np
 499.88 110.42 m
2.63 -4.56 l
-5.27 0 l
cp p2
np
 499.90 110.43 m
2.63 -4.56 l
-5.26 0 l
cp p2
/bg { 0.1725 0.3647 0.5255 srgb } def
np
 497.97 105.43 m
3.91 0 l
0 3.91 l
-3.91 0 l
cp p2
np
 524.67 147.29 m
3.91 0 l
0 3.91 l
-3.91 0 l
cp p2
np
 507.39 112.90 m
3.91 0 l
0 3.91 l
-3.91 0 l
cp p2
np
 519.48 114.13 m
3.91 0 l
0 3.91 l
-3.91 0 l
cp p2
np
 508.59 106.71 m
3.91 0 l
0 3.91 l
-3.91 0 l
cp p2
np
 510.21 103.81 m
3.91 0 l
0 3.91 l
-3.91 0 l
cp p2
np
 507.33 101.54 m
3.91 0 l
0 3.91 l
-3.91 0 l
cp p2
np
 501.67 102.40 m
3.91 0 l
0 3.91 l
-3.91 0 l
cp p2
np
 500.57 101.26 m
3.91 0 l
0 3.91 l
-3.91 0 l
cp p2
np
 498.20 104.14 m
3.91 0 l
0 3.91 l
-3.91 0 l
cp p2
np
 497.72 104.16 m
3.91 0 l
0 3.91 l
-3.91 0 l
cp p2
np
 497.78 105.08 m
3.91 0 l
0 3.91 l
-3.91 0 l
cp p2
np
 497.71 105.16 m
3.91 0 l
0 3.91 l
-3.91 0 l
cp p2
np
 497.85 105.31 m
3.91 0 l
0 3.91 l
-3.91 0 l
cp p2
np
 497.87 105.35 m
3.90 0 l
0 3.91 l
-3.90 0 l
cp p2
np
 497.82 105.38 m
3.91 0 l
0 3.91 l
-3.91 0 l
cp p2
np
 497.80 105.43 m
3.91 0 l
0 3.91 l
-3.91 0 l
cp p2
np
 497.91 105.40 m
3.91 0 l
0 3.91 l
-3.91 0 l
cp p2
np
 497.93 105.40 m
3.91 0 l
0 3.91 l
-3.91 0 l
cp p2
np
 497.95 105.39 m
3.91 0 l
0 3.91 l
-3.91 0 l
cp p2
0.71 setlinewidth
[] 0 setdash
1 setlinecap
10.00 setmiterlimit
np
497.18 107.48 m
5.53 0 l
o
np
499.95 104.71 m
0 5.53 l
o
np
509.57 126.82 m
5.53 0 l
o
np
512.34 124.06 m
0 5.53 l
o
np
531.63 134.90 m
5.53 0 l
o
np
534.39 132.13 m
0 5.53 l
o
np
510.28 112.67 m
5.53 0 l
o
np
513.04 109.90 m
0 5.53 l
o
np
524.06 110.73 m
5.53 0 l
o
np
526.82 107.96 m
0 5.53 l
o
np
505.97 106.20 m
5.53 0 l
o
np
508.74 103.43 m
0 5.53 l
o
np
500.50 105.95 m
5.53 0 l
o
np
503.27 103.18 m
0 5.53 l
o
np
499.80 105.19 m
5.53 0 l
o
np
502.57 102.43 m
0 5.53 l
o
np
499.41 103.77 m
5.53 0 l
o
np
502.17 101.00 m
0 5.53 l
o
np
497.41 106.03 m
5.52 0 l
o
np
500.17 103.26 m
0 5.53 l
o
np
497.04 106.75 m
5.53 0 l
o
np
499.80 103.98 m
0 5.53 l
o
np
497.03 107.12 m
5.53 0 l
o
np
499.79 104.36 m
0 5.53 l
o
np
495.89 106.31 m
5.53 0 l
o
np
498.65 103.54 m
0 5.53 l
o
np
496.97 107.24 m
5.53 0 l
o
np
499.74 104.48 m
0 5.53 l
o
np
496.51 107.23 m
5.53 0 l
o
np
499.27 104.47 m
0 5.53 l
o
np
496.99 107.34 m
5.53 0 l
o
np
499.76 104.57 m
0 5.53 l
o
np
497.08 107.35 m
5.53 0 l
o
np
499.84 104.58 m
0 5.53 l
o
np
497.10 107.35 m
5.53 0 l
o
np
499.87 104.59 m
0 5.53 l
o
np
497.03 107.51 m
5.53 0 l
o
np
499.79 104.75 m
0 5.53 l
o
np
497.15 107.33 m
5.53 0 l
o
np
499.91 104.56 m
0 5.53 l
o
/Font1 findfont 10 s
0 0 0 srgb
512.50 167.29 (0) .5 0 t
536.44 161.07 (1) .5 0 t
556.80 149.23 (2) .5 0 t
571.59 132.94 (3) .5 0 t
579.37 113.79 (4) .5 0 t
579.37 93.66 (5) .5 0 t
571.59 74.51 (6) .5 0 t
556.80 58.22 (7) .5 0 t
536.44 46.38 (8) .5 0 t
512.50 40.16 (9) .5 0 t
487.33 40.16 (10) .5 0 t
463.39 46.38 (11) .5 0 t
443.03 58.22 (12) .5 0 t
428.24 74.51 (13) .5 0 t
420.46 93.66 (14) .5 0 t
420.46 113.79 (15) .5 0 t
428.24 132.94 (16) .5 0 t
443.03 149.23 (17) .5 0 t
463.39 161.07 (18) .5 0 t
487.33 167.29 (19) .5 0 t
0.4980 0.4980 0.4980 srgb
1.07 setlinewidth
[] 0 setdash
410.53 35.81 178.77 143.01 r p1
0.00 0.00 595.28 212.60 cl
0.00 0.00 595.28 212.60 cl
0.00 0.00 595.28 212.60 cl
0.00 0.00 595.28 212.60 cl
0.00 0.00 595.28 212.60 cl
0.00 0.00 595.28 212.60 cl
/Font1 findfont 10 s
0 0 0 srgb
35.67 103.73 (0.0) 1 0 t
35.67 115.37 (0.1) 1 0 t
35.67 127.02 (0.2) 1 0 t
35.67 138.67 (0.3) 1 0 t
35.67 150.31 (0.4) 1 0 t
0.00 0.00 595.28 212.60 cl
0.00 0.00 595.28 212.60 cl
0 0 0 srgb
1.07 setlinewidth
[] 0 setdash
0 setlinecap
1 setlinejoin
10.00 setmiterlimit
np
38.06 107.32 m
2.99 0 l
o
np
38.06 118.96 m
2.99 0 l
o
np
38.06 130.61 m
2.99 0 l
o
np
38.06 142.26 m
2.99 0 l
o
np
38.06 153.90 m
2.99 0 l
o
0.00 0.00 595.28 212.60 cl
0.00 0.00 595.28 212.60 cl
0.00 0.00 595.28 212.60 cl
0.00 0.00 595.28 212.60 cl
0.00 0.00 595.28 212.60 cl
0.00 0.00 595.28 212.60 cl
0.00 0.00 595.28 212.60 cl
0.00 0.00 595.28 212.60 cl
0.00 0.00 595.28 212.60 cl
0.00 0.00 595.28 212.60 cl
0.00 0.00 595.28 212.60 cl
0.00 0.00 595.28 212.60 cl
0.00 0.00 595.28 212.60 cl
0.00 0.00 595.28 212.60 cl
0.00 0.00 595.28 212.60 cl
0.00 0.00 595.28 212.60 cl
0.00 0.00 595.28 212.60 cl
0.00 0.00 595.28 212.60 cl
0.00 0.00 595.28 212.60 cl
0.00 0.00 595.28 212.60 cl
0.00 0.00 595.28 212.60 cl
0.00 0.00 595.28 212.60 cl
0.00 0.00 595.28 212.60 cl
0.00 0.00 595.28 212.60 cl
0.00 0.00 595.28 212.60 cl
0.00 0.00 595.28 212.60 cl
0.00 0.00 595.28 212.60 cl
0.00 0.00 595.28 212.60 cl
0.00 0.00 595.28 212.60 cl
0.00 0.00 595.28 212.60 cl
0.00 0.00 595.28 212.60 cl
0.00 0.00 595.28 212.60 cl
0.00 0.00 595.28 212.60 cl
0.00 0.00 595.28 212.60 cl
/Font1 findfont 12 s
0 0 0 srgb
315.17 17.03 (motif) .5 0 t
0.00 0.00 595.28 212.60 cl
0.00 0.00 595.28 212.60 cl
/Font1 findfont 12 s
0 0 0 srgb
16.98 107.32 (probability) .5 90 t
0.00 0.00 595.28 212.60 cl
0.00 0.00 595.28 212.60 cl
0.00 0.00 595.28 212.60 cl
0.00 0.00 595.28 212.60 cl
ep
%%Trailer
%%Pages: 1
%%EOF
