%!PS-Adobe-3.0 EPSF-3.0
%%DocumentNeededResources: font Helvetica
%%+ font Helvetica-Bold
%%+ font Helvetica-Oblique
%%+ font Helvetica-BoldOblique
%%+ font Symbol
%%Title: R Graphics Output
%%Creator: R Software
%%Pages: (atend)
%%BoundingBox: 0 0 432 432
%%EndComments
%%BeginProlog
/bp  { gs sRGB gs } def
% begin .ps.prolog
/gs  { gsave } bind def
/gr  { grestore } bind def
/ep  { showpage gr gr } bind def
/m   { moveto } bind def
/l  { rlineto } bind def
/np  { newpath } bind def
/cp  { closepath } bind def
/f   { fill } bind def
/o   { stroke } bind def
/c   { newpath 0 360 arc } bind def
/r   { 4 2 roll moveto 1 copy 3 -1 roll exch 0 exch rlineto 0 rlineto -1 mul 0 exch rlineto closepath } bind def
/p1  { stroke } bind def
/p2  { gsave bg fill grestore newpath } bind def
/p3  { gsave bg fill grestore stroke } bind def
/p6  { gsave bg eofill grestore newpath } bind def
/p7  { gsave bg eofill grestore stroke } bind def
/t   { 5 -2 roll moveto gsave rotate
       1 index stringwidth pop
       mul neg 0 rmoveto show grestore } bind def
/ta  { 4 -2 roll moveto gsave rotate show } bind def
/tb  { 2 -1 roll 0 rmoveto show } bind def
/cl  { grestore gsave newpath 3 index 3 index moveto 1 index
       4 -1 roll lineto  exch 1 index lineto lineto
       closepath clip newpath } bind def
/rgb { setrgbcolor } bind def
/s   { scalefont setfont } bind def
% end   .ps.prolog
/sRGB { [ /CIEBasedABC
          << /DecodeLMN
               [ { dup 0.03928 le
                        {12.92321 div}
                        {0.055 add 1.055 div 2.4 exp }
                     ifelse
                 } bind dup dup
               ]
             /MatrixLMN [0.412457 0.212673 0.019334
                         0.357576 0.715152 0.119192
                         0.180437 0.072175 0.950301]
             /WhitePoint [0.9505 1.0 1.0890]
           >>
         ] setcolorspace } bind def
/srgb { setcolor } bind def
%%IncludeResource: font Helvetica
/Helvetica findfont
dup length dict begin
  {1 index /FID ne {def} {pop pop} ifelse} forall
  /Encoding ISOLatin1Encoding def
  currentdict
  end
/Font1 exch definefont pop
%%IncludeResource: font Helvetica-Bold
/Helvetica-Bold findfont
dup length dict begin
  {1 index /FID ne {def} {pop pop} ifelse} forall
  /Encoding ISOLatin1Encoding def
  currentdict
  end
/Font2 exch definefont pop
%%IncludeResource: font Helvetica-Oblique
/Helvetica-Oblique findfont
dup length dict begin
  {1 index /FID ne {def} {pop pop} ifelse} forall
  /Encoding ISOLatin1Encoding def
  currentdict
  end
/Font3 exch definefont pop
%%IncludeResource: font Helvetica-BoldOblique
/Helvetica-BoldOblique findfont
dup length dict begin
  {1 index /FID ne {def} {pop pop} ifelse} forall
  /Encoding ISOLatin1Encoding def
  currentdict
  end
/Font4 exch definefont pop
%%IncludeResource: font Symbol
/Symbol findfont
dup length dict begin
  {1 index /FID ne {def} {pop pop} ifelse} forall
  currentdict
  end
/Font5 exch definefont pop
%%EndProlog
%%Page: 1 1
bp
0.00 0.00 432.00 432.00 cl
59.04 73.44 401.76 372.96 cl
0.6627 0.6627 0.6627 srgb
0.75 setlinewidth
[] 0 setdash
1 setlinecap
1 setlinejoin
10.00 setmiterlimit
np
256.10 319.53 m
-0.08 -0.12 l
-0.47 -0.70 l
-1.12 -1.68 l
-1.81 -2.73 l
-2.39 -3.58 l
-2.71 -4.06 l
-2.77 -4.15 l
-2.65 -3.98 l
-2.43 -3.65 l
-2.19 -3.29 l
-1.99 -2.98 l
-1.83 -2.75 l
-1.74 -2.60 l
-1.52 -2.28 l
-1.70 -2.55 l
-1.75 -2.62 l
-1.84 -2.77 l
-2.01 -3.01 l
-2.22 -3.33 l
-2.46 -3.69 l
-2.66 -4.00 l
-2.78 -4.16 l
-2.68 -4.03 l
-2.34 -3.50 l
-1.75 -2.62 l
-1.04 -1.57 l
-0.41 -0.62 l
-0.06 -0.08 l
o
np
179.06 203.97 m
-0.07 -0.11 l
-0.47 -0.71 l
-1.12 -1.68 l
-1.82 -2.72 l
-2.39 -3.58 l
-2.70 -4.06 l
-2.77 -4.16 l
-2.65 -3.97 l
-2.44 -3.65 l
-2.19 -3.30 l
-1.99 -2.98 l
-1.83 -2.74 l
-1.74 -2.61 l
-1.52 -2.28 l
-1.70 -2.55 l
-1.74 -2.62 l
-1.85 -2.76 l
-2.00 -3.01 l
-2.23 -3.34 l
-2.45 -3.68 l
-2.67 -4.00 l
-2.78 -4.17 l
-2.68 -4.02 l
-2.34 -3.51 l
-1.74 -2.62 l
-1.05 -1.56 l
-0.41 -0.63 l
-0.06 -0.08 l
o
np
281.74 319.53 m
0.07 -0.12 l
0.47 -0.70 l
1.12 -1.68 l
1.82 -2.73 l
2.39 -3.58 l
2.70 -4.06 l
2.77 -4.15 l
2.65 -3.98 l
2.44 -3.65 l
2.19 -3.29 l
1.99 -2.98 l
1.83 -2.75 l
1.74 -2.60 l
1.52 -2.28 l
1.70 -2.55 l
1.74 -2.62 l
1.85 -2.77 l
2.00 -3.01 l
2.23 -3.33 l
2.45 -3.69 l
2.67 -4.00 l
2.78 -4.16 l
2.68 -4.03 l
2.34 -3.50 l
1.74 -2.62 l
1.05 -1.57 l
0.41 -0.62 l
0.06 -0.08 l
o
np
204.70 203.97 m
0.08 -0.11 l
0.47 -0.71 l
1.12 -1.68 l
1.81 -2.72 l
2.39 -3.58 l
2.71 -4.06 l
2.77 -4.16 l
2.65 -3.97 l
2.43 -3.65 l
2.19 -3.30 l
1.99 -2.98 l
1.83 -2.74 l
1.74 -2.61 l
1.52 -2.28 l
1.70 -2.55 l
1.75 -2.62 l
1.84 -2.76 l
2.01 -3.01 l
2.22 -3.34 l
2.46 -3.68 l
2.66 -4.00 l
2.78 -4.17 l
2.68 -4.02 l
2.34 -3.51 l
1.75 -2.62 l
1.04 -1.56 l
0.41 -0.63 l
0.06 -0.08 l
o
/bg { 1 1 1 srgb } def
0 0 0 srgb
268.92 338.76 23.11 c p3
/bg { 1 0 0 srgb } def
191.88 223.20 23.11 c p3
/bg { 0 0 0 srgb } def
114.84 107.64 23.11 c p3
345.96 223.20 23.11 c p3
268.92 107.64 23.11 c p3
0.00 0.00 432.00 432.00 cl
ep
%%Trailer
%%Pages: 1
%%EOF
