%!PS-Adobe-3.0 EPSF-3.0
%%DocumentNeededResources: font Helvetica
%%+ font Helvetica-Bold
%%+ font Helvetica-Oblique
%%+ font Helvetica-BoldOblique
%%+ font Symbol
%%Title: R Graphics Output
%%Creator: R Software
%%Pages: (atend)
%%BoundingBox: 0 0 595 213
%%EndComments
%%BeginProlog
/bp  { gs sRGB gs } def
% begin .ps.prolog
/gs  { gsave } bind def
/gr  { grestore } bind def
/ep  { showpage gr gr } bind def
/m   { moveto } bind def
/l  { rlineto } bind def
/np  { newpath } bind def
/cp  { closepath } bind def
/f   { fill } bind def
/o   { stroke } bind def
/c   { newpath 0 360 arc } bind def
/r   { 4 2 roll moveto 1 copy 3 -1 roll exch 0 exch rlineto 0 rlineto -1 mul 0 exch rlineto closepath } bind def
/p1  { stroke } bind def
/p2  { gsave bg fill grestore newpath } bind def
/p3  { gsave bg fill grestore stroke } bind def
/p6  { gsave bg eofill grestore newpath } bind def
/p7  { gsave bg eofill grestore stroke } bind def
/t   { 5 -2 roll moveto gsave rotate
       1 index stringwidth pop
       mul neg 0 rmoveto show grestore } bind def
/ta  { 4 -2 roll moveto gsave rotate show } bind def
/tb  { 2 -1 roll 0 rmoveto show } bind def
/cl  { grestore gsave newpath 3 index 3 index moveto 1 index
       4 -1 roll lineto  exch 1 index lineto lineto
       closepath clip newpath } bind def
/rgb { setrgbcolor } bind def
/s   { scalefont setfont } bind def
% end   .ps.prolog
/sRGB { [ /CIEBasedABC
          << /DecodeLMN
               [ { dup 0.03928 le
                        {12.92321 div}
                        {0.055 add 1.055 div 2.4 exp }
                     ifelse
                 } bind dup dup
               ]
             /MatrixLMN [0.412457 0.212673 0.019334
                         0.357576 0.715152 0.119192
                         0.180437 0.072175 0.950301]
             /WhitePoint [0.9505 1.0 1.0890]
           >>
         ] setcolorspace } bind def
/srgb { setcolor } bind def
%%IncludeResource: font Helvetica
/Helvetica findfont
dup length dict begin
  {1 index /FID ne {def} {pop pop} ifelse} forall
  /Encoding ISOLatin1Encoding def
  currentdict
  end
/Font1 exch definefont pop
%%IncludeResource: font Helvetica-Bold
/Helvetica-Bold findfont
dup length dict begin
  {1 index /FID ne {def} {pop pop} ifelse} forall
  /Encoding ISOLatin1Encoding def
  currentdict
  end
/Font2 exch definefont pop
%%IncludeResource: font Helvetica-Oblique
/Helvetica-Oblique findfont
dup length dict begin
  {1 index /FID ne {def} {pop pop} ifelse} forall
  /Encoding ISOLatin1Encoding def
  currentdict
  end
/Font3 exch definefont pop
%%IncludeResource: font Helvetica-BoldOblique
/Helvetica-BoldOblique findfont
dup length dict begin
  {1 index /FID ne {def} {pop pop} ifelse} forall
  /Encoding ISOLatin1Encoding def
  currentdict
  end
/Font4 exch definefont pop
%%IncludeResource: font Symbol
/Symbol findfont
dup length dict begin
  {1 index /FID ne {def} {pop pop} ifelse} forall
  currentdict
  end
/Font5 exch definefont pop
%%EndProlog
%%Page: 1 1
bp
0.00 0.00 595.28 212.60 cl
0.00 0.00 595.28 212.60 cl
0.00 0.00 595.28 212.60 cl
0.00 0.00 595.28 212.60 cl
0.00 0.00 595.28 212.60 cl
0.00 0.00 595.28 212.60 cl
0.00 0.00 595.28 212.60 cl
0.00 0.00 595.28 212.60 cl
0.00 0.00 595.28 212.60 cl
0.00 0.00 595.28 212.60 cl
0.00 0.00 595.28 212.60 cl
0.00 0.00 595.28 212.60 cl
0.00 0.00 595.28 212.60 cl
0.00 4.22 595.28 208.38 cl
/bg { 1 1 1 srgb } def
1 1 1 srgb
1.07 setlinewidth
[] 0 setdash
1 setlinecap
1 setlinejoin
10.00 setmiterlimit
0.00 4.22 595.28 204.17 r p3
0.00 0.00 595.28 212.60 cl
41.05 183.27 219.81 202.41 cl
/bg { 1 1 1 srgb } def
0.4980 0.4980 0.4980 srgb
0.43 setlinewidth
[] 0 setdash
1 setlinecap
1 setlinejoin
10.00 setmiterlimit
41.05 183.27 178.77 19.14 r p3
/Font1 findfont 10 s
0.1020 0.1020 0.1020 srgb
116.53 189.25 (fr) 0 ta
-0.100 (ance) tb gr
41.05 183.27 219.81 202.41 cl
0.00 0.00 595.28 212.60 cl
225.79 183.27 404.55 202.41 cl
/bg { 1 1 1 srgb } def
0.4980 0.4980 0.4980 srgb
0.43 setlinewidth
[] 0 setdash
1 setlinecap
1 setlinejoin
10.00 setmiterlimit
225.79 183.27 178.77 19.14 r p3
/Font1 findfont 10 s
0.1020 0.1020 0.1020 srgb
315.17 189.25 (podemos) .5 0 t
225.79 183.27 404.55 202.41 cl
0.00 0.00 595.28 212.60 cl
410.53 183.27 589.30 202.41 cl
/bg { 1 1 1 srgb } def
0.4980 0.4980 0.4980 srgb
0.43 setlinewidth
[] 0 setdash
1 setlinecap
1 setlinejoin
10.00 setmiterlimit
410.53 183.27 178.77 19.14 r p3
/Font1 findfont 10 s
0.1020 0.1020 0.1020 srgb
499.92 189.25 (gameofthrones) .5 0 t
410.53 183.27 589.30 202.41 cl
0.00 0.00 595.28 212.60 cl
41.05 40.26 219.81 183.27 cl
/bg { 1 1 1 srgb } def
41.05 40.26 178.77 143.01 r p2
0.9804 0.9804 0.9804 srgb
1.07 setlinewidth
[] 0 setdash
0 setlinecap
1 setlinejoin
10.00 setmiterlimit
np
41.05 59.99 m
178.76 0 l
o
np
41.05 86.46 m
178.76 0 l
o
np
41.05 112.93 m
178.76 0 l
o
np
41.05 139.40 m
178.76 0 l
o
np
41.05 165.87 m
178.76 0 l
o
0.8980 0.8980 0.8980 srgb
0.43 setlinewidth
[] 0 setdash
np
41.05 46.76 m
178.76 0 l
o
np
41.05 73.23 m
178.76 0 l
o
np
41.05 99.70 m
178.76 0 l
o
np
41.05 126.17 m
178.76 0 l
o
np
41.05 152.63 m
178.76 0 l
o
np
41.05 179.10 m
178.76 0 l
o
np
46.36 40.26 m
0 143.01 l
o
np
55.21 40.26 m
0 143.01 l
o
np
64.06 40.26 m
0 143.01 l
o
np
72.91 40.26 m
0 143.01 l
o
np
81.76 40.26 m
0 143.01 l
o
np
90.61 40.26 m
0 143.01 l
o
np
99.46 40.26 m
0 143.01 l
o
np
108.30 40.26 m
0 143.01 l
o
np
117.15 40.26 m
0 143.01 l
o
np
126.00 40.26 m
0 143.01 l
o
np
134.85 40.26 m
0 143.01 l
o
np
143.70 40.26 m
0 143.01 l
o
np
152.55 40.26 m
0 143.01 l
o
np
161.40 40.26 m
0 143.01 l
o
np
170.25 40.26 m
0 143.01 l
o
np
179.10 40.26 m
0 143.01 l
o
np
187.95 40.26 m
0 143.01 l
o
np
196.80 40.26 m
0 143.01 l
o
np
205.65 40.26 m
0 143.01 l
o
np
214.50 40.26 m
0 143.01 l
o
0.9725 0.4627 0.4275 srgb
1.07 setlinewidth
[] 0 setdash
1.00 setmiterlimit
np
46.36 47.73 m
8.85 82.40 l
8.85 -43.90 l
8.85 -2.64 l
8.85 2.83 l
8.85 -19.50 l
8.85 -9.26 l
8.84 0.74 l
8.85 -3.90 l
8.85 -2.03 l
8.85 -3.92 l
8.85 0.08 l
8.85 -0.47 l
8.85 -0.83 l
8.85 -0.26 l
8.85 0.21 l
8.85 0.49 l
8.85 -0.83 l
8.85 0.20 l
8.85 -0.20 l
o
0.7176 0.6235 0 srgb
np
46.36 47.58 m
8.85 121.22 l
8.85 -106.63 l
8.85 21.69 l
8.85 -17.46 l
8.85 6.64 l
8.85 -12.42 l
8.84 -1.11 l
8.85 -6.50 l
8.85 -2.38 l
8.85 -2.21 l
8.85 -0.17 l
8.85 -0.78 l
8.85 -0.25 l
8.85 -0.34 l
8.85 0.50 l
8.85 0.30 l
8.85 -0.67 l
8.85 -0.11 l
8.85 0.14 l
o
0 0.7294 0.2196 srgb
np
46.36 55.79 m
8.85 31.51 l
8.85 -16.47 l
8.85 -8.53 l
8.85 14.99 l
8.85 -24.55 l
8.85 -2.92 l
8.84 6.09 l
8.85 -5.90 l
8.85 75.87 l
8.85 -73.60 l
8.85 9.22 l
8.85 -13.30 l
8.85 11.52 l
8.85 -12.60 l
8.85 -0.17 l
8.85 6.65 l
8.85 -6.65 l
8.85 0.17 l
8.85 1.43 l
o
0 0.7490 0.7686 srgb
np
46.36 47.21 m
8.85 44.32 l
8.85 37.81 l
8.85 -57.52 l
8.85 32.34 l
8.85 -43.71 l
8.85 -5.81 l
8.84 1.54 l
8.85 -0.72 l
8.85 -4.88 l
8.85 -2.05 l
8.85 0.35 l
8.85 1.50 l
8.85 -3.18 l
8.85 0.08 l
8.85 0.55 l
8.85 -0.53 l
8.85 -0.37 l
8.85 0.28 l
8.85 -0.27 l
o
0.3804 0.6118 1 srgb
np
46.36 46.76 m
8.85 19.14 l
8.85 -19.14 l
8.85 47.52 l
8.85 -47.52 l
8.85 0.92 l
8.85 119.28 l
8.84 -120.20 l
8.85 75.99 l
8.85 -75.99 l
8.85 0 l
8.85 0 l
8.85 0 l
8.85 0 l
8.85 0 l
8.85 0.92 l
8.85 -0.92 l
8.85 0 l
8.85 0 l
8.85 0 l
o
/bg { 0.9725 0.4627 0.4275 srgb } def
46.36 47.73 1.95 c p2
55.21 130.13 1.95 c p2
64.06 86.23 1.95 c p2
72.91 83.59 1.95 c p2
81.76 86.42 1.95 c p2
90.61 66.92 1.95 c p2
99.46 57.66 1.95 c p2
108.30 58.40 1.95 c p2
117.15 54.50 1.95 c p2
126.00 52.47 1.95 c p2
134.85 48.55 1.95 c p2
143.70 48.63 1.95 c p2
152.55 48.16 1.95 c p2
161.40 47.33 1.95 c p2
170.25 47.07 1.95 c p2
179.10 47.28 1.95 c p2
187.95 47.77 1.95 c p2
196.80 46.94 1.95 c p2
205.65 47.14 1.95 c p2
214.50 46.94 1.95 c p2
/bg { 0.7176 0.6235 0 srgb } def
np
 46.36 50.62 m
2.63 -4.56 l
-5.27 0 l
cp p2
np
 55.21 171.84 m
2.63 -4.56 l
-5.27 0 l
cp p2
np
 64.06 65.21 m
2.63 -4.56 l
-5.27 0 l
cp p2
np
 72.91 86.90 m
2.63 -4.56 l
-5.27 0 l
cp p2
np
 81.76 69.44 m
2.63 -4.56 l
-5.27 0 l
cp p2
np
 90.61 76.08 m
2.63 -4.56 l
-5.27 0 l
cp p2
np
 99.46 63.66 m
2.63 -4.56 l
-5.27 0 l
cp p2
np
 108.30 62.55 m
2.64 -4.56 l
-5.27 0 l
cp p2
np
 117.15 56.05 m
2.64 -4.56 l
-5.27 0 l
cp p2
np
 126.00 53.67 m
2.64 -4.56 l
-5.27 0 l
cp p2
np
 134.85 51.46 m
2.64 -4.56 l
-5.27 0 l
cp p2
np
 143.70 51.29 m
2.64 -4.56 l
-5.27 0 l
cp p2
np
 152.55 50.51 m
2.64 -4.56 l
-5.27 0 l
cp p2
np
 161.40 50.26 m
2.64 -4.56 l
-5.27 0 l
cp p2
np
 170.25 49.92 m
2.64 -4.56 l
-5.27 0 l
cp p2
np
 179.10 50.42 m
2.64 -4.56 l
-5.27 0 l
cp p2
np
 187.95 50.72 m
2.64 -4.56 l
-5.27 0 l
cp p2
np
 196.80 50.05 m
2.64 -4.56 l
-5.27 0 l
cp p2
np
 205.65 49.94 m
2.63 -4.56 l
-5.26 0 l
cp p2
np
 214.50 50.08 m
2.63 -4.56 l
-5.26 0 l
cp p2
/bg { 0 0.7294 0.2196 srgb } def
np
 44.40 53.84 m
3.91 0 l
0 3.90 l
-3.91 0 l
cp p2
np
 53.25 85.35 m
3.91 0 l
0 3.91 l
-3.91 0 l
cp p2
np
 62.10 68.88 m
3.91 0 l
0 3.90 l
-3.91 0 l
cp p2
np
 70.95 60.34 m
3.91 0 l
0 3.91 l
-3.91 0 l
cp p2
np
 79.80 75.34 m
3.91 0 l
0 3.90 l
-3.91 0 l
cp p2
np
 88.65 50.79 m
3.91 0 l
0 3.91 l
-3.91 0 l
cp p2
np
 97.50 47.87 m
3.91 0 l
0 3.91 l
-3.91 0 l
cp p2
np
 106.35 53.96 m
3.91 0 l
0 3.91 l
-3.91 0 l
cp p2
np
 115.20 48.05 m
3.91 0 l
0 3.91 l
-3.91 0 l
cp p2
np
 124.05 123.92 m
3.91 0 l
0 3.91 l
-3.91 0 l
cp p2
np
 132.90 50.33 m
3.91 0 l
0 3.91 l
-3.91 0 l
cp p2
np
 141.75 59.55 m
3.91 0 l
0 3.91 l
-3.91 0 l
cp p2
np
 150.60 46.24 m
3.91 0 l
0 3.91 l
-3.91 0 l
cp p2
np
 159.45 57.77 m
3.91 0 l
0 3.91 l
-3.91 0 l
cp p2
np
 168.30 45.16 m
3.91 0 l
0 3.91 l
-3.91 0 l
cp p2
np
 177.15 45.00 m
3.91 0 l
0 3.91 l
-3.91 0 l
cp p2
np
 186.00 51.64 m
3.91 0 l
0 3.91 l
-3.91 0 l
cp p2
np
 194.85 45.00 m
3.91 0 l
0 3.91 l
-3.91 0 l
cp p2
np
 203.70 45.17 m
3.91 0 l
0 3.91 l
-3.91 0 l
cp p2
np
 212.55 46.59 m
3.91 0 l
0 3.91 l
-3.91 0 l
cp p2
0 0.7490 0.7686 srgb
0.71 setlinewidth
[] 0 setdash
1 setlinecap
10.00 setmiterlimit
np
43.59 47.21 m
5.53 0 l
o
np
46.36 44.44 m
0 5.53 l
o
np
52.44 91.53 m
5.53 0 l
o
np
55.21 88.76 m
0 5.53 l
o
np
61.29 129.34 m
5.53 0 l
o
np
64.06 126.58 m
0 5.53 l
o
np
70.14 71.82 m
5.53 0 l
o
np
72.91 69.05 m
0 5.53 l
o
np
78.99 104.16 m
5.53 0 l
o
np
81.76 101.40 m
0 5.53 l
o
np
87.84 60.45 m
5.53 0 l
o
np
90.61 57.69 m
0 5.52 l
o
np
96.69 54.64 m
5.53 0 l
o
np
99.46 51.88 m
0 5.53 l
o
np
105.54 56.18 m
5.53 0 l
o
np
108.30 53.42 m
0 5.53 l
o
np
114.39 55.46 m
5.53 0 l
o
np
117.15 52.69 m
0 5.53 l
o
np
123.24 50.58 m
5.53 0 l
o
np
126.00 47.82 m
0 5.53 l
o
np
132.09 48.53 m
5.53 0 l
o
np
134.85 45.77 m
0 5.52 l
o
np
140.94 48.88 m
5.53 0 l
o
np
143.70 46.12 m
0 5.53 l
o
np
149.79 50.38 m
5.53 0 l
o
np
152.55 47.62 m
0 5.52 l
o
np
158.64 47.20 m
5.53 0 l
o
np
161.40 44.43 m
0 5.53 l
o
np
167.49 47.28 m
5.53 0 l
o
np
170.25 44.52 m
0 5.52 l
o
np
176.34 47.83 m
5.53 0 l
o
np
179.10 45.07 m
0 5.53 l
o
np
185.19 47.30 m
5.53 0 l
o
np
187.95 44.54 m
0 5.53 l
o
np
194.04 46.93 m
5.53 0 l
o
np
196.80 44.17 m
0 5.53 l
o
np
202.89 47.21 m
5.53 0 l
o
np
205.65 44.44 m
0 5.53 l
o
np
211.74 46.94 m
5.53 0 l
o
np
214.50 44.17 m
0 5.53 l
o
0.3804 0.6118 1 srgb
44.40 44.80 3.91 3.91 r p1
np
44.40 44.80 m
3.91 3.91 l
o
np
44.40 48.71 m
3.91 -3.91 l
o
53.25 63.94 3.91 3.91 r p1
np
53.25 63.94 m
3.91 3.91 l
o
np
53.25 67.85 m
3.91 -3.91 l
o
62.10 44.80 3.91 3.91 r p1
np
62.10 44.80 m
3.91 3.91 l
o
np
62.10 48.71 m
3.91 -3.91 l
o
70.95 92.32 3.91 3.91 r p1
np
70.95 92.32 m
3.91 3.91 l
o
np
70.95 96.23 m
3.91 -3.91 l
o
79.80 44.80 3.91 3.91 r p1
np
79.80 44.80 m
3.91 3.91 l
o
np
79.80 48.71 m
3.91 -3.91 l
o
88.65 45.72 3.91 3.91 r p1
np
88.65 45.72 m
3.91 3.91 l
o
np
88.65 49.63 m
3.91 -3.91 l
o
97.50 165.01 3.91 3.91 r p1
np
97.50 165.01 m
3.91 3.91 l
o
np
97.50 168.92 m
3.91 -3.91 l
o
106.35 44.80 3.91 3.91 r p1
np
106.35 44.80 m
3.91 3.91 l
o
np
106.35 48.71 m
3.91 -3.91 l
o
115.20 120.79 3.91 3.91 r p1
np
115.20 120.79 m
3.91 3.91 l
o
np
115.20 124.70 m
3.91 -3.91 l
o
124.05 44.80 3.91 3.91 r p1
np
124.05 44.80 m
3.91 3.91 l
o
np
124.05 48.71 m
3.91 -3.91 l
o
132.90 44.80 3.91 3.91 r p1
np
132.90 44.80 m
3.91 3.91 l
o
np
132.90 48.71 m
3.91 -3.91 l
o
141.75 44.80 3.91 3.91 r p1
np
141.75 44.80 m
3.91 3.91 l
o
np
141.75 48.71 m
3.91 -3.91 l
o
150.60 44.80 3.91 3.91 r p1
np
150.60 44.80 m
3.91 3.91 l
o
np
150.60 48.71 m
3.91 -3.91 l
o
159.45 44.80 3.91 3.91 r p1
np
159.45 44.80 m
3.91 3.91 l
o
np
159.45 48.71 m
3.91 -3.91 l
o
168.30 44.80 3.91 3.91 r p1
np
168.30 44.80 m
3.91 3.91 l
o
np
168.30 48.71 m
3.91 -3.91 l
o
177.15 45.72 3.91 3.91 r p1
np
177.15 45.72 m
3.91 3.91 l
o
np
177.15 49.63 m
3.91 -3.91 l
o
186.00 44.80 3.91 3.91 r p1
np
186.00 44.80 m
3.91 3.91 l
o
np
186.00 48.71 m
3.91 -3.91 l
o
194.85 44.80 3.91 3.91 r p1
np
194.85 44.80 m
3.91 3.91 l
o
np
194.85 48.71 m
3.91 -3.91 l
o
203.70 44.80 3.91 3.91 r p1
np
203.70 44.80 m
3.91 3.91 l
o
np
203.70 48.71 m
3.91 -3.91 l
o
212.55 44.80 3.91 3.91 r p1
np
212.55 44.80 m
3.91 3.91 l
o
np
212.55 48.71 m
3.91 -3.91 l
o
0.4980 0.4980 0.4980 srgb
1.07 setlinewidth
[] 0 setdash
41.05 40.26 178.77 143.01 r p1
0.00 0.00 595.28 212.60 cl
225.79 40.26 404.55 183.27 cl
/bg { 1 1 1 srgb } def
225.79 40.26 178.77 143.01 r p2
0.9804 0.9804 0.9804 srgb
1.07 setlinewidth
[] 0 setdash
0 setlinecap
1 setlinejoin
10.00 setmiterlimit
np
225.79 59.99 m
178.76 0 l
o
np
225.79 86.46 m
178.76 0 l
o
np
225.79 112.93 m
178.76 0 l
o
np
225.79 139.40 m
178.76 0 l
o
np
225.79 165.87 m
178.76 0 l
o
0.8980 0.8980 0.8980 srgb
0.43 setlinewidth
[] 0 setdash
np
225.79 46.76 m
178.76 0 l
o
np
225.79 73.23 m
178.76 0 l
o
np
225.79 99.70 m
178.76 0 l
o
np
225.79 126.17 m
178.76 0 l
o
np
225.79 152.63 m
178.76 0 l
o
np
225.79 179.10 m
178.76 0 l
o
np
231.10 40.26 m
0 143.01 l
o
np
239.95 40.26 m
0 143.01 l
o
np
248.80 40.26 m
0 143.01 l
o
np
257.65 40.26 m
0 143.01 l
o
np
266.50 40.26 m
0 143.01 l
o
np
275.35 40.26 m
0 143.01 l
o
np
284.20 40.26 m
0 143.01 l
o
np
293.05 40.26 m
0 143.01 l
o
np
301.90 40.26 m
0 143.01 l
o
np
310.75 40.26 m
0 143.01 l
o
np
319.60 40.26 m
0 143.01 l
o
np
328.45 40.26 m
0 143.01 l
o
np
337.30 40.26 m
0 143.01 l
o
np
346.15 40.26 m
0 143.01 l
o
np
355.00 40.26 m
0 143.01 l
o
np
363.85 40.26 m
0 143.01 l
o
np
372.70 40.26 m
0 143.01 l
o
np
381.55 40.26 m
0 143.01 l
o
np
390.40 40.26 m
0 143.01 l
o
np
399.25 40.26 m
0 143.01 l
o
0.9725 0.4627 0.4275 srgb
1.07 setlinewidth
[] 0 setdash
1.00 setmiterlimit
np
231.10 47.99 m
8.85 21.05 l
8.85 107.73 l
8.85 -117.96 l
8.85 36.09 l
8.85 -40.45 l
8.85 -4.68 l
8.85 0.60 l
8.85 3.28 l
8.85 1.76 l
8.85 -4.50 l
8.85 -1.16 l
8.85 0.18 l
8.85 -1.25 l
8.85 3.73 l
8.85 -4.72 l
8.85 -0.33 l
8.85 -0.12 l
8.85 0.37 l
8.85 -0.46 l
o
0.7176 0.6235 0 srgb
np
231.10 49.73 m
8.85 96.95 l
8.85 -64.06 l
8.85 -14.80 l
8.85 6.82 l
8.85 -3.44 l
8.85 -17.84 l
8.85 0.56 l
8.85 2.23 l
8.85 -1.39 l
8.85 0.88 l
8.85 -6.24 l
8.85 -1.44 l
8.85 -0.15 l
8.85 0.24 l
8.85 1.54 l
8.85 -1.95 l
8.85 0.64 l
8.85 -0.84 l
8.85 -0.32 l
o
0 0.7294 0.2196 srgb
np
231.10 49.03 m
8.85 56.56 l
8.85 15.65 l
8.85 -56.31 l
8.85 28.67 l
8.85 -30.59 l
8.85 -11.30 l
8.85 1.62 l
8.85 2.19 l
8.85 -1.20 l
8.85 -1.89 l
8.85 -2.73 l
8.85 -0.66 l
8.85 -1.10 l
8.85 1.46 l
8.85 -1.08 l
8.85 -0.71 l
8.85 0.23 l
8.85 -0.01 l
8.85 -0.38 l
o
0 0.7490 0.7686 srgb
np
231.10 51.46 m
8.85 44.50 l
8.85 4.64 l
8.85 -40.69 l
8.85 12.62 l
8.85 -13.37 l
8.85 -8.79 l
8.85 1.31 l
8.85 0.23 l
8.85 30.27 l
8.85 -11.24 l
8.85 -11.84 l
8.85 -10.67 l
8.85 5.59 l
8.85 -5.44 l
8.85 0.39 l
8.85 0.37 l
8.85 -0.26 l
8.85 -1.57 l
8.85 0.61 l
o
0.3804 0.6118 1 srgb
np
231.10 51.41 m
8.85 15.10 l
8.85 3.64 l
8.85 -18.20 l
8.85 8.85 l
8.85 -10.03 l
8.85 -2.35 l
8.85 1.43 l
8.85 0.03 l
8.85 103.84 l
8.85 -91.15 l
8.85 0.24 l
8.85 -14.64 l
8.85 34.62 l
8.85 -34.47 l
8.85 -0.78 l
8.85 3.75 l
8.85 -3.75 l
8.85 -0.52 l
8.85 1.30 l
o
0.9608 0.3922 0.8902 srgb
np
231.10 51.56 m
8.85 66.36 l
8.85 -53.40 l
8.85 -3.39 l
8.85 -4.58 l
8.85 9.67 l
8.85 -16.19 l
8.85 -0.23 l
8.85 -1.20 l
8.85 13.88 l
8.85 47.08 l
8.85 -42.40 l
8.85 -20.10 l
8.85 2.76 l
8.85 -1.49 l
8.85 3.27 l
8.85 -1.83 l
8.85 -0.39 l
8.85 -2.31 l
8.85 4.25 l
o
/bg { 0.9725 0.4627 0.4275 srgb } def
231.10 47.99 1.95 c p2
239.95 69.04 1.95 c p2
248.80 176.77 1.95 c p2
257.65 58.81 1.95 c p2
266.50 94.90 1.95 c p2
275.35 54.45 1.95 c p2
284.20 49.77 1.95 c p2
293.05 50.37 1.95 c p2
301.90 53.65 1.95 c p2
310.75 55.41 1.95 c p2
319.60 50.91 1.95 c p2
328.45 49.75 1.95 c p2
337.30 49.93 1.95 c p2
346.15 48.68 1.95 c p2
355.00 52.41 1.95 c p2
363.85 47.69 1.95 c p2
372.70 47.36 1.95 c p2
381.55 47.24 1.95 c p2
390.40 47.61 1.95 c p2
399.25 47.15 1.95 c p2
/bg { 0.7176 0.6235 0 srgb } def
np
 231.10 52.77 m
2.63 -4.56 l
-5.26 0 l
cp p2
np
 239.95 149.72 m
2.63 -4.56 l
-5.26 0 l
cp p2
np
 248.80 85.66 m
2.63 -4.56 l
-5.26 0 l
cp p2
np
 257.65 70.86 m
2.63 -4.56 l
-5.26 0 l
cp p2
np
 266.50 77.68 m
2.63 -4.56 l
-5.26 0 l
cp p2
np
 275.35 74.24 m
2.63 -4.56 l
-5.26 0 l
cp p2
np
 284.20 56.40 m
2.63 -4.56 l
-5.26 0 l
cp p2
np
 293.05 56.96 m
2.63 -4.56 l
-5.26 0 l
cp p2
np
 301.90 59.19 m
2.63 -4.56 l
-5.27 0 l
cp p2
np
 310.75 57.80 m
2.63 -4.56 l
-5.27 0 l
cp p2
np
 319.60 58.68 m
2.63 -4.56 l
-5.27 0 l
cp p2
np
 328.45 52.44 m
2.63 -4.56 l
-5.27 0 l
cp p2
np
 337.30 51.00 m
2.63 -4.56 l
-5.27 0 l
cp p2
np
 346.15 50.85 m
2.63 -4.56 l
-5.27 0 l
cp p2
np
 355.00 51.09 m
2.63 -4.56 l
-5.27 0 l
cp p2
np
 363.85 52.63 m
2.63 -4.56 l
-5.27 0 l
cp p2
np
 372.70 50.68 m
2.63 -4.56 l
-5.27 0 l
cp p2
np
 381.55 51.32 m
2.63 -4.56 l
-5.27 0 l
cp p2
np
 390.40 50.48 m
2.63 -4.56 l
-5.27 0 l
cp p2
np
 399.25 50.16 m
2.63 -4.56 l
-5.27 0 l
cp p2
/bg { 0 0.7294 0.2196 srgb } def
np
 229.14 47.08 m
3.91 0 l
0 3.91 l
-3.91 0 l
cp p2
np
 237.99 103.64 m
3.91 0 l
0 3.91 l
-3.91 0 l
cp p2
np
 246.84 119.28 m
3.91 0 l
0 3.91 l
-3.91 0 l
cp p2
np
 255.69 62.98 m
3.91 0 l
0 3.91 l
-3.91 0 l
cp p2
np
 264.54 91.64 m
3.91 0 l
0 3.91 l
-3.91 0 l
cp p2
np
 273.39 61.06 m
3.91 0 l
0 3.91 l
-3.91 0 l
cp p2
np
 282.24 49.76 m
3.91 0 l
0 3.91 l
-3.91 0 l
cp p2
np
 291.09 51.37 m
3.91 0 l
0 3.91 l
-3.91 0 l
cp p2
np
 299.94 53.57 m
3.91 0 l
0 3.91 l
-3.91 0 l
cp p2
np
 308.79 52.37 m
3.91 0 l
0 3.91 l
-3.91 0 l
cp p2
np
 317.64 50.47 m
3.91 0 l
0 3.91 l
-3.91 0 l
cp p2
np
 326.49 47.74 m
3.91 0 l
0 3.91 l
-3.91 0 l
cp p2
np
 335.34 47.09 m
3.91 0 l
0 3.91 l
-3.91 0 l
cp p2
np
 344.19 45.99 m
3.91 0 l
0 3.91 l
-3.91 0 l
cp p2
np
 353.04 47.45 m
3.91 0 l
0 3.91 l
-3.91 0 l
cp p2
np
 361.89 46.37 m
3.91 0 l
0 3.91 l
-3.91 0 l
cp p2
np
 370.74 45.66 m
3.91 0 l
0 3.91 l
-3.91 0 l
cp p2
np
 379.59 45.89 m
3.91 0 l
0 3.91 l
-3.91 0 l
cp p2
np
 388.44 45.88 m
3.91 0 l
0 3.91 l
-3.91 0 l
cp p2
np
 397.29 45.49 m
3.91 0 l
0 3.91 l
-3.91 0 l
cp p2
0 0.7490 0.7686 srgb
0.71 setlinewidth
[] 0 setdash
1 setlinecap
10.00 setmiterlimit
np
228.33 51.46 m
5.53 0 l
o
np
231.10 48.69 m
0 5.53 l
o
np
237.18 95.96 m
5.53 0 l
o
np
239.95 93.20 m
0 5.52 l
o
np
246.03 100.60 m
5.53 0 l
o
np
248.80 97.83 m
0 5.53 l
o
np
254.88 59.91 m
5.53 0 l
o
np
257.65 57.14 m
0 5.53 l
o
np
263.73 72.53 m
5.53 0 l
o
np
266.50 69.76 m
0 5.53 l
o
np
272.58 59.16 m
5.53 0 l
o
np
275.35 56.40 m
0 5.53 l
o
np
281.43 50.37 m
5.53 0 l
o
np
284.20 47.61 m
0 5.53 l
o
np
290.28 51.68 m
5.53 0 l
o
np
293.05 48.92 m
0 5.53 l
o
np
299.13 51.91 m
5.53 0 l
o
np
301.90 49.15 m
0 5.53 l
o
np
307.98 82.18 m
5.53 0 l
o
np
310.75 79.41 m
0 5.53 l
o
np
316.83 70.94 m
5.53 0 l
o
np
319.60 68.18 m
0 5.53 l
o
np
325.68 59.10 m
5.53 0 l
o
np
328.45 56.34 m
0 5.53 l
o
np
334.53 48.43 m
5.53 0 l
o
np
337.30 45.66 m
0 5.53 l
o
np
343.38 54.02 m
5.53 0 l
o
np
346.15 51.25 m
0 5.53 l
o
np
352.23 48.58 m
5.53 0 l
o
np
355.00 45.82 m
0 5.53 l
o
np
361.08 48.97 m
5.53 0 l
o
np
363.85 46.21 m
0 5.53 l
o
np
369.93 49.34 m
5.53 0 l
o
np
372.70 46.57 m
0 5.53 l
o
np
378.78 49.08 m
5.53 0 l
o
np
381.55 46.32 m
0 5.53 l
o
np
387.63 47.51 m
5.53 0 l
o
np
390.40 44.75 m
0 5.52 l
o
np
396.48 48.12 m
5.53 0 l
o
np
399.25 45.36 m
0 5.53 l
o
0.3804 0.6118 1 srgb
229.14 49.46 3.91 3.91 r p1
np
229.14 49.46 m
3.91 3.91 l
o
np
229.14 53.37 m
3.91 -3.91 l
o
237.99 64.56 3.91 3.91 r p1
np
237.99 64.56 m
3.91 3.91 l
o
np
237.99 68.47 m
3.91 -3.91 l
o
246.84 68.19 3.91 3.91 r p1
np
246.84 68.19 m
3.91 3.91 l
o
np
246.84 72.10 m
3.91 -3.91 l
o
255.69 50.00 3.91 3.91 r p1
np
255.69 50.00 m
3.91 3.91 l
o
np
255.69 53.91 m
3.91 -3.91 l
o
264.54 58.85 3.91 3.91 r p1
np
264.54 58.85 m
3.91 3.91 l
o
np
264.54 62.76 m
3.91 -3.91 l
o
273.39 48.82 3.91 3.91 r p1
np
273.39 48.82 m
3.91 3.91 l
o
np
273.39 52.73 m
3.91 -3.91 l
o
282.24 46.47 3.91 3.91 r p1
np
282.24 46.47 m
3.91 3.91 l
o
np
282.24 50.38 m
3.91 -3.91 l
o
291.09 47.90 3.91 3.91 r p1
np
291.09 47.90 m
3.91 3.91 l
o
np
291.09 51.81 m
3.91 -3.91 l
o
299.94 47.93 3.91 3.91 r p1
np
299.94 47.93 m
3.91 3.91 l
o
np
299.94 51.84 m
3.91 -3.91 l
o
308.79 151.77 3.91 3.91 r p1
np
308.79 151.77 m
3.91 3.91 l
o
np
308.79 155.68 m
3.91 -3.91 l
o
317.64 60.62 3.91 3.91 r p1
np
317.64 60.62 m
3.91 3.90 l
o
np
317.64 64.52 m
3.91 -3.90 l
o
326.49 60.86 3.91 3.91 r p1
np
326.49 60.86 m
3.91 3.91 l
o
np
326.49 64.77 m
3.91 -3.91 l
o
335.34 46.22 3.91 3.91 r p1
np
335.34 46.22 m
3.91 3.91 l
o
np
335.34 50.13 m
3.91 -3.91 l
o
344.19 80.84 3.91 3.91 r p1
np
344.19 80.84 m
3.91 3.90 l
o
np
344.19 84.74 m
3.91 -3.90 l
o
353.04 46.36 3.91 3.91 r p1
np
353.04 46.36 m
3.91 3.91 l
o
np
353.04 50.27 m
3.91 -3.91 l
o
361.89 45.58 3.91 3.91 r p1
np
361.89 45.58 m
3.91 3.91 l
o
np
361.89 49.49 m
3.91 -3.91 l
o
370.74 49.33 3.91 3.91 r p1
np
370.74 49.33 m
3.91 3.91 l
o
np
370.74 53.24 m
3.91 -3.91 l
o
379.59 45.58 3.91 3.91 r p1
np
379.59 45.58 m
3.91 3.91 l
o
np
379.59 49.49 m
3.91 -3.91 l
o
388.44 45.07 3.91 3.91 r p1
np
388.44 45.07 m
3.91 3.91 l
o
np
388.44 48.98 m
3.91 -3.91 l
o
397.29 46.37 3.91 3.91 r p1
np
397.29 46.37 m
3.91 3.91 l
o
np
397.29 50.28 m
3.91 -3.91 l
o
0.9608 0.3922 0.8902 srgb
np
229.14 49.61 m
3.91 3.91 l
o
np
229.14 53.52 m
3.91 -3.91 l
o
np
228.33 51.56 m
5.53 0 l
o
np
231.10 48.80 m
0 5.53 l
o
np
237.99 115.96 m
3.91 3.91 l
o
np
237.99 119.87 m
3.91 -3.91 l
o
np
237.18 117.92 m
5.53 0 l
o
np
239.95 115.15 m
0 5.53 l
o
np
246.84 62.56 m
3.91 3.91 l
o
np
246.84 66.47 m
3.91 -3.91 l
o
np
246.03 64.52 m
5.53 0 l
o
np
248.80 61.75 m
0 5.53 l
o
np
255.69 59.17 m
3.91 3.91 l
o
np
255.69 63.08 m
3.91 -3.91 l
o
np
254.88 61.13 m
5.53 0 l
o
np
257.65 58.36 m
0 5.53 l
o
np
264.54 54.60 m
3.91 3.91 l
o
np
264.54 58.51 m
3.91 -3.91 l
o
np
263.73 56.55 m
5.53 0 l
o
np
266.50 53.79 m
0 5.53 l
o
np
273.39 64.27 m
3.91 3.91 l
o
np
273.39 68.18 m
3.91 -3.91 l
o
np
272.58 66.22 m
5.53 0 l
o
np
275.35 63.46 m
0 5.53 l
o
np
282.24 48.07 m
3.91 3.91 l
o
np
282.24 51.98 m
3.91 -3.91 l
o
np
281.43 50.03 m
5.53 0 l
o
np
284.20 47.27 m
0 5.52 l
o
np
291.09 47.84 m
3.91 3.91 l
o
np
291.09 51.75 m
3.91 -3.91 l
o
np
290.28 49.80 m
5.53 0 l
o
np
293.05 47.03 m
0 5.53 l
o
np
299.94 46.65 m
3.91 3.91 l
o
np
299.94 50.56 m
3.91 -3.91 l
o
np
299.13 48.60 m
5.53 0 l
o
np
301.90 45.84 m
0 5.53 l
o
np
308.79 60.52 m
3.91 3.91 l
o
np
308.79 64.43 m
3.91 -3.91 l
o
np
307.98 62.48 m
5.53 0 l
o
np
310.75 59.71 m
0 5.53 l
o
np
317.64 107.61 m
3.91 3.91 l
o
np
317.64 111.52 m
3.91 -3.91 l
o
np
316.83 109.56 m
5.53 0 l
o
np
319.60 106.80 m
0 5.53 l
o
np
326.49 65.20 m
3.91 3.91 l
o
np
326.49 69.11 m
3.91 -3.91 l
o
np
325.68 67.16 m
5.53 0 l
o
np
328.45 64.39 m
0 5.53 l
o
np
335.34 45.11 m
3.91 3.91 l
o
np
335.34 49.02 m
3.91 -3.91 l
o
np
334.53 47.06 m
5.53 0 l
o
np
337.30 44.30 m
0 5.53 l
o
np
344.19 47.86 m
3.91 3.91 l
o
np
344.19 51.77 m
3.91 -3.91 l
o
np
343.38 49.82 m
5.53 0 l
o
np
346.15 47.05 m
0 5.53 l
o
np
353.04 46.38 m
3.91 3.91 l
o
np
353.04 50.29 m
3.91 -3.91 l
o
np
352.23 48.33 m
5.53 0 l
o
np
355.00 45.57 m
0 5.53 l
o
np
361.89 49.64 m
3.91 3.91 l
o
np
361.89 53.55 m
3.91 -3.91 l
o
np
361.08 51.60 m
5.53 0 l
o
np
363.85 48.83 m
0 5.53 l
o
np
370.74 47.81 m
3.91 3.91 l
o
np
370.74 51.72 m
3.91 -3.91 l
o
np
369.93 49.77 m
5.53 0 l
o
np
372.70 47.00 m
0 5.53 l
o
np
379.59 47.42 m
3.91 3.91 l
o
np
379.59 51.33 m
3.91 -3.91 l
o
np
378.78 49.38 m
5.53 0 l
o
np
381.55 46.61 m
0 5.53 l
o
np
388.44 45.11 m
3.91 3.91 l
o
np
388.44 49.02 m
3.91 -3.91 l
o
np
387.63 47.07 m
5.53 0 l
o
np
390.40 44.30 m
0 5.53 l
o
np
397.29 49.36 m
3.91 3.91 l
o
np
397.29 53.27 m
3.91 -3.91 l
o
np
396.48 51.32 m
5.53 0 l
o
np
399.25 48.55 m
0 5.53 l
o
0.4980 0.4980 0.4980 srgb
1.07 setlinewidth
[] 0 setdash
225.79 40.26 178.77 143.01 r p1
0.00 0.00 595.28 212.60 cl
410.53 40.26 589.30 183.27 cl
/bg { 1 1 1 srgb } def
410.53 40.26 178.77 143.01 r p2
0.9804 0.9804 0.9804 srgb
1.07 setlinewidth
[] 0 setdash
0 setlinecap
1 setlinejoin
10.00 setmiterlimit
np
410.53 59.99 m
178.77 0 l
o
np
410.53 86.46 m
178.77 0 l
o
np
410.53 112.93 m
178.77 0 l
o
np
410.53 139.40 m
178.77 0 l
o
np
410.53 165.87 m
178.77 0 l
o
0.8980 0.8980 0.8980 srgb
0.43 setlinewidth
[] 0 setdash
np
410.53 46.76 m
178.77 0 l
o
np
410.53 73.23 m
178.77 0 l
o
np
410.53 99.70 m
178.77 0 l
o
np
410.53 126.17 m
178.77 0 l
o
np
410.53 152.63 m
178.77 0 l
o
np
410.53 179.10 m
178.77 0 l
o
np
415.84 40.26 m
0 143.01 l
o
np
424.69 40.26 m
0 143.01 l
o
np
433.54 40.26 m
0 143.01 l
o
np
442.39 40.26 m
0 143.01 l
o
np
451.24 40.26 m
0 143.01 l
o
np
460.09 40.26 m
0 143.01 l
o
np
468.94 40.26 m
0 143.01 l
o
np
477.79 40.26 m
0 143.01 l
o
np
486.64 40.26 m
0 143.01 l
o
np
495.49 40.26 m
0 143.01 l
o
np
504.34 40.26 m
0 143.01 l
o
np
513.19 40.26 m
0 143.01 l
o
np
522.04 40.26 m
0 143.01 l
o
np
530.89 40.26 m
0 143.01 l
o
np
539.74 40.26 m
0 143.01 l
o
np
548.59 40.26 m
0 143.01 l
o
np
557.44 40.26 m
0 143.01 l
o
np
566.29 40.26 m
0 143.01 l
o
np
575.14 40.26 m
0 143.01 l
o
np
583.99 40.26 m
0 143.01 l
o
0.9725 0.4627 0.4275 srgb
1.07 setlinewidth
[] 0 setdash
1.00 setmiterlimit
np
415.84 46.94 m
8.85 90.37 l
8.85 -71.86 l
8.85 59.08 l
8.85 -67.90 l
8.85 9.96 l
8.85 7.04 l
8.85 -18.30 l
8.85 -0.06 l
8.85 -7.29 l
8.85 -0.40 l
8.85 -0.57 l
8.85 -0.04 l
8.85 0.07 l
8.85 -0.05 l
8.85 0.23 l
8.85 -0.40 l
8.85 0.07 l
8.85 -0.03 l
8.85 -0.04 l
o
0.7176 0.6235 0 srgb
np
415.84 47.19 m
8.85 73.72 l
8.85 -21.11 l
8.85 -8.58 l
8.85 -10.72 l
8.85 -13.64 l
8.85 -8.46 l
8.85 -3.72 l
8.85 1.53 l
8.85 -5.70 l
8.85 -1.48 l
8.85 -1.53 l
8.85 0.24 l
8.85 -0.53 l
8.85 -0.11 l
8.85 0.02 l
8.85 0 l
8.85 -0.21 l
8.85 0 l
8.85 0.03 l
o
0 0.7294 0.2196 srgb
np
415.84 46.91 m
8.85 106.80 l
8.85 -82.72 l
8.85 19.68 l
8.85 -24.35 l
8.85 2.99 l
8.85 -3.42 l
8.85 -9.60 l
8.85 0.92 l
8.85 -7.65 l
8.85 -0.03 l
8.85 -2.06 l
8.85 -0.06 l
8.85 -0.42 l
8.85 -0.06 l
8.85 0.08 l
8.85 0.07 l
8.85 -0.19 l
8.85 -0.02 l
8.85 -0.05 l
o
0 0.7490 0.7686 srgb
np
415.84 47.13 m
8.85 49.38 l
8.85 38.89 l
8.85 -61.85 l
8.85 22.74 l
8.85 -33.29 l
8.85 -9.40 l
8.85 -0.02 l
8.85 2.23 l
8.85 -6.09 l
8.85 -1.65 l
8.85 -0.82 l
8.85 2.75 l
8.85 -2.88 l
8.85 0.82 l
8.85 -0.89 l
8.85 -0.14 l
8.85 -0.03 l
8.85 0.37 l
8.85 -0.46 l
o
/bg { 0.9725 0.4627 0.4275 srgb } def
415.84 46.94 1.95 c p2
424.69 137.31 1.95 c p2
433.54 65.45 1.95 c p2
442.39 124.53 1.95 c p2
451.24 56.63 1.95 c p2
460.09 66.59 1.95 c p2
468.94 73.63 1.95 c p2
477.79 55.33 1.95 c p2
486.64 55.27 1.95 c p2
495.49 47.98 1.95 c p2
504.34 47.58 1.95 c p2
513.19 47.01 1.95 c p2
522.04 46.97 1.95 c p2
530.89 47.04 1.95 c p2
539.74 46.99 1.95 c p2
548.59 47.22 1.95 c p2
557.44 46.82 1.95 c p2
566.29 46.89 1.95 c p2
575.14 46.86 1.95 c p2
583.99 46.82 1.95 c p2
/bg { 0.7176 0.6235 0 srgb } def
np
 415.84 50.23 m
2.64 -4.56 l
-5.27 0 l
cp p2
np
 424.69 123.95 m
2.63 -4.56 l
-5.26 0 l
cp p2
np
 433.54 102.84 m
2.63 -4.56 l
-5.26 0 l
cp p2
np
 442.39 94.26 m
2.63 -4.56 l
-5.26 0 l
cp p2
np
 451.24 83.54 m
2.63 -4.56 l
-5.26 0 l
cp p2
np
 460.09 69.90 m
2.63 -4.56 l
-5.26 0 l
cp p2
np
 468.94 61.44 m
2.63 -4.56 l
-5.26 0 l
cp p2
np
 477.79 57.72 m
2.63 -4.56 l
-5.26 0 l
cp p2
np
 486.64 59.25 m
2.63 -4.56 l
-5.26 0 l
cp p2
np
 495.49 53.55 m
2.63 -4.56 l
-5.26 0 l
cp p2
np
 504.34 52.07 m
2.63 -4.56 l
-5.26 0 l
cp p2
np
 513.19 50.54 m
2.63 -4.56 l
-5.26 0 l
cp p2
np
 522.04 50.78 m
2.63 -4.56 l
-5.26 0 l
cp p2
np
 530.89 50.25 m
2.63 -4.56 l
-5.26 0 l
cp p2
np
 539.74 50.14 m
2.63 -4.56 l
-5.26 0 l
cp p2
np
 548.59 50.16 m
2.63 -4.56 l
-5.26 0 l
cp p2
np
 557.44 50.16 m
2.63 -4.56 l
-5.26 0 l
cp p2
np
 566.29 49.95 m
2.63 -4.56 l
-5.26 0 l
cp p2
np
 575.14 49.95 m
2.63 -4.56 l
-5.26 0 l
cp p2
np
 583.99 49.98 m
2.63 -4.56 l
-5.26 0 l
cp p2
/bg { 0 0.7294 0.2196 srgb } def
np
 413.89 44.95 m
3.91 0 l
0 3.91 l
-3.91 0 l
cp p2
np
 422.74 151.76 m
3.91 0 l
0 3.90 l
-3.91 0 l
cp p2
np
 431.59 69.04 m
3.91 0 l
0 3.91 l
-3.91 0 l
cp p2
np
 440.44 88.71 m
3.91 0 l
0 3.91 l
-3.91 0 l
cp p2
np
 449.29 64.37 m
3.91 0 l
0 3.91 l
-3.91 0 l
cp p2
np
 458.14 67.36 m
3.91 0 l
0 3.91 l
-3.91 0 l
cp p2
np
 466.99 63.93 m
3.91 0 l
0 3.91 l
-3.91 0 l
cp p2
np
 475.84 54.33 m
3.91 0 l
0 3.91 l
-3.91 0 l
cp p2
np
 484.69 55.26 m
3.91 0 l
0 3.91 l
-3.91 0 l
cp p2
np
 493.54 47.60 m
3.91 0 l
0 3.91 l
-3.91 0 l
cp p2
np
 502.39 47.57 m
3.90 0 l
0 3.91 l
-3.90 0 l
cp p2
np
 511.24 45.52 m
3.90 0 l
0 3.91 l
-3.90 0 l
cp p2
np
 520.08 45.46 m
3.91 0 l
0 3.91 l
-3.91 0 l
cp p2
np
 528.93 45.04 m
3.91 0 l
0 3.91 l
-3.91 0 l
cp p2
np
 537.78 44.98 m
3.91 0 l
0 3.91 l
-3.91 0 l
cp p2
np
 546.63 45.05 m
3.91 0 l
0 3.91 l
-3.91 0 l
cp p2
np
 555.48 45.13 m
3.91 0 l
0 3.91 l
-3.91 0 l
cp p2
np
 564.33 44.93 m
3.91 0 l
0 3.91 l
-3.91 0 l
cp p2
np
 573.18 44.91 m
3.91 0 l
0 3.91 l
-3.91 0 l
cp p2
np
 582.03 44.87 m
3.91 0 l
0 3.91 l
-3.91 0 l
cp p2
0.71 setlinewidth
[] 0 setdash
1 setlinecap
10.00 setmiterlimit
np
413.08 47.13 m
5.53 0 l
o
np
415.84 44.37 m
0 5.53 l
o
np
421.93 96.51 m
5.53 0 l
o
np
424.69 93.75 m
0 5.53 l
o
np
430.78 135.40 m
5.53 0 l
o
np
433.54 132.64 m
0 5.53 l
o
np
439.63 73.55 m
5.53 0 l
o
np
442.39 70.78 m
0 5.53 l
o
np
448.48 96.29 m
5.53 0 l
o
np
451.24 93.53 m
0 5.53 l
o
np
457.33 63.00 m
5.53 0 l
o
np
460.09 60.23 m
0 5.53 l
o
np
466.18 53.60 m
5.53 0 l
o
np
468.94 50.84 m
0 5.53 l
o
np
475.03 53.58 m
5.53 0 l
o
np
477.79 50.81 m
0 5.53 l
o
np
483.88 55.81 m
5.53 0 l
o
np
486.64 53.04 m
0 5.53 l
o
np
492.73 49.72 m
5.52 0 l
o
np
495.49 46.96 m
0 5.53 l
o
np
501.58 48.07 m
5.52 0 l
o
np
504.34 45.30 m
0 5.53 l
o
np
510.43 47.25 m
5.52 0 l
o
np
513.19 44.49 m
0 5.53 l
o
np
519.28 50.00 m
5.52 0 l
o
np
522.04 47.24 m
0 5.53 l
o
np
528.12 47.12 m
5.53 0 l
o
np
530.89 44.36 m
0 5.52 l
o
np
536.97 47.94 m
5.53 0 l
o
np
539.74 45.18 m
0 5.53 l
o
np
545.82 47.05 m
5.53 0 l
o
np
548.59 44.29 m
0 5.53 l
o
np
554.67 46.91 m
5.53 0 l
o
np
557.44 44.14 m
0 5.53 l
o
np
563.52 46.88 m
5.53 0 l
o
np
566.29 44.11 m
0 5.53 l
o
np
572.37 47.25 m
5.53 0 l
o
np
575.14 44.49 m
0 5.53 l
o
np
581.22 46.79 m
5.53 0 l
o
np
583.99 44.02 m
0 5.53 l
o
0.4980 0.4980 0.4980 srgb
1.07 setlinewidth
[] 0 setdash
410.53 40.26 178.77 143.01 r p1
0.00 0.00 595.28 212.60 cl
0.00 0.00 595.28 212.60 cl
0.00 0.00 595.28 212.60 cl
0.00 0.00 595.28 212.60 cl
0.00 0.00 595.28 212.60 cl
0.00 0.00 595.28 212.60 cl
/Font1 findfont 10 s
0 0 0 srgb
35.67 43.17 (0.0) 1 0 t
35.67 69.64 (0.1) 1 0 t
35.67 96.11 (0.2) 1 0 t
35.67 122.58 (0.3) 1 0 t
35.67 149.04 (0.4) 1 0 t
35.67 175.51 (0.5) 1 0 t
0.00 0.00 595.28 212.60 cl
0.00 0.00 595.28 212.60 cl
0 0 0 srgb
1.07 setlinewidth
[] 0 setdash
0 setlinecap
1 setlinejoin
10.00 setmiterlimit
np
38.06 46.76 m
2.99 0 l
o
np
38.06 73.23 m
2.99 0 l
o
np
38.06 99.70 m
2.99 0 l
o
np
38.06 126.17 m
2.99 0 l
o
np
38.06 152.63 m
2.99 0 l
o
np
38.06 179.10 m
2.99 0 l
o
0.00 0.00 595.28 212.60 cl
0.00 0.00 595.28 212.60 cl
0.00 0.00 595.28 212.60 cl
0.00 0.00 595.28 212.60 cl
0.00 0.00 595.28 212.60 cl
0.00 0.00 595.28 212.60 cl
0.00 0.00 595.28 212.60 cl
0.00 0.00 595.28 212.60 cl
0 0 0 srgb
1.07 setlinewidth
[] 0 setdash
0 setlinecap
1 setlinejoin
10.00 setmiterlimit
np
46.36 37.27 m
0 2.99 l
o
np
55.21 37.27 m
0 2.99 l
o
np
64.06 37.27 m
0 2.99 l
o
np
72.91 37.27 m
0 2.99 l
o
np
81.76 37.27 m
0 2.99 l
o
np
90.61 37.27 m
0 2.99 l
o
np
99.46 37.27 m
0 2.99 l
o
np
108.30 37.27 m
0 2.99 l
o
np
117.15 37.27 m
0 2.99 l
o
np
126.00 37.27 m
0 2.99 l
o
np
134.85 37.27 m
0 2.99 l
o
np
143.70 37.27 m
0 2.99 l
o
np
152.55 37.27 m
0 2.99 l
o
np
161.40 37.27 m
0 2.99 l
o
np
170.25 37.27 m
0 2.99 l
o
np
179.10 37.27 m
0 2.99 l
o
np
187.95 37.27 m
0 2.99 l
o
np
196.80 37.27 m
0 2.99 l
o
np
205.65 37.27 m
0 2.99 l
o
np
214.50 37.27 m
0 2.99 l
o
0.00 0.00 595.28 212.60 cl
0.00 0.00 595.28 212.60 cl
/Font1 findfont 8 s
0 0 0 srgb
52.10 34.88 (0) 1 90 t
60.95 34.88 (1) 1 90 t
69.80 34.88 (2) 1 90 t
78.65 34.88 (3) 1 90 t
87.50 34.88 (4) 1 90 t
96.35 34.88 (5) 1 90 t
105.20 34.88 (6) 1 90 t
114.05 34.88 (7) 1 90 t
122.90 34.88 (8) 1 90 t
131.75 34.88 (9) 1 90 t
140.60 34.88 (10) 1 90 t
149.45 34.88 (11) 1 90 t
158.30 34.88 (12) 1 90 t
167.15 34.88 (13) 1 90 t
176.00 34.88 (14) 1 90 t
184.85 34.88 (15) 1 90 t
193.70 34.88 (16) 1 90 t
202.55 34.88 (17) 1 90 t
211.40 34.88 (18) 1 90 t
220.25 34.88 (19) 1 90 t
0.00 0.00 595.28 212.60 cl
0.00 0.00 595.28 212.60 cl
0.00 0.00 595.28 212.60 cl
0.00 0.00 595.28 212.60 cl
0.00 0.00 595.28 212.60 cl
0.00 0.00 595.28 212.60 cl
0.00 0.00 595.28 212.60 cl
0.00 0.00 595.28 212.60 cl
0 0 0 srgb
1.07 setlinewidth
[] 0 setdash
0 setlinecap
1 setlinejoin
10.00 setmiterlimit
np
231.10 37.27 m
0 2.99 l
o
np
239.95 37.27 m
0 2.99 l
o
np
248.80 37.27 m
0 2.99 l
o
np
257.65 37.27 m
0 2.99 l
o
np
266.50 37.27 m
0 2.99 l
o
np
275.35 37.27 m
0 2.99 l
o
np
284.20 37.27 m
0 2.99 l
o
np
293.05 37.27 m
0 2.99 l
o
np
301.90 37.27 m
0 2.99 l
o
np
310.75 37.27 m
0 2.99 l
o
np
319.60 37.27 m
0 2.99 l
o
np
328.45 37.27 m
0 2.99 l
o
np
337.30 37.27 m
0 2.99 l
o
np
346.15 37.27 m
0 2.99 l
o
np
355.00 37.27 m
0 2.99 l
o
np
363.85 37.27 m
0 2.99 l
o
np
372.70 37.27 m
0 2.99 l
o
np
381.55 37.27 m
0 2.99 l
o
np
390.40 37.27 m
0 2.99 l
o
np
399.25 37.27 m
0 2.99 l
o
0.00 0.00 595.28 212.60 cl
0.00 0.00 595.28 212.60 cl
/Font1 findfont 8 s
0 0 0 srgb
236.84 34.88 (0) 1 90 t
245.69 34.88 (1) 1 90 t
254.54 34.88 (2) 1 90 t
263.39 34.88 (3) 1 90 t
272.24 34.88 (4) 1 90 t
281.09 34.88 (5) 1 90 t
289.94 34.88 (6) 1 90 t
298.79 34.88 (7) 1 90 t
307.64 34.88 (8) 1 90 t
316.49 34.88 (9) 1 90 t
325.34 34.88 (10) 1 90 t
334.19 34.88 (11) 1 90 t
343.04 34.88 (12) 1 90 t
351.89 34.88 (13) 1 90 t
360.74 34.88 (14) 1 90 t
369.59 34.88 (15) 1 90 t
378.44 34.88 (16) 1 90 t
387.29 34.88 (17) 1 90 t
396.14 34.88 (18) 1 90 t
404.99 34.88 (19) 1 90 t
0.00 0.00 595.28 212.60 cl
0.00 0.00 595.28 212.60 cl
0.00 0.00 595.28 212.60 cl
0.00 0.00 595.28 212.60 cl
0.00 0.00 595.28 212.60 cl
0.00 0.00 595.28 212.60 cl
0.00 0.00 595.28 212.60 cl
0.00 0.00 595.28 212.60 cl
0 0 0 srgb
1.07 setlinewidth
[] 0 setdash
0 setlinecap
1 setlinejoin
10.00 setmiterlimit
np
415.84 37.27 m
0 2.99 l
o
np
424.69 37.27 m
0 2.99 l
o
np
433.54 37.27 m
0 2.99 l
o
np
442.39 37.27 m
0 2.99 l
o
np
451.24 37.27 m
0 2.99 l
o
np
460.09 37.27 m
0 2.99 l
o
np
468.94 37.27 m
0 2.99 l
o
np
477.79 37.27 m
0 2.99 l
o
np
486.64 37.27 m
0 2.99 l
o
np
495.49 37.27 m
0 2.99 l
o
np
504.34 37.27 m
0 2.99 l
o
np
513.19 37.27 m
0 2.99 l
o
np
522.04 37.27 m
0 2.99 l
o
np
530.89 37.27 m
0 2.99 l
o
np
539.74 37.27 m
0 2.99 l
o
np
548.59 37.27 m
0 2.99 l
o
np
557.44 37.27 m
0 2.99 l
o
np
566.29 37.27 m
0 2.99 l
o
np
575.14 37.27 m
0 2.99 l
o
np
583.99 37.27 m
0 2.99 l
o
0.00 0.00 595.28 212.60 cl
0.00 0.00 595.28 212.60 cl
/Font1 findfont 8 s
0 0 0 srgb
421.59 34.88 (0) 1 90 t
430.44 34.88 (1) 1 90 t
439.29 34.88 (2) 1 90 t
448.14 34.88 (3) 1 90 t
456.99 34.88 (4) 1 90 t
465.84 34.88 (5) 1 90 t
474.69 34.88 (6) 1 90 t
483.53 34.88 (7) 1 90 t
492.38 34.88 (8) 1 90 t
501.23 34.88 (9) 1 90 t
510.08 34.88 (10) 1 90 t
518.93 34.88 (11) 1 90 t
527.78 34.88 (12) 1 90 t
536.63 34.88 (13) 1 90 t
545.48 34.88 (14) 1 90 t
554.33 34.88 (15) 1 90 t
563.18 34.88 (16) 1 90 t
572.03 34.88 (17) 1 90 t
580.88 34.88 (18) 1 90 t
589.73 34.88 (19) 1 90 t
0.00 0.00 595.28 212.60 cl
0.00 0.00 595.28 212.60 cl
0.00 0.00 595.28 212.60 cl
0.00 0.00 595.28 212.60 cl
/Font1 findfont 12 s
0 0 0 srgb
315.17 12.58 (motif) .5 0 t
0.00 0.00 595.28 212.60 cl
0.00 0.00 595.28 212.60 cl
/Font1 findfont 12 s
0 0 0 srgb
16.98 111.76 (probability) .5 90 t
0.00 0.00 595.28 212.60 cl
0.00 0.00 595.28 212.60 cl
0.00 0.00 595.28 212.60 cl
0.00 0.00 595.28 212.60 cl
ep
%%Trailer
%%Pages: 1
%%EOF
