%!PS-Adobe-3.0 EPSF-3.0
%%DocumentNeededResources: font Helvetica
%%+ font Helvetica-Bold
%%+ font Helvetica-Oblique
%%+ font Helvetica-BoldOblique
%%+ font Symbol
%%Title: R Graphics Output
%%Creator: R Software
%%Pages: (atend)
%%BoundingBox: 0 0 595 283
%%EndComments
%%BeginProlog
/bp  { gs sRGB gs } def
% begin .ps.prolog
/gs  { gsave } bind def
/gr  { grestore } bind def
/ep  { showpage gr gr } bind def
/m   { moveto } bind def
/l  { rlineto } bind def
/np  { newpath } bind def
/cp  { closepath } bind def
/f   { fill } bind def
/o   { stroke } bind def
/c   { newpath 0 360 arc } bind def
/r   { 4 2 roll moveto 1 copy 3 -1 roll exch 0 exch rlineto 0 rlineto -1 mul 0 exch rlineto closepath } bind def
/p1  { stroke } bind def
/p2  { gsave bg fill grestore newpath } bind def
/p3  { gsave bg fill grestore stroke } bind def
/p6  { gsave bg eofill grestore newpath } bind def
/p7  { gsave bg eofill grestore stroke } bind def
/t   { 5 -2 roll moveto gsave rotate
       1 index stringwidth pop
       mul neg 0 rmoveto show grestore } bind def
/ta  { 4 -2 roll moveto gsave rotate show } bind def
/tb  { 2 -1 roll 0 rmoveto show } bind def
/cl  { grestore gsave newpath 3 index 3 index moveto 1 index
       4 -1 roll lineto  exch 1 index lineto lineto
       closepath clip newpath } bind def
/rgb { setrgbcolor } bind def
/s   { scalefont setfont } bind def
% end   .ps.prolog
/sRGB { [ /CIEBasedABC
          << /DecodeLMN
               [ { dup 0.03928 le
                        {12.92321 div}
                        {0.055 add 1.055 div 2.4 exp }
                     ifelse
                 } bind dup dup
               ]
             /MatrixLMN [0.412457 0.212673 0.019334
                         0.357576 0.715152 0.119192
                         0.180437 0.072175 0.950301]
             /WhitePoint [0.9505 1.0 1.0890]
           >>
         ] setcolorspace } bind def
/srgb { setcolor } bind def
%%IncludeResource: font Helvetica
/Helvetica findfont
dup length dict begin
  {1 index /FID ne {def} {pop pop} ifelse} forall
  /Encoding ISOLatin1Encoding def
  currentdict
  end
/Font1 exch definefont pop
%%IncludeResource: font Helvetica-Bold
/Helvetica-Bold findfont
dup length dict begin
  {1 index /FID ne {def} {pop pop} ifelse} forall
  /Encoding ISOLatin1Encoding def
  currentdict
  end
/Font2 exch definefont pop
%%IncludeResource: font Helvetica-Oblique
/Helvetica-Oblique findfont
dup length dict begin
  {1 index /FID ne {def} {pop pop} ifelse} forall
  /Encoding ISOLatin1Encoding def
  currentdict
  end
/Font3 exch definefont pop
%%IncludeResource: font Helvetica-BoldOblique
/Helvetica-BoldOblique findfont
dup length dict begin
  {1 index /FID ne {def} {pop pop} ifelse} forall
  /Encoding ISOLatin1Encoding def
  currentdict
  end
/Font4 exch definefont pop
%%IncludeResource: font Symbol
/Symbol findfont
dup length dict begin
  {1 index /FID ne {def} {pop pop} ifelse} forall
  currentdict
  end
/Font5 exch definefont pop
%%EndProlog
%%Page: 1 1
bp
0.00 0.00 595.28 283.46 cl
0.00 0.00 595.28 283.46 cl
0.00 0.00 595.28 283.46 cl
0.00 0.00 595.28 283.46 cl
0.00 0.00 595.28 283.46 cl
0.00 0.00 595.28 283.46 cl
0.00 0.00 595.28 283.46 cl
0.00 0.00 595.28 283.46 cl
0.00 0.00 595.28 283.46 cl
0.00 0.00 595.28 283.46 cl
0.00 0.00 595.28 283.46 cl
0.00 0.00 595.28 283.46 cl
0.00 0.00 595.28 283.46 cl
0.00 19.11 595.28 264.35 cl
/bg { 1 1 1 srgb } def
1 1 1 srgb
1.07 setlinewidth
[] 0 setdash
1 setlinecap
1 setlinejoin
10.00 setmiterlimit
0.00 19.11 595.28 245.24 r p3
0.00 0.00 595.28 283.46 cl
41.05 239.24 219.81 258.38 cl
/bg { 1 1 1 srgb } def
0.4980 0.4980 0.4980 srgb
0.43 setlinewidth
[] 0 setdash
1 setlinecap
1 setlinejoin
10.00 setmiterlimit
41.05 239.24 178.77 19.14 r p3
/Font1 findfont 10 s
0.1020 0.1020 0.1020 srgb
116.53 245.22 (fr) 0 ta
-0.100 (ance) tb gr
41.05 239.24 219.81 258.38 cl
0.00 0.00 595.28 283.46 cl
225.79 239.24 404.55 258.38 cl
/bg { 1 1 1 srgb } def
0.4980 0.4980 0.4980 srgb
0.43 setlinewidth
[] 0 setdash
1 setlinecap
1 setlinejoin
10.00 setmiterlimit
225.79 239.24 178.77 19.14 r p3
/Font1 findfont 10 s
0.1020 0.1020 0.1020 srgb
315.17 245.22 (podemos) .5 0 t
225.79 239.24 404.55 258.38 cl
0.00 0.00 595.28 283.46 cl
410.53 239.24 589.30 258.38 cl
/bg { 1 1 1 srgb } def
0.4980 0.4980 0.4980 srgb
0.43 setlinewidth
[] 0 setdash
1 setlinecap
1 setlinejoin
10.00 setmiterlimit
410.53 239.24 178.77 19.14 r p3
/Font1 findfont 10 s
0.1020 0.1020 0.1020 srgb
499.92 245.22 (gameofthrones) .5 0 t
410.53 239.24 589.30 258.38 cl
0.00 0.00 595.28 283.46 cl
41.05 96.23 219.81 239.24 cl
/bg { 1 1 1 srgb } def
41.05 96.23 178.77 143.01 r p2
0.9804 0.9804 0.9804 srgb
1.07 setlinewidth
[] 0 setdash
0 setlinecap
1 setlinejoin
10.00 setmiterlimit
np
41.05 97.72 m
178.76 0 l
o
np
41.05 131.11 m
178.76 0 l
o
np
41.05 164.51 m
178.76 0 l
o
np
41.05 197.90 m
178.76 0 l
o
np
41.05 231.29 m
178.76 0 l
o
0.8980 0.8980 0.8980 srgb
0.43 setlinewidth
[] 0 setdash
np
41.05 114.42 m
178.76 0 l
o
np
41.05 147.81 m
178.76 0 l
o
np
41.05 181.20 m
178.76 0 l
o
np
41.05 214.59 m
178.76 0 l
o
np
52.71 96.23 m
0 143.01 l
o
np
72.14 96.23 m
0 143.01 l
o
np
91.57 96.23 m
0 143.01 l
o
np
111.00 96.23 m
0 143.01 l
o
np
130.43 96.23 m
0 143.01 l
o
np
149.86 96.23 m
0 143.01 l
o
np
169.29 96.23 m
0 143.01 l
o
np
188.72 96.23 m
0 143.01 l
o
np
208.15 96.23 m
0 143.01 l
o
/bg { 0.9725 0.4627 0.4275 srgb } def
52.71 147.49 2.49 c p2
72.14 140.07 2.49 c p2
111.00 108.41 2.49 c p2
/bg { 0.7176 0.6235 0 srgb } def
np
 52.71 192.97 m
3.35 -5.80 l
-6.71 0 l
cp p2
np
 72.14 117.58 m
3.35 -5.81 l
-6.71 0 l
cp p2
np
 91.57 111.57 m
3.35 -5.80 l
-6.70 0 l
cp p2
/bg { 0 0.7294 0.2196 srgb } def
np
 89.08 133.19 m
4.98 0 l
0 4.98 l
-4.98 0 l
cp p2
np
 50.22 131.66 m
4.97 0 l
0 4.97 l
-4.97 0 l
cp p2
np
 69.65 123.47 m
4.97 0 l
0 4.98 l
-4.97 0 l
cp p2
0 0.7490 0.7686 srgb
0.71 setlinewidth
[] 0 setdash
1 setlinecap
np
49.19 142.38 m
7.03 0 l
o
np
52.71 138.86 m
0 7.04 l
o
np
126.91 118.13 m
7.04 0 l
o
np
130.43 114.61 m
0 7.04 l
o
np
88.05 110.13 m
7.04 0 l
o
np
91.57 106.61 m
0 7.04 l
o
0.3804 0.6118 1 srgb
69.65 169.20 4.98 4.98 r p1
np
69.65 169.20 m
4.97 4.98 l
o
np
69.65 174.18 m
4.97 -4.98 l
o
50.22 118.16 4.98 4.98 r p1
np
50.22 118.16 m
4.97 4.98 l
o
np
50.22 123.14 m
4.97 -4.98 l
o
108.51 106.89 4.98 4.98 r p1
np
108.51 106.89 m
4.98 4.97 l
o
np
108.51 111.86 m
4.98 -4.97 l
o
0.9608 0.3922 0.8902 srgb
np
147.37 175.50 m
4.98 4.97 l
o
np
147.37 180.47 m
4.98 -4.97 l
o
np
146.34 177.98 m
7.04 0 l
o
np
149.86 174.47 m
0 7.03 l
o
np
166.80 145.17 m
4.98 4.98 l
o
np
166.80 150.15 m
4.98 -4.98 l
o
np
165.77 147.66 m
7.04 0 l
o
np
169.29 144.14 m
0 7.04 l
o
np
186.23 142.19 m
4.98 4.97 l
o
np
186.23 147.16 m
4.98 -4.97 l
o
np
185.20 144.67 m
7.04 0 l
o
np
188.72 141.16 m
0 7.03 l
o
0.9725 0.4627 0.4275 srgb
0.43 setlinewidth
[] 0 setdash
0 setlinecap
1.00 setmiterlimit
np
52.71 147.49 m
19.43 -7.42 l
38.86 -31.66 l
o
0.7176 0.6235 0 srgb
np
52.71 189.10 m
19.43 -75.39 l
19.43 -6.01 l
o
0 0.7294 0.2196 srgb
np
52.71 134.15 m
19.43 -8.19 l
19.43 9.72 l
o
0 0.7490 0.7686 srgb
np
52.71 142.38 m
38.86 -32.25 l
38.86 8.00 l
o
0.3804 0.6118 1 srgb
np
52.71 120.65 m
19.43 51.04 l
38.86 -62.31 l
o
0.9608 0.3922 0.8902 srgb
np
149.86 177.98 m
19.43 -30.32 l
19.43 -2.99 l
o
0.4980 0.4980 0.4980 srgb
1.07 setlinewidth
[] 0 setdash
1 setlinecap
10.00 setmiterlimit
41.05 96.23 178.77 143.01 r p1
0.00 0.00 595.28 283.46 cl
225.79 96.23 404.55 239.24 cl
/bg { 1 1 1 srgb } def
225.79 96.23 178.77 143.01 r p2
0.9804 0.9804 0.9804 srgb
1.07 setlinewidth
[] 0 setdash
0 setlinecap
1 setlinejoin
10.00 setmiterlimit
np
225.79 97.72 m
178.76 0 l
o
np
225.79 131.11 m
178.76 0 l
o
np
225.79 164.51 m
178.76 0 l
o
np
225.79 197.90 m
178.76 0 l
o
np
225.79 231.29 m
178.76 0 l
o
0.8980 0.8980 0.8980 srgb
0.43 setlinewidth
[] 0 setdash
np
225.79 114.42 m
178.76 0 l
o
np
225.79 147.81 m
178.76 0 l
o
np
225.79 181.20 m
178.76 0 l
o
np
225.79 214.59 m
178.76 0 l
o
np
237.45 96.23 m
0 143.01 l
o
np
256.88 96.23 m
0 143.01 l
o
np
276.31 96.23 m
0 143.01 l
o
np
295.74 96.23 m
0 143.01 l
o
np
315.17 96.23 m
0 143.01 l
o
np
334.60 96.23 m
0 143.01 l
o
np
354.03 96.23 m
0 143.01 l
o
np
373.47 96.23 m
0 143.01 l
o
np
392.90 96.23 m
0 143.01 l
o
/bg { 0.9725 0.4627 0.4275 srgb } def
256.88 232.74 2.49 c p2
295.74 114.79 2.49 c p2
237.45 111.80 2.49 c p2
/bg { 0.7176 0.6235 0 srgb } def
np
 256.88 184.39 m
3.35 -5.80 l
-6.70 0 l
cp p2
np
 237.45 139.58 m
3.35 -5.81 l
-6.70 0 l
cp p2
np
 295.74 122.74 m
3.35 -5.80 l
-6.70 0 l
cp p2
/bg { 0 0.7294 0.2196 srgb } def
np
 234.96 159.51 m
4.98 0 l
0 4.97 l
-4.98 0 l
cp p2
np
 254.39 147.43 m
4.98 0 l
0 4.98 l
-4.98 0 l
cp p2
np
 273.82 104.45 m
4.98 0 l
0 4.98 l
-4.98 0 l
cp p2
0 0.7490 0.7686 srgb
0.71 setlinewidth
[] 0 setdash
1 setlinecap
np
233.93 210.40 m
7.04 0 l
o
np
237.45 206.88 m
0 7.04 l
o
np
253.36 116.54 m
7.04 0 l
o
np
256.88 113.02 m
0 7.04 l
o
np
389.38 114.36 m
7.04 0 l
o
np
392.90 110.85 m
0 7.03 l
o
0.3804 0.6118 1 srgb
234.96 136.67 4.98 4.98 r p1
np
234.96 136.67 m
4.98 4.97 l
o
np
234.96 141.64 m
4.98 -4.97 l
o
273.82 134.68 4.98 4.98 r p1
np
273.82 134.68 m
4.98 4.98 l
o
np
273.82 139.66 m
4.98 -4.98 l
o
254.39 127.97 4.98 4.98 r p1
np
254.39 127.97 m
4.98 4.98 l
o
np
254.39 132.95 m
4.98 -4.98 l
o
0.9725 0.4627 0.4275 srgb
0.43 setlinewidth
[] 0 setdash
0 setlinecap
1.00 setmiterlimit
np
237.45 111.80 m
19.43 120.94 l
38.86 -117.95 l
o
0.7176 0.6235 0 srgb
np
237.45 135.71 m
19.43 44.81 l
38.86 -61.65 l
o
0 0.7294 0.2196 srgb
np
237.45 161.99 m
19.43 -12.07 l
19.43 -42.98 l
o
0 0.7490 0.7686 srgb
np
237.45 210.40 m
19.43 -93.86 l
136.02 -2.18 l
o
0.3804 0.6118 1 srgb
np
237.45 139.16 m
19.43 -8.70 l
19.43 6.71 l
o
0.4980 0.4980 0.4980 srgb
1.07 setlinewidth
[] 0 setdash
1 setlinecap
10.00 setmiterlimit
225.79 96.23 178.77 143.01 r p1
0.00 0.00 595.28 283.46 cl
410.53 96.23 589.30 239.24 cl
/bg { 1 1 1 srgb } def
410.53 96.23 178.77 143.01 r p2
0.9804 0.9804 0.9804 srgb
1.07 setlinewidth
[] 0 setdash
0 setlinecap
1 setlinejoin
10.00 setmiterlimit
np
410.53 97.72 m
178.77 0 l
o
np
410.53 131.11 m
178.77 0 l
o
np
410.53 164.51 m
178.77 0 l
o
np
410.53 197.90 m
178.77 0 l
o
np
410.53 231.29 m
178.77 0 l
o
0.8980 0.8980 0.8980 srgb
0.43 setlinewidth
[] 0 setdash
np
410.53 114.42 m
178.77 0 l
o
np
410.53 147.81 m
178.77 0 l
o
np
410.53 181.20 m
178.77 0 l
o
np
410.53 214.59 m
178.77 0 l
o
np
422.19 96.23 m
0 143.01 l
o
np
441.62 96.23 m
0 143.01 l
o
np
461.05 96.23 m
0 143.01 l
o
np
480.48 96.23 m
0 143.01 l
o
np
499.92 96.23 m
0 143.01 l
o
np
519.35 96.23 m
0 143.01 l
o
np
538.78 96.23 m
0 143.01 l
o
np
558.21 96.23 m
0 143.01 l
o
np
577.64 96.23 m
0 143.01 l
o
/bg { 0.9725 0.4627 0.4275 srgb } def
441.62 197.60 2.49 c p2
422.19 120.67 2.49 c p2
480.48 113.73 2.49 c p2
/bg { 0.7176 0.6235 0 srgb } def
np
 441.62 161.76 m
3.35 -5.80 l
-6.70 0 l
cp p2
np
 422.19 142.48 m
3.35 -5.80 l
-6.70 0 l
cp p2
np
 480.48 109.77 m
3.36 -5.80 l
-6.71 0 l
cp p2
/bg { 0 0.7294 0.2196 srgb } def
np
 419.70 176.40 m
4.98 0 l
0 4.98 l
-4.98 0 l
cp p2
np
 439.13 131.46 m
4.98 0 l
0 4.98 l
-4.98 0 l
cp p2
np
 575.15 100.24 m
4.98 0 l
0 4.98 l
-4.98 0 l
cp p2
0 0.7490 0.7686 srgb
0.71 setlinewidth
[] 0 setdash
1 setlinecap
np
418.67 128.03 m
7.04 0 l
o
np
422.19 124.51 m
0 7.04 l
o
np
438.10 115.53 m
7.04 0 l
o
np
441.62 112.01 m
0 7.04 l
o
np
515.83 112.31 m
7.04 0 l
o
np
519.35 108.79 m
0 7.04 l
o
0.3804 0.6118 1 srgb
439.13 138.03 4.98 4.98 r p1
np
439.13 138.03 m
4.98 4.98 l
o
np
439.13 143.01 m
4.98 -4.98 l
o
458.56 126.04 4.98 4.98 r p1
np
458.56 126.04 m
4.98 4.98 l
o
np
458.56 131.02 m
4.98 -4.98 l
o
419.70 121.00 4.98 4.98 r p1
np
419.70 121.00 m
4.98 4.98 l
o
np
419.70 125.98 m
4.98 -4.98 l
o
0.9725 0.4627 0.4275 srgb
0.43 setlinewidth
[] 0 setdash
0 setlinecap
1.00 setmiterlimit
np
422.19 120.67 m
19.43 76.93 l
38.86 -83.87 l
o
0.7176 0.6235 0 srgb
np
422.19 138.61 m
19.43 19.28 l
38.86 -51.99 l
o
0 0.7294 0.2196 srgb
np
422.19 178.89 m
19.43 -44.94 l
136.02 -31.22 l
o
0 0.7490 0.7686 srgb
np
422.19 128.03 m
19.43 -12.50 l
77.73 -3.22 l
o
0.3804 0.6118 1 srgb
np
422.19 123.49 m
19.43 17.03 l
19.43 -11.99 l
o
0.4980 0.4980 0.4980 srgb
1.07 setlinewidth
[] 0 setdash
1 setlinecap
10.00 setmiterlimit
410.53 96.23 178.77 143.01 r p1
0.00 0.00 595.28 283.46 cl
0.00 0.00 595.28 283.46 cl
0.00 0.00 595.28 283.46 cl
0.00 0.00 595.28 283.46 cl
0.00 0.00 595.28 283.46 cl
0.00 0.00 595.28 283.46 cl
/Font1 findfont 10 s
0 0 0 srgb
35.67 110.83 (0.1) 1 0 t
35.67 144.22 (0.2) 1 0 t
35.67 177.61 (0.3) 1 0 t
35.67 211.00 (0.4) 1 0 t
0.00 0.00 595.28 283.46 cl
0.00 0.00 595.28 283.46 cl
0 0 0 srgb
1.07 setlinewidth
[] 0 setdash
0 setlinecap
1 setlinejoin
10.00 setmiterlimit
np
38.06 114.42 m
2.99 0 l
o
np
38.06 147.81 m
2.99 0 l
o
np
38.06 181.20 m
2.99 0 l
o
np
38.06 214.59 m
2.99 0 l
o
0.00 0.00 595.28 283.46 cl
0.00 0.00 595.28 283.46 cl
0.00 0.00 595.28 283.46 cl
0.00 0.00 595.28 283.46 cl
0.00 0.00 595.28 283.46 cl
0.00 0.00 595.28 283.46 cl
0.00 0.00 595.28 283.46 cl
0.00 0.00 595.28 283.46 cl
0 0 0 srgb
1.07 setlinewidth
[] 0 setdash
0 setlinecap
1 setlinejoin
10.00 setmiterlimit
np
52.71 93.24 m
0 2.99 l
o
np
72.14 93.24 m
0 2.99 l
o
np
91.57 93.24 m
0 2.99 l
o
np
111.00 93.24 m
0 2.99 l
o
np
130.43 93.24 m
0 2.99 l
o
np
149.86 93.24 m
0 2.99 l
o
np
169.29 93.24 m
0 2.99 l
o
np
188.72 93.24 m
0 2.99 l
o
np
208.15 93.24 m
0 2.99 l
o
0.00 0.00 595.28 283.46 cl
0.00 0.00 595.28 283.46 cl
/Font1 findfont 10 s
0 0 0 srgb
52.71 83.67 (0) .5 0 t
72.14 83.67 (1) .5 0 t
91.57 83.67 (2) .5 0 t
111.00 83.67 (3) .5 0 t
130.43 83.67 (4) .5 0 t
149.86 83.67 (6) .5 0 t
169.29 83.67 (7) .5 0 t
188.72 83.67 (8) .5 0 t
208.15 83.67 (16) .5 0 t
0.00 0.00 595.28 283.46 cl
0.00 0.00 595.28 283.46 cl
0.00 0.00 595.28 283.46 cl
0.00 0.00 595.28 283.46 cl
0.00 0.00 595.28 283.46 cl
0.00 0.00 595.28 283.46 cl
0.00 0.00 595.28 283.46 cl
0.00 0.00 595.28 283.46 cl
0 0 0 srgb
1.07 setlinewidth
[] 0 setdash
0 setlinecap
1 setlinejoin
10.00 setmiterlimit
np
237.45 93.24 m
0 2.99 l
o
np
256.88 93.24 m
0 2.99 l
o
np
276.31 93.24 m
0 2.99 l
o
np
295.74 93.24 m
0 2.99 l
o
np
315.17 93.24 m
0 2.99 l
o
np
334.60 93.24 m
0 2.99 l
o
np
354.03 93.24 m
0 2.99 l
o
np
373.47 93.24 m
0 2.99 l
o
np
392.90 93.24 m
0 2.99 l
o
0.00 0.00 595.28 283.46 cl
0.00 0.00 595.28 283.46 cl
/Font1 findfont 10 s
0 0 0 srgb
237.45 83.67 (0) .5 0 t
256.88 83.67 (1) .5 0 t
276.31 83.67 (2) .5 0 t
295.74 83.67 (3) .5 0 t
315.17 83.67 (4) .5 0 t
334.60 83.67 (6) .5 0 t
354.03 83.67 (7) .5 0 t
373.47 83.67 (8) .5 0 t
392.90 83.67 (16) .5 0 t
0.00 0.00 595.28 283.46 cl
0.00 0.00 595.28 283.46 cl
0.00 0.00 595.28 283.46 cl
0.00 0.00 595.28 283.46 cl
0.00 0.00 595.28 283.46 cl
0.00 0.00 595.28 283.46 cl
0.00 0.00 595.28 283.46 cl
0.00 0.00 595.28 283.46 cl
0 0 0 srgb
1.07 setlinewidth
[] 0 setdash
0 setlinecap
1 setlinejoin
10.00 setmiterlimit
np
422.19 93.24 m
0 2.99 l
o
np
441.62 93.24 m
0 2.99 l
o
np
461.05 93.24 m
0 2.99 l
o
np
480.48 93.24 m
0 2.99 l
o
np
499.92 93.24 m
0 2.99 l
o
np
519.35 93.24 m
0 2.99 l
o
np
538.78 93.24 m
0 2.99 l
o
np
558.21 93.24 m
0 2.99 l
o
np
577.64 93.24 m
0 2.99 l
o
0.00 0.00 595.28 283.46 cl
0.00 0.00 595.28 283.46 cl
/Font1 findfont 10 s
0 0 0 srgb
422.19 83.67 (0) .5 0 t
441.62 83.67 (1) .5 0 t
461.05 83.67 (2) .5 0 t
480.48 83.67 (3) .5 0 t
499.92 83.67 (4) .5 0 t
519.35 83.67 (6) .5 0 t
538.78 83.67 (7) .5 0 t
558.21 83.67 (8) .5 0 t
577.64 83.67 (16) .5 0 t
0.00 0.00 595.28 283.46 cl
0.00 0.00 595.28 283.46 cl
0.00 0.00 595.28 283.46 cl
0.00 0.00 595.28 283.46 cl
/Font1 findfont 12 s
0 0 0 srgb
315.17 70.27 (motif) .5 0 t
0.00 0.00 595.28 283.46 cl
0.00 0.00 595.28 283.46 cl
/Font1 findfont 12 s
0 0 0 srgb
16.98 167.74 (probability) .5 90 t
0.00 0.00 595.28 283.46 cl
0.00 0.00 595.28 283.46 cl
0.00 0.00 595.28 283.46 cl
0.00 0.00 595.28 283.46 cl
/bg { 1 1 1 srgb } def
210.69 33.59 208.96 25.78 r p2
0.00 0.00 595.28 283.46 cl
0.00 0.00 595.28 283.46 cl
/Font1 findfont 12 s
0 0 0 srgb
214.94 42.18 (cluster) 0 0 t
0.00 0.00 595.28 283.46 cl
0.00 0.00 595.28 283.46 cl
0.00 0.00 595.28 283.46 cl
0.00 0.00 595.28 283.46 cl
/bg { 0.9725 0.4627 0.4275 srgb } def
263.24 46.48 2.49 c p2
0.00 0.00 595.28 283.46 cl
0.00 0.00 595.28 283.46 cl
0.9725 0.4627 0.4275 srgb
0.43 setlinewidth
[] 0 setdash
0 setlinecap
1 setlinejoin
10.00 setmiterlimit
np
256.33 46.48 m
13.82 0 l
o
0.00 0.00 595.28 283.46 cl
0.00 0.00 595.28 283.46 cl
0.00 0.00 595.28 283.46 cl
0.00 0.00 595.28 283.46 cl
/bg { 0.7176 0.6235 0 srgb } def
np
 290.40 50.35 m
3.35 -5.80 l
-6.70 0 l
cp p2
0.00 0.00 595.28 283.46 cl
0.00 0.00 595.28 283.46 cl
0.7176 0.6235 0 srgb
0.43 setlinewidth
[] 0 setdash
0 setlinecap
1 setlinejoin
10.00 setmiterlimit
np
283.49 46.48 m
13.82 0 l
o
0.00 0.00 595.28 283.46 cl
0.00 0.00 595.28 283.46 cl
0.00 0.00 595.28 283.46 cl
0.00 0.00 595.28 283.46 cl
/bg { 0 0.7294 0.2196 srgb } def
np
 315.07 44.00 m
4.98 0 l
0 4.97 l
-4.98 0 l
cp p2
0.00 0.00 595.28 283.46 cl
0.00 0.00 595.28 283.46 cl
0 0.7294 0.2196 srgb
0.43 setlinewidth
[] 0 setdash
0 setlinecap
1 setlinejoin
10.00 setmiterlimit
np
310.65 46.48 m
13.82 0 l
o
0.00 0.00 595.28 283.46 cl
0.00 0.00 595.28 283.46 cl
0.00 0.00 595.28 283.46 cl
0.00 0.00 595.28 283.46 cl
0 0.7490 0.7686 srgb
0.71 setlinewidth
[] 0 setdash
1 setlinecap
1 setlinejoin
10.00 setmiterlimit
np
341.20 46.48 m
7.04 0 l
o
np
344.72 42.97 m
0 7.03 l
o
0.00 0.00 595.28 283.46 cl
0.00 0.00 595.28 283.46 cl
0 0.7490 0.7686 srgb
0.43 setlinewidth
[] 0 setdash
0 setlinecap
1 setlinejoin
10.00 setmiterlimit
np
337.81 46.48 m
13.82 0 l
o
0.00 0.00 595.28 283.46 cl
0.00 0.00 595.28 283.46 cl
0.00 0.00 595.28 283.46 cl
0.00 0.00 595.28 283.46 cl
0.3804 0.6118 1 srgb
0.71 setlinewidth
[] 0 setdash
1 setlinecap
1 setlinejoin
10.00 setmiterlimit
369.39 44.00 4.98 4.98 r p1
np
369.39 44.00 m
4.98 4.97 l
o
np
369.39 48.97 m
4.98 -4.97 l
o
0.00 0.00 595.28 283.46 cl
0.00 0.00 595.28 283.46 cl
0.3804 0.6118 1 srgb
0.43 setlinewidth
[] 0 setdash
0 setlinecap
1 setlinejoin
10.00 setmiterlimit
np
364.97 46.48 m
13.82 0 l
o
0.00 0.00 595.28 283.46 cl
0.00 0.00 595.28 283.46 cl
0.00 0.00 595.28 283.46 cl
0.00 0.00 595.28 283.46 cl
0.9608 0.3922 0.8902 srgb
0.71 setlinewidth
[] 0 setdash
1 setlinecap
1 setlinejoin
10.00 setmiterlimit
np
396.55 44.00 m
4.98 4.97 l
o
np
396.55 48.97 m
4.98 -4.97 l
o
np
395.52 46.48 m
7.04 0 l
o
np
399.04 42.97 m
0 7.03 l
o
0.00 0.00 595.28 283.46 cl
0.00 0.00 595.28 283.46 cl
0.9608 0.3922 0.8902 srgb
0.43 setlinewidth
[] 0 setdash
0 setlinecap
1 setlinejoin
10.00 setmiterlimit
np
392.13 46.48 m
13.82 0 l
o
0.00 0.00 595.28 283.46 cl
0.00 0.00 595.28 283.46 cl
/Font1 findfont 10 s
0 0 0 srgb
274.04 42.89 (1) 0 0 t
0.00 0.00 595.28 283.46 cl
0.00 0.00 595.28 283.46 cl
/Font1 findfont 10 s
0 0 0 srgb
301.20 42.89 (2) 0 0 t
0.00 0.00 595.28 283.46 cl
0.00 0.00 595.28 283.46 cl
/Font1 findfont 10 s
0 0 0 srgb
328.36 42.89 (3) 0 0 t
0.00 0.00 595.28 283.46 cl
0.00 0.00 595.28 283.46 cl
/Font1 findfont 10 s
0 0 0 srgb
355.52 42.89 (4) 0 0 t
0.00 0.00 595.28 283.46 cl
0.00 0.00 595.28 283.46 cl
/Font1 findfont 10 s
0 0 0 srgb
382.68 42.89 (5) 0 0 t
0.00 0.00 595.28 283.46 cl
0.00 0.00 595.28 283.46 cl
/Font1 findfont 10 s
0 0 0 srgb
409.84 42.89 (6) 0 0 t
0.00 0.00 595.28 283.46 cl
0.00 0.00 595.28 283.46 cl
0.00 0.00 595.28 283.46 cl
0.00 0.00 595.28 283.46 cl
0.00 0.00 595.28 283.46 cl
0.00 0.00 595.28 283.46 cl
ep
%%Trailer
%%Pages: 1
%%EOF
