%!PS-Adobe-3.0 EPSF-3.0
%%DocumentNeededResources: font Helvetica
%%+ font Helvetica-Bold
%%+ font Helvetica-Oblique
%%+ font Helvetica-BoldOblique
%%+ font Symbol
%%Title: R Graphics Output
%%Creator: R Software
%%Pages: (atend)
%%BoundingBox: 0 0 432 432
%%EndComments
%%BeginProlog
/bp  { gs sRGB gs } def
% begin .ps.prolog
/gs  { gsave } bind def
/gr  { grestore } bind def
/ep  { showpage gr gr } bind def
/m   { moveto } bind def
/l  { rlineto } bind def
/np  { newpath } bind def
/cp  { closepath } bind def
/f   { fill } bind def
/o   { stroke } bind def
/c   { newpath 0 360 arc } bind def
/r   { 4 2 roll moveto 1 copy 3 -1 roll exch 0 exch rlineto 0 rlineto -1 mul 0 exch rlineto closepath } bind def
/p1  { stroke } bind def
/p2  { gsave bg fill grestore newpath } bind def
/p3  { gsave bg fill grestore stroke } bind def
/p6  { gsave bg eofill grestore newpath } bind def
/p7  { gsave bg eofill grestore stroke } bind def
/t   { 5 -2 roll moveto gsave rotate
       1 index stringwidth pop
       mul neg 0 rmoveto show grestore } bind def
/ta  { 4 -2 roll moveto gsave rotate show } bind def
/tb  { 2 -1 roll 0 rmoveto show } bind def
/cl  { grestore gsave newpath 3 index 3 index moveto 1 index
       4 -1 roll lineto  exch 1 index lineto lineto
       closepath clip newpath } bind def
/rgb { setrgbcolor } bind def
/s   { scalefont setfont } bind def
% end   .ps.prolog
/sRGB { [ /CIEBasedABC
          << /DecodeLMN
               [ { dup 0.03928 le
                        {12.92321 div}
                        {0.055 add 1.055 div 2.4 exp }
                     ifelse
                 } bind dup dup
               ]
             /MatrixLMN [0.412457 0.212673 0.019334
                         0.357576 0.715152 0.119192
                         0.180437 0.072175 0.950301]
             /WhitePoint [0.9505 1.0 1.0890]
           >>
         ] setcolorspace } bind def
/srgb { setcolor } bind def
%%IncludeResource: font Helvetica
/Helvetica findfont
dup length dict begin
  {1 index /FID ne {def} {pop pop} ifelse} forall
  /Encoding ISOLatin1Encoding def
  currentdict
  end
/Font1 exch definefont pop
%%IncludeResource: font Helvetica-Bold
/Helvetica-Bold findfont
dup length dict begin
  {1 index /FID ne {def} {pop pop} ifelse} forall
  /Encoding ISOLatin1Encoding def
  currentdict
  end
/Font2 exch definefont pop
%%IncludeResource: font Helvetica-Oblique
/Helvetica-Oblique findfont
dup length dict begin
  {1 index /FID ne {def} {pop pop} ifelse} forall
  /Encoding ISOLatin1Encoding def
  currentdict
  end
/Font3 exch definefont pop
%%IncludeResource: font Helvetica-BoldOblique
/Helvetica-BoldOblique findfont
dup length dict begin
  {1 index /FID ne {def} {pop pop} ifelse} forall
  /Encoding ISOLatin1Encoding def
  currentdict
  end
/Font4 exch definefont pop
%%IncludeResource: font Symbol
/Symbol findfont
dup length dict begin
  {1 index /FID ne {def} {pop pop} ifelse} forall
  currentdict
  end
/Font5 exch definefont pop
%%EndProlog
%%Page: 1 1
bp
0.00 0.00 432.00 432.00 cl
59.04 73.44 401.76 372.96 cl
0.6627 0.6627 0.6627 srgb
0.75 setlinewidth
[] 0 setdash
1 setlinecap
1 setlinejoin
10.00 setmiterlimit
np
230.40 315.64 m
0 -0.21 l
0 -1.24 l
0 -2.38 l
0 -2.86 l
0 -2.69 l
0 -2.28 l
0 -1.94 l
0 -1.78 l
0 -0.02 l
0 -1.79 l
0 -1.93 l
0 -2.28 l
0 -2.68 l
0 -2.86 l
0 -2.39 l
0 -1.25 l
0 -0.23 l
0 0 l
o
np
211.17 248.90 m
-0.11 -0.08 l
-0.71 -0.47 l
-1.68 -1.12 l
-2.72 -1.81 l
-3.58 -2.39 l
-4.06 -2.71 l
-4.16 -2.77 l
-3.97 -2.65 l
-3.65 -2.43 l
-3.30 -2.19 l
-2.98 -1.99 l
-2.74 -1.83 l
-2.61 -1.74 l
-2.28 -1.52 l
-2.55 -1.70 l
-2.62 -1.75 l
-2.76 -1.84 l
-3.01 -2.01 l
-3.34 -2.22 l
-3.68 -2.46 l
-4.00 -2.66 l
-4.17 -2.78 l
-4.02 -2.68 l
-3.51 -2.34 l
-2.62 -1.75 l
-1.56 -1.04 l
-0.63 -0.41 l
-0.08 -0.06 l
o
np
249.63 248.90 m
0.11 -0.08 l
0.71 -0.47 l
1.68 -1.12 l
2.72 -1.81 l
3.58 -2.39 l
4.06 -2.71 l
4.16 -2.77 l
3.97 -2.65 l
3.65 -2.43 l
3.30 -2.19 l
2.98 -1.99 l
2.74 -1.83 l
2.61 -1.74 l
2.28 -1.52 l
2.55 -1.70 l
2.62 -1.75 l
2.76 -1.84 l
3.01 -2.01 l
3.34 -2.22 l
3.68 -2.46 l
4.00 -2.66 l
4.17 -2.78 l
4.02 -2.68 l
3.51 -2.34 l
2.62 -1.75 l
1.56 -1.04 l
0.63 -0.41 l
0.08 -0.06 l
o
np
345.96 161.57 m
0 -0.22 l
0 -1.24 l
0 -2.38 l
0 -2.86 l
0 -2.68 l
0 -2.28 l
0 -1.94 l
0 -1.79 l
0 -0.02 l
0 -1.78 l
0 -1.94 l
0 -2.27 l
0 -2.68 l
0 -2.86 l
0 -2.39 l
0 -1.26 l
0 -0.22 l
0 0 l
o
/bg { 1 1 1 srgb } def
0 0 0 srgb
230.40 338.76 23.11 c p3
/bg { 0 0 0 srgb } def
230.40 261.72 23.11 c p3
114.84 184.68 23.11 c p3
/bg { 1 0 0 srgb } def
345.96 184.68 23.11 c p3
/bg { 0 0 0 srgb } def
345.96 107.64 23.11 c p3
0.00 0.00 432.00 432.00 cl
ep
%%Trailer
%%Pages: 1
%%EOF
