%!PS-Adobe-3.0 EPSF-3.0
%%DocumentNeededResources: font Helvetica
%%+ font Helvetica-Bold
%%+ font Helvetica-Oblique
%%+ font Helvetica-BoldOblique
%%+ font Symbol
%%Title: R Graphics Output
%%Creator: R Software
%%Pages: (atend)
%%BoundingBox: 0 0 595 283
%%EndComments
%%BeginProlog
/bp  { gs sRGB gs } def
% begin .ps.prolog
/gs  { gsave } bind def
/gr  { grestore } bind def
/ep  { showpage gr gr } bind def
/m   { moveto } bind def
/l  { rlineto } bind def
/np  { newpath } bind def
/cp  { closepath } bind def
/f   { fill } bind def
/o   { stroke } bind def
/c   { newpath 0 360 arc } bind def
/r   { 4 2 roll moveto 1 copy 3 -1 roll exch 0 exch rlineto 0 rlineto -1 mul 0 exch rlineto closepath } bind def
/p1  { stroke } bind def
/p2  { gsave bg fill grestore newpath } bind def
/p3  { gsave bg fill grestore stroke } bind def
/p6  { gsave bg eofill grestore newpath } bind def
/p7  { gsave bg eofill grestore stroke } bind def
/t   { 5 -2 roll moveto gsave rotate
       1 index stringwidth pop
       mul neg 0 rmoveto show grestore } bind def
/ta  { 4 -2 roll moveto gsave rotate show } bind def
/tb  { 2 -1 roll 0 rmoveto show } bind def
/cl  { grestore gsave newpath 3 index 3 index moveto 1 index
       4 -1 roll lineto  exch 1 index lineto lineto
       closepath clip newpath } bind def
/rgb { setrgbcolor } bind def
/s   { scalefont setfont } bind def
% end   .ps.prolog
/sRGB { [ /CIEBasedABC
          << /DecodeLMN
               [ { dup 0.03928 le
                        {12.92321 div}
                        {0.055 add 1.055 div 2.4 exp }
                     ifelse
                 } bind dup dup
               ]
             /MatrixLMN [0.412457 0.212673 0.019334
                         0.357576 0.715152 0.119192
                         0.180437 0.072175 0.950301]
             /WhitePoint [0.9505 1.0 1.0890]
           >>
         ] setcolorspace } bind def
/srgb { setcolor } bind def
%%IncludeResource: font Helvetica
/Helvetica findfont
dup length dict begin
  {1 index /FID ne {def} {pop pop} ifelse} forall
  /Encoding ISOLatin1Encoding def
  currentdict
  end
/Font1 exch definefont pop
%%IncludeResource: font Helvetica-Bold
/Helvetica-Bold findfont
dup length dict begin
  {1 index /FID ne {def} {pop pop} ifelse} forall
  /Encoding ISOLatin1Encoding def
  currentdict
  end
/Font2 exch definefont pop
%%IncludeResource: font Helvetica-Oblique
/Helvetica-Oblique findfont
dup length dict begin
  {1 index /FID ne {def} {pop pop} ifelse} forall
  /Encoding ISOLatin1Encoding def
  currentdict
  end
/Font3 exch definefont pop
%%IncludeResource: font Helvetica-BoldOblique
/Helvetica-BoldOblique findfont
dup length dict begin
  {1 index /FID ne {def} {pop pop} ifelse} forall
  /Encoding ISOLatin1Encoding def
  currentdict
  end
/Font4 exch definefont pop
%%IncludeResource: font Symbol
/Symbol findfont
dup length dict begin
  {1 index /FID ne {def} {pop pop} ifelse} forall
  currentdict
  end
/Font5 exch definefont pop
%%EndProlog
%%Page: 1 1
bp
0.00 0.00 595.28 283.46 cl
0.00 0.00 595.28 283.46 cl
0.00 0.00 595.28 283.46 cl
0.00 0.00 595.28 283.46 cl
0.00 0.00 595.28 283.46 cl
0.00 0.00 595.28 283.46 cl
0.00 0.00 595.28 283.46 cl
0.00 0.00 595.28 283.46 cl
0.00 0.00 595.28 283.46 cl
0.00 0.00 595.28 283.46 cl
0.00 0.00 595.28 283.46 cl
0.00 0.00 595.28 283.46 cl
0.00 0.00 595.28 283.46 cl
0.00 19.11 595.28 264.35 cl
/bg { 1 1 1 srgb } def
1 1 1 srgb
1.07 setlinewidth
[] 0 setdash
1 setlinecap
1 setlinejoin
10.00 setmiterlimit
0.00 19.11 595.28 245.24 r p3
0.00 0.00 595.28 283.46 cl
41.05 239.24 219.81 258.38 cl
/bg { 1 1 1 srgb } def
0.4980 0.4980 0.4980 srgb
0.43 setlinewidth
[] 0 setdash
1 setlinecap
1 setlinejoin
10.00 setmiterlimit
41.05 239.24 178.77 19.14 r p3
/Font1 findfont 10 s
0.1020 0.1020 0.1020 srgb
116.53 245.22 (fr) 0 ta
-0.100 (ance) tb gr
41.05 239.24 219.81 258.38 cl
0.00 0.00 595.28 283.46 cl
225.79 239.24 404.55 258.38 cl
/bg { 1 1 1 srgb } def
0.4980 0.4980 0.4980 srgb
0.43 setlinewidth
[] 0 setdash
1 setlinecap
1 setlinejoin
10.00 setmiterlimit
225.79 239.24 178.77 19.14 r p3
/Font1 findfont 10 s
0.1020 0.1020 0.1020 srgb
315.17 245.22 (podemos) .5 0 t
225.79 239.24 404.55 258.38 cl
0.00 0.00 595.28 283.46 cl
410.53 239.24 589.30 258.38 cl
/bg { 1 1 1 srgb } def
0.4980 0.4980 0.4980 srgb
0.43 setlinewidth
[] 0 setdash
1 setlinecap
1 setlinejoin
10.00 setmiterlimit
410.53 239.24 178.77 19.14 r p3
/Font1 findfont 10 s
0.1020 0.1020 0.1020 srgb
499.92 245.22 (gameofthrones) .5 0 t
410.53 239.24 589.30 258.38 cl
0.00 0.00 595.28 283.46 cl
41.05 96.23 219.81 239.24 cl
/bg { 1 1 1 srgb } def
41.05 96.23 178.77 143.01 r p2
0.9804 0.9804 0.9804 srgb
1.07 setlinewidth
[] 0 setdash
0 setlinecap
1 setlinejoin
10.00 setmiterlimit
np
41.05 119.89 m
178.76 0 l
o
np
41.05 150.30 m
178.76 0 l
o
np
41.05 180.70 m
178.76 0 l
o
np
41.05 211.11 m
178.76 0 l
o
0.8980 0.8980 0.8980 srgb
0.43 setlinewidth
[] 0 setdash
np
41.05 104.69 m
178.76 0 l
o
np
41.05 135.10 m
178.76 0 l
o
np
41.05 165.50 m
178.76 0 l
o
np
41.05 195.91 m
178.76 0 l
o
np
41.05 226.31 m
178.76 0 l
o
np
55.94 96.23 m
0 143.01 l
o
np
80.77 96.23 m
0 143.01 l
o
np
105.60 96.23 m
0 143.01 l
o
np
130.43 96.23 m
0 143.01 l
o
np
155.26 96.23 m
0 143.01 l
o
np
180.09 96.23 m
0 143.01 l
o
np
204.91 96.23 m
0 143.01 l
o
/bg { 0.9725 0.4627 0.4275 srgb } def
80.77 193.24 2.49 c p2
105.60 165.74 2.49 c p2
130.43 102.73 2.49 c p2
/bg { 0.7686 0.6039 0 srgb } def
np
 105.60 201.70 m
3.35 -5.81 l
-6.70 0 l
cp p2
np
 80.77 169.02 m
3.35 -5.81 l
-6.70 0 l
cp p2
np
 180.09 109.52 m
3.35 -5.80 l
-6.70 0 l
cp p2
/bg { 0.3255 0.7059 0 srgb } def
np
 78.28 147.96 m
4.98 0 l
0 4.97 l
-4.98 0 l
cp p2
np
 103.11 140.87 m
4.98 0 l
0 4.97 l
-4.98 0 l
cp p2
np
 127.94 136.53 m
4.98 0 l
0 4.98 l
-4.98 0 l
cp p2
0 0.7529 0.5804 srgb
0.71 setlinewidth
[] 0 setdash
1 setlinecap
np
201.40 157.09 m
7.03 0 l
o
np
204.91 153.58 m
0 7.03 l
o
np
52.42 120.97 m
7.04 0 l
o
np
55.94 117.45 m
0 7.03 l
o
np
77.25 115.06 m
7.04 0 l
o
np
80.77 111.54 m
0 7.04 l
o
0.9725 0.4627 0.4275 srgb
0.43 setlinewidth
[] 0 setdash
0 setlinecap
1.00 setmiterlimit
np
80.77 193.24 m
24.83 -27.50 l
24.83 -63.01 l
o
0.7686 0.6039 0 srgb
np
80.77 165.15 m
24.83 32.68 l
74.49 -92.18 l
o
0.3255 0.7059 0 srgb
np
80.77 150.44 m
24.83 -7.09 l
24.83 -4.33 l
o
0 0.7529 0.5804 srgb
np
55.94 120.97 m
24.83 -5.91 l
124.14 42.03 l
o
0.4980 0.4980 0.4980 srgb
1.07 setlinewidth
[] 0 setdash
1 setlinecap
10.00 setmiterlimit
41.05 96.23 178.77 143.01 r p1
0.00 0.00 595.28 283.46 cl
225.79 96.23 404.55 239.24 cl
/bg { 1 1 1 srgb } def
225.79 96.23 178.77 143.01 r p2
0.9804 0.9804 0.9804 srgb
1.07 setlinewidth
[] 0 setdash
0 setlinecap
1 setlinejoin
10.00 setmiterlimit
np
225.79 119.89 m
178.76 0 l
o
np
225.79 150.30 m
178.76 0 l
o
np
225.79 180.70 m
178.76 0 l
o
np
225.79 211.11 m
178.76 0 l
o
0.8980 0.8980 0.8980 srgb
0.43 setlinewidth
[] 0 setdash
np
225.79 104.69 m
178.76 0 l
o
np
225.79 135.10 m
178.76 0 l
o
np
225.79 165.50 m
178.76 0 l
o
np
225.79 195.91 m
178.76 0 l
o
np
225.79 226.31 m
178.76 0 l
o
np
240.69 96.23 m
0 143.01 l
o
np
265.52 96.23 m
0 143.01 l
o
np
290.34 96.23 m
0 143.01 l
o
np
315.17 96.23 m
0 143.01 l
o
np
340.00 96.23 m
0 143.01 l
o
np
364.83 96.23 m
0 143.01 l
o
np
389.66 96.23 m
0 143.01 l
o
/bg { 0.9725 0.4627 0.4275 srgb } def
265.52 175.75 2.49 c p2
290.34 143.72 2.49 c p2
315.17 136.21 2.49 c p2
/bg { 0.7686 0.6039 0 srgb } def
np
 315.17 236.61 m
3.35 -5.80 l
-6.70 0 l
cp p2
np
 340.00 128.89 m
3.35 -5.80 l
-6.70 0 l
cp p2
np
 265.52 114.57 m
3.35 -5.80 l
-6.71 0 l
cp p2
/bg { 0.3255 0.7059 0 srgb } def
np
 287.86 185.83 m
4.97 0 l
0 4.98 l
-4.97 0 l
cp p2
np
 263.03 150.64 m
4.97 0 l
0 4.98 l
-4.97 0 l
cp p2
np
 312.68 105.48 m
4.98 0 l
0 4.98 l
-4.98 0 l
cp p2
0 0.7529 0.5804 srgb
0.71 setlinewidth
[] 0 setdash
1 setlinecap
np
311.65 176.72 m
7.04 0 l
o
np
315.17 173.21 m
0 7.03 l
o
np
262.00 142.09 m
7.03 0 l
o
np
265.52 138.57 m
0 7.04 l
o
np
286.82 125.19 m
7.04 0 l
o
np
290.34 121.67 m
0 7.04 l
o
0 0.7137 0.9216 srgb
287.86 148.69 4.98 4.98 r p1
np
287.86 148.69 m
4.97 4.98 l
o
np
287.86 153.67 m
4.97 -4.98 l
o
312.68 143.02 4.98 4.98 r p1
np
312.68 143.02 m
4.98 4.98 l
o
np
312.68 148.00 m
4.98 -4.98 l
o
263.03 126.71 4.98 4.98 r p1
np
263.03 126.71 m
4.97 4.97 l
o
np
263.03 131.68 m
4.97 -4.97 l
o
0.6471 0.5412 1 srgb
np
387.17 183.76 m
4.98 4.98 l
o
np
387.17 188.74 m
4.98 -4.98 l
o
np
386.14 186.25 m
7.04 0 l
o
np
389.66 182.73 m
0 7.04 l
o
np
238.20 134.29 m
4.97 4.98 l
o
np
238.20 139.27 m
4.97 -4.98 l
o
np
237.17 136.78 m
7.04 0 l
o
np
240.69 133.26 m
0 7.04 l
o
np
312.68 112.18 m
4.98 4.97 l
o
np
312.68 117.15 m
4.98 -4.97 l
o
np
311.65 114.66 m
7.04 0 l
o
np
315.17 111.14 m
0 7.04 l
o
0.9725 0.4627 0.4275 srgb
0.43 setlinewidth
[] 0 setdash
0 setlinecap
1.00 setmiterlimit
np
265.52 175.75 m
24.82 -32.03 l
24.83 -7.51 l
o
0.7686 0.6039 0 srgb
np
265.52 110.70 m
49.65 122.04 l
24.83 -107.72 l
o
0.3255 0.7059 0 srgb
np
265.52 153.13 m
24.82 35.19 l
24.83 -80.35 l
o
0 0.7529 0.5804 srgb
np
265.52 142.09 m
24.82 -16.90 l
24.83 51.53 l
o
0 0.7137 0.9216 srgb
np
265.52 129.19 m
24.82 21.99 l
24.83 -5.67 l
o
0.6471 0.5412 1 srgb
np
240.69 136.78 m
74.48 -22.12 l
74.49 71.59 l
o
0.9843 0.3804 0.8431 srgb
np
240.69 134.60 m
24.83 -9.55 l
49.65 -0.20 l
o
0.4980 0.4980 0.4980 srgb
1.07 setlinewidth
[] 0 setdash
1 setlinecap
10.00 setmiterlimit
225.79 96.23 178.77 143.01 r p1
0.00 0.00 595.28 283.46 cl
410.53 96.23 589.30 239.24 cl
/bg { 1 1 1 srgb } def
410.53 96.23 178.77 143.01 r p2
0.9804 0.9804 0.9804 srgb
1.07 setlinewidth
[] 0 setdash
0 setlinecap
1 setlinejoin
10.00 setmiterlimit
np
410.53 119.89 m
178.77 0 l
o
np
410.53 150.30 m
178.77 0 l
o
np
410.53 180.70 m
178.77 0 l
o
np
410.53 211.11 m
178.77 0 l
o
0.8980 0.8980 0.8980 srgb
0.43 setlinewidth
[] 0 setdash
np
410.53 104.69 m
178.77 0 l
o
np
410.53 135.10 m
178.77 0 l
o
np
410.53 165.50 m
178.77 0 l
o
np
410.53 195.91 m
178.77 0 l
o
np
410.53 226.31 m
178.77 0 l
o
np
425.43 96.23 m
0 143.01 l
o
np
450.26 96.23 m
0 143.01 l
o
np
475.09 96.23 m
0 143.01 l
o
np
499.92 96.23 m
0 143.01 l
o
np
524.74 96.23 m
0 143.01 l
o
np
549.57 96.23 m
0 143.01 l
o
np
574.40 96.23 m
0 143.01 l
o
/bg { 0.9725 0.4627 0.4275 srgb } def
450.26 209.90 2.49 c p2
475.09 157.67 2.49 c p2
549.57 104.34 2.49 c p2
/bg { 0.7686 0.6039 0 srgb } def
np
 499.92 187.00 m
3.35 -5.80 l
-6.71 0 l
cp p2
np
 450.26 146.14 m
3.35 -5.80 l
-6.70 0 l
cp p2
np
 475.09 121.55 m
3.35 -5.80 l
-6.70 0 l
cp p2
/bg { 0.3255 0.7059 0 srgb } def
np
 447.77 157.86 m
4.98 0 l
0 4.97 l
-4.98 0 l
cp p2
np
 472.60 144.01 m
4.98 0 l
0 4.98 l
-4.98 0 l
cp p2
np
 497.43 134.99 m
4.97 0 l
0 4.98 l
-4.97 0 l
cp p2
0.9725 0.4627 0.4275 srgb
1.00 setmiterlimit
np
450.26 209.90 m
24.83 -52.23 l
74.48 -53.33 l
o
0.7686 0.6039 0 srgb
np
450.26 142.27 m
24.83 -24.59 l
24.83 65.45 l
o
0.3255 0.7059 0 srgb
np
450.26 160.34 m
24.83 -13.84 l
24.83 -9.02 l
o
0.4980 0.4980 0.4980 srgb
1.07 setlinewidth
[] 0 setdash
1 setlinecap
10.00 setmiterlimit
410.53 96.23 178.77 143.01 r p1
0.00 0.00 595.28 283.46 cl
0.00 0.00 595.28 283.46 cl
0.00 0.00 595.28 283.46 cl
0.00 0.00 595.28 283.46 cl
0.00 0.00 595.28 283.46 cl
0.00 0.00 595.28 283.46 cl
/Font1 findfont 10 s
0 0 0 srgb
35.67 101.10 (0.1) 1 0 t
35.67 131.51 (0.2) 1 0 t
35.67 161.91 (0.3) 1 0 t
35.67 192.32 (0.4) 1 0 t
35.67 222.72 (0.5) 1 0 t
0.00 0.00 595.28 283.46 cl
0.00 0.00 595.28 283.46 cl
0 0 0 srgb
1.07 setlinewidth
[] 0 setdash
0 setlinecap
1 setlinejoin
10.00 setmiterlimit
np
38.06 104.69 m
2.99 0 l
o
np
38.06 135.10 m
2.99 0 l
o
np
38.06 165.50 m
2.99 0 l
o
np
38.06 195.91 m
2.99 0 l
o
np
38.06 226.31 m
2.99 0 l
o
0.00 0.00 595.28 283.46 cl
0.00 0.00 595.28 283.46 cl
0.00 0.00 595.28 283.46 cl
0.00 0.00 595.28 283.46 cl
0.00 0.00 595.28 283.46 cl
0.00 0.00 595.28 283.46 cl
0.00 0.00 595.28 283.46 cl
0.00 0.00 595.28 283.46 cl
0 0 0 srgb
1.07 setlinewidth
[] 0 setdash
0 setlinecap
1 setlinejoin
10.00 setmiterlimit
np
55.94 93.24 m
0 2.99 l
o
np
80.77 93.24 m
0 2.99 l
o
np
105.60 93.24 m
0 2.99 l
o
np
130.43 93.24 m
0 2.99 l
o
np
155.26 93.24 m
0 2.99 l
o
np
180.09 93.24 m
0 2.99 l
o
np
204.91 93.24 m
0 2.99 l
o
0.00 0.00 595.28 283.46 cl
0.00 0.00 595.28 283.46 cl
/Font1 findfont 10 s
0 0 0 srgb
55.94 83.67 (0) .5 0 t
80.77 83.67 (1) .5 0 t
105.60 83.67 (2) .5 0 t
130.43 83.67 (3) .5 0 t
155.26 83.67 (4) .5 0 t
180.09 83.67 (5) .5 0 t
204.91 83.67 (7) .5 0 t
0.00 0.00 595.28 283.46 cl
0.00 0.00 595.28 283.46 cl
0.00 0.00 595.28 283.46 cl
0.00 0.00 595.28 283.46 cl
0.00 0.00 595.28 283.46 cl
0.00 0.00 595.28 283.46 cl
0.00 0.00 595.28 283.46 cl
0.00 0.00 595.28 283.46 cl
0 0 0 srgb
1.07 setlinewidth
[] 0 setdash
0 setlinecap
1 setlinejoin
10.00 setmiterlimit
np
240.69 93.24 m
0 2.99 l
o
np
265.52 93.24 m
0 2.99 l
o
np
290.34 93.24 m
0 2.99 l
o
np
315.17 93.24 m
0 2.99 l
o
np
340.00 93.24 m
0 2.99 l
o
np
364.83 93.24 m
0 2.99 l
o
np
389.66 93.24 m
0 2.99 l
o
0.00 0.00 595.28 283.46 cl
0.00 0.00 595.28 283.46 cl
/Font1 findfont 10 s
0 0 0 srgb
240.69 83.67 (0) .5 0 t
265.52 83.67 (1) .5 0 t
290.34 83.67 (2) .5 0 t
315.17 83.67 (3) .5 0 t
340.00 83.67 (4) .5 0 t
364.83 83.67 (5) .5 0 t
389.66 83.67 (7) .5 0 t
0.00 0.00 595.28 283.46 cl
0.00 0.00 595.28 283.46 cl
0.00 0.00 595.28 283.46 cl
0.00 0.00 595.28 283.46 cl
0.00 0.00 595.28 283.46 cl
0.00 0.00 595.28 283.46 cl
0.00 0.00 595.28 283.46 cl
0.00 0.00 595.28 283.46 cl
0 0 0 srgb
1.07 setlinewidth
[] 0 setdash
0 setlinecap
1 setlinejoin
10.00 setmiterlimit
np
425.43 93.24 m
0 2.99 l
o
np
450.26 93.24 m
0 2.99 l
o
np
475.09 93.24 m
0 2.99 l
o
np
499.92 93.24 m
0 2.99 l
o
np
524.74 93.24 m
0 2.99 l
o
np
549.57 93.24 m
0 2.99 l
o
np
574.40 93.24 m
0 2.99 l
o
0.00 0.00 595.28 283.46 cl
0.00 0.00 595.28 283.46 cl
/Font1 findfont 10 s
0 0 0 srgb
425.43 83.67 (0) .5 0 t
450.26 83.67 (1) .5 0 t
475.09 83.67 (2) .5 0 t
499.92 83.67 (3) .5 0 t
524.74 83.67 (4) .5 0 t
549.57 83.67 (5) .5 0 t
574.40 83.67 (7) .5 0 t
0.00 0.00 595.28 283.46 cl
0.00 0.00 595.28 283.46 cl
0.00 0.00 595.28 283.46 cl
0.00 0.00 595.28 283.46 cl
/Font1 findfont 12 s
0 0 0 srgb
315.17 70.27 (motif) .5 0 t
0.00 0.00 595.28 283.46 cl
0.00 0.00 595.28 283.46 cl
/Font1 findfont 12 s
0 0 0 srgb
16.98 167.74 (probability) .5 90 t
0.00 0.00 595.28 283.46 cl
0.00 0.00 595.28 283.46 cl
0.00 0.00 595.28 283.46 cl
0.00 0.00 595.28 283.46 cl
/bg { 1 1 1 srgb } def
197.11 33.59 236.12 25.78 r p2
0.00 0.00 595.28 283.46 cl
0.00 0.00 595.28 283.46 cl
/Font1 findfont 12 s
0 0 0 srgb
201.36 42.18 (cluster) 0 0 t
0.00 0.00 595.28 283.46 cl
0.00 0.00 595.28 283.46 cl
0.00 0.00 595.28 283.46 cl
0.00 0.00 595.28 283.46 cl
/bg { 0.9725 0.4627 0.4275 srgb } def
249.66 46.48 2.49 c p2
0.00 0.00 595.28 283.46 cl
0.00 0.00 595.28 283.46 cl
0.9725 0.4627 0.4275 srgb
0.43 setlinewidth
[] 0 setdash
0 setlinecap
1 setlinejoin
10.00 setmiterlimit
np
242.75 46.48 m
13.82 0 l
o
0.00 0.00 595.28 283.46 cl
0.00 0.00 595.28 283.46 cl
0.00 0.00 595.28 283.46 cl
0.00 0.00 595.28 283.46 cl
/bg { 0.7686 0.6039 0 srgb } def
np
 276.82 50.35 m
3.35 -5.80 l
-6.70 0 l
cp p2
0.00 0.00 595.28 283.46 cl
0.00 0.00 595.28 283.46 cl
0.7686 0.6039 0 srgb
0.43 setlinewidth
[] 0 setdash
0 setlinecap
1 setlinejoin
10.00 setmiterlimit
np
269.91 46.48 m
13.82 0 l
o
0.00 0.00 595.28 283.46 cl
0.00 0.00 595.28 283.46 cl
0.00 0.00 595.28 283.46 cl
0.00 0.00 595.28 283.46 cl
/bg { 0.3255 0.7059 0 srgb } def
np
 301.49 44.00 m
4.98 0 l
0 4.97 l
-4.98 0 l
cp p2
0.00 0.00 595.28 283.46 cl
0.00 0.00 595.28 283.46 cl
0.3255 0.7059 0 srgb
0.43 setlinewidth
[] 0 setdash
0 setlinecap
1 setlinejoin
10.00 setmiterlimit
np
297.07 46.48 m
13.82 0 l
o
0.00 0.00 595.28 283.46 cl
0.00 0.00 595.28 283.46 cl
0.00 0.00 595.28 283.46 cl
0.00 0.00 595.28 283.46 cl
0 0.7529 0.5804 srgb
0.71 setlinewidth
[] 0 setdash
1 setlinecap
1 setlinejoin
10.00 setmiterlimit
np
327.62 46.48 m
7.04 0 l
o
np
331.14 42.97 m
0 7.03 l
o
0.00 0.00 595.28 283.46 cl
0.00 0.00 595.28 283.46 cl
0 0.7529 0.5804 srgb
0.43 setlinewidth
[] 0 setdash
0 setlinecap
1 setlinejoin
10.00 setmiterlimit
np
324.23 46.48 m
13.82 0 l
o
0.00 0.00 595.28 283.46 cl
0.00 0.00 595.28 283.46 cl
0.00 0.00 595.28 283.46 cl
0.00 0.00 595.28 283.46 cl
0 0.7137 0.9216 srgb
0.71 setlinewidth
[] 0 setdash
1 setlinecap
1 setlinejoin
10.00 setmiterlimit
355.81 44.00 4.98 4.98 r p1
np
355.81 44.00 m
4.98 4.97 l
o
np
355.81 48.97 m
4.98 -4.97 l
o
0.00 0.00 595.28 283.46 cl
0.00 0.00 595.28 283.46 cl
0 0.7137 0.9216 srgb
0.43 setlinewidth
[] 0 setdash
0 setlinecap
1 setlinejoin
10.00 setmiterlimit
np
351.39 46.48 m
13.82 0 l
o
0.00 0.00 595.28 283.46 cl
0.00 0.00 595.28 283.46 cl
0.00 0.00 595.28 283.46 cl
0.00 0.00 595.28 283.46 cl
0.6471 0.5412 1 srgb
0.71 setlinewidth
[] 0 setdash
1 setlinecap
1 setlinejoin
10.00 setmiterlimit
np
382.97 44.00 m
4.98 4.97 l
o
np
382.97 48.97 m
4.98 -4.97 l
o
np
381.94 46.48 m
7.04 0 l
o
np
385.46 42.97 m
0 7.03 l
o
0.00 0.00 595.28 283.46 cl
0.00 0.00 595.28 283.46 cl
0.6471 0.5412 1 srgb
0.43 setlinewidth
[] 0 setdash
0 setlinecap
1 setlinejoin
10.00 setmiterlimit
np
378.55 46.48 m
13.82 0 l
o
0.00 0.00 595.28 283.46 cl
0.00 0.00 595.28 283.46 cl
0.00 0.00 595.28 283.46 cl
0.00 0.00 595.28 283.46 cl
0.00 0.00 595.28 283.46 cl
0.00 0.00 595.28 283.46 cl
0.9843 0.3804 0.8431 srgb
0.43 setlinewidth
[] 0 setdash
0 setlinecap
1 setlinejoin
10.00 setmiterlimit
np
405.71 46.48 m
13.82 0 l
o
0.00 0.00 595.28 283.46 cl
0.00 0.00 595.28 283.46 cl
/Font1 findfont 10 s
0 0 0 srgb
260.46 42.89 (1) 0 0 t
0.00 0.00 595.28 283.46 cl
0.00 0.00 595.28 283.46 cl
/Font1 findfont 10 s
0 0 0 srgb
287.62 42.89 (2) 0 0 t
0.00 0.00 595.28 283.46 cl
0.00 0.00 595.28 283.46 cl
/Font1 findfont 10 s
0 0 0 srgb
314.78 42.89 (3) 0 0 t
0.00 0.00 595.28 283.46 cl
0.00 0.00 595.28 283.46 cl
/Font1 findfont 10 s
0 0 0 srgb
341.94 42.89 (4) 0 0 t
0.00 0.00 595.28 283.46 cl
0.00 0.00 595.28 283.46 cl
/Font1 findfont 10 s
0 0 0 srgb
369.10 42.89 (5) 0 0 t
0.00 0.00 595.28 283.46 cl
0.00 0.00 595.28 283.46 cl
/Font1 findfont 10 s
0 0 0 srgb
396.26 42.89 (6) 0 0 t
0.00 0.00 595.28 283.46 cl
0.00 0.00 595.28 283.46 cl
/Font1 findfont 10 s
0 0 0 srgb
423.42 42.89 (7) 0 0 t
0.00 0.00 595.28 283.46 cl
0.00 0.00 595.28 283.46 cl
0.00 0.00 595.28 283.46 cl
0.00 0.00 595.28 283.46 cl
0.00 0.00 595.28 283.46 cl
0.00 0.00 595.28 283.46 cl
ep
%%Trailer
%%Pages: 1
%%EOF
