%!PS-Adobe-3.0 EPSF-3.0
%%DocumentNeededResources: font Helvetica
%%+ font Helvetica-Bold
%%+ font Helvetica-Oblique
%%+ font Helvetica-BoldOblique
%%+ font Symbol
%%Title: R Graphics Output
%%Creator: R Software
%%Pages: (atend)
%%BoundingBox: 0 0 595 283
%%EndComments
%%BeginProlog
/bp  { gs sRGB gs } def
% begin .ps.prolog
/gs  { gsave } bind def
/gr  { grestore } bind def
/ep  { showpage gr gr } bind def
/m   { moveto } bind def
/l  { rlineto } bind def
/np  { newpath } bind def
/cp  { closepath } bind def
/f   { fill } bind def
/o   { stroke } bind def
/c   { newpath 0 360 arc } bind def
/r   { 4 2 roll moveto 1 copy 3 -1 roll exch 0 exch rlineto 0 rlineto -1 mul 0 exch rlineto closepath } bind def
/p1  { stroke } bind def
/p2  { gsave bg fill grestore newpath } bind def
/p3  { gsave bg fill grestore stroke } bind def
/p6  { gsave bg eofill grestore newpath } bind def
/p7  { gsave bg eofill grestore stroke } bind def
/t   { 5 -2 roll moveto gsave rotate
       1 index stringwidth pop
       mul neg 0 rmoveto show grestore } bind def
/ta  { 4 -2 roll moveto gsave rotate show } bind def
/tb  { 2 -1 roll 0 rmoveto show } bind def
/cl  { grestore gsave newpath 3 index 3 index moveto 1 index
       4 -1 roll lineto  exch 1 index lineto lineto
       closepath clip newpath } bind def
/rgb { setrgbcolor } bind def
/s   { scalefont setfont } bind def
% end   .ps.prolog
/sRGB { [ /CIEBasedABC
          << /DecodeLMN
               [ { dup 0.03928 le
                        {12.92321 div}
                        {0.055 add 1.055 div 2.4 exp }
                     ifelse
                 } bind dup dup
               ]
             /MatrixLMN [0.412457 0.212673 0.019334
                         0.357576 0.715152 0.119192
                         0.180437 0.072175 0.950301]
             /WhitePoint [0.9505 1.0 1.0890]
           >>
         ] setcolorspace } bind def
/srgb { setcolor } bind def
%%IncludeResource: font Helvetica
/Helvetica findfont
dup length dict begin
  {1 index /FID ne {def} {pop pop} ifelse} forall
  /Encoding ISOLatin1Encoding def
  currentdict
  end
/Font1 exch definefont pop
%%IncludeResource: font Helvetica-Bold
/Helvetica-Bold findfont
dup length dict begin
  {1 index /FID ne {def} {pop pop} ifelse} forall
  /Encoding ISOLatin1Encoding def
  currentdict
  end
/Font2 exch definefont pop
%%IncludeResource: font Helvetica-Oblique
/Helvetica-Oblique findfont
dup length dict begin
  {1 index /FID ne {def} {pop pop} ifelse} forall
  /Encoding ISOLatin1Encoding def
  currentdict
  end
/Font3 exch definefont pop
%%IncludeResource: font Helvetica-BoldOblique
/Helvetica-BoldOblique findfont
dup length dict begin
  {1 index /FID ne {def} {pop pop} ifelse} forall
  /Encoding ISOLatin1Encoding def
  currentdict
  end
/Font4 exch definefont pop
%%IncludeResource: font Symbol
/Symbol findfont
dup length dict begin
  {1 index /FID ne {def} {pop pop} ifelse} forall
  currentdict
  end
/Font5 exch definefont pop
%%EndProlog
%%Page: 1 1
bp
0.00 0.00 595.28 283.46 cl
0.00 0.00 595.28 283.46 cl
0.00 0.00 595.28 283.46 cl
0.00 0.00 595.28 283.46 cl
0.00 0.00 595.28 283.46 cl
0.00 0.00 595.28 283.46 cl
0.00 0.00 595.28 283.46 cl
0.00 0.00 595.28 283.46 cl
0.00 0.00 595.28 283.46 cl
0.00 0.00 595.28 283.46 cl
0.00 0.00 595.28 283.46 cl
0.00 0.00 595.28 283.46 cl
0.00 0.00 595.28 283.46 cl
0.00 19.11 595.28 264.35 cl
/bg { 1 1 1 srgb } def
1 1 1 srgb
1.07 setlinewidth
[] 0 setdash
1 setlinecap
1 setlinejoin
10.00 setmiterlimit
0.00 19.11 595.28 245.24 r p3
0.00 0.00 595.28 283.46 cl
41.05 239.24 219.81 258.38 cl
/bg { 1 1 1 srgb } def
0.4980 0.4980 0.4980 srgb
0.43 setlinewidth
[] 0 setdash
1 setlinecap
1 setlinejoin
10.00 setmiterlimit
41.05 239.24 178.77 19.14 r p3
/Font1 findfont 10 s
0.1020 0.1020 0.1020 srgb
116.53 245.22 (fr) 0 ta
-0.100 (ance) tb gr
41.05 239.24 219.81 258.38 cl
0.00 0.00 595.28 283.46 cl
225.79 239.24 404.55 258.38 cl
/bg { 1 1 1 srgb } def
0.4980 0.4980 0.4980 srgb
0.43 setlinewidth
[] 0 setdash
1 setlinecap
1 setlinejoin
10.00 setmiterlimit
225.79 239.24 178.77 19.14 r p3
/Font1 findfont 10 s
0.1020 0.1020 0.1020 srgb
315.17 245.22 (podemos) .5 0 t
225.79 239.24 404.55 258.38 cl
0.00 0.00 595.28 283.46 cl
410.53 239.24 589.30 258.38 cl
/bg { 1 1 1 srgb } def
0.4980 0.4980 0.4980 srgb
0.43 setlinewidth
[] 0 setdash
1 setlinecap
1 setlinejoin
10.00 setmiterlimit
410.53 239.24 178.77 19.14 r p3
/Font1 findfont 10 s
0.1020 0.1020 0.1020 srgb
499.92 245.22 (gameofthrones) .5 0 t
410.53 239.24 589.30 258.38 cl
0.00 0.00 595.28 283.46 cl
41.05 96.23 219.81 239.24 cl
/bg { 1 1 1 srgb } def
41.05 96.23 178.77 143.01 r p2
0.9804 0.9804 0.9804 srgb
1.07 setlinewidth
[] 0 setdash
0 setlinecap
1 setlinejoin
10.00 setmiterlimit
np
41.05 97.46 m
178.76 0 l
o
np
41.05 131.04 m
178.76 0 l
o
np
41.05 164.61 m
178.76 0 l
o
np
41.05 198.19 m
178.76 0 l
o
np
41.05 231.77 m
178.76 0 l
o
0.8980 0.8980 0.8980 srgb
0.43 setlinewidth
[] 0 setdash
np
41.05 114.25 m
178.76 0 l
o
np
41.05 147.83 m
178.76 0 l
o
np
41.05 181.40 m
178.76 0 l
o
np
41.05 214.98 m
178.76 0 l
o
np
50.62 96.23 m
0 143.01 l
o
np
66.58 96.23 m
0 143.01 l
o
np
82.55 96.23 m
0 143.01 l
o
np
98.51 96.23 m
0 143.01 l
o
np
114.47 96.23 m
0 143.01 l
o
np
130.43 96.23 m
0 143.01 l
o
np
146.39 96.23 m
0 143.01 l
o
np
162.35 96.23 m
0 143.01 l
o
np
178.31 96.23 m
0 143.01 l
o
np
194.27 96.23 m
0 143.01 l
o
np
210.24 96.23 m
0 143.01 l
o
/bg { 0.9725 0.4627 0.4275 srgb } def
50.62 168.96 2.49 c p2
98.51 111.44 2.49 c p2
82.55 109.38 2.49 c p2
/bg { 0.7176 0.6235 0 srgb } def
np
 50.62 203.77 m
3.35 -5.81 l
-6.70 0 l
cp p2
np
 66.58 118.69 m
3.36 -5.81 l
-6.71 0 l
cp p2
np
 82.55 109.01 m
3.35 -5.81 l
-6.71 0 l
cp p2
/bg { 0 0.7294 0.2196 srgb } def
np
 48.13 162.67 m
4.98 0 l
0 4.98 l
-4.98 0 l
cp p2
np
 80.06 126.75 m
4.97 0 l
0 4.98 l
-4.97 0 l
cp p2
np
 159.86 118.12 m
4.98 0 l
0 4.98 l
-4.98 0 l
cp p2
0 0.7490 0.7686 srgb
0.71 setlinewidth
[] 0 setdash
1 setlinecap
np
63.07 158.75 m
7.03 0 l
o
np
66.58 155.23 m
0 7.04 l
o
np
47.10 143.72 m
7.04 0 l
o
np
50.62 140.20 m
0 7.04 l
o
np
110.95 107.37 m
7.04 0 l
o
np
114.47 103.85 m
0 7.04 l
o
0.3804 0.6118 1 srgb
96.02 137.61 4.98 4.98 r p1
np
96.02 137.61 m
4.98 4.98 l
o
np
96.02 142.59 m
4.98 -4.98 l
o
143.90 124.34 4.98 4.98 r p1
np
143.90 124.34 m
4.98 4.98 l
o
np
143.90 129.32 m
4.98 -4.98 l
o
111.98 123.44 4.98 4.98 r p1
np
111.98 123.44 m
4.98 4.98 l
o
np
111.98 128.42 m
4.98 -4.98 l
o
0.9725 0.4627 0.4275 srgb
0.43 setlinewidth
[] 0 setdash
0 setlinecap
1.00 setmiterlimit
np
50.62 168.96 m
31.93 -59.58 l
15.96 2.06 l
o
0.7176 0.6235 0 srgb
np
50.62 199.90 m
15.96 -85.08 l
15.97 -9.68 l
o
0 0.7294 0.2196 srgb
np
50.62 165.16 m
31.93 -35.92 l
79.80 -8.63 l
o
0 0.7490 0.7686 srgb
np
50.62 143.72 m
15.96 15.03 l
47.89 -51.38 l
o
0.3804 0.6118 1 srgb
np
98.51 140.10 m
15.96 -14.17 l
31.92 0.90 l
o
0.4980 0.4980 0.4980 srgb
1.07 setlinewidth
[] 0 setdash
1 setlinecap
10.00 setmiterlimit
41.05 96.23 178.77 143.01 r p1
0.00 0.00 595.28 283.46 cl
225.79 96.23 404.55 239.24 cl
/bg { 1 1 1 srgb } def
225.79 96.23 178.77 143.01 r p2
0.9804 0.9804 0.9804 srgb
1.07 setlinewidth
[] 0 setdash
0 setlinecap
1 setlinejoin
10.00 setmiterlimit
np
225.79 97.46 m
178.76 0 l
o
np
225.79 131.04 m
178.76 0 l
o
np
225.79 164.61 m
178.76 0 l
o
np
225.79 198.19 m
178.76 0 l
o
np
225.79 231.77 m
178.76 0 l
o
0.8980 0.8980 0.8980 srgb
0.43 setlinewidth
[] 0 setdash
np
225.79 114.25 m
178.76 0 l
o
np
225.79 147.83 m
178.76 0 l
o
np
225.79 181.40 m
178.76 0 l
o
np
225.79 214.98 m
178.76 0 l
o
np
235.37 96.23 m
0 143.01 l
o
np
251.33 96.23 m
0 143.01 l
o
np
267.29 96.23 m
0 143.01 l
o
np
283.25 96.23 m
0 143.01 l
o
np
299.21 96.23 m
0 143.01 l
o
np
315.17 96.23 m
0 143.01 l
o
np
331.13 96.23 m
0 143.01 l
o
np
347.09 96.23 m
0 143.01 l
o
np
363.06 96.23 m
0 143.01 l
o
np
379.02 96.23 m
0 143.01 l
o
np
394.98 96.23 m
0 143.01 l
o
/bg { 0.9725 0.4627 0.4275 srgb } def
235.37 198.01 2.49 c p2
251.33 121.00 2.49 c p2
267.29 108.80 2.49 c p2
/bg { 0.7176 0.6235 0 srgb } def
np
 251.33 176.20 m
3.35 -5.80 l
-6.70 0 l
cp p2
np
 235.37 163.22 m
3.35 -5.81 l
-6.70 0 l
cp p2
np
 315.17 108.31 m
3.35 -5.81 l
-6.70 0 l
cp p2
/bg { 0 0.7294 0.2196 srgb } def
np
 248.84 230.25 m
4.98 0 l
0 4.98 l
-4.98 0 l
cp p2
np
 232.88 117.84 m
4.97 0 l
0 4.98 l
-4.97 0 l
cp p2
np
 312.68 111.84 m
4.98 0 l
0 4.98 l
-4.98 0 l
cp p2
0 0.7490 0.7686 srgb
0.71 setlinewidth
[] 0 setdash
1 setlinecap
np
231.85 147.73 m
7.04 0 l
o
np
235.37 144.21 m
0 7.03 l
o
np
343.58 135.20 m
7.03 0 l
o
np
347.09 131.68 m
0 7.04 l
o
np
247.81 132.74 m
7.04 0 l
o
np
251.33 129.23 m
0 7.03 l
o
0.3804 0.6118 1 srgb
232.88 195.32 4.98 4.98 r p1
np
232.88 195.32 m
4.97 4.97 l
o
np
232.88 200.29 m
4.97 -4.97 l
o
376.53 162.20 4.98 4.98 r p1
np
376.53 162.20 m
4.98 4.98 l
o
np
376.53 167.18 m
4.98 -4.98 l
o
392.49 150.85 4.98 4.98 r p1
np
392.49 150.85 m
4.98 4.98 l
o
np
392.49 155.83 m
4.98 -4.98 l
o
0.9725 0.4627 0.4275 srgb
0.43 setlinewidth
[] 0 setdash
0 setlinecap
1.00 setmiterlimit
np
235.37 198.01 m
15.96 -77.01 l
15.96 -12.20 l
o
0.7176 0.6235 0 srgb
np
235.37 159.35 m
15.96 12.98 l
63.84 -67.89 l
o
0 0.7294 0.2196 srgb
np
235.37 120.33 m
15.96 112.41 l
63.84 -118.41 l
o
0 0.7490 0.7686 srgb
np
235.37 147.73 m
15.96 -14.99 l
95.76 2.46 l
o
0.3804 0.6118 1 srgb
np
235.37 197.80 m
143.65 -33.11 l
15.96 -11.35 l
o
0.4980 0.4980 0.4980 srgb
1.07 setlinewidth
[] 0 setdash
1 setlinecap
10.00 setmiterlimit
225.79 96.23 178.77 143.01 r p1
0.00 0.00 595.28 283.46 cl
410.53 96.23 589.30 239.24 cl
/bg { 1 1 1 srgb } def
410.53 96.23 178.77 143.01 r p2
0.9804 0.9804 0.9804 srgb
1.07 setlinewidth
[] 0 setdash
0 setlinecap
1 setlinejoin
10.00 setmiterlimit
np
410.53 97.46 m
178.77 0 l
o
np
410.53 131.04 m
178.77 0 l
o
np
410.53 164.61 m
178.77 0 l
o
np
410.53 198.19 m
178.77 0 l
o
np
410.53 231.77 m
178.77 0 l
o
0.8980 0.8980 0.8980 srgb
0.43 setlinewidth
[] 0 setdash
np
410.53 114.25 m
178.77 0 l
o
np
410.53 147.83 m
178.77 0 l
o
np
410.53 181.40 m
178.77 0 l
o
np
410.53 214.98 m
178.77 0 l
o
np
420.11 96.23 m
0 143.01 l
o
np
436.07 96.23 m
0 143.01 l
o
np
452.03 96.23 m
0 143.01 l
o
np
467.99 96.23 m
0 143.01 l
o
np
483.95 96.23 m
0 143.01 l
o
np
499.92 96.23 m
0 143.01 l
o
np
515.88 96.23 m
0 143.01 l
o
np
531.84 96.23 m
0 143.01 l
o
np
547.80 96.23 m
0 143.01 l
o
np
563.76 96.23 m
0 143.01 l
o
np
579.72 96.23 m
0 143.01 l
o
/bg { 0.9725 0.4627 0.4275 srgb } def
436.07 170.53 2.49 c p2
420.11 155.60 2.49 c p2
452.03 102.73 2.49 c p2
/bg { 0.7176 0.6235 0 srgb } def
np
 420.11 182.08 m
3.35 -5.81 l
-6.70 0 l
cp p2
np
 452.03 117.07 m
3.35 -5.81 l
-6.70 0 l
cp p2
np
 467.99 115.79 m
3.35 -5.81 l
-6.70 0 l
cp p2
/bg { 0 0.7294 0.2196 srgb } def
np
 417.62 161.47 m
4.98 0 l
0 4.98 l
-4.98 0 l
cp p2
np
 465.50 135.09 m
4.98 0 l
0 4.98 l
-4.98 0 l
cp p2
np
 513.39 110.24 m
4.97 0 l
0 4.98 l
-4.97 0 l
cp p2
0 0.7490 0.7686 srgb
0.71 setlinewidth
[] 0 setdash
1 setlinecap
np
416.59 143.60 m
7.04 0 l
o
np
420.11 140.08 m
0 7.03 l
o
np
432.55 129.42 m
7.04 0 l
o
np
436.07 125.90 m
0 7.04 l
o
np
464.47 126.62 m
7.04 0 l
o
np
467.99 123.10 m
0 7.04 l
o
0.3804 0.6118 1 srgb
465.50 155.85 4.98 4.98 r p1
np
465.50 155.85 m
4.98 4.98 l
o
np
465.50 160.83 m
4.98 -4.98 l
o
417.62 131.08 4.98 4.98 r p1
np
417.62 131.08 m
4.98 4.98 l
o
np
417.62 136.06 m
4.98 -4.98 l
o
513.39 116.01 4.98 4.98 r p1
np
513.39 116.01 m
4.97 4.97 l
o
np
513.39 120.98 m
4.97 -4.97 l
o
0.9608 0.3922 0.8902 srgb
np
545.31 164.68 m
4.98 4.98 l
o
np
545.31 169.66 m
4.98 -4.98 l
o
np
544.28 167.17 m
7.04 0 l
o
np
547.80 163.65 m
0 7.04 l
o
np
417.62 142.63 m
4.98 4.98 l
o
np
417.62 147.61 m
4.98 -4.98 l
o
np
416.59 145.12 m
7.04 0 l
o
np
420.11 141.60 m
0 7.04 l
o
np
433.58 107.41 m
4.98 4.98 l
o
np
433.58 112.39 m
4.98 -4.98 l
o
np
432.55 109.90 m
7.04 0 l
o
np
436.07 106.38 m
0 7.04 l
o
0.9725 0.4627 0.4275 srgb
0.43 setlinewidth
[] 0 setdash
0 setlinecap
1.00 setmiterlimit
np
420.11 155.60 m
15.96 14.93 l
15.96 -67.80 l
o
0.7176 0.6235 0 srgb
np
420.11 178.21 m
31.92 -65.01 l
15.96 -1.28 l
o
0 0.7294 0.2196 srgb
np
420.11 163.96 m
47.88 -26.38 l
47.89 -24.85 l
o
0 0.7490 0.7686 srgb
np
420.11 143.60 m
15.96 -14.18 l
31.92 -2.80 l
o
0.3804 0.6118 1 srgb
np
420.11 133.57 m
47.88 24.77 l
47.89 -39.84 l
o
0.9608 0.3922 0.8902 srgb
np
420.11 145.12 m
15.96 -35.22 l
111.73 57.27 l
o
0.4980 0.4980 0.4980 srgb
1.07 setlinewidth
[] 0 setdash
1 setlinecap
10.00 setmiterlimit
410.53 96.23 178.77 143.01 r p1
0.00 0.00 595.28 283.46 cl
0.00 0.00 595.28 283.46 cl
0.00 0.00 595.28 283.46 cl
0.00 0.00 595.28 283.46 cl
0.00 0.00 595.28 283.46 cl
0.00 0.00 595.28 283.46 cl
/Font1 findfont 10 s
0 0 0 srgb
35.67 110.66 (0.1) 1 0 t
35.67 144.24 (0.2) 1 0 t
35.67 177.81 (0.3) 1 0 t
35.67 211.39 (0.4) 1 0 t
0.00 0.00 595.28 283.46 cl
0.00 0.00 595.28 283.46 cl
0 0 0 srgb
1.07 setlinewidth
[] 0 setdash
0 setlinecap
1 setlinejoin
10.00 setmiterlimit
np
38.06 114.25 m
2.99 0 l
o
np
38.06 147.83 m
2.99 0 l
o
np
38.06 181.40 m
2.99 0 l
o
np
38.06 214.98 m
2.99 0 l
o
0.00 0.00 595.28 283.46 cl
0.00 0.00 595.28 283.46 cl
0.00 0.00 595.28 283.46 cl
0.00 0.00 595.28 283.46 cl
0.00 0.00 595.28 283.46 cl
0.00 0.00 595.28 283.46 cl
0.00 0.00 595.28 283.46 cl
0.00 0.00 595.28 283.46 cl
0 0 0 srgb
1.07 setlinewidth
[] 0 setdash
0 setlinecap
1 setlinejoin
10.00 setmiterlimit
np
50.62 93.24 m
0 2.99 l
o
np
66.58 93.24 m
0 2.99 l
o
np
82.55 93.24 m
0 2.99 l
o
np
98.51 93.24 m
0 2.99 l
o
np
114.47 93.24 m
0 2.99 l
o
np
130.43 93.24 m
0 2.99 l
o
np
146.39 93.24 m
0 2.99 l
o
np
162.35 93.24 m
0 2.99 l
o
np
178.31 93.24 m
0 2.99 l
o
np
194.27 93.24 m
0 2.99 l
o
np
210.24 93.24 m
0 2.99 l
o
0.00 0.00 595.28 283.46 cl
0.00 0.00 595.28 283.46 cl
/Font1 findfont 10 s
0 0 0 srgb
50.62 83.67 (0) .5 0 t
66.58 83.67 (1) .5 0 t
82.55 83.67 (2) .5 0 t
98.51 83.67 (3) .5 0 t
114.47 83.67 (4) .5 0 t
130.43 83.67 (5) .5 0 t
146.39 83.67 (7) .5 0 t
162.35 83.67 (8) .5 0 t
178.31 83.67 (21) .5 0 t
194.27 83.67 (31) .5 0 t
210.24 83.67 (37) .5 0 t
0.00 0.00 595.28 283.46 cl
0.00 0.00 595.28 283.46 cl
0.00 0.00 595.28 283.46 cl
0.00 0.00 595.28 283.46 cl
0.00 0.00 595.28 283.46 cl
0.00 0.00 595.28 283.46 cl
0.00 0.00 595.28 283.46 cl
0.00 0.00 595.28 283.46 cl
0 0 0 srgb
1.07 setlinewidth
[] 0 setdash
0 setlinecap
1 setlinejoin
10.00 setmiterlimit
np
235.37 93.24 m
0 2.99 l
o
np
251.33 93.24 m
0 2.99 l
o
np
267.29 93.24 m
0 2.99 l
o
np
283.25 93.24 m
0 2.99 l
o
np
299.21 93.24 m
0 2.99 l
o
np
315.17 93.24 m
0 2.99 l
o
np
331.13 93.24 m
0 2.99 l
o
np
347.09 93.24 m
0 2.99 l
o
np
363.06 93.24 m
0 2.99 l
o
np
379.02 93.24 m
0 2.99 l
o
np
394.98 93.24 m
0 2.99 l
o
0.00 0.00 595.28 283.46 cl
0.00 0.00 595.28 283.46 cl
/Font1 findfont 10 s
0 0 0 srgb
235.37 83.67 (0) .5 0 t
251.33 83.67 (1) .5 0 t
267.29 83.67 (2) .5 0 t
283.25 83.67 (3) .5 0 t
299.21 83.67 (4) .5 0 t
315.17 83.67 (5) .5 0 t
331.13 83.67 (7) .5 0 t
347.09 83.67 (8) .5 0 t
363.06 83.67 (21) .5 0 t
379.02 83.67 (31) .5 0 t
394.98 83.67 (37) .5 0 t
0.00 0.00 595.28 283.46 cl
0.00 0.00 595.28 283.46 cl
0.00 0.00 595.28 283.46 cl
0.00 0.00 595.28 283.46 cl
0.00 0.00 595.28 283.46 cl
0.00 0.00 595.28 283.46 cl
0.00 0.00 595.28 283.46 cl
0.00 0.00 595.28 283.46 cl
0 0 0 srgb
1.07 setlinewidth
[] 0 setdash
0 setlinecap
1 setlinejoin
10.00 setmiterlimit
np
420.11 93.24 m
0 2.99 l
o
np
436.07 93.24 m
0 2.99 l
o
np
452.03 93.24 m
0 2.99 l
o
np
467.99 93.24 m
0 2.99 l
o
np
483.95 93.24 m
0 2.99 l
o
np
499.92 93.24 m
0 2.99 l
o
np
515.88 93.24 m
0 2.99 l
o
np
531.84 93.24 m
0 2.99 l
o
np
547.80 93.24 m
0 2.99 l
o
np
563.76 93.24 m
0 2.99 l
o
np
579.72 93.24 m
0 2.99 l
o
0.00 0.00 595.28 283.46 cl
0.00 0.00 595.28 283.46 cl
/Font1 findfont 10 s
0 0 0 srgb
420.11 83.67 (0) .5 0 t
436.07 83.67 (1) .5 0 t
452.03 83.67 (2) .5 0 t
467.99 83.67 (3) .5 0 t
483.95 83.67 (4) .5 0 t
499.92 83.67 (5) .5 0 t
515.88 83.67 (7) .5 0 t
531.84 83.67 (8) .5 0 t
547.80 83.67 (21) .5 0 t
563.76 83.67 (31) .5 0 t
579.72 83.67 (37) .5 0 t
0.00 0.00 595.28 283.46 cl
0.00 0.00 595.28 283.46 cl
0.00 0.00 595.28 283.46 cl
0.00 0.00 595.28 283.46 cl
/Font1 findfont 12 s
0 0 0 srgb
315.17 70.27 (motif) .5 0 t
0.00 0.00 595.28 283.46 cl
0.00 0.00 595.28 283.46 cl
/Font1 findfont 12 s
0 0 0 srgb
16.98 167.74 (probability) .5 90 t
0.00 0.00 595.28 283.46 cl
0.00 0.00 595.28 283.46 cl
0.00 0.00 595.28 283.46 cl
0.00 0.00 595.28 283.46 cl
/bg { 1 1 1 srgb } def
210.69 33.59 208.96 25.78 r p2
0.00 0.00 595.28 283.46 cl
0.00 0.00 595.28 283.46 cl
/Font1 findfont 12 s
0 0 0 srgb
214.94 42.18 (cluster) 0 0 t
0.00 0.00 595.28 283.46 cl
0.00 0.00 595.28 283.46 cl
0.00 0.00 595.28 283.46 cl
0.00 0.00 595.28 283.46 cl
/bg { 0.9725 0.4627 0.4275 srgb } def
263.24 46.48 2.49 c p2
0.00 0.00 595.28 283.46 cl
0.00 0.00 595.28 283.46 cl
0.9725 0.4627 0.4275 srgb
0.43 setlinewidth
[] 0 setdash
0 setlinecap
1 setlinejoin
10.00 setmiterlimit
np
256.33 46.48 m
13.82 0 l
o
0.00 0.00 595.28 283.46 cl
0.00 0.00 595.28 283.46 cl
0.00 0.00 595.28 283.46 cl
0.00 0.00 595.28 283.46 cl
/bg { 0.7176 0.6235 0 srgb } def
np
 290.40 50.35 m
3.35 -5.80 l
-6.70 0 l
cp p2
0.00 0.00 595.28 283.46 cl
0.00 0.00 595.28 283.46 cl
0.7176 0.6235 0 srgb
0.43 setlinewidth
[] 0 setdash
0 setlinecap
1 setlinejoin
10.00 setmiterlimit
np
283.49 46.48 m
13.82 0 l
o
0.00 0.00 595.28 283.46 cl
0.00 0.00 595.28 283.46 cl
0.00 0.00 595.28 283.46 cl
0.00 0.00 595.28 283.46 cl
/bg { 0 0.7294 0.2196 srgb } def
np
 315.07 44.00 m
4.98 0 l
0 4.97 l
-4.98 0 l
cp p2
0.00 0.00 595.28 283.46 cl
0.00 0.00 595.28 283.46 cl
0 0.7294 0.2196 srgb
0.43 setlinewidth
[] 0 setdash
0 setlinecap
1 setlinejoin
10.00 setmiterlimit
np
310.65 46.48 m
13.82 0 l
o
0.00 0.00 595.28 283.46 cl
0.00 0.00 595.28 283.46 cl
0.00 0.00 595.28 283.46 cl
0.00 0.00 595.28 283.46 cl
0 0.7490 0.7686 srgb
0.71 setlinewidth
[] 0 setdash
1 setlinecap
1 setlinejoin
10.00 setmiterlimit
np
341.20 46.48 m
7.04 0 l
o
np
344.72 42.97 m
0 7.03 l
o
0.00 0.00 595.28 283.46 cl
0.00 0.00 595.28 283.46 cl
0 0.7490 0.7686 srgb
0.43 setlinewidth
[] 0 setdash
0 setlinecap
1 setlinejoin
10.00 setmiterlimit
np
337.81 46.48 m
13.82 0 l
o
0.00 0.00 595.28 283.46 cl
0.00 0.00 595.28 283.46 cl
0.00 0.00 595.28 283.46 cl
0.00 0.00 595.28 283.46 cl
0.3804 0.6118 1 srgb
0.71 setlinewidth
[] 0 setdash
1 setlinecap
1 setlinejoin
10.00 setmiterlimit
369.39 44.00 4.98 4.98 r p1
np
369.39 44.00 m
4.98 4.97 l
o
np
369.39 48.97 m
4.98 -4.97 l
o
0.00 0.00 595.28 283.46 cl
0.00 0.00 595.28 283.46 cl
0.3804 0.6118 1 srgb
0.43 setlinewidth
[] 0 setdash
0 setlinecap
1 setlinejoin
10.00 setmiterlimit
np
364.97 46.48 m
13.82 0 l
o
0.00 0.00 595.28 283.46 cl
0.00 0.00 595.28 283.46 cl
0.00 0.00 595.28 283.46 cl
0.00 0.00 595.28 283.46 cl
0.9608 0.3922 0.8902 srgb
0.71 setlinewidth
[] 0 setdash
1 setlinecap
1 setlinejoin
10.00 setmiterlimit
np
396.55 44.00 m
4.98 4.97 l
o
np
396.55 48.97 m
4.98 -4.97 l
o
np
395.52 46.48 m
7.04 0 l
o
np
399.04 42.97 m
0 7.03 l
o
0.00 0.00 595.28 283.46 cl
0.00 0.00 595.28 283.46 cl
0.9608 0.3922 0.8902 srgb
0.43 setlinewidth
[] 0 setdash
0 setlinecap
1 setlinejoin
10.00 setmiterlimit
np
392.13 46.48 m
13.82 0 l
o
0.00 0.00 595.28 283.46 cl
0.00 0.00 595.28 283.46 cl
/Font1 findfont 10 s
0 0 0 srgb
274.04 42.89 (1) 0 0 t
0.00 0.00 595.28 283.46 cl
0.00 0.00 595.28 283.46 cl
/Font1 findfont 10 s
0 0 0 srgb
301.20 42.89 (2) 0 0 t
0.00 0.00 595.28 283.46 cl
0.00 0.00 595.28 283.46 cl
/Font1 findfont 10 s
0 0 0 srgb
328.36 42.89 (3) 0 0 t
0.00 0.00 595.28 283.46 cl
0.00 0.00 595.28 283.46 cl
/Font1 findfont 10 s
0 0 0 srgb
355.52 42.89 (4) 0 0 t
0.00 0.00 595.28 283.46 cl
0.00 0.00 595.28 283.46 cl
/Font1 findfont 10 s
0 0 0 srgb
382.68 42.89 (5) 0 0 t
0.00 0.00 595.28 283.46 cl
0.00 0.00 595.28 283.46 cl
/Font1 findfont 10 s
0 0 0 srgb
409.84 42.89 (6) 0 0 t
0.00 0.00 595.28 283.46 cl
0.00 0.00 595.28 283.46 cl
0.00 0.00 595.28 283.46 cl
0.00 0.00 595.28 283.46 cl
0.00 0.00 595.28 283.46 cl
0.00 0.00 595.28 283.46 cl
ep
%%Trailer
%%Pages: 1
%%EOF
