%!PS-Adobe-3.0 EPSF-3.0
%%DocumentNeededResources: font Helvetica
%%+ font Helvetica-Bold
%%+ font Helvetica-Oblique
%%+ font Helvetica-BoldOblique
%%+ font Symbol
%%Title: R Graphics Output
%%Creator: R Software
%%Pages: (atend)
%%BoundingBox: 0 0 595 213
%%EndComments
%%BeginProlog
/bp  { gs sRGB gs } def
% begin .ps.prolog
/gs  { gsave } bind def
/gr  { grestore } bind def
/ep  { showpage gr gr } bind def
/m   { moveto } bind def
/l  { rlineto } bind def
/np  { newpath } bind def
/cp  { closepath } bind def
/f   { fill } bind def
/o   { stroke } bind def
/c   { newpath 0 360 arc } bind def
/r   { 4 2 roll moveto 1 copy 3 -1 roll exch 0 exch rlineto 0 rlineto -1 mul 0 exch rlineto closepath } bind def
/p1  { stroke } bind def
/p2  { gsave bg fill grestore newpath } bind def
/p3  { gsave bg fill grestore stroke } bind def
/p6  { gsave bg eofill grestore newpath } bind def
/p7  { gsave bg eofill grestore stroke } bind def
/t   { 5 -2 roll moveto gsave rotate
       1 index stringwidth pop
       mul neg 0 rmoveto show grestore } bind def
/ta  { 4 -2 roll moveto gsave rotate show } bind def
/tb  { 2 -1 roll 0 rmoveto show } bind def
/cl  { grestore gsave newpath 3 index 3 index moveto 1 index
       4 -1 roll lineto  exch 1 index lineto lineto
       closepath clip newpath } bind def
/rgb { setrgbcolor } bind def
/s   { scalefont setfont } bind def
% end   .ps.prolog
/sRGB { [ /CIEBasedABC
          << /DecodeLMN
               [ { dup 0.03928 le
                        {12.92321 div}
                        {0.055 add 1.055 div 2.4 exp }
                     ifelse
                 } bind dup dup
               ]
             /MatrixLMN [0.412457 0.212673 0.019334
                         0.357576 0.715152 0.119192
                         0.180437 0.072175 0.950301]
             /WhitePoint [0.9505 1.0 1.0890]
           >>
         ] setcolorspace } bind def
/srgb { setcolor } bind def
%%IncludeResource: font Helvetica
/Helvetica findfont
dup length dict begin
  {1 index /FID ne {def} {pop pop} ifelse} forall
  /Encoding ISOLatin1Encoding def
  currentdict
  end
/Font1 exch definefont pop
%%IncludeResource: font Helvetica-Bold
/Helvetica-Bold findfont
dup length dict begin
  {1 index /FID ne {def} {pop pop} ifelse} forall
  /Encoding ISOLatin1Encoding def
  currentdict
  end
/Font2 exch definefont pop
%%IncludeResource: font Helvetica-Oblique
/Helvetica-Oblique findfont
dup length dict begin
  {1 index /FID ne {def} {pop pop} ifelse} forall
  /Encoding ISOLatin1Encoding def
  currentdict
  end
/Font3 exch definefont pop
%%IncludeResource: font Helvetica-BoldOblique
/Helvetica-BoldOblique findfont
dup length dict begin
  {1 index /FID ne {def} {pop pop} ifelse} forall
  /Encoding ISOLatin1Encoding def
  currentdict
  end
/Font4 exch definefont pop
%%IncludeResource: font Symbol
/Symbol findfont
dup length dict begin
  {1 index /FID ne {def} {pop pop} ifelse} forall
  currentdict
  end
/Font5 exch definefont pop
%%EndProlog
%%Page: 1 1
bp
0.00 0.00 595.28 212.60 cl
0.00 0.00 595.28 212.60 cl
0.00 0.00 595.28 212.60 cl
0.00 0.00 595.28 212.60 cl
0.00 0.00 595.28 212.60 cl
0.00 0.00 595.28 212.60 cl
0.00 0.00 595.28 212.60 cl
0.00 0.00 595.28 212.60 cl
0.00 0.00 595.28 212.60 cl
0.00 0.00 595.28 212.60 cl
0.00 0.00 595.28 212.60 cl
0.00 0.00 595.28 212.60 cl
0.00 0.00 595.28 212.60 cl
0.00 4.22 595.28 208.38 cl
/bg { 1 1 1 srgb } def
1 1 1 srgb
1.07 setlinewidth
[] 0 setdash
1 setlinecap
1 setlinejoin
10.00 setmiterlimit
0.00 4.22 595.28 204.17 r p3
0.00 0.00 595.28 212.60 cl
41.05 183.27 219.81 202.41 cl
/bg { 1 1 1 srgb } def
0.4980 0.4980 0.4980 srgb
0.43 setlinewidth
[] 0 setdash
1 setlinecap
1 setlinejoin
10.00 setmiterlimit
41.05 183.27 178.77 19.14 r p3
/Font1 findfont 10 s
0.1020 0.1020 0.1020 srgb
116.53 189.25 (fr) 0 ta
-0.100 (ance) tb gr
41.05 183.27 219.81 202.41 cl
0.00 0.00 595.28 212.60 cl
225.79 183.27 404.55 202.41 cl
/bg { 1 1 1 srgb } def
0.4980 0.4980 0.4980 srgb
0.43 setlinewidth
[] 0 setdash
1 setlinecap
1 setlinejoin
10.00 setmiterlimit
225.79 183.27 178.77 19.14 r p3
/Font1 findfont 10 s
0.1020 0.1020 0.1020 srgb
315.17 189.25 (podemos) .5 0 t
225.79 183.27 404.55 202.41 cl
0.00 0.00 595.28 212.60 cl
410.53 183.27 589.30 202.41 cl
/bg { 1 1 1 srgb } def
0.4980 0.4980 0.4980 srgb
0.43 setlinewidth
[] 0 setdash
1 setlinecap
1 setlinejoin
10.00 setmiterlimit
410.53 183.27 178.77 19.14 r p3
/Font1 findfont 10 s
0.1020 0.1020 0.1020 srgb
499.92 189.25 (gameofthrones) .5 0 t
410.53 183.27 589.30 202.41 cl
0.00 0.00 595.28 212.60 cl
41.05 40.26 219.81 183.27 cl
/bg { 1 1 1 srgb } def
41.05 40.26 178.77 143.01 r p2
0.9804 0.9804 0.9804 srgb
1.07 setlinewidth
[] 0 setdash
0 setlinecap
1 setlinejoin
10.00 setmiterlimit
np
41.05 61.11 m
178.76 0 l
o
np
41.05 89.82 m
178.76 0 l
o
np
41.05 118.52 m
178.76 0 l
o
np
41.05 147.23 m
178.76 0 l
o
np
41.05 175.94 m
178.76 0 l
o
0.8980 0.8980 0.8980 srgb
0.43 setlinewidth
[] 0 setdash
np
41.05 46.76 m
178.76 0 l
o
np
41.05 75.46 m
178.76 0 l
o
np
41.05 104.17 m
178.76 0 l
o
np
41.05 132.88 m
178.76 0 l
o
np
41.05 161.58 m
178.76 0 l
o
np
44.85 40.26 m
0 143.01 l
o
np
51.19 40.26 m
0 143.01 l
o
np
57.53 40.26 m
0 143.01 l
o
np
63.87 40.26 m
0 143.01 l
o
np
70.21 40.26 m
0 143.01 l
o
np
76.55 40.26 m
0 143.01 l
o
np
82.89 40.26 m
0 143.01 l
o
np
89.22 40.26 m
0 143.01 l
o
np
95.56 40.26 m
0 143.01 l
o
np
101.90 40.26 m
0 143.01 l
o
np
108.24 40.26 m
0 143.01 l
o
np
114.58 40.26 m
0 143.01 l
o
np
120.92 40.26 m
0 143.01 l
o
np
127.26 40.26 m
0 143.01 l
o
np
133.60 40.26 m
0 143.01 l
o
np
139.94 40.26 m
0 143.01 l
o
np
146.28 40.26 m
0 143.01 l
o
np
152.62 40.26 m
0 143.01 l
o
np
158.96 40.26 m
0 143.01 l
o
np
165.29 40.26 m
0 143.01 l
o
np
171.63 40.26 m
0 143.01 l
o
np
177.97 40.26 m
0 143.01 l
o
np
184.31 40.26 m
0 143.01 l
o
np
190.65 40.26 m
0 143.01 l
o
np
196.99 40.26 m
0 143.01 l
o
np
203.33 40.26 m
0 143.01 l
o
np
209.67 40.26 m
0 143.01 l
o
np
216.01 40.26 m
0 143.01 l
o
0.9725 0.4627 0.4275 srgb
1.07 setlinewidth
[] 0 setdash
1.00 setmiterlimit
np
44.85 118.99 m
6.34 -48.99 l
6.34 18.28 l
6.34 -28.07 l
6.34 1.52 l
6.34 -8.18 l
6.34 7.23 l
6.33 -4.85 l
6.34 24.97 l
6.34 -28.54 l
6.34 -1.41 l
6.34 4.77 l
6.34 -4.23 l
6.34 1.29 l
6.34 -2.61 l
6.34 2.76 l
6.34 -4.28 l
6.34 3.31 l
6.34 0 l
6.33 -2.91 l
6.34 -1.62 l
6.34 -0.40 l
6.34 0.33 l
6.34 -0.15 l
6.34 0.24 l
6.34 -0.30 l
6.34 -0.27 l
6.34 0.51 l
o
0.7176 0.6235 0 srgb
np
44.85 122.24 m
6.34 -55.49 l
6.34 4.56 l
6.34 1.75 l
6.34 -3.15 l
6.34 -15.84 l
6.34 5.29 l
6.33 4.95 l
6.34 -6.42 l
6.34 -3.78 l
6.34 2.42 l
6.34 -3.08 l
6.34 2.33 l
6.34 -4.92 l
6.34 4.27 l
6.34 -2.43 l
6.34 -2.62 l
6.34 1.66 l
6.34 -0.67 l
6.33 -1.74 l
6.34 -2.12 l
6.34 -0.21 l
6.34 0.25 l
6.34 -0.21 l
6.34 -0.01 l
6.34 -0.01 l
6.34 -0.07 l
6.34 0.19 l
o
0 0.7294 0.2196 srgb
np
44.85 148.69 m
6.34 -72.74 l
6.34 -8.27 l
6.34 -8.74 l
6.34 1.48 l
6.34 -2.06 l
6.34 2.16 l
6.33 -4.99 l
6.34 4.49 l
6.34 -7.49 l
6.34 0.93 l
6.34 -0.37 l
6.34 0.67 l
6.34 -2.20 l
6.34 0.44 l
6.34 -1.13 l
6.34 -1.26 l
6.34 0.78 l
6.34 -0.51 l
6.33 0.72 l
6.34 -3.10 l
6.34 0.84 l
6.34 -0.42 l
6.34 0.50 l
6.34 -0.74 l
6.34 0.47 l
6.34 -0.92 l
6.34 -0.05 l
o
0 0.7490 0.7686 srgb
np
44.85 82.53 m
6.34 -21.69 l
6.34 2.19 l
6.34 34.54 l
6.34 -12.12 l
6.34 -34.25 l
6.34 0.75 l
6.33 34.27 l
6.34 -33.33 l
6.34 14.42 l
6.34 -7.69 l
6.34 -9.82 l
6.34 4.60 l
6.34 -3.97 l
6.34 4.42 l
6.34 -2.27 l
6.34 -2.00 l
6.34 1.23 l
6.34 -1.54 l
6.33 -2.59 l
6.34 -0.77 l
6.34 0 l
6.34 0 l
6.34 0 l
6.34 -0.15 l
6.34 0.15 l
6.34 -0.15 l
6.34 0.45 l
o
0.3804 0.6118 1 srgb
np
44.85 100.66 m
6.34 12.85 l
6.34 -48.50 l
6.34 -0.28 l
6.34 4.85 l
6.34 -5.71 l
6.34 -8.37 l
6.33 6.59 l
6.34 -8.17 l
6.34 2.62 l
6.34 -3.01 l
6.34 -2.24 l
6.34 1.99 l
6.34 0.39 l
6.34 -2.54 l
6.34 -1.36 l
6.34 0.92 l
6.34 -1.18 l
6.34 -0.41 l
6.33 2.91 l
6.34 -4.44 l
6.34 -0.59 l
6.34 0.16 l
6.34 -0.10 l
6.34 -0.06 l
6.34 0.19 l
6.34 -0.10 l
6.34 -0.15 l
o
/bg { 0.9725 0.4627 0.4275 srgb } def
44.85 118.99 1.95 c p2
51.19 70.00 1.95 c p2
57.53 88.28 1.95 c p2
63.87 60.21 1.95 c p2
70.21 61.73 1.95 c p2
76.55 53.55 1.95 c p2
82.89 60.78 1.95 c p2
89.22 55.93 1.95 c p2
95.56 80.90 1.95 c p2
101.90 52.36 1.95 c p2
108.24 50.95 1.95 c p2
114.58 55.72 1.95 c p2
120.92 51.49 1.95 c p2
127.26 52.78 1.95 c p2
133.60 50.17 1.95 c p2
139.94 52.93 1.95 c p2
146.28 48.65 1.95 c p2
152.62 51.96 1.95 c p2
158.96 51.96 1.95 c p2
165.29 49.05 1.95 c p2
171.63 47.43 1.95 c p2
177.97 47.03 1.95 c p2
184.31 47.36 1.95 c p2
190.65 47.21 1.95 c p2
196.99 47.45 1.95 c p2
203.33 47.15 1.95 c p2
209.67 46.88 1.95 c p2
216.01 47.39 1.95 c p2
/bg { 0.7176 0.6235 0 srgb } def
np
 44.85 125.28 m
2.63 -4.56 l
-5.26 0 l
cp p2
np
 51.19 69.79 m
2.63 -4.56 l
-5.26 0 l
cp p2
np
 57.53 74.35 m
2.63 -4.56 l
-5.26 0 l
cp p2
np
 63.87 76.10 m
2.63 -4.56 l
-5.27 0 l
cp p2
np
 70.21 72.95 m
2.63 -4.56 l
-5.27 0 l
cp p2
np
 76.55 57.11 m
2.63 -4.56 l
-5.27 0 l
cp p2
np
 82.89 62.40 m
2.63 -4.56 l
-5.27 0 l
cp p2
np
 89.22 67.35 m
2.64 -4.56 l
-5.27 0 l
cp p2
np
 95.56 60.93 m
2.64 -4.56 l
-5.27 0 l
cp p2
np
 101.90 57.15 m
2.64 -4.56 l
-5.27 0 l
cp p2
np
 108.24 59.57 m
2.63 -4.56 l
-5.26 0 l
cp p2
np
 114.58 56.49 m
2.63 -4.56 l
-5.26 0 l
cp p2
np
 120.92 58.82 m
2.63 -4.56 l
-5.26 0 l
cp p2
np
 127.26 53.90 m
2.63 -4.56 l
-5.26 0 l
cp p2
np
 133.60 58.17 m
2.63 -4.56 l
-5.26 0 l
cp p2
np
 139.94 55.74 m
2.63 -4.56 l
-5.26 0 l
cp p2
np
 146.28 53.12 m
2.63 -4.56 l
-5.27 0 l
cp p2
np
 152.62 54.78 m
2.63 -4.56 l
-5.27 0 l
cp p2
np
 158.96 54.11 m
2.63 -4.56 l
-5.27 0 l
cp p2
np
 165.29 52.37 m
2.64 -4.56 l
-5.27 0 l
cp p2
np
 171.63 50.25 m
2.64 -4.56 l
-5.27 0 l
cp p2
np
 177.97 50.04 m
2.64 -4.56 l
-5.27 0 l
cp p2
np
 184.31 50.29 m
2.64 -4.56 l
-5.27 0 l
cp p2
np
 190.65 50.08 m
2.63 -4.56 l
-5.26 0 l
cp p2
np
 196.99 50.07 m
2.63 -4.56 l
-5.26 0 l
cp p2
np
 203.33 50.06 m
2.63 -4.56 l
-5.26 0 l
cp p2
np
 209.67 49.99 m
2.63 -4.56 l
-5.26 0 l
cp p2
np
 216.01 50.18 m
2.63 -4.56 l
-5.26 0 l
cp p2
/bg { 0 0.7294 0.2196 srgb } def
np
 42.90 146.73 m
3.90 0 l
0 3.91 l
-3.90 0 l
cp p2
np
 49.23 74.00 m
3.91 0 l
0 3.91 l
-3.91 0 l
cp p2
np
 55.57 65.72 m
3.91 0 l
0 3.91 l
-3.91 0 l
cp p2
np
 61.91 56.99 m
3.91 0 l
0 3.90 l
-3.91 0 l
cp p2
np
 68.25 58.47 m
3.91 0 l
0 3.90 l
-3.91 0 l
cp p2
np
 74.59 56.40 m
3.91 0 l
0 3.91 l
-3.91 0 l
cp p2
np
 80.93 58.57 m
3.91 0 l
0 3.91 l
-3.91 0 l
cp p2
np
 87.27 53.58 m
3.91 0 l
0 3.91 l
-3.91 0 l
cp p2
np
 93.61 58.07 m
3.91 0 l
0 3.90 l
-3.91 0 l
cp p2
np
 99.95 50.57 m
3.91 0 l
0 3.91 l
-3.91 0 l
cp p2
np
 106.29 51.51 m
3.91 0 l
0 3.91 l
-3.91 0 l
cp p2
np
 112.63 51.14 m
3.91 0 l
0 3.91 l
-3.91 0 l
cp p2
np
 118.97 51.81 m
3.91 0 l
0 3.91 l
-3.91 0 l
cp p2
np
 125.30 49.61 m
3.91 0 l
0 3.91 l
-3.91 0 l
cp p2
np
 131.64 50.04 m
3.91 0 l
0 3.91 l
-3.91 0 l
cp p2
np
 137.98 48.91 m
3.91 0 l
0 3.91 l
-3.91 0 l
cp p2
np
 144.32 47.66 m
3.91 0 l
0 3.91 l
-3.91 0 l
cp p2
np
 150.66 48.44 m
3.91 0 l
0 3.91 l
-3.91 0 l
cp p2
np
 157.00 47.93 m
3.91 0 l
0 3.91 l
-3.91 0 l
cp p2
np
 163.34 48.65 m
3.91 0 l
0 3.91 l
-3.91 0 l
cp p2
np
 169.68 45.55 m
3.91 0 l
0 3.91 l
-3.91 0 l
cp p2
np
 176.02 46.39 m
3.91 0 l
0 3.91 l
-3.91 0 l
cp p2
np
 182.36 45.97 m
3.91 0 l
0 3.91 l
-3.91 0 l
cp p2
np
 188.70 46.47 m
3.91 0 l
0 3.90 l
-3.91 0 l
cp p2
np
 195.04 45.72 m
3.91 0 l
0 3.91 l
-3.91 0 l
cp p2
np
 201.38 46.19 m
3.90 0 l
0 3.91 l
-3.90 0 l
cp p2
np
 207.71 45.27 m
3.91 0 l
0 3.91 l
-3.91 0 l
cp p2
np
 214.05 45.23 m
3.91 0 l
0 3.90 l
-3.91 0 l
cp p2
0 0.7490 0.7686 srgb
0.71 setlinewidth
[] 0 setdash
1 setlinecap
10.00 setmiterlimit
np
42.09 82.53 m
5.52 0 l
o
np
44.85 79.77 m
0 5.53 l
o
np
48.42 60.84 m
5.53 0 l
o
np
51.19 58.07 m
0 5.53 l
o
np
54.76 63.03 m
5.53 0 l
o
np
57.53 60.27 m
0 5.52 l
o
np
61.10 97.57 m
5.53 0 l
o
np
63.87 94.80 m
0 5.53 l
o
np
67.44 85.45 m
5.53 0 l
o
np
70.21 82.69 m
0 5.53 l
o
np
73.78 51.20 m
5.53 0 l
o
np
76.55 48.43 m
0 5.53 l
o
np
80.12 51.95 m
5.53 0 l
o
np
82.89 49.19 m
0 5.53 l
o
np
86.46 86.22 m
5.53 0 l
o
np
89.22 83.45 m
0 5.53 l
o
np
92.80 52.89 m
5.53 0 l
o
np
95.56 50.12 m
0 5.53 l
o
np
99.14 67.31 m
5.53 0 l
o
np
101.90 64.54 m
0 5.53 l
o
np
105.48 59.62 m
5.53 0 l
o
np
108.24 56.85 m
0 5.53 l
o
np
111.82 49.80 m
5.53 0 l
o
np
114.58 47.04 m
0 5.53 l
o
np
118.16 54.40 m
5.52 0 l
o
np
120.92 51.64 m
0 5.53 l
o
np
124.50 50.43 m
5.52 0 l
o
np
127.26 47.67 m
0 5.53 l
o
np
130.83 54.85 m
5.53 0 l
o
np
133.60 52.09 m
0 5.53 l
o
np
137.17 52.58 m
5.53 0 l
o
np
139.94 49.81 m
0 5.53 l
o
np
143.51 50.58 m
5.53 0 l
o
np
146.28 47.81 m
0 5.53 l
o
np
149.85 51.81 m
5.53 0 l
o
np
152.62 49.04 m
0 5.53 l
o
np
156.19 50.27 m
5.53 0 l
o
np
158.96 47.50 m
0 5.53 l
o
np
162.53 47.68 m
5.53 0 l
o
np
165.29 44.92 m
0 5.53 l
o
np
168.87 46.91 m
5.53 0 l
o
np
171.63 44.15 m
0 5.53 l
o
np
175.21 46.91 m
5.53 0 l
o
np
177.97 44.15 m
0 5.53 l
o
np
181.55 46.91 m
5.53 0 l
o
np
184.31 44.15 m
0 5.53 l
o
np
187.89 46.91 m
5.53 0 l
o
np
190.65 44.15 m
0 5.53 l
o
np
194.23 46.76 m
5.53 0 l
o
np
196.99 43.99 m
0 5.53 l
o
np
200.57 46.91 m
5.52 0 l
o
np
203.33 44.15 m
0 5.53 l
o
np
206.90 46.76 m
5.53 0 l
o
np
209.67 43.99 m
0 5.53 l
o
np
213.24 47.21 m
5.53 0 l
o
np
216.01 44.45 m
0 5.53 l
o
0.3804 0.6118 1 srgb
42.90 98.71 3.91 3.91 r p1
np
42.90 98.71 m
3.90 3.91 l
o
np
42.90 102.62 m
3.90 -3.91 l
o
49.23 111.56 3.91 3.91 r p1
np
49.23 111.56 m
3.91 3.91 l
o
np
49.23 115.47 m
3.91 -3.91 l
o
55.57 63.06 3.91 3.91 r p1
np
55.57 63.06 m
3.91 3.91 l
o
np
55.57 66.97 m
3.91 -3.91 l
o
61.91 62.78 3.91 3.91 r p1
np
61.91 62.78 m
3.91 3.91 l
o
np
61.91 66.69 m
3.91 -3.91 l
o
68.25 67.63 3.91 3.91 r p1
np
68.25 67.63 m
3.91 3.91 l
o
np
68.25 71.54 m
3.91 -3.91 l
o
74.59 61.91 3.91 3.91 r p1
np
74.59 61.91 m
3.91 3.91 l
o
np
74.59 65.82 m
3.91 -3.91 l
o
80.93 53.55 3.91 3.91 r p1
np
80.93 53.55 m
3.91 3.91 l
o
np
80.93 57.46 m
3.91 -3.91 l
o
87.27 60.14 3.91 3.91 r p1
np
87.27 60.14 m
3.91 3.91 l
o
np
87.27 64.05 m
3.91 -3.91 l
o
93.61 51.97 3.91 3.91 r p1
np
93.61 51.97 m
3.91 3.91 l
o
np
93.61 55.88 m
3.91 -3.91 l
o
99.95 54.59 3.91 3.91 r p1
np
99.95 54.59 m
3.91 3.91 l
o
np
99.95 58.50 m
3.91 -3.91 l
o
106.29 51.58 3.91 3.91 r p1
np
106.29 51.58 m
3.91 3.91 l
o
np
106.29 55.49 m
3.91 -3.91 l
o
112.63 49.33 3.91 3.91 r p1
np
112.63 49.33 m
3.91 3.91 l
o
np
112.63 53.24 m
3.91 -3.91 l
o
118.97 51.33 3.91 3.91 r p1
np
118.97 51.33 m
3.91 3.91 l
o
np
118.97 55.24 m
3.91 -3.91 l
o
125.30 51.72 3.91 3.91 r p1
np
125.30 51.72 m
3.91 3.91 l
o
np
125.30 55.63 m
3.91 -3.91 l
o
131.64 49.18 3.91 3.91 r p1
np
131.64 49.18 m
3.91 3.91 l
o
np
131.64 53.09 m
3.91 -3.91 l
o
137.98 47.82 3.91 3.91 r p1
np
137.98 47.82 m
3.91 3.91 l
o
np
137.98 51.73 m
3.91 -3.91 l
o
144.32 48.74 3.91 3.91 r p1
np
144.32 48.74 m
3.91 3.91 l
o
np
144.32 52.65 m
3.91 -3.91 l
o
150.66 47.55 3.91 3.91 r p1
np
150.66 47.55 m
3.91 3.91 l
o
np
150.66 51.46 m
3.91 -3.91 l
o
157.00 47.14 3.91 3.91 r p1
np
157.00 47.14 m
3.91 3.91 l
o
np
157.00 51.05 m
3.91 -3.91 l
o
163.34 50.06 3.91 3.91 r p1
np
163.34 50.06 m
3.91 3.91 l
o
np
163.34 53.97 m
3.91 -3.91 l
o
169.68 45.62 3.91 3.91 r p1
np
169.68 45.62 m
3.91 3.90 l
o
np
169.68 49.52 m
3.91 -3.90 l
o
176.02 45.03 3.91 3.91 r p1
np
176.02 45.03 m
3.91 3.91 l
o
np
176.02 48.94 m
3.91 -3.91 l
o
182.36 45.19 3.91 3.91 r p1
np
182.36 45.19 m
3.91 3.91 l
o
np
182.36 49.10 m
3.91 -3.91 l
o
188.70 45.09 3.91 3.91 r p1
np
188.70 45.09 m
3.91 3.91 l
o
np
188.70 49.00 m
3.91 -3.91 l
o
195.04 45.02 3.91 3.91 r p1
np
195.04 45.02 m
3.91 3.91 l
o
np
195.04 48.93 m
3.91 -3.91 l
o
201.38 45.22 3.91 3.91 r p1
np
201.38 45.22 m
3.90 3.91 l
o
np
201.38 49.13 m
3.90 -3.91 l
o
207.71 45.12 3.91 3.91 r p1
np
207.71 45.12 m
3.91 3.91 l
o
np
207.71 49.03 m
3.91 -3.91 l
o
214.05 44.96 3.91 3.91 r p1
np
214.05 44.96 m
3.91 3.91 l
o
np
214.05 48.87 m
3.91 -3.91 l
o
0.4980 0.4980 0.4980 srgb
1.07 setlinewidth
[] 0 setdash
41.05 40.26 178.77 143.01 r p1
0.00 0.00 595.28 212.60 cl
225.79 40.26 404.55 183.27 cl
/bg { 1 1 1 srgb } def
225.79 40.26 178.77 143.01 r p2
0.9804 0.9804 0.9804 srgb
1.07 setlinewidth
[] 0 setdash
0 setlinecap
1 setlinejoin
10.00 setmiterlimit
np
225.79 61.11 m
178.76 0 l
o
np
225.79 89.82 m
178.76 0 l
o
np
225.79 118.52 m
178.76 0 l
o
np
225.79 147.23 m
178.76 0 l
o
np
225.79 175.94 m
178.76 0 l
o
0.8980 0.8980 0.8980 srgb
0.43 setlinewidth
[] 0 setdash
np
225.79 46.76 m
178.76 0 l
o
np
225.79 75.46 m
178.76 0 l
o
np
225.79 104.17 m
178.76 0 l
o
np
225.79 132.88 m
178.76 0 l
o
np
225.79 161.58 m
178.76 0 l
o
np
229.59 40.26 m
0 143.01 l
o
np
235.93 40.26 m
0 143.01 l
o
np
242.27 40.26 m
0 143.01 l
o
np
248.61 40.26 m
0 143.01 l
o
np
254.95 40.26 m
0 143.01 l
o
np
261.29 40.26 m
0 143.01 l
o
np
267.63 40.26 m
0 143.01 l
o
np
273.97 40.26 m
0 143.01 l
o
np
280.31 40.26 m
0 143.01 l
o
np
286.65 40.26 m
0 143.01 l
o
np
292.99 40.26 m
0 143.01 l
o
np
299.32 40.26 m
0 143.01 l
o
np
305.66 40.26 m
0 143.01 l
o
np
312.00 40.26 m
0 143.01 l
o
np
318.34 40.26 m
0 143.01 l
o
np
324.68 40.26 m
0 143.01 l
o
np
331.02 40.26 m
0 143.01 l
o
np
337.36 40.26 m
0 143.01 l
o
np
343.70 40.26 m
0 143.01 l
o
np
350.04 40.26 m
0 143.01 l
o
np
356.38 40.26 m
0 143.01 l
o
np
362.72 40.26 m
0 143.01 l
o
np
369.06 40.26 m
0 143.01 l
o
np
375.39 40.26 m
0 143.01 l
o
np
381.73 40.26 m
0 143.01 l
o
np
388.07 40.26 m
0 143.01 l
o
np
394.41 40.26 m
0 143.01 l
o
np
400.75 40.26 m
0 143.01 l
o
0.9725 0.4627 0.4275 srgb
1.07 setlinewidth
[] 0 setdash
1.00 setmiterlimit
np
229.59 80.67 m
6.34 96.10 l
6.34 -118.70 l
6.34 -5.43 l
6.34 5.68 l
6.34 17.22 l
6.34 -23.88 l
6.34 -0.68 l
6.34 1.00 l
6.34 4.08 l
6.34 -7.06 l
6.33 -0.35 l
6.34 1.84 l
6.34 3.35 l
6.34 -4.96 l
6.34 -1.47 l
6.34 2.16 l
6.34 -1.66 l
6.34 -0.41 l
6.34 2.61 l
6.34 5.30 l
6.34 -6.86 l
6.34 -0.95 l
6.33 0.54 l
6.34 -1.03 l
6.34 0.54 l
6.34 1.07 l
6.34 -1.63 l
o
0.7176 0.6235 0 srgb
np
229.59 114.02 m
6.34 11.10 l
6.34 -61.83 l
6.34 -8.79 l
6.34 3.47 l
6.34 9.11 l
6.34 -10.57 l
6.34 -3.88 l
6.34 3.04 l
6.34 0.62 l
6.34 -6.47 l
6.33 -0.62 l
6.34 1.39 l
6.34 4.08 l
6.34 -5.38 l
6.34 -0.93 l
6.34 1.69 l
6.34 -1.33 l
6.34 -0.61 l
6.34 1.21 l
6.34 3.63 l
6.34 -2.60 l
6.34 -0.91 l
6.33 -0.52 l
6.34 -0.48 l
6.34 0.74 l
6.34 -0.92 l
6.34 -0.72 l
o
0 0.7294 0.2196 srgb
np
229.59 147.08 m
6.34 -65.84 l
6.34 -10.44 l
6.34 -17.90 l
6.34 2.55 l
6.34 2.68 l
6.34 2.20 l
6.34 -8.52 l
6.34 15.02 l
6.34 -12.99 l
6.34 -4.39 l
6.33 0.93 l
6.34 -0.64 l
6.34 4.26 l
6.34 -4.90 l
6.34 0.21 l
6.34 0.53 l
6.34 -1.10 l
6.34 0.01 l
6.34 -0.33 l
6.34 2.69 l
6.34 -1.63 l
6.34 1.79 l
6.33 -1.94 l
6.34 2.20 l
6.34 -1.36 l
6.34 -1.77 l
6.34 0.46 l
o
0 0.7490 0.7686 srgb
np
229.59 104.09 m
6.34 -12.81 l
6.34 -8.39 l
6.34 -28.71 l
6.34 3.01 l
6.34 -2.62 l
6.34 7.93 l
6.34 -10.46 l
6.34 41.34 l
6.34 -37.66 l
6.34 -7.16 l
6.33 2.28 l
6.34 -1.75 l
6.34 9.49 l
6.34 -10.39 l
6.34 3.53 l
6.34 -2.41 l
6.34 2.06 l
6.34 -1.22 l
6.34 -2.25 l
6.34 1.76 l
6.34 -2.49 l
6.34 0.45 l
6.33 -0.41 l
6.34 1.31 l
6.34 -1.43 l
6.34 0.16 l
6.34 0.98 l
o
0.3804 0.6118 1 srgb
np
229.59 146.90 m
6.34 -85.03 l
6.34 -12.14 l
6.34 -2.13 l
6.34 -0.31 l
6.34 4.46 l
6.34 -3.63 l
6.34 0.49 l
6.34 -1.02 l
6.34 3.75 l
6.34 -4.01 l
6.33 -0.57 l
6.34 0.26 l
6.34 0.53 l
6.34 -0.53 l
6.34 0.01 l
6.34 -0.01 l
6.34 0 l
6.34 0 l
6.34 1.37 l
6.34 -0.56 l
6.34 70.76 l
6.34 -66.17 l
6.33 56.46 l
6.34 -61.28 l
6.34 6.64 l
6.34 -7.48 l
6.34 0.26 l
o
/bg { 0.9725 0.4627 0.4275 srgb } def
229.59 80.67 1.95 c p2
235.93 176.77 1.95 c p2
242.27 58.07 1.95 c p2
248.61 52.64 1.95 c p2
254.95 58.32 1.95 c p2
261.29 75.54 1.95 c p2
267.63 51.66 1.95 c p2
273.97 50.98 1.95 c p2
280.31 51.98 1.95 c p2
286.65 56.06 1.95 c p2
292.99 49.00 1.95 c p2
299.32 48.65 1.95 c p2
305.66 50.49 1.95 c p2
312.00 53.84 1.95 c p2
318.34 48.88 1.95 c p2
324.68 47.41 1.95 c p2
331.02 49.57 1.95 c p2
337.36 47.91 1.95 c p2
343.70 47.50 1.95 c p2
350.04 50.11 1.95 c p2
356.38 55.41 1.95 c p2
362.72 48.55 1.95 c p2
369.06 47.60 1.95 c p2
375.39 48.14 1.95 c p2
381.73 47.11 1.95 c p2
388.07 47.65 1.95 c p2
394.41 48.72 1.95 c p2
400.75 47.09 1.95 c p2
/bg { 0.7176 0.6235 0 srgb } def
np
 229.59 117.06 m
2.64 -4.56 l
-5.27 0 l
cp p2
np
 235.93 128.16 m
2.63 -4.56 l
-5.26 0 l
cp p2
np
 242.27 66.33 m
2.63 -4.56 l
-5.26 0 l
cp p2
np
 248.61 57.54 m
2.63 -4.56 l
-5.26 0 l
cp p2
np
 254.95 61.01 m
2.63 -4.56 l
-5.26 0 l
cp p2
np
 261.29 70.12 m
2.63 -4.56 l
-5.26 0 l
cp p2
np
 267.63 59.55 m
2.63 -4.56 l
-5.26 0 l
cp p2
np
 273.97 55.67 m
2.63 -4.56 l
-5.27 0 l
cp p2
np
 280.31 58.71 m
2.63 -4.56 l
-5.27 0 l
cp p2
np
 286.65 59.33 m
2.63 -4.56 l
-5.27 0 l
cp p2
np
 292.99 52.86 m
2.63 -4.56 l
-5.27 0 l
cp p2
np
 299.32 52.24 m
2.64 -4.56 l
-5.27 0 l
cp p2
np
 305.66 53.63 m
2.64 -4.56 l
-5.27 0 l
cp p2
np
 312.00 57.71 m
2.64 -4.56 l
-5.27 0 l
cp p2
np
 318.34 52.33 m
2.63 -4.56 l
-5.26 0 l
cp p2
np
 324.68 51.40 m
2.63 -4.56 l
-5.26 0 l
cp p2
np
 331.02 53.09 m
2.63 -4.56 l
-5.26 0 l
cp p2
np
 337.36 51.76 m
2.63 -4.56 l
-5.26 0 l
cp p2
np
 343.70 51.15 m
2.63 -4.56 l
-5.26 0 l
cp p2
np
 350.04 52.36 m
2.63 -4.56 l
-5.26 0 l
cp p2
np
 356.38 55.99 m
2.63 -4.56 l
-5.27 0 l
cp p2
np
 362.72 53.39 m
2.63 -4.56 l
-5.27 0 l
cp p2
np
 369.06 52.48 m
2.63 -4.56 l
-5.27 0 l
cp p2
np
 375.39 51.96 m
2.64 -4.56 l
-5.27 0 l
cp p2
np
 381.73 51.48 m
2.64 -4.56 l
-5.27 0 l
cp p2
np
 388.07 52.22 m
2.64 -4.56 l
-5.27 0 l
cp p2
np
 394.41 51.30 m
2.63 -4.56 l
-5.26 0 l
cp p2
np
 400.75 50.58 m
2.63 -4.56 l
-5.26 0 l
cp p2
/bg { 0 0.7294 0.2196 srgb } def
np
 227.64 145.12 m
3.91 0 l
0 3.91 l
-3.91 0 l
cp p2
np
 233.98 79.28 m
3.91 0 l
0 3.91 l
-3.91 0 l
cp p2
np
 240.32 68.85 m
3.91 0 l
0 3.91 l
-3.91 0 l
cp p2
np
 246.66 50.95 m
3.91 0 l
0 3.91 l
-3.91 0 l
cp p2
np
 253.00 53.50 m
3.90 0 l
0 3.91 l
-3.90 0 l
cp p2
np
 259.33 56.18 m
3.91 0 l
0 3.91 l
-3.91 0 l
cp p2
np
 265.67 58.38 m
3.91 0 l
0 3.91 l
-3.91 0 l
cp p2
np
 272.01 49.86 m
3.91 0 l
0 3.91 l
-3.91 0 l
cp p2
np
 278.35 64.87 m
3.91 0 l
0 3.91 l
-3.91 0 l
cp p2
np
 284.69 51.88 m
3.91 0 l
0 3.91 l
-3.91 0 l
cp p2
np
 291.03 47.50 m
3.91 0 l
0 3.91 l
-3.91 0 l
cp p2
np
 297.37 48.43 m
3.91 0 l
0 3.91 l
-3.91 0 l
cp p2
np
 303.71 47.79 m
3.91 0 l
0 3.91 l
-3.91 0 l
cp p2
np
 310.05 52.04 m
3.91 0 l
0 3.91 l
-3.91 0 l
cp p2
np
 316.39 47.14 m
3.91 0 l
0 3.91 l
-3.91 0 l
cp p2
np
 322.73 47.35 m
3.91 0 l
0 3.91 l
-3.91 0 l
cp p2
np
 329.07 47.89 m
3.91 0 l
0 3.91 l
-3.91 0 l
cp p2
np
 335.40 46.79 m
3.91 0 l
0 3.91 l
-3.91 0 l
cp p2
np
 341.74 46.79 m
3.91 0 l
0 3.91 l
-3.91 0 l
cp p2
np
 348.08 46.46 m
3.91 0 l
0 3.91 l
-3.91 0 l
cp p2
np
 354.42 49.15 m
3.91 0 l
0 3.91 l
-3.91 0 l
cp p2
np
 360.76 47.52 m
3.91 0 l
0 3.91 l
-3.91 0 l
cp p2
np
 367.10 49.32 m
3.91 0 l
0 3.91 l
-3.91 0 l
cp p2
np
 373.44 47.38 m
3.91 0 l
0 3.91 l
-3.91 0 l
cp p2
np
 379.78 49.57 m
3.91 0 l
0 3.91 l
-3.91 0 l
cp p2
np
 386.12 48.22 m
3.91 0 l
0 3.91 l
-3.91 0 l
cp p2
np
 392.46 46.45 m
3.91 0 l
0 3.90 l
-3.91 0 l
cp p2
np
 398.80 46.90 m
3.91 0 l
0 3.91 l
-3.91 0 l
cp p2
0 0.7490 0.7686 srgb
0.71 setlinewidth
[] 0 setdash
1 setlinecap
10.00 setmiterlimit
np
226.83 104.09 m
5.53 0 l
o
np
229.59 101.32 m
0 5.53 l
o
np
233.17 91.28 m
5.53 0 l
o
np
235.93 88.51 m
0 5.53 l
o
np
239.51 82.89 m
5.53 0 l
o
np
242.27 80.12 m
0 5.53 l
o
np
245.85 54.18 m
5.53 0 l
o
np
248.61 51.41 m
0 5.53 l
o
np
252.19 57.19 m
5.52 0 l
o
np
254.95 54.42 m
0 5.53 l
o
np
258.52 54.57 m
5.53 0 l
o
np
261.29 51.81 m
0 5.53 l
o
np
264.86 62.50 m
5.53 0 l
o
np
267.63 59.74 m
0 5.52 l
o
np
271.20 52.04 m
5.53 0 l
o
np
273.97 49.27 m
0 5.53 l
o
np
277.54 93.38 m
5.53 0 l
o
np
280.31 90.61 m
0 5.53 l
o
np
283.88 55.72 m
5.53 0 l
o
np
286.65 52.96 m
0 5.53 l
o
np
290.22 48.56 m
5.53 0 l
o
np
292.99 45.80 m
0 5.53 l
o
np
296.56 50.84 m
5.53 0 l
o
np
299.32 48.08 m
0 5.53 l
o
np
302.90 49.09 m
5.53 0 l
o
np
305.66 46.33 m
0 5.53 l
o
np
309.24 58.58 m
5.53 0 l
o
np
312.00 55.81 m
0 5.53 l
o
np
315.58 48.19 m
5.53 0 l
o
np
318.34 45.43 m
0 5.53 l
o
np
321.92 51.72 m
5.53 0 l
o
np
324.68 48.95 m
0 5.53 l
o
np
328.26 49.31 m
5.52 0 l
o
np
331.02 46.54 m
0 5.53 l
o
np
334.59 51.37 m
5.53 0 l
o
np
337.36 48.61 m
0 5.53 l
o
np
340.93 50.15 m
5.53 0 l
o
np
343.70 47.39 m
0 5.53 l
o
np
347.27 47.90 m
5.53 0 l
o
np
350.04 45.14 m
0 5.53 l
o
np
353.61 49.66 m
5.53 0 l
o
np
356.38 46.90 m
0 5.53 l
o
np
359.95 47.17 m
5.53 0 l
o
np
362.72 44.41 m
0 5.53 l
o
np
366.29 47.62 m
5.53 0 l
o
np
369.06 44.85 m
0 5.53 l
o
np
372.63 47.21 m
5.53 0 l
o
np
375.39 44.45 m
0 5.53 l
o
np
378.97 48.52 m
5.53 0 l
o
np
381.73 45.76 m
0 5.53 l
o
np
385.31 47.09 m
5.53 0 l
o
np
388.07 44.32 m
0 5.53 l
o
np
391.65 47.25 m
5.53 0 l
o
np
394.41 44.48 m
0 5.53 l
o
np
397.99 48.23 m
5.53 0 l
o
np
400.75 45.47 m
0 5.53 l
o
0.3804 0.6118 1 srgb
227.64 144.95 3.91 3.91 r p1
np
227.64 144.95 m
3.91 3.90 l
o
np
227.64 148.85 m
3.91 -3.90 l
o
233.98 59.91 3.91 3.91 r p1
np
233.98 59.91 m
3.91 3.91 l
o
np
233.98 63.82 m
3.91 -3.91 l
o
240.32 47.78 3.91 3.91 r p1
np
240.32 47.78 m
3.91 3.91 l
o
np
240.32 51.69 m
3.91 -3.91 l
o
246.66 45.64 3.91 3.91 r p1
np
246.66 45.64 m
3.91 3.91 l
o
np
246.66 49.55 m
3.91 -3.91 l
o
253.00 45.34 3.91 3.91 r p1
np
253.00 45.34 m
3.90 3.91 l
o
np
253.00 49.25 m
3.90 -3.91 l
o
259.33 49.79 3.91 3.91 r p1
np
259.33 49.79 m
3.91 3.91 l
o
np
259.33 53.70 m
3.91 -3.91 l
o
265.67 46.16 3.91 3.91 r p1
np
265.67 46.16 m
3.91 3.91 l
o
np
265.67 50.07 m
3.91 -3.91 l
o
272.01 46.65 3.91 3.91 r p1
np
272.01 46.65 m
3.91 3.91 l
o
np
272.01 50.56 m
3.91 -3.91 l
o
278.35 45.63 3.91 3.91 r p1
np
278.35 45.63 m
3.91 3.91 l
o
np
278.35 49.54 m
3.91 -3.91 l
o
284.69 49.38 3.91 3.91 r p1
np
284.69 49.38 m
3.91 3.91 l
o
np
284.69 53.29 m
3.91 -3.91 l
o
291.03 45.37 3.91 3.91 r p1
np
291.03 45.37 m
3.91 3.91 l
o
np
291.03 49.28 m
3.91 -3.91 l
o
297.37 44.80 3.91 3.91 r p1
np
297.37 44.80 m
3.91 3.91 l
o
np
297.37 48.71 m
3.91 -3.91 l
o
303.71 45.07 3.91 3.91 r p1
np
303.71 45.07 m
3.91 3.91 l
o
np
303.71 48.98 m
3.91 -3.91 l
o
310.05 45.59 3.91 3.91 r p1
np
310.05 45.59 m
3.91 3.91 l
o
np
310.05 49.50 m
3.91 -3.91 l
o
316.39 45.07 3.91 3.91 r p1
np
316.39 45.07 m
3.91 3.91 l
o
np
316.39 48.98 m
3.91 -3.91 l
o
322.73 45.08 3.91 3.91 r p1
np
322.73 45.08 m
3.91 3.91 l
o
np
322.73 48.99 m
3.91 -3.91 l
o
329.07 45.07 3.91 3.91 r p1
np
329.07 45.07 m
3.91 3.91 l
o
np
329.07 48.98 m
3.91 -3.91 l
o
335.40 45.07 3.91 3.91 r p1
np
335.40 45.07 m
3.91 3.91 l
o
np
335.40 48.98 m
3.91 -3.91 l
o
341.74 45.07 3.91 3.91 r p1
np
341.74 45.07 m
3.91 3.91 l
o
np
341.74 48.98 m
3.91 -3.91 l
o
348.08 46.44 3.91 3.91 r p1
np
348.08 46.44 m
3.91 3.91 l
o
np
348.08 50.35 m
3.91 -3.91 l
o
354.42 45.88 3.91 3.91 r p1
np
354.42 45.88 m
3.91 3.91 l
o
np
354.42 49.79 m
3.91 -3.91 l
o
360.76 116.64 3.91 3.91 r p1
np
360.76 116.64 m
3.91 3.91 l
o
np
360.76 120.55 m
3.91 -3.91 l
o
367.10 50.46 3.91 3.91 r p1
np
367.10 50.46 m
3.91 3.91 l
o
np
367.10 54.37 m
3.91 -3.91 l
o
373.44 106.93 3.91 3.91 r p1
np
373.44 106.93 m
3.91 3.91 l
o
np
373.44 110.84 m
3.91 -3.91 l
o
379.78 45.64 3.91 3.91 r p1
np
379.78 45.64 m
3.91 3.91 l
o
np
379.78 49.55 m
3.91 -3.91 l
o
386.12 52.28 3.91 3.91 r p1
np
386.12 52.28 m
3.91 3.91 l
o
np
386.12 56.19 m
3.91 -3.91 l
o
392.46 44.80 3.91 3.91 r p1
np
392.46 44.80 m
3.91 3.91 l
o
np
392.46 48.71 m
3.91 -3.91 l
o
398.80 45.07 3.91 3.91 r p1
np
398.80 45.07 m
3.91 3.91 l
o
np
398.80 48.98 m
3.91 -3.91 l
o
0.4980 0.4980 0.4980 srgb
1.07 setlinewidth
[] 0 setdash
225.79 40.26 178.77 143.01 r p1
0.00 0.00 595.28 212.60 cl
410.53 40.26 589.30 183.27 cl
/bg { 1 1 1 srgb } def
410.53 40.26 178.77 143.01 r p2
0.9804 0.9804 0.9804 srgb
1.07 setlinewidth
[] 0 setdash
0 setlinecap
1 setlinejoin
10.00 setmiterlimit
np
410.53 61.11 m
178.77 0 l
o
np
410.53 89.82 m
178.77 0 l
o
np
410.53 118.52 m
178.77 0 l
o
np
410.53 147.23 m
178.77 0 l
o
np
410.53 175.94 m
178.77 0 l
o
0.8980 0.8980 0.8980 srgb
0.43 setlinewidth
[] 0 setdash
np
410.53 46.76 m
178.77 0 l
o
np
410.53 75.46 m
178.77 0 l
o
np
410.53 104.17 m
178.77 0 l
o
np
410.53 132.88 m
178.77 0 l
o
np
410.53 161.58 m
178.77 0 l
o
np
414.34 40.26 m
0 143.01 l
o
np
420.68 40.26 m
0 143.01 l
o
np
427.01 40.26 m
0 143.01 l
o
np
433.35 40.26 m
0 143.01 l
o
np
439.69 40.26 m
0 143.01 l
o
np
446.03 40.26 m
0 143.01 l
o
np
452.37 40.26 m
0 143.01 l
o
np
458.71 40.26 m
0 143.01 l
o
np
465.05 40.26 m
0 143.01 l
o
np
471.39 40.26 m
0 143.01 l
o
np
477.73 40.26 m
0 143.01 l
o
np
484.07 40.26 m
0 143.01 l
o
np
490.41 40.26 m
0 143.01 l
o
np
496.75 40.26 m
0 143.01 l
o
np
503.08 40.26 m
0 143.01 l
o
np
509.42 40.26 m
0 143.01 l
o
np
515.76 40.26 m
0 143.01 l
o
np
522.10 40.26 m
0 143.01 l
o
np
528.44 40.26 m
0 143.01 l
o
np
534.78 40.26 m
0 143.01 l
o
np
541.12 40.26 m
0 143.01 l
o
np
547.46 40.26 m
0 143.01 l
o
np
553.80 40.26 m
0 143.01 l
o
np
560.14 40.26 m
0 143.01 l
o
np
566.48 40.26 m
0 143.01 l
o
np
572.82 40.26 m
0 143.01 l
o
np
579.16 40.26 m
0 143.01 l
o
np
585.49 40.26 m
0 143.01 l
o
0.9725 0.4627 0.4275 srgb
1.07 setlinewidth
[] 0 setdash
1.00 setmiterlimit
np
414.34 117.96 m
6.34 -56.74 l
6.33 2.59 l
6.34 31.60 l
6.34 -25.19 l
6.34 -19.15 l
6.34 3.84 l
6.34 19.26 l
6.34 -21.48 l
6.34 2.24 l
6.34 6.81 l
6.34 -9.17 l
6.34 0.85 l
6.34 -5.17 l
6.33 9.45 l
6.34 -5.44 l
6.34 -2.48 l
6.34 -0.77 l
6.34 1.34 l
6.34 -2.40 l
6.34 0.01 l
6.34 -0.89 l
6.34 -0.02 l
6.34 0.04 l
6.34 -0.13 l
6.34 0.11 l
6.34 -0.20 l
6.33 -0.06 l
o
0.7176 0.6235 0 srgb
np
414.34 110.82 m
6.34 12.76 l
6.33 -57.96 l
6.34 -3.92 l
6.34 1.27 l
6.34 0.75 l
6.34 -8.44 l
6.34 -0.08 l
6.34 -1.55 l
6.34 3.12 l
6.34 -5.83 l
6.34 1.79 l
6.34 -1.63 l
6.34 3.22 l
6.33 -4.22 l
6.34 -1.13 l
6.34 1.11 l
6.34 -1.25 l
6.34 -0.67 l
6.34 3.63 l
6.34 -2.30 l
6.34 -2.12 l
6.34 0.10 l
6.34 -0.26 l
6.34 -0.10 l
6.34 -0.04 l
6.34 0.17 l
6.33 -0.23 l
o
0 0.7294 0.2196 srgb
np
414.34 130.15 m
6.34 -57.25 l
6.33 1.67 l
6.34 -1.10 l
6.34 -9.21 l
6.34 -10.06 l
6.34 3.03 l
6.34 4.10 l
6.34 -2.21 l
6.34 -4.32 l
6.34 -0.37 l
6.34 -0.21 l
6.34 -1.88 l
6.34 -1.53 l
6.33 0.87 l
6.34 0.07 l
6.34 -1.84 l
6.34 -0.13 l
6.34 0.58 l
6.34 -1.23 l
6.34 -0.59 l
6.34 -1.29 l
6.34 0.68 l
6.34 -0.82 l
6.34 0.45 l
6.34 -0.27 l
6.34 -0.07 l
6.33 -0.25 l
o
0 0.7490 0.7686 srgb
np
414.34 91.98 m
6.34 -25.20 l
6.33 0.49 l
6.34 45.89 l
6.34 -43.49 l
6.34 -19.37 l
6.34 3.60 l
6.34 25.20 l
6.34 -25.98 l
6.34 3.70 l
6.34 3.22 l
6.34 -8.65 l
6.34 0.08 l
6.34 -2.95 l
6.33 6.60 l
6.34 -1.59 l
6.34 -3.63 l
6.34 -0.96 l
6.34 2.92 l
6.34 -4.09 l
6.34 -0.35 l
6.34 -0.51 l
6.34 -0.09 l
6.34 0.07 l
6.34 -0.07 l
6.34 0.09 l
6.34 0 l
6.33 0.07 l
o
0.3804 0.6118 1 srgb
np
414.34 100.55 m
6.34 -12.11 l
6.33 -22.58 l
6.34 20.18 l
6.34 -8.90 l
6.34 -22.48 l
6.34 -0.65 l
6.34 10.65 l
6.34 -12.07 l
6.34 4.90 l
6.34 -0.30 l
6.34 -4.46 l
6.34 1.06 l
6.34 -3.41 l
6.33 3.03 l
6.34 -2.23 l
6.34 -1.13 l
6.34 -0.51 l
6.34 0.22 l
6.34 -0.35 l
6.34 -1.12 l
6.34 -1.20 l
6.34 -0.16 l
6.34 0.21 l
6.34 -0.17 l
6.34 -0.06 l
6.34 0.29 l
6.33 -0.31 l
o
0.9608 0.3922 0.8902 srgb
np
414.34 101.86 m
6.34 -30.12 l
6.33 -8.00 l
6.34 2.01 l
6.34 3.66 l
6.34 -17.75 l
6.34 1.97 l
6.34 2.34 l
6.34 -4.63 l
6.34 5.25 l
6.34 -3.62 l
6.34 -0.72 l
6.34 -1.04 l
6.34 -2.74 l
6.33 2.29 l
6.34 -2.34 l
6.34 1.41 l
6.34 -1.76 l
6.34 0 l
6.34 -0.23 l
6.34 72.87 l
6.34 -73.55 l
6.34 -0.12 l
6.34 0.01 l
6.34 -0.01 l
6.34 -0.17 l
6.34 6.87 l
6.33 -6.64 l
o
/bg { 0.9725 0.4627 0.4275 srgb } def
414.34 117.96 1.95 c p2
420.68 61.22 1.95 c p2
427.01 63.81 1.95 c p2
433.35 95.41 1.95 c p2
439.69 70.22 1.95 c p2
446.03 51.07 1.95 c p2
452.37 54.91 1.95 c p2
458.71 74.17 1.95 c p2
465.05 52.69 1.95 c p2
471.39 54.93 1.95 c p2
477.73 61.74 1.95 c p2
484.07 52.57 1.95 c p2
490.41 53.42 1.95 c p2
496.75 48.25 1.95 c p2
503.08 57.70 1.95 c p2
509.42 52.26 1.95 c p2
515.76 49.78 1.95 c p2
522.10 49.01 1.95 c p2
528.44 50.35 1.95 c p2
534.78 47.95 1.95 c p2
541.12 47.96 1.95 c p2
547.46 47.07 1.95 c p2
553.80 47.05 1.95 c p2
560.14 47.09 1.95 c p2
566.48 46.96 1.95 c p2
572.82 47.07 1.95 c p2
579.16 46.87 1.95 c p2
585.49 46.81 1.95 c p2
/bg { 0.7176 0.6235 0 srgb } def
np
 414.34 113.86 m
2.63 -4.56 l
-5.27 0 l
cp p2
np
 420.68 126.62 m
2.63 -4.56 l
-5.27 0 l
cp p2
np
 427.01 68.66 m
2.64 -4.56 l
-5.27 0 l
cp p2
np
 433.35 64.74 m
2.64 -4.56 l
-5.27 0 l
cp p2
np
 439.69 66.01 m
2.64 -4.56 l
-5.27 0 l
cp p2
np
 446.03 66.76 m
2.63 -4.56 l
-5.26 0 l
cp p2
np
 452.37 58.32 m
2.63 -4.56 l
-5.26 0 l
cp p2
np
 458.71 58.24 m
2.63 -4.56 l
-5.26 0 l
cp p2
np
 465.05 56.69 m
2.63 -4.56 l
-5.26 0 l
cp p2
np
 471.39 59.81 m
2.63 -4.56 l
-5.26 0 l
cp p2
np
 477.73 53.98 m
2.63 -4.56 l
-5.26 0 l
cp p2
np
 484.07 55.77 m
2.63 -4.56 l
-5.27 0 l
cp p2
np
 490.41 54.14 m
2.63 -4.56 l
-5.27 0 l
cp p2
np
 496.75 57.36 m
2.63 -4.56 l
-5.27 0 l
cp p2
np
 503.08 53.14 m
2.64 -4.56 l
-5.27 0 l
cp p2
np
 509.42 52.01 m
2.64 -4.56 l
-5.27 0 l
cp p2
np
 515.76 53.12 m
2.64 -4.56 l
-5.27 0 l
cp p2
np
 522.10 51.87 m
2.64 -4.56 l
-5.27 0 l
cp p2
np
 528.44 51.20 m
2.63 -4.56 l
-5.26 0 l
cp p2
np
 534.78 54.83 m
2.63 -4.56 l
-5.26 0 l
cp p2
np
 541.12 52.53 m
2.63 -4.56 l
-5.26 0 l
cp p2
np
 547.46 50.41 m
2.63 -4.56 l
-5.26 0 l
cp p2
np
 553.80 50.51 m
2.63 -4.56 l
-5.26 0 l
cp p2
np
 560.14 50.25 m
2.63 -4.56 l
-5.26 0 l
cp p2
np
 566.48 50.15 m
2.63 -4.56 l
-5.27 0 l
cp p2
np
 572.82 50.11 m
2.63 -4.56 l
-5.27 0 l
cp p2
np
 579.16 50.28 m
2.63 -4.56 l
-5.27 0 l
cp p2
np
 585.49 50.05 m
2.64 -4.56 l
-5.27 0 l
cp p2
/bg { 0 0.7294 0.2196 srgb } def
np
 412.38 128.19 m
3.91 0 l
0 3.91 l
-3.91 0 l
cp p2
np
 418.72 70.94 m
3.91 0 l
0 3.91 l
-3.91 0 l
cp p2
np
 425.06 72.61 m
3.91 0 l
0 3.91 l
-3.91 0 l
cp p2
np
 431.40 71.52 m
3.91 0 l
0 3.91 l
-3.91 0 l
cp p2
np
 437.74 62.30 m
3.91 0 l
0 3.91 l
-3.91 0 l
cp p2
np
 444.08 52.25 m
3.91 0 l
0 3.91 l
-3.91 0 l
cp p2
np
 450.42 55.28 m
3.91 0 l
0 3.90 l
-3.91 0 l
cp p2
np
 456.76 59.37 m
3.91 0 l
0 3.91 l
-3.91 0 l
cp p2
np
 463.09 57.17 m
3.91 0 l
0 3.91 l
-3.91 0 l
cp p2
np
 469.43 52.84 m
3.91 0 l
0 3.91 l
-3.91 0 l
cp p2
np
 475.77 52.48 m
3.91 0 l
0 3.91 l
-3.91 0 l
cp p2
np
 482.11 52.27 m
3.91 0 l
0 3.91 l
-3.91 0 l
cp p2
np
 488.45 50.39 m
3.91 0 l
0 3.91 l
-3.91 0 l
cp p2
np
 494.79 48.86 m
3.91 0 l
0 3.91 l
-3.91 0 l
cp p2
np
 501.13 49.73 m
3.91 0 l
0 3.91 l
-3.91 0 l
cp p2
np
 507.47 49.79 m
3.91 0 l
0 3.91 l
-3.91 0 l
cp p2
np
 513.81 47.96 m
3.91 0 l
0 3.91 l
-3.91 0 l
cp p2
np
 520.15 47.83 m
3.91 0 l
0 3.91 l
-3.91 0 l
cp p2
np
 526.49 48.40 m
3.91 0 l
0 3.91 l
-3.91 0 l
cp p2
np
 532.83 47.18 m
3.91 0 l
0 3.91 l
-3.91 0 l
cp p2
np
 539.17 46.59 m
3.90 0 l
0 3.91 l
-3.90 0 l
cp p2
np
 545.50 45.29 m
3.91 0 l
0 3.91 l
-3.91 0 l
cp p2
np
 551.84 45.97 m
3.91 0 l
0 3.91 l
-3.91 0 l
cp p2
np
 558.18 45.16 m
3.91 0 l
0 3.91 l
-3.91 0 l
cp p2
np
 564.52 45.60 m
3.91 0 l
0 3.91 l
-3.91 0 l
cp p2
np
 570.86 45.33 m
3.91 0 l
0 3.91 l
-3.91 0 l
cp p2
np
 577.20 45.26 m
3.91 0 l
0 3.91 l
-3.91 0 l
cp p2
np
 583.54 45.01 m
3.91 0 l
0 3.91 l
-3.91 0 l
cp p2
0 0.7490 0.7686 srgb
0.71 setlinewidth
[] 0 setdash
1 setlinecap
10.00 setmiterlimit
np
411.57 91.98 m
5.53 0 l
o
np
414.34 89.22 m
0 5.53 l
o
np
417.91 66.78 m
5.53 0 l
o
np
420.68 64.01 m
0 5.53 l
o
np
424.25 67.27 m
5.53 0 l
o
np
427.01 64.51 m
0 5.53 l
o
np
430.59 113.16 m
5.53 0 l
o
np
433.35 110.39 m
0 5.53 l
o
np
436.93 69.67 m
5.53 0 l
o
np
439.69 66.90 m
0 5.53 l
o
np
443.27 50.30 m
5.53 0 l
o
np
446.03 47.54 m
0 5.53 l
o
np
449.61 53.90 m
5.53 0 l
o
np
452.37 51.14 m
0 5.53 l
o
np
455.95 79.10 m
5.52 0 l
o
np
458.71 76.33 m
0 5.53 l
o
np
462.29 53.12 m
5.52 0 l
o
np
465.05 50.36 m
0 5.53 l
o
np
468.62 56.82 m
5.53 0 l
o
np
471.39 54.05 m
0 5.53 l
o
np
474.96 60.04 m
5.53 0 l
o
np
477.73 57.27 m
0 5.53 l
o
np
481.30 51.39 m
5.53 0 l
o
np
484.07 48.63 m
0 5.53 l
o
np
487.64 51.47 m
5.53 0 l
o
np
490.41 48.70 m
0 5.53 l
o
np
493.98 48.52 m
5.53 0 l
o
np
496.75 45.75 m
0 5.53 l
o
np
500.32 55.12 m
5.53 0 l
o
np
503.08 52.36 m
0 5.53 l
o
np
506.66 53.53 m
5.53 0 l
o
np
509.42 50.76 m
0 5.53 l
o
np
513.00 49.90 m
5.53 0 l
o
np
515.76 47.14 m
0 5.53 l
o
np
519.34 48.94 m
5.53 0 l
o
np
522.10 46.17 m
0 5.53 l
o
np
525.68 51.86 m
5.53 0 l
o
np
528.44 49.10 m
0 5.53 l
o
np
532.02 47.77 m
5.53 0 l
o
np
534.78 45.00 m
0 5.53 l
o
np
538.36 47.42 m
5.52 0 l
o
np
541.12 44.65 m
0 5.53 l
o
np
544.69 46.91 m
5.53 0 l
o
np
547.46 44.15 m
0 5.53 l
o
np
551.03 46.82 m
5.53 0 l
o
np
553.80 44.06 m
0 5.53 l
o
np
557.37 46.89 m
5.53 0 l
o
np
560.14 44.13 m
0 5.53 l
o
np
563.71 46.82 m
5.53 0 l
o
np
566.48 44.06 m
0 5.53 l
o
np
570.05 46.91 m
5.53 0 l
o
np
572.82 44.15 m
0 5.53 l
o
np
576.39 46.91 m
5.53 0 l
o
np
579.16 44.15 m
0 5.53 l
o
np
582.73 46.98 m
5.53 0 l
o
np
585.49 44.22 m
0 5.52 l
o
0.3804 0.6118 1 srgb
412.38 98.60 3.91 3.91 r p1
np
412.38 98.60 m
3.91 3.91 l
o
np
412.38 102.51 m
3.91 -3.91 l
o
418.72 86.48 3.91 3.91 r p1
np
418.72 86.48 m
3.91 3.91 l
o
np
418.72 90.39 m
3.91 -3.91 l
o
425.06 63.90 3.91 3.91 r p1
np
425.06 63.90 m
3.91 3.91 l
o
np
425.06 67.81 m
3.91 -3.91 l
o
431.40 84.09 3.91 3.91 r p1
np
431.40 84.09 m
3.91 3.91 l
o
np
431.40 88.00 m
3.91 -3.91 l
o
437.74 75.19 3.91 3.91 r p1
np
437.74 75.19 m
3.91 3.91 l
o
np
437.74 79.10 m
3.91 -3.91 l
o
444.08 52.70 3.91 3.91 r p1
np
444.08 52.70 m
3.91 3.91 l
o
np
444.08 56.61 m
3.91 -3.91 l
o
450.42 52.06 3.91 3.91 r p1
np
450.42 52.06 m
3.91 3.91 l
o
np
450.42 55.97 m
3.91 -3.91 l
o
456.76 62.70 3.91 3.91 r p1
np
456.76 62.70 m
3.91 3.91 l
o
np
456.76 66.61 m
3.91 -3.91 l
o
463.09 50.63 3.91 3.91 r p1
np
463.09 50.63 m
3.91 3.91 l
o
np
463.09 54.54 m
3.91 -3.91 l
o
469.43 55.53 3.91 3.91 r p1
np
469.43 55.53 m
3.91 3.91 l
o
np
469.43 59.44 m
3.91 -3.91 l
o
475.77 55.24 3.91 3.91 r p1
np
475.77 55.24 m
3.91 3.91 l
o
np
475.77 59.15 m
3.91 -3.91 l
o
482.11 50.78 3.91 3.91 r p1
np
482.11 50.78 m
3.91 3.91 l
o
np
482.11 54.69 m
3.91 -3.91 l
o
488.45 51.83 3.91 3.91 r p1
np
488.45 51.83 m
3.91 3.91 l
o
np
488.45 55.74 m
3.91 -3.91 l
o
494.79 48.42 3.91 3.91 r p1
np
494.79 48.42 m
3.91 3.91 l
o
np
494.79 52.33 m
3.91 -3.91 l
o
501.13 51.46 3.91 3.91 r p1
np
501.13 51.46 m
3.91 3.91 l
o
np
501.13 55.37 m
3.91 -3.91 l
o
507.47 49.23 3.91 3.91 r p1
np
507.47 49.23 m
3.91 3.91 l
o
np
507.47 53.14 m
3.91 -3.91 l
o
513.81 48.10 3.91 3.91 r p1
np
513.81 48.10 m
3.91 3.91 l
o
np
513.81 52.01 m
3.91 -3.91 l
o
520.15 47.58 3.91 3.91 r p1
np
520.15 47.58 m
3.91 3.91 l
o
np
520.15 51.49 m
3.91 -3.91 l
o
526.49 47.81 3.91 3.91 r p1
np
526.49 47.81 m
3.91 3.91 l
o
np
526.49 51.72 m
3.91 -3.91 l
o
532.83 47.45 3.91 3.91 r p1
np
532.83 47.45 m
3.91 3.91 l
o
np
532.83 51.36 m
3.91 -3.91 l
o
539.17 46.34 3.91 3.91 r p1
np
539.17 46.34 m
3.90 3.91 l
o
np
539.17 50.25 m
3.90 -3.91 l
o
545.50 45.13 3.91 3.91 r p1
np
545.50 45.13 m
3.91 3.91 l
o
np
545.50 49.04 m
3.91 -3.91 l
o
551.84 44.98 3.91 3.91 r p1
np
551.84 44.98 m
3.91 3.91 l
o
np
551.84 48.89 m
3.91 -3.91 l
o
558.18 45.19 3.91 3.91 r p1
np
558.18 45.19 m
3.91 3.91 l
o
np
558.18 49.10 m
3.91 -3.91 l
o
564.52 45.01 3.91 3.91 r p1
np
564.52 45.01 m
3.91 3.91 l
o
np
564.52 48.92 m
3.91 -3.91 l
o
570.86 44.96 3.91 3.91 r p1
np
570.86 44.96 m
3.91 3.91 l
o
np
570.86 48.87 m
3.91 -3.91 l
o
577.20 45.25 3.91 3.91 r p1
np
577.20 45.25 m
3.91 3.91 l
o
np
577.20 49.16 m
3.91 -3.91 l
o
583.54 44.94 3.91 3.91 r p1
np
583.54 44.94 m
3.91 3.91 l
o
np
583.54 48.85 m
3.91 -3.91 l
o
0.9608 0.3922 0.8902 srgb
np
412.38 99.90 m
3.91 3.91 l
o
np
412.38 103.81 m
3.91 -3.91 l
o
np
411.57 101.86 m
5.53 0 l
o
np
414.34 99.09 m
0 5.53 l
o
np
418.72 69.79 m
3.91 3.91 l
o
np
418.72 73.70 m
3.91 -3.91 l
o
np
417.91 71.74 m
5.53 0 l
o
np
420.68 68.98 m
0 5.53 l
o
np
425.06 61.79 m
3.91 3.90 l
o
np
425.06 65.69 m
3.91 -3.90 l
o
np
424.25 63.74 m
5.53 0 l
o
np
427.01 60.98 m
0 5.52 l
o
np
431.40 63.80 m
3.91 3.91 l
o
np
431.40 67.71 m
3.91 -3.91 l
o
np
430.59 65.75 m
5.53 0 l
o
np
433.35 62.99 m
0 5.53 l
o
np
437.74 67.45 m
3.91 3.91 l
o
np
437.74 71.36 m
3.91 -3.91 l
o
np
436.93 69.41 m
5.53 0 l
o
np
439.69 66.64 m
0 5.53 l
o
np
444.08 49.70 m
3.91 3.91 l
o
np
444.08 53.61 m
3.91 -3.91 l
o
np
443.27 51.66 m
5.53 0 l
o
np
446.03 48.89 m
0 5.53 l
o
np
450.42 51.67 m
3.91 3.91 l
o
np
450.42 55.58 m
3.91 -3.91 l
o
np
449.61 53.63 m
5.53 0 l
o
np
452.37 50.87 m
0 5.52 l
o
np
456.76 54.02 m
3.91 3.91 l
o
np
456.76 57.93 m
3.91 -3.91 l
o
np
455.95 55.97 m
5.52 0 l
o
np
458.71 53.21 m
0 5.53 l
o
np
463.09 49.38 m
3.91 3.91 l
o
np
463.09 53.29 m
3.91 -3.91 l
o
np
462.29 51.34 m
5.52 0 l
o
np
465.05 48.58 m
0 5.52 l
o
np
469.43 54.64 m
3.91 3.91 l
o
np
469.43 58.55 m
3.91 -3.91 l
o
np
468.62 56.59 m
5.53 0 l
o
np
471.39 53.83 m
0 5.53 l
o
np
475.77 51.01 m
3.91 3.91 l
o
np
475.77 54.92 m
3.91 -3.91 l
o
np
474.96 52.97 m
5.53 0 l
o
np
477.73 50.20 m
0 5.53 l
o
np
482.11 50.30 m
3.91 3.91 l
o
np
482.11 54.21 m
3.91 -3.91 l
o
np
481.30 52.25 m
5.53 0 l
o
np
484.07 49.49 m
0 5.53 l
o
np
488.45 49.26 m
3.91 3.91 l
o
np
488.45 53.17 m
3.91 -3.91 l
o
np
487.64 51.21 m
5.53 0 l
o
np
490.41 48.45 m
0 5.53 l
o
np
494.79 46.52 m
3.91 3.91 l
o
np
494.79 50.43 m
3.91 -3.91 l
o
np
493.98 48.47 m
5.53 0 l
o
np
496.75 45.71 m
0 5.53 l
o
np
501.13 48.80 m
3.91 3.91 l
o
np
501.13 52.71 m
3.91 -3.91 l
o
np
500.32 50.76 m
5.53 0 l
o
np
503.08 47.99 m
0 5.53 l
o
np
507.47 46.47 m
3.91 3.91 l
o
np
507.47 50.38 m
3.91 -3.91 l
o
np
506.66 48.42 m
5.53 0 l
o
np
509.42 45.66 m
0 5.53 l
o
np
513.81 47.87 m
3.91 3.91 l
o
np
513.81 51.78 m
3.91 -3.91 l
o
np
513.00 49.83 m
5.53 0 l
o
np
515.76 47.06 m
0 5.53 l
o
np
520.15 46.12 m
3.91 3.91 l
o
np
520.15 50.03 m
3.91 -3.91 l
o
np
519.34 48.07 m
5.53 0 l
o
np
522.10 45.31 m
0 5.53 l
o
np
526.49 46.11 m
3.91 3.91 l
o
np
526.49 50.02 m
3.91 -3.91 l
o
np
525.68 48.07 m
5.53 0 l
o
np
528.44 45.30 m
0 5.53 l
o
np
532.83 45.89 m
3.91 3.91 l
o
np
532.83 49.80 m
3.91 -3.91 l
o
np
532.02 47.84 m
5.53 0 l
o
np
534.78 45.08 m
0 5.53 l
o
np
539.17 118.76 m
3.90 3.91 l
o
np
539.17 122.67 m
3.90 -3.91 l
o
np
538.36 120.71 m
5.52 0 l
o
np
541.12 117.95 m
0 5.53 l
o
np
545.50 45.21 m
3.91 3.91 l
o
np
545.50 49.12 m
3.91 -3.91 l
o
np
544.69 47.16 m
5.53 0 l
o
np
547.46 44.40 m
0 5.53 l
o
np
551.84 45.09 m
3.91 3.91 l
o
np
551.84 49.00 m
3.91 -3.91 l
o
np
551.03 47.04 m
5.53 0 l
o
np
553.80 44.28 m
0 5.53 l
o
np
558.18 45.09 m
3.91 3.91 l
o
np
558.18 49.00 m
3.91 -3.91 l
o
np
557.37 47.05 m
5.53 0 l
o
np
560.14 44.28 m
0 5.53 l
o
np
564.52 45.09 m
3.91 3.91 l
o
np
564.52 49.00 m
3.91 -3.91 l
o
np
563.71 47.04 m
5.53 0 l
o
np
566.48 44.28 m
0 5.53 l
o
np
570.86 44.92 m
3.91 3.91 l
o
np
570.86 48.83 m
3.91 -3.91 l
o
np
570.05 46.87 m
5.53 0 l
o
np
572.82 44.11 m
0 5.53 l
o
np
577.20 51.78 m
3.91 3.91 l
o
np
577.20 55.69 m
3.91 -3.91 l
o
np
576.39 53.74 m
5.53 0 l
o
np
579.16 50.97 m
0 5.53 l
o
np
583.54 45.14 m
3.91 3.91 l
o
np
583.54 49.05 m
3.91 -3.91 l
o
np
582.73 47.10 m
5.53 0 l
o
np
585.49 44.33 m
0 5.53 l
o
0.4980 0.4980 0.4980 srgb
1.07 setlinewidth
[] 0 setdash
410.53 40.26 178.77 143.01 r p1
0.00 0.00 595.28 212.60 cl
0.00 0.00 595.28 212.60 cl
0.00 0.00 595.28 212.60 cl
0.00 0.00 595.28 212.60 cl
0.00 0.00 595.28 212.60 cl
0.00 0.00 595.28 212.60 cl
/Font1 findfont 10 s
0 0 0 srgb
35.67 43.17 (0.0) 1 0 t
35.67 71.87 (0.1) 1 0 t
35.67 100.58 (0.2) 1 0 t
35.67 129.29 (0.3) 1 0 t
35.67 157.99 (0.4) 1 0 t
0.00 0.00 595.28 212.60 cl
0.00 0.00 595.28 212.60 cl
0 0 0 srgb
1.07 setlinewidth
[] 0 setdash
0 setlinecap
1 setlinejoin
10.00 setmiterlimit
np
38.06 46.76 m
2.99 0 l
o
np
38.06 75.46 m
2.99 0 l
o
np
38.06 104.17 m
2.99 0 l
o
np
38.06 132.88 m
2.99 0 l
o
np
38.06 161.58 m
2.99 0 l
o
0.00 0.00 595.28 212.60 cl
0.00 0.00 595.28 212.60 cl
0.00 0.00 595.28 212.60 cl
0.00 0.00 595.28 212.60 cl
0.00 0.00 595.28 212.60 cl
0.00 0.00 595.28 212.60 cl
0.00 0.00 595.28 212.60 cl
0.00 0.00 595.28 212.60 cl
0 0 0 srgb
1.07 setlinewidth
[] 0 setdash
0 setlinecap
1 setlinejoin
10.00 setmiterlimit
np
44.85 37.27 m
0 2.99 l
o
np
51.19 37.27 m
0 2.99 l
o
np
57.53 37.27 m
0 2.99 l
o
np
63.87 37.27 m
0 2.99 l
o
np
70.21 37.27 m
0 2.99 l
o
np
76.55 37.27 m
0 2.99 l
o
np
82.89 37.27 m
0 2.99 l
o
np
89.22 37.27 m
0 2.99 l
o
np
95.56 37.27 m
0 2.99 l
o
np
101.90 37.27 m
0 2.99 l
o
np
108.24 37.27 m
0 2.99 l
o
np
114.58 37.27 m
0 2.99 l
o
np
120.92 37.27 m
0 2.99 l
o
np
127.26 37.27 m
0 2.99 l
o
np
133.60 37.27 m
0 2.99 l
o
np
139.94 37.27 m
0 2.99 l
o
np
146.28 37.27 m
0 2.99 l
o
np
152.62 37.27 m
0 2.99 l
o
np
158.96 37.27 m
0 2.99 l
o
np
165.29 37.27 m
0 2.99 l
o
np
171.63 37.27 m
0 2.99 l
o
np
177.97 37.27 m
0 2.99 l
o
np
184.31 37.27 m
0 2.99 l
o
np
190.65 37.27 m
0 2.99 l
o
np
196.99 37.27 m
0 2.99 l
o
np
203.33 37.27 m
0 2.99 l
o
np
209.67 37.27 m
0 2.99 l
o
np
216.01 37.27 m
0 2.99 l
o
0.00 0.00 595.28 212.60 cl
0.00 0.00 595.28 212.60 cl
/Font1 findfont 8 s
0 0 0 srgb
50.59 34.88 (0) 1 90 t
56.93 34.88 (1) 1 90 t
63.27 34.88 (2) 1 90 t
69.61 34.88 (3) 1 90 t
75.95 34.88 (4) 1 90 t
82.29 34.88 (5) 1 90 t
88.63 34.88 (6) 1 90 t
94.97 34.88 (7) 1 90 t
101.31 34.88 (8) 1 90 t
107.65 34.88 (9) 1 90 t
113.99 34.88 (10) 1 90 t
120.33 34.88 (11) 1 90 t
126.66 34.88 (12) 1 90 t
133.00 34.88 (13) 1 90 t
139.34 34.88 (14) 1 90 t
145.68 34.88 (15) 1 90 t
152.02 34.88 (16) 1 90 t
158.36 34.88 (17) 1 90 t
164.70 34.88 (18) 1 90 t
171.04 34.88 (19) 1 90 t
177.38 34.88 (21) 1 90 t
183.72 34.88 (31) 1 90 t
190.06 34.88 (35) 1 90 t
196.40 34.88 (37) 1 90 t
202.73 34.88 (39) 1 90 t
209.07 34.88 (40) 1 90 t
215.41 34.88 (46) 1 90 t
221.75 34.88 (55) 1 90 t
0.00 0.00 595.28 212.60 cl
0.00 0.00 595.28 212.60 cl
0.00 0.00 595.28 212.60 cl
0.00 0.00 595.28 212.60 cl
0.00 0.00 595.28 212.60 cl
0.00 0.00 595.28 212.60 cl
0.00 0.00 595.28 212.60 cl
0.00 0.00 595.28 212.60 cl
0 0 0 srgb
1.07 setlinewidth
[] 0 setdash
0 setlinecap
1 setlinejoin
10.00 setmiterlimit
np
229.59 37.27 m
0 2.99 l
o
np
235.93 37.27 m
0 2.99 l
o
np
242.27 37.27 m
0 2.99 l
o
np
248.61 37.27 m
0 2.99 l
o
np
254.95 37.27 m
0 2.99 l
o
np
261.29 37.27 m
0 2.99 l
o
np
267.63 37.27 m
0 2.99 l
o
np
273.97 37.27 m
0 2.99 l
o
np
280.31 37.27 m
0 2.99 l
o
np
286.65 37.27 m
0 2.99 l
o
np
292.99 37.27 m
0 2.99 l
o
np
299.32 37.27 m
0 2.99 l
o
np
305.66 37.27 m
0 2.99 l
o
np
312.00 37.27 m
0 2.99 l
o
np
318.34 37.27 m
0 2.99 l
o
np
324.68 37.27 m
0 2.99 l
o
np
331.02 37.27 m
0 2.99 l
o
np
337.36 37.27 m
0 2.99 l
o
np
343.70 37.27 m
0 2.99 l
o
np
350.04 37.27 m
0 2.99 l
o
np
356.38 37.27 m
0 2.99 l
o
np
362.72 37.27 m
0 2.99 l
o
np
369.06 37.27 m
0 2.99 l
o
np
375.39 37.27 m
0 2.99 l
o
np
381.73 37.27 m
0 2.99 l
o
np
388.07 37.27 m
0 2.99 l
o
np
394.41 37.27 m
0 2.99 l
o
np
400.75 37.27 m
0 2.99 l
o
0.00 0.00 595.28 212.60 cl
0.00 0.00 595.28 212.60 cl
/Font1 findfont 8 s
0 0 0 srgb
235.34 34.88 (0) 1 90 t
241.68 34.88 (1) 1 90 t
248.02 34.88 (2) 1 90 t
254.35 34.88 (3) 1 90 t
260.69 34.88 (4) 1 90 t
267.03 34.88 (5) 1 90 t
273.37 34.88 (6) 1 90 t
279.71 34.88 (7) 1 90 t
286.05 34.88 (8) 1 90 t
292.39 34.88 (9) 1 90 t
298.73 34.88 (10) 1 90 t
305.07 34.88 (11) 1 90 t
311.41 34.88 (12) 1 90 t
317.75 34.88 (13) 1 90 t
324.09 34.88 (14) 1 90 t
330.43 34.88 (15) 1 90 t
336.76 34.88 (16) 1 90 t
343.10 34.88 (17) 1 90 t
349.44 34.88 (18) 1 90 t
355.78 34.88 (19) 1 90 t
362.12 34.88 (21) 1 90 t
368.46 34.88 (31) 1 90 t
374.80 34.88 (35) 1 90 t
381.14 34.88 (37) 1 90 t
387.48 34.88 (39) 1 90 t
393.82 34.88 (40) 1 90 t
400.16 34.88 (46) 1 90 t
406.50 34.88 (55) 1 90 t
0.00 0.00 595.28 212.60 cl
0.00 0.00 595.28 212.60 cl
0.00 0.00 595.28 212.60 cl
0.00 0.00 595.28 212.60 cl
0.00 0.00 595.28 212.60 cl
0.00 0.00 595.28 212.60 cl
0.00 0.00 595.28 212.60 cl
0.00 0.00 595.28 212.60 cl
0 0 0 srgb
1.07 setlinewidth
[] 0 setdash
0 setlinecap
1 setlinejoin
10.00 setmiterlimit
np
414.34 37.27 m
0 2.99 l
o
np
420.68 37.27 m
0 2.99 l
o
np
427.01 37.27 m
0 2.99 l
o
np
433.35 37.27 m
0 2.99 l
o
np
439.69 37.27 m
0 2.99 l
o
np
446.03 37.27 m
0 2.99 l
o
np
452.37 37.27 m
0 2.99 l
o
np
458.71 37.27 m
0 2.99 l
o
np
465.05 37.27 m
0 2.99 l
o
np
471.39 37.27 m
0 2.99 l
o
np
477.73 37.27 m
0 2.99 l
o
np
484.07 37.27 m
0 2.99 l
o
np
490.41 37.27 m
0 2.99 l
o
np
496.75 37.27 m
0 2.99 l
o
np
503.08 37.27 m
0 2.99 l
o
np
509.42 37.27 m
0 2.99 l
o
np
515.76 37.27 m
0 2.99 l
o
np
522.10 37.27 m
0 2.99 l
o
np
528.44 37.27 m
0 2.99 l
o
np
534.78 37.27 m
0 2.99 l
o
np
541.12 37.27 m
0 2.99 l
o
np
547.46 37.27 m
0 2.99 l
o
np
553.80 37.27 m
0 2.99 l
o
np
560.14 37.27 m
0 2.99 l
o
np
566.48 37.27 m
0 2.99 l
o
np
572.82 37.27 m
0 2.99 l
o
np
579.16 37.27 m
0 2.99 l
o
np
585.49 37.27 m
0 2.99 l
o
0.00 0.00 595.28 212.60 cl
0.00 0.00 595.28 212.60 cl
/Font1 findfont 8 s
0 0 0 srgb
420.08 34.88 (0) 1 90 t
426.42 34.88 (1) 1 90 t
432.76 34.88 (2) 1 90 t
439.10 34.88 (3) 1 90 t
445.44 34.88 (4) 1 90 t
451.78 34.88 (5) 1 90 t
458.12 34.88 (6) 1 90 t
464.45 34.88 (7) 1 90 t
470.79 34.88 (8) 1 90 t
477.13 34.88 (9) 1 90 t
483.47 34.88 (10) 1 90 t
489.81 34.88 (11) 1 90 t
496.15 34.88 (12) 1 90 t
502.49 34.88 (13) 1 90 t
508.83 34.88 (14) 1 90 t
515.17 34.88 (15) 1 90 t
521.51 34.88 (16) 1 90 t
527.85 34.88 (17) 1 90 t
534.19 34.88 (18) 1 90 t
540.52 34.88 (19) 1 90 t
546.86 34.88 (21) 1 90 t
553.20 34.88 (31) 1 90 t
559.54 34.88 (35) 1 90 t
565.88 34.88 (37) 1 90 t
572.22 34.88 (39) 1 90 t
578.56 34.88 (40) 1 90 t
584.90 34.88 (46) 1 90 t
591.24 34.88 (55) 1 90 t
0.00 0.00 595.28 212.60 cl
0.00 0.00 595.28 212.60 cl
0.00 0.00 595.28 212.60 cl
0.00 0.00 595.28 212.60 cl
/Font1 findfont 12 s
0 0 0 srgb
315.17 12.58 (motif) .5 0 t
0.00 0.00 595.28 212.60 cl
0.00 0.00 595.28 212.60 cl
/Font1 findfont 12 s
0 0 0 srgb
16.98 111.76 (probability) .5 90 t
0.00 0.00 595.28 212.60 cl
0.00 0.00 595.28 212.60 cl
0.00 0.00 595.28 212.60 cl
0.00 0.00 595.28 212.60 cl
ep
%%Trailer
%%Pages: 1
%%EOF
