%!PS-Adobe-3.0 EPSF-3.0
%%DocumentNeededResources: font Helvetica
%%+ font Helvetica-Bold
%%+ font Helvetica-Oblique
%%+ font Helvetica-BoldOblique
%%+ font Symbol
%%Title: R Graphics Output
%%Creator: R Software
%%Pages: (atend)
%%BoundingBox: 0 0 425 198
%%EndComments
%%BeginProlog
/bp  { gs sRGB gs } def
% begin .ps.prolog
/gs  { gsave } bind def
/gr  { grestore } bind def
/ep  { showpage gr gr } bind def
/m   { moveto } bind def
/l  { rlineto } bind def
/np  { newpath } bind def
/cp  { closepath } bind def
/f   { fill } bind def
/o   { stroke } bind def
/c   { newpath 0 360 arc } bind def
/r   { 4 2 roll moveto 1 copy 3 -1 roll exch 0 exch rlineto 0 rlineto -1 mul 0 exch rlineto closepath } bind def
/p1  { stroke } bind def
/p2  { gsave bg fill grestore newpath } bind def
/p3  { gsave bg fill grestore stroke } bind def
/p6  { gsave bg eofill grestore newpath } bind def
/p7  { gsave bg eofill grestore stroke } bind def
/t   { 5 -2 roll moveto gsave rotate
       1 index stringwidth pop
       mul neg 0 rmoveto show grestore } bind def
/ta  { 4 -2 roll moveto gsave rotate show } bind def
/tb  { 2 -1 roll 0 rmoveto show } bind def
/cl  { grestore gsave newpath 3 index 3 index moveto 1 index
       4 -1 roll lineto  exch 1 index lineto lineto
       closepath clip newpath } bind def
/rgb { setrgbcolor } bind def
/s   { scalefont setfont } bind def
% end   .ps.prolog
/sRGB { [ /CIEBasedABC
          << /DecodeLMN
               [ { dup 0.03928 le
                        {12.92321 div}
                        {0.055 add 1.055 div 2.4 exp }
                     ifelse
                 } bind dup dup
               ]
             /MatrixLMN [0.412457 0.212673 0.019334
                         0.357576 0.715152 0.119192
                         0.180437 0.072175 0.950301]
             /WhitePoint [0.9505 1.0 1.0890]
           >>
         ] setcolorspace } bind def
/srgb { setcolor } bind def
%%IncludeResource: font Helvetica
/Helvetica findfont
dup length dict begin
  {1 index /FID ne {def} {pop pop} ifelse} forall
  /Encoding ISOLatin1Encoding def
  currentdict
  end
/Font1 exch definefont pop
%%IncludeResource: font Helvetica-Bold
/Helvetica-Bold findfont
dup length dict begin
  {1 index /FID ne {def} {pop pop} ifelse} forall
  /Encoding ISOLatin1Encoding def
  currentdict
  end
/Font2 exch definefont pop
%%IncludeResource: font Helvetica-Oblique
/Helvetica-Oblique findfont
dup length dict begin
  {1 index /FID ne {def} {pop pop} ifelse} forall
  /Encoding ISOLatin1Encoding def
  currentdict
  end
/Font3 exch definefont pop
%%IncludeResource: font Helvetica-BoldOblique
/Helvetica-BoldOblique findfont
dup length dict begin
  {1 index /FID ne {def} {pop pop} ifelse} forall
  /Encoding ISOLatin1Encoding def
  currentdict
  end
/Font4 exch definefont pop
%%IncludeResource: font Symbol
/Symbol findfont
dup length dict begin
  {1 index /FID ne {def} {pop pop} ifelse} forall
  currentdict
  end
/Font5 exch definefont pop
%%EndProlog
%%Page: 1 1
bp
0.00 0.00 425.20 198.43 cl
0.00 0.00 425.20 198.43 cl
0.00 0.00 425.20 198.43 cl
0.00 0.00 425.20 198.43 cl
0.00 0.00 425.20 198.43 cl
0.00 0.00 425.20 198.43 cl
0.00 0.00 425.20 198.43 cl
0.00 0.00 425.20 198.43 cl
0.00 0.00 425.20 198.43 cl
0.00 0.00 425.20 198.43 cl
/bg { 1 1 1 srgb } def
1 1 1 srgb
1.07 setlinewidth
[] 0 setdash
1 setlinecap
1 setlinejoin
10.00 setmiterlimit
0.00 0.00 425.20 198.43 r p3
0.00 0.00 425.20 198.43 cl
0.00 0.00 425.20 198.43 cl
0.00 0.00 425.20 198.43 cl
34.70 36.48 325.48 192.45 cl
/bg { 1 1 1 srgb } def
34.70 36.48 290.78 155.97 r p2
0.9804 0.9804 0.9804 srgb
1.07 setlinewidth
[] 0 setdash
0 setlinecap
1 setlinejoin
10.00 setmiterlimit
np
34.70 69.43 m
290.78 0 l
o
np
34.70 121.15 m
290.78 0 l
o
np
34.70 172.88 m
290.78 0 l
o
0.8980 0.8980 0.8980 srgb
0.43 setlinewidth
[] 0 setdash
np
34.70 43.57 m
290.78 0 l
o
np
34.70 95.29 m
290.78 0 l
o
np
34.70 147.02 m
290.78 0 l
o
np
68.25 36.48 m
0 155.97 l
o
np
124.17 36.48 m
0 155.97 l
o
np
180.09 36.48 m
0 155.97 l
o
np
236.01 36.48 m
0 155.97 l
o
np
291.93 36.48 m
0 155.97 l
o
/bg { 0.9922 0.7333 0.5176 srgb } def
0 0 0 srgb
1.07 setlinewidth
[] 0 setdash
68.25 43.57 25.16 35.85 r p3
/bg { 0.9961 0.9098 0.7843 srgb } def
43.09 43.57 25.16 64.40 r p3
/bg { 0.9922 0.7333 0.5176 srgb } def
124.17 43.57 25.16 99.94 r p3
/bg { 0.9961 0.9098 0.7843 srgb } def
99.01 43.57 25.16 105.90 r p3
/bg { 0.9922 0.7333 0.5176 srgb } def
180.09 43.57 25.16 137.45 r p3
/bg { 0.9961 0.9098 0.7843 srgb } def
154.93 43.57 25.16 141.79 r p3
/bg { 0.9922 0.7333 0.5176 srgb } def
236.01 43.57 25.16 109.54 r p3
/bg { 0.9961 0.9098 0.7843 srgb } def
210.85 43.57 25.16 120.99 r p3
/bg { 0.9922 0.7333 0.5176 srgb } def
291.93 43.57 25.16 135.45 r p3
/bg { 0.9961 0.9098 0.7843 srgb } def
266.77 43.57 25.16 141.47 r p3
0.4980 0.4980 0.4980 srgb
1 setlinecap
34.70 36.48 290.78 155.97 r p1
0.00 0.00 425.20 198.43 cl
0.00 0.00 425.20 198.43 cl
0.00 0.00 425.20 198.43 cl
0.00 0.00 425.20 198.43 cl
0.00 0.00 425.20 198.43 cl
0.00 0.00 425.20 198.43 cl
/Font1 findfont 11 s
0 0 0 srgb
29.32 39.62 (0) 1 0 t
29.32 91.34 (1) 1 0 t
29.32 143.07 (2) 1 0 t
0.00 0.00 425.20 198.43 cl
0.00 0.00 425.20 198.43 cl
0 0 0 srgb
1.07 setlinewidth
[] 0 setdash
0 setlinecap
1 setlinejoin
10.00 setmiterlimit
np
31.71 43.57 m
2.99 0 l
o
np
31.71 95.29 m
2.99 0 l
o
np
31.71 147.02 m
2.99 0 l
o
0.00 0.00 425.20 198.43 cl
0.00 0.00 425.20 198.43 cl
0.00 0.00 425.20 198.43 cl
0.00 0.00 425.20 198.43 cl
0.00 0.00 425.20 198.43 cl
0.00 0.00 425.20 198.43 cl
0.00 0.00 425.20 198.43 cl
0.00 0.00 425.20 198.43 cl
0 0 0 srgb
1.07 setlinewidth
[] 0 setdash
0 setlinecap
1 setlinejoin
10.00 setmiterlimit
np
68.25 33.49 m
0 2.99 l
o
np
124.17 33.49 m
0 2.99 l
o
np
180.09 33.49 m
0 2.99 l
o
np
236.01 33.49 m
0 2.99 l
o
np
291.93 33.49 m
0 2.99 l
o
0.00 0.00 425.20 198.43 cl
0.00 0.00 425.20 198.43 cl
/Font1 findfont 11 s
0 0 0 srgb
68.25 23.20 (1) .5 0 t
124.17 23.20 (2) .5 0 t
180.09 23.20 (3) .5 0 t
236.01 23.20 (4) .5 0 t
291.93 23.20 (5) .5 0 t
0.00 0.00 425.20 198.43 cl
0.00 0.00 425.20 198.43 cl
0.00 0.00 425.20 198.43 cl
0.00 0.00 425.20 198.43 cl
/Font1 findfont 14 s
0 0 0 srgb
180.09 8.37 (cluster) .5 0 t
0.00 0.00 425.20 198.43 cl
0.00 0.00 425.20 198.43 cl
/Font1 findfont 14 s
0 0 0 srgb
18.42 47.54 (negativ) 90 ta
-0.350 (e loglik) tb
-0.280 (elihood) tb gr
0.00 0.00 425.20 198.43 cl
0.00 0.00 425.20 198.43 cl
0.00 0.00 425.20 198.43 cl
0.00 0.00 425.20 198.43 cl
/bg { 1 1 1 srgb } def
333.99 90.77 76.73 47.38 r p2
0.00 0.00 425.20 198.43 cl
0.00 0.00 425.20 198.43 cl
0.00 0.00 425.20 198.43 cl
0.00 0.00 425.20 198.43 cl
0.00 0.00 425.20 198.43 cl
0.00 0.00 425.20 198.43 cl
/bg { 0.9961 0.9098 0.7843 srgb } def
0 0 0 srgb
1.07 setlinewidth
[] 0 setdash
1 setlinecap
0 setlinejoin
10.00 setmiterlimit
338.95 113.01 15.86 15.86 r p3
0.00 0.00 425.20 198.43 cl
0.00 0.00 425.20 198.43 cl
0.00 0.00 425.20 198.43 cl
0.00 0.00 425.20 198.43 cl
/bg { 0.9922 0.7333 0.5176 srgb } def
0 0 0 srgb
1.07 setlinewidth
[] 0 setdash
1 setlinecap
0 setlinejoin
10.00 setmiterlimit
338.95 95.73 15.86 15.86 r p3
0.00 0.00 425.20 198.43 cl
0.00 0.00 425.20 198.43 cl
/Font1 findfont 11 s
0 0 0 srgb
357.68 117.00 (gomez) 0 0 t
0.00 0.00 425.20 198.43 cl
0.00 0.00 425.20 198.43 cl
/Font1 findfont 11 s
0 0 0 srgb
357.68 99.72 (lumbrer) 0 ta
-0.110 (as) tb gr
0.00 0.00 425.20 198.43 cl
0.00 0.00 425.20 198.43 cl
0.00 0.00 425.20 198.43 cl
0.00 0.00 425.20 198.43 cl
0.00 0.00 425.20 198.43 cl
0.00 0.00 425.20 198.43 cl
ep
%%Trailer
%%Pages: 1
%%EOF
