%!PS-Adobe-3.0 EPSF-3.0
%%DocumentNeededResources: font Helvetica
%%+ font Helvetica-Bold
%%+ font Helvetica-Oblique
%%+ font Helvetica-BoldOblique
%%+ font Symbol
%%Title: R Graphics Output
%%Creator: R Software
%%Pages: (atend)
%%BoundingBox: 0 0 283 213
%%EndComments
%%BeginProlog
/bp  { gs sRGB gs } def
% begin .ps.prolog
/gs  { gsave } bind def
/gr  { grestore } bind def
/ep  { showpage gr gr } bind def
/m   { moveto } bind def
/l  { rlineto } bind def
/np  { newpath } bind def
/cp  { closepath } bind def
/f   { fill } bind def
/o   { stroke } bind def
/c   { newpath 0 360 arc } bind def
/r   { 4 2 roll moveto 1 copy 3 -1 roll exch 0 exch rlineto 0 rlineto -1 mul 0 exch rlineto closepath } bind def
/p1  { stroke } bind def
/p2  { gsave bg fill grestore newpath } bind def
/p3  { gsave bg fill grestore stroke } bind def
/p6  { gsave bg eofill grestore newpath } bind def
/p7  { gsave bg eofill grestore stroke } bind def
/t   { 5 -2 roll moveto gsave rotate
       1 index stringwidth pop
       mul neg 0 rmoveto show grestore } bind def
/ta  { 4 -2 roll moveto gsave rotate show } bind def
/tb  { 2 -1 roll 0 rmoveto show } bind def
/cl  { grestore gsave newpath 3 index 3 index moveto 1 index
       4 -1 roll lineto  exch 1 index lineto lineto
       closepath clip newpath } bind def
/rgb { setrgbcolor } bind def
/s   { scalefont setfont } bind def
% end   .ps.prolog
/sRGB { [ /CIEBasedABC
          << /DecodeLMN
               [ { dup 0.03928 le
                        {12.92321 div}
                        {0.055 add 1.055 div 2.4 exp }
                     ifelse
                 } bind dup dup
               ]
             /MatrixLMN [0.412457 0.212673 0.019334
                         0.357576 0.715152 0.119192
                         0.180437 0.072175 0.950301]
             /WhitePoint [0.9505 1.0 1.0890]
           >>
         ] setcolorspace } bind def
/srgb { setcolor } bind def
%%IncludeResource: font Helvetica
/Helvetica findfont
dup length dict begin
  {1 index /FID ne {def} {pop pop} ifelse} forall
  /Encoding ISOLatin1Encoding def
  currentdict
  end
/Font1 exch definefont pop
%%IncludeResource: font Helvetica-Bold
/Helvetica-Bold findfont
dup length dict begin
  {1 index /FID ne {def} {pop pop} ifelse} forall
  /Encoding ISOLatin1Encoding def
  currentdict
  end
/Font2 exch definefont pop
%%IncludeResource: font Helvetica-Oblique
/Helvetica-Oblique findfont
dup length dict begin
  {1 index /FID ne {def} {pop pop} ifelse} forall
  /Encoding ISOLatin1Encoding def
  currentdict
  end
/Font3 exch definefont pop
%%IncludeResource: font Helvetica-BoldOblique
/Helvetica-BoldOblique findfont
dup length dict begin
  {1 index /FID ne {def} {pop pop} ifelse} forall
  /Encoding ISOLatin1Encoding def
  currentdict
  end
/Font4 exch definefont pop
%%IncludeResource: font Symbol
/Symbol findfont
dup length dict begin
  {1 index /FID ne {def} {pop pop} ifelse} forall
  currentdict
  end
/Font5 exch definefont pop
%%EndProlog
%%Page: 1 1
bp
0.00 0.00 283.46 212.60 cl
0.00 0.00 283.46 212.60 cl
0.00 0.00 283.46 212.60 cl
0.00 0.00 283.46 212.60 cl
0.00 0.00 283.46 212.60 cl
0.00 0.00 283.46 212.60 cl
0.00 0.00 283.46 212.60 cl
0.00 0.00 283.46 212.60 cl
0.00 0.00 283.46 212.60 cl
0.00 0.00 283.46 212.60 cl
/bg { 1 1 1 srgb } def
1 1 1 srgb
1.07 setlinewidth
[] 0 setdash
1 setlinecap
1 setlinejoin
10.00 setmiterlimit
0.00 0.00 283.46 212.60 r p3
0.00 0.00 283.46 212.60 cl
0.00 0.00 283.46 212.60 cl
0.00 0.00 283.46 212.60 cl
32.71 34.33 277.49 169.77 cl
/bg { 1 1 1 srgb } def
32.71 34.33 244.78 135.44 r p2
0.9804 0.9804 0.9804 srgb
1.07 setlinewidth
[] 0 setdash
0 setlinecap
1 setlinejoin
10.00 setmiterlimit
np
32.71 52.83 m
244.78 0 l
o
np
32.71 77.53 m
244.78 0 l
o
np
32.71 102.23 m
244.78 0 l
o
np
32.71 126.93 m
244.78 0 l
o
np
32.71 151.63 m
244.78 0 l
o
0.8980 0.8980 0.8980 srgb
0.43 setlinewidth
[] 0 setdash
np
32.71 40.48 m
244.78 0 l
o
np
32.71 65.18 m
244.78 0 l
o
np
32.71 89.88 m
244.78 0 l
o
np
32.71 114.58 m
244.78 0 l
o
np
32.71 139.28 m
244.78 0 l
o
np
32.71 163.98 m
244.78 0 l
o
np
42.37 34.33 m
0 135.44 l
o
np
58.47 34.33 m
0 135.44 l
o
np
74.58 34.33 m
0 135.44 l
o
np
90.68 34.33 m
0 135.44 l
o
np
106.78 34.33 m
0 135.44 l
o
np
122.89 34.33 m
0 135.44 l
o
np
138.99 34.33 m
0 135.44 l
o
np
155.10 34.33 m
0 135.44 l
o
np
171.20 34.33 m
0 135.44 l
o
np
187.30 34.33 m
0 135.44 l
o
np
203.41 34.33 m
0 135.44 l
o
np
219.51 34.33 m
0 135.44 l
o
np
235.62 34.33 m
0 135.44 l
o
np
251.72 34.33 m
0 135.44 l
o
np
267.82 34.33 m
0 135.44 l
o
/bg { 0.8000 0.8000 0.8000 srgb } def
0 0 0 srgb
1.07 setlinewidth
[] 0 setdash
42.37 40.48 4.03 112.70 r p3
/bg { 0.2000 0.2000 0.2000 srgb } def
38.34 40.48 4.03 113.56 r p3
/bg { 0.8000 0.8000 0.8000 srgb } def
58.47 40.48 4.03 97.21 r p3
/bg { 0.2000 0.2000 0.2000 srgb } def
54.45 40.48 4.03 97.76 r p3
/bg { 0.8000 0.8000 0.8000 srgb } def
74.58 40.48 4.03 116.11 r p3
/bg { 0.2000 0.2000 0.2000 srgb } def
70.55 40.48 4.03 118.49 r p3
/bg { 0.8000 0.8000 0.8000 srgb } def
90.68 40.48 4.03 110.83 r p3
/bg { 0.2000 0.2000 0.2000 srgb } def
86.65 40.48 4.03 112.58 r p3
/bg { 0.8000 0.8000 0.8000 srgb } def
106.78 40.48 4.03 89.97 r p3
/bg { 0.2000 0.2000 0.2000 srgb } def
102.76 40.48 4.03 90.81 r p3
/bg { 0.8000 0.8000 0.8000 srgb } def
122.89 40.48 4.03 77.92 r p3
/bg { 0.2000 0.2000 0.2000 srgb } def
118.86 40.48 4.03 78.68 r p3
/bg { 0.8000 0.8000 0.8000 srgb } def
138.99 40.48 4.03 122.33 r p3
/bg { 0.2000 0.2000 0.2000 srgb } def
134.97 40.48 4.03 123.13 r p3
/bg { 0.8000 0.8000 0.8000 srgb } def
155.10 40.48 4.03 46.76 r p3
/bg { 0.2000 0.2000 0.2000 srgb } def
151.07 40.48 4.03 54.82 r p3
/bg { 0.8000 0.8000 0.8000 srgb } def
171.20 40.48 4.03 58.10 r p3
/bg { 0.2000 0.2000 0.2000 srgb } def
167.17 40.48 4.03 59.12 r p3
/bg { 0.8000 0.8000 0.8000 srgb } def
187.30 40.48 4.03 103.21 r p3
/bg { 0.2000 0.2000 0.2000 srgb } def
183.28 40.48 4.03 106.56 r p3
/bg { 0.8000 0.8000 0.8000 srgb } def
203.41 40.48 4.03 71.39 r p3
/bg { 0.2000 0.2000 0.2000 srgb } def
199.38 40.48 4.03 73.10 r p3
/bg { 0.8000 0.8000 0.8000 srgb } def
219.51 40.48 4.03 66.60 r p3
/bg { 0.2000 0.2000 0.2000 srgb } def
215.49 40.48 4.03 69.81 r p3
/bg { 0.8000 0.8000 0.8000 srgb } def
235.62 40.48 4.03 38.82 r p3
/bg { 0.2000 0.2000 0.2000 srgb } def
231.59 40.48 4.03 65.47 r p3
/bg { 0.8000 0.8000 0.8000 srgb } def
251.72 40.48 4.03 69.86 r p3
/bg { 0.2000 0.2000 0.2000 srgb } def
247.69 40.48 4.03 70.89 r p3
/bg { 0.8000 0.8000 0.8000 srgb } def
267.82 40.48 4.03 84.40 r p3
/bg { 0.2000 0.2000 0.2000 srgb } def
263.80 40.48 4.03 84.56 r p3
0.4980 0.4980 0.4980 srgb
1 setlinecap
32.71 34.33 244.78 135.44 r p1
0.00 0.00 283.46 212.60 cl
0.00 0.00 283.46 212.60 cl
0.00 0.00 283.46 212.60 cl
0.00 0.00 283.46 212.60 cl
0.00 0.00 283.46 212.60 cl
0.00 0.00 283.46 212.60 cl
/Font1 findfont 10 s
0 0 0 srgb
27.33 36.89 (0) 1 0 t
27.33 61.59 (1) 1 0 t
27.33 86.29 (2) 1 0 t
27.33 110.99 (3) 1 0 t
27.33 135.69 (4) 1 0 t
27.33 160.39 (5) 1 0 t
0.00 0.00 283.46 212.60 cl
0.00 0.00 283.46 212.60 cl
0 0 0 srgb
1.07 setlinewidth
[] 0 setdash
0 setlinecap
1 setlinejoin
10.00 setmiterlimit
np
29.72 40.48 m
2.99 0 l
o
np
29.72 65.18 m
2.99 0 l
o
np
29.72 89.88 m
2.99 0 l
o
np
29.72 114.58 m
2.99 0 l
o
np
29.72 139.28 m
2.99 0 l
o
np
29.72 163.98 m
2.99 0 l
o
0.00 0.00 283.46 212.60 cl
0.00 0.00 283.46 212.60 cl
0.00 0.00 283.46 212.60 cl
0.00 0.00 283.46 212.60 cl
0.00 0.00 283.46 212.60 cl
0.00 0.00 283.46 212.60 cl
0.00 0.00 283.46 212.60 cl
0.00 0.00 283.46 212.60 cl
0 0 0 srgb
1.07 setlinewidth
[] 0 setdash
0 setlinecap
1 setlinejoin
10.00 setmiterlimit
np
42.37 31.34 m
0 2.99 l
o
np
58.47 31.34 m
0 2.99 l
o
np
74.58 31.34 m
0 2.99 l
o
np
90.68 31.34 m
0 2.99 l
o
np
106.78 31.34 m
0 2.99 l
o
np
122.89 31.34 m
0 2.99 l
o
np
138.99 31.34 m
0 2.99 l
o
np
155.10 31.34 m
0 2.99 l
o
np
171.20 31.34 m
0 2.99 l
o
np
187.30 31.34 m
0 2.99 l
o
np
203.41 31.34 m
0 2.99 l
o
np
219.51 31.34 m
0 2.99 l
o
np
235.62 31.34 m
0 2.99 l
o
np
251.72 31.34 m
0 2.99 l
o
np
267.82 31.34 m
0 2.99 l
o
0.00 0.00 283.46 212.60 cl
0.00 0.00 283.46 212.60 cl
/Font1 findfont 10 s
0 0 0 srgb
42.37 21.77 (1) .5 0 t
58.47 21.77 (2) .5 0 t
74.58 21.77 (3) .5 0 t
90.68 21.77 (4) .5 0 t
106.78 21.77 (5) .5 0 t
122.89 21.77 (6) .5 0 t
138.99 21.77 (7) .5 0 t
155.10 21.77 (8) .5 0 t
171.20 21.77 (9) .5 0 t
187.30 21.77 (10) .5 0 t
203.41 21.77 (11) .5 0 t
219.51 21.77 (12) .5 0 t
235.62 21.77 (13) .5 0 t
251.72 21.77 (14) .5 0 t
267.82 21.77 (15) .5 0 t
0.00 0.00 283.46 212.60 cl
0.00 0.00 283.46 212.60 cl
0.00 0.00 283.46 212.60 cl
0.00 0.00 283.46 212.60 cl
/Font1 findfont 12 s
0 0 0 srgb
155.10 8.37 (cluster) .5 0 t
0.00 0.00 283.46 212.60 cl
0.00 0.00 283.46 212.60 cl
/Font1 findfont 12 s
0 0 0 srgb
16.98 44.69 (negativ) 90 ta
-0.300 (e loglik) tb
-0.240 (elihood) tb gr
0.00 0.00 283.46 212.60 cl
0.00 0.00 283.46 212.60 cl
0.00 0.00 283.46 212.60 cl
0.00 0.00 283.46 212.60 cl
/bg { 1 1 1 srgb } def
96.93 178.27 116.34 19.84 r p2
0.00 0.00 283.46 212.60 cl
0.00 0.00 283.46 212.60 cl
0.00 0.00 283.46 212.60 cl
0.00 0.00 283.46 212.60 cl
0.00 0.00 283.46 212.60 cl
0.00 0.00 283.46 212.60 cl
/bg { 0.2000 0.2000 0.2000 srgb } def
0 0 0 srgb
1.07 setlinewidth
[] 0 setdash
1 setlinecap
0 setlinejoin
10.00 setmiterlimit
106.21 183.24 9.92 9.92 r p3
0.00 0.00 283.46 212.60 cl
0.00 0.00 283.46 212.60 cl
0.00 0.00 283.46 212.60 cl
0.00 0.00 283.46 212.60 cl
/bg { 0.8000 0.8000 0.8000 srgb } def
0 0 0 srgb
1.07 setlinewidth
[] 0 setdash
1 setlinecap
0 setlinejoin
10.00 setmiterlimit
151.88 183.24 9.92 9.92 r p3
0.00 0.00 283.46 212.60 cl
0.00 0.00 283.46 212.60 cl
/Font1 findfont 10 s
0 0 0 srgb
119.00 184.61 (gomez) 0 0 t
0.00 0.00 283.46 212.60 cl
0.00 0.00 283.46 212.60 cl
/Font1 findfont 10 s
0 0 0 srgb
164.67 184.61 (lumbrer) 0 ta
-0.100 (as) tb gr
0.00 0.00 283.46 212.60 cl
0.00 0.00 283.46 212.60 cl
0.00 0.00 283.46 212.60 cl
0.00 0.00 283.46 212.60 cl
0.00 0.00 283.46 212.60 cl
0.00 0.00 283.46 212.60 cl
ep
%%Trailer
%%Pages: 1
%%EOF
