%!PS-Adobe-3.0 EPSF-3.0
%%DocumentNeededResources: font Helvetica
%%+ font Helvetica-Bold
%%+ font Helvetica-Oblique
%%+ font Helvetica-BoldOblique
%%+ font Symbol
%%Title: R Graphics Output
%%Creator: R Software
%%Pages: (atend)
%%BoundingBox: 0 0 354 198
%%EndComments
%%BeginProlog
/bp  { gs sRGB gs } def
% begin .ps.prolog
/gs  { gsave } bind def
/gr  { grestore } bind def
/ep  { showpage gr gr } bind def
/m   { moveto } bind def
/l  { rlineto } bind def
/np  { newpath } bind def
/cp  { closepath } bind def
/f   { fill } bind def
/o   { stroke } bind def
/c   { newpath 0 360 arc } bind def
/r   { 4 2 roll moveto 1 copy 3 -1 roll exch 0 exch rlineto 0 rlineto -1 mul 0 exch rlineto closepath } bind def
/p1  { stroke } bind def
/p2  { gsave bg fill grestore newpath } bind def
/p3  { gsave bg fill grestore stroke } bind def
/p6  { gsave bg eofill grestore newpath } bind def
/p7  { gsave bg eofill grestore stroke } bind def
/t   { 5 -2 roll moveto gsave rotate
       1 index stringwidth pop
       mul neg 0 rmoveto show grestore } bind def
/ta  { 4 -2 roll moveto gsave rotate show } bind def
/tb  { 2 -1 roll 0 rmoveto show } bind def
/cl  { grestore gsave newpath 3 index 3 index moveto 1 index
       4 -1 roll lineto  exch 1 index lineto lineto
       closepath clip newpath } bind def
/rgb { setrgbcolor } bind def
/s   { scalefont setfont } bind def
% end   .ps.prolog
/sRGB { [ /CIEBasedABC
          << /DecodeLMN
               [ { dup 0.03928 le
                        {12.92321 div}
                        {0.055 add 1.055 div 2.4 exp }
                     ifelse
                 } bind dup dup
               ]
             /MatrixLMN [0.412457 0.212673 0.019334
                         0.357576 0.715152 0.119192
                         0.180437 0.072175 0.950301]
             /WhitePoint [0.9505 1.0 1.0890]
           >>
         ] setcolorspace } bind def
/srgb { setcolor } bind def
%%IncludeResource: font Helvetica
/Helvetica findfont
dup length dict begin
  {1 index /FID ne {def} {pop pop} ifelse} forall
  /Encoding ISOLatin1Encoding def
  currentdict
  end
/Font1 exch definefont pop
%%IncludeResource: font Helvetica-Bold
/Helvetica-Bold findfont
dup length dict begin
  {1 index /FID ne {def} {pop pop} ifelse} forall
  /Encoding ISOLatin1Encoding def
  currentdict
  end
/Font2 exch definefont pop
%%IncludeResource: font Helvetica-Oblique
/Helvetica-Oblique findfont
dup length dict begin
  {1 index /FID ne {def} {pop pop} ifelse} forall
  /Encoding ISOLatin1Encoding def
  currentdict
  end
/Font3 exch definefont pop
%%IncludeResource: font Helvetica-BoldOblique
/Helvetica-BoldOblique findfont
dup length dict begin
  {1 index /FID ne {def} {pop pop} ifelse} forall
  /Encoding ISOLatin1Encoding def
  currentdict
  end
/Font4 exch definefont pop
%%IncludeResource: font Symbol
/Symbol findfont
dup length dict begin
  {1 index /FID ne {def} {pop pop} ifelse} forall
  currentdict
  end
/Font5 exch definefont pop
%%EndProlog
%%Page: 1 1
bp
0.00 0.00 354.33 198.43 cl
0.00 0.00 354.33 198.43 cl
0.00 0.00 354.33 198.43 cl
0.00 0.00 354.33 198.43 cl
0.00 0.00 354.33 198.43 cl
0.00 0.00 354.33 198.43 cl
0.00 0.00 354.33 198.43 cl
0.00 0.00 354.33 198.43 cl
0.00 0.00 354.33 198.43 cl
0.00 0.00 354.33 198.43 cl
/bg { 1 1 1 srgb } def
1 1 1 srgb
1.07 setlinewidth
[] 0 setdash
1 setlinecap
1 setlinejoin
10.00 setmiterlimit
0.00 0.00 354.33 198.43 r p3
0.00 0.00 354.33 198.43 cl
0.00 0.00 354.33 198.43 cl
0.00 0.00 354.33 198.43 cl
71.39 36.48 348.35 192.45 cl
/bg { 1 1 1 srgb } def
71.39 36.48 276.96 155.97 r p2
0.9804 0.9804 0.9804 srgb
1.07 setlinewidth
[] 0 setdash
0 setlinecap
1 setlinejoin
10.00 setmiterlimit
np
71.39 75.83 m
276.96 0 l
o
np
71.39 121.07 m
276.96 0 l
o
np
71.39 166.30 m
276.96 0 l
o
np
118.71 36.48 m
0 155.97 l
o
np
205.53 36.48 m
0 155.97 l
o
np
292.35 36.48 m
0 155.97 l
o
0.8980 0.8980 0.8980 srgb
0.43 setlinewidth
[] 0 setdash
np
71.39 53.21 m
276.96 0 l
o
np
71.39 98.45 m
276.96 0 l
o
np
71.39 143.68 m
276.96 0 l
o
np
71.39 188.92 m
276.96 0 l
o
np
75.30 36.48 m
0 155.97 l
o
np
162.12 36.48 m
0 155.97 l
o
np
248.94 36.48 m
0 155.97 l
o
np
335.76 36.48 m
0 155.97 l
o
/bg { 0 0 0 srgb } def
0 0 0 srgb
0.71 setlinewidth
[] 0 setdash
1 setlinecap
83.98 185.36 2.49 c p3
88.32 129.62 2.49 c p3
92.67 88.67 2.49 c p3
97.01 76.02 2.49 c p3
101.35 63.97 2.49 c p3
105.69 60.41 2.49 c p3
110.03 58.86 2.49 c p3
114.37 52.39 2.49 c p3
118.71 50.94 2.49 c p3
123.05 53.01 2.49 c p3
127.39 49.70 2.49 c p3
131.74 50.84 2.49 c p3
136.08 51.66 2.49 c p3
140.42 44.49 2.49 c p3
144.76 46.65 2.49 c p3
149.10 48.38 2.49 c p3
153.44 47.09 2.49 c p3
157.78 48.79 2.49 c p3
162.12 45.54 2.49 c p3
183.83 43.57 2.49 c p3
205.53 46.12 2.49 c p3
227.24 45.78 2.49 c p3
248.94 46.08 2.49 c p3
270.65 47.64 2.49 c p3
292.35 48.51 2.49 c p3
314.06 47.40 2.49 c p3
335.76 47.31 2.49 c p3
1.07 setlinewidth
[] 0 setdash
0 setlinecap
1.00 setmiterlimit
np
83.98 185.36 m
4.34 -55.74 l
4.35 -40.95 l
4.34 -12.65 l
4.34 -12.05 l
4.34 -3.56 l
4.34 -1.55 l
4.34 -6.47 l
4.34 -1.45 l
4.34 2.07 l
4.34 -3.31 l
4.35 1.14 l
4.34 0.82 l
4.34 -7.17 l
4.34 2.16 l
4.34 1.73 l
4.34 -1.29 l
4.34 1.70 l
4.34 -3.25 l
21.71 -1.97 l
21.70 2.55 l
21.71 -0.34 l
21.70 0.30 l
21.71 1.56 l
21.70 0.87 l
21.71 -1.11 l
21.70 -0.09 l
o
0.4980 0.4980 0.4980 srgb
1 setlinecap
10.00 setmiterlimit
71.39 36.48 276.96 155.97 r p1
0.00 0.00 354.33 198.43 cl
0.00 0.00 354.33 198.43 cl
0.00 0.00 354.33 198.43 cl
0.00 0.00 354.33 198.43 cl
0.00 0.00 354.33 198.43 cl
0.00 0.00 354.33 198.43 cl
/Font1 findfont 11 s
0 0 0 srgb
66.01 49.26 (1520000) 1 0 t
66.01 94.50 (1540000) 1 0 t
66.01 139.74 (1560000) 1 0 t
66.01 184.97 (1580000) 1 0 t
0.00 0.00 354.33 198.43 cl
0.00 0.00 354.33 198.43 cl
0 0 0 srgb
1.07 setlinewidth
[] 0 setdash
0 setlinecap
1 setlinejoin
10.00 setmiterlimit
np
68.41 53.21 m
2.98 0 l
o
np
68.41 98.45 m
2.98 0 l
o
np
68.41 143.68 m
2.98 0 l
o
np
68.41 188.92 m
2.98 0 l
o
0.00 0.00 354.33 198.43 cl
0.00 0.00 354.33 198.43 cl
0.00 0.00 354.33 198.43 cl
0.00 0.00 354.33 198.43 cl
0.00 0.00 354.33 198.43 cl
0.00 0.00 354.33 198.43 cl
0.00 0.00 354.33 198.43 cl
0.00 0.00 354.33 198.43 cl
0 0 0 srgb
1.07 setlinewidth
[] 0 setdash
0 setlinecap
1 setlinejoin
10.00 setmiterlimit
np
75.30 33.49 m
0 2.99 l
o
np
162.12 33.49 m
0 2.99 l
o
np
248.94 33.49 m
0 2.99 l
o
np
335.76 33.49 m
0 2.99 l
o
0.00 0.00 354.33 198.43 cl
0.00 0.00 354.33 198.43 cl
/Font1 findfont 11 s
0 0 0 srgb
75.30 23.20 (0) .5 0 t
162.12 23.20 (20) .5 0 t
248.94 23.20 (40) .5 0 t
335.76 23.20 (60) .5 0 t
0.00 0.00 354.33 198.43 cl
0.00 0.00 354.33 198.43 cl
0.00 0.00 354.33 198.43 cl
0.00 0.00 354.33 198.43 cl
/Font1 findfont 14 s
0 0 0 srgb
209.87 8.37 (k) .5 0 t
0.00 0.00 354.33 198.43 cl
0.00 0.00 354.33 198.43 cl
/Font1 findfont 14 s
0 0 0 srgb
18.42 114.46 (BIC) .5 90 t
0.00 0.00 354.33 198.43 cl
0.00 0.00 354.33 198.43 cl
0.00 0.00 354.33 198.43 cl
0.00 0.00 354.33 198.43 cl
ep
%%Trailer
%%Pages: 1
%%EOF
