%!PS-Adobe-3.0 EPSF-3.0
%%DocumentNeededResources: font Helvetica
%%+ font Helvetica-Bold
%%+ font Helvetica-Oblique
%%+ font Helvetica-BoldOblique
%%+ font Symbol
%%Title: R Graphics Output
%%Creator: R Software
%%Pages: (atend)
%%BoundingBox: 0 0 496 283
%%EndComments
%%BeginProlog
/bp  { gs sRGB gs } def
% begin .ps.prolog
/gs  { gsave } bind def
/gr  { grestore } bind def
/ep  { showpage gr gr } bind def
/m   { moveto } bind def
/l  { rlineto } bind def
/np  { newpath } bind def
/cp  { closepath } bind def
/f   { fill } bind def
/o   { stroke } bind def
/c   { newpath 0 360 arc } bind def
/r   { 4 2 roll moveto 1 copy 3 -1 roll exch 0 exch rlineto 0 rlineto -1 mul 0 exch rlineto closepath } bind def
/p1  { stroke } bind def
/p2  { gsave bg fill grestore newpath } bind def
/p3  { gsave bg fill grestore stroke } bind def
/p6  { gsave bg eofill grestore newpath } bind def
/p7  { gsave bg eofill grestore stroke } bind def
/t   { 5 -2 roll moveto gsave rotate
       1 index stringwidth pop
       mul neg 0 rmoveto show grestore } bind def
/ta  { 4 -2 roll moveto gsave rotate show } bind def
/tb  { 2 -1 roll 0 rmoveto show } bind def
/cl  { grestore gsave newpath 3 index 3 index moveto 1 index
       4 -1 roll lineto  exch 1 index lineto lineto
       closepath clip newpath } bind def
/rgb { setrgbcolor } bind def
/s   { scalefont setfont } bind def
% end   .ps.prolog
/sRGB { [ /CIEBasedABC
          << /DecodeLMN
               [ { dup 0.03928 le
                        {12.92321 div}
                        {0.055 add 1.055 div 2.4 exp }
                     ifelse
                 } bind dup dup
               ]
             /MatrixLMN [0.412457 0.212673 0.019334
                         0.357576 0.715152 0.119192
                         0.180437 0.072175 0.950301]
             /WhitePoint [0.9505 1.0 1.0890]
           >>
         ] setcolorspace } bind def
/srgb { setcolor } bind def
%%IncludeResource: font Helvetica
/Helvetica findfont
dup length dict begin
  {1 index /FID ne {def} {pop pop} ifelse} forall
  /Encoding ISOLatin1Encoding def
  currentdict
  end
/Font1 exch definefont pop
%%IncludeResource: font Helvetica-Bold
/Helvetica-Bold findfont
dup length dict begin
  {1 index /FID ne {def} {pop pop} ifelse} forall
  /Encoding ISOLatin1Encoding def
  currentdict
  end
/Font2 exch definefont pop
%%IncludeResource: font Helvetica-Oblique
/Helvetica-Oblique findfont
dup length dict begin
  {1 index /FID ne {def} {pop pop} ifelse} forall
  /Encoding ISOLatin1Encoding def
  currentdict
  end
/Font3 exch definefont pop
%%IncludeResource: font Helvetica-BoldOblique
/Helvetica-BoldOblique findfont
dup length dict begin
  {1 index /FID ne {def} {pop pop} ifelse} forall
  /Encoding ISOLatin1Encoding def
  currentdict
  end
/Font4 exch definefont pop
%%IncludeResource: font Symbol
/Symbol findfont
dup length dict begin
  {1 index /FID ne {def} {pop pop} ifelse} forall
  currentdict
  end
/Font5 exch definefont pop
%%EndProlog
%%Page: 1 1
bp
0.00 0.00 496.06 283.46 cl
0.00 0.00 496.06 283.46 cl
0.00 0.00 496.06 283.46 cl
0.00 0.00 496.06 283.46 cl
0.00 0.00 496.06 283.46 cl
0.00 0.00 496.06 283.46 cl
0.00 0.00 496.06 283.46 cl
0.00 0.00 496.06 283.46 cl
0.00 0.00 496.06 283.46 cl
0.00 0.00 496.06 283.46 cl
/bg { 1 1 1 srgb } def
1 1 1 srgb
1.07 setlinewidth
[] 0 setdash
1 setlinecap
1 setlinejoin
10.00 setmiterlimit
0.00 0.00 496.06 283.46 r p3
0.00 0.00 496.06 283.46 cl
0.00 0.00 496.06 283.46 cl
0.00 0.00 496.06 283.46 cl
43.87 36.48 396.35 277.49 cl
/bg { 1 1 1 srgb } def
43.87 36.48 352.48 241.01 r p2
0.9804 0.9804 0.9804 srgb
1.07 setlinewidth
[] 0 setdash
0 setlinecap
1 setlinejoin
10.00 setmiterlimit
np
43.87 93.96 m
352.48 0 l
o
np
43.87 156.98 m
352.48 0 l
o
np
43.87 220.01 m
352.48 0 l
o
np
94.58 36.48 m
0 241.01 l
o
np
177.17 36.48 m
0 241.01 l
o
np
259.75 36.48 m
0 241.01 l
o
np
342.34 36.48 m
0 241.01 l
o
0.8980 0.8980 0.8980 srgb
0.43 setlinewidth
[] 0 setdash
np
43.87 62.45 m
352.48 0 l
o
np
43.87 125.47 m
352.48 0 l
o
np
43.87 188.49 m
352.48 0 l
o
np
43.87 251.52 m
352.48 0 l
o
np
53.29 36.48 m
0 241.01 l
o
np
135.87 36.48 m
0 241.01 l
o
np
218.46 36.48 m
0 241.01 l
o
np
301.04 36.48 m
0 241.01 l
o
np
383.63 36.48 m
0 241.01 l
o
/bg { 0.9725 0.4627 0.4275 srgb } def
59.89 47.44 1.95 c p2
63.20 83.45 1.95 c p2
66.50 100.94 1.95 c p2
69.80 107.63 1.95 c p2
73.11 115.87 1.95 c p2
76.41 122.70 1.95 c p2
79.71 124.73 1.95 c p2
83.02 125.92 1.95 c p2
86.32 128.93 1.95 c p2
89.63 134.26 1.95 c p2
92.93 135.59 1.95 c p2
96.23 134.78 1.95 c p2
99.54 138.38 1.95 c p2
102.84 137.33 1.95 c p2
106.14 136.35 1.95 c p2
109.45 135.96 1.95 c p2
112.75 137.82 1.95 c p2
116.05 140.17 1.95 c p2
119.36 141.28 1.95 c p2
122.66 134.88 1.95 c p2
125.96 140.60 1.95 c p2
129.27 140.60 1.95 c p2
132.57 138.64 1.95 c p2
135.87 142.49 1.95 c p2
139.18 142.28 1.95 c p2
142.48 145.85 1.95 c p2
145.78 141.45 1.95 c p2
149.09 149.11 1.95 c p2
152.39 141.68 1.95 c p2
155.69 144.77 1.95 c p2
159.00 144.95 1.95 c p2
162.30 146.90 1.95 c p2
165.60 142.19 1.95 c p2
168.91 142.53 1.95 c p2
172.21 144.08 1.95 c p2
175.51 146.37 1.95 c p2
178.82 144.99 1.95 c p2
182.12 147.94 1.95 c p2
185.42 144.12 1.95 c p2
188.73 146.80 1.95 c p2
192.03 145.51 1.95 c p2
195.33 148.89 1.95 c p2
198.64 143.34 1.95 c p2
201.94 151.65 1.95 c p2
205.25 140.30 1.95 c p2
208.55 146.71 1.95 c p2
211.85 146.67 1.95 c p2
215.16 147.09 1.95 c p2
218.46 151.22 1.95 c p2
221.76 149.20 1.95 c p2
225.07 147.40 1.95 c p2
228.37 141.02 1.95 c p2
231.67 145.24 1.95 c p2
234.98 151.47 1.95 c p2
238.28 146.28 1.95 c p2
241.58 148.70 1.95 c p2
244.89 148.47 1.95 c p2
248.19 147.09 1.95 c p2
251.49 151.85 1.95 c p2
254.80 151.10 1.95 c p2
258.10 144.77 1.95 c p2
261.40 147.76 1.95 c p2
264.71 144.22 1.95 c p2
268.01 146.54 1.95 c p2
271.31 144.92 1.95 c p2
274.62 147.36 1.95 c p2
277.92 144.76 1.95 c p2
281.22 140.28 1.95 c p2
284.53 141.58 1.95 c p2
287.83 141.47 1.95 c p2
291.13 144.92 1.95 c p2
294.44 151.11 1.95 c p2
297.74 143.93 1.95 c p2
301.04 149.20 1.95 c p2
304.35 140.59 1.95 c p2
307.65 150.12 1.95 c p2
310.95 139.72 1.95 c p2
314.26 143.84 1.95 c p2
317.56 143.04 1.95 c p2
320.87 148.66 1.95 c p2
324.17 151.61 1.95 c p2
327.47 145.75 1.95 c p2
330.78 148.60 1.95 c p2
334.08 153.12 1.95 c p2
337.38 148.11 1.95 c p2
340.69 151.82 1.95 c p2
343.99 148.32 1.95 c p2
347.29 150.90 1.95 c p2
350.60 145.37 1.95 c p2
353.90 153.74 1.95 c p2
357.20 148.33 1.95 c p2
360.51 147.16 1.95 c p2
363.81 160.92 1.95 c p2
367.11 137.76 1.95 c p2
370.42 159.55 1.95 c p2
373.72 143.56 1.95 c p2
377.02 141.76 1.95 c p2
380.33 144.68 1.95 c p2
/bg { 0.4863 0.6824 0 srgb } def
np
 59.89 50.48 m
2.64 -4.56 l
-5.27 0 l
cp p2
np
 63.20 68.19 m
2.63 -4.56 l
-5.27 0 l
cp p2
np
 66.50 75.38 m
2.63 -4.56 l
-5.26 0 l
cp p2
np
 69.80 80.75 m
2.64 -4.56 l
-5.27 0 l
cp p2
np
 73.11 81.88 m
2.63 -4.56 l
-5.26 0 l
cp p2
np
 76.41 86.52 m
2.63 -4.56 l
-5.26 0 l
cp p2
np
 79.71 84.00 m
2.64 -4.56 l
-5.27 0 l
cp p2
np
 83.02 83.50 m
2.63 -4.56 l
-5.26 0 l
cp p2
np
 86.32 87.83 m
2.63 -4.56 l
-5.26 0 l
cp p2
np
 89.63 87.21 m
2.63 -4.56 l
-5.27 0 l
cp p2
np
 92.93 85.76 m
2.63 -4.56 l
-5.26 0 l
cp p2
np
 96.23 90.52 m
2.63 -4.56 l
-5.26 0 l
cp p2
np
 99.54 87.59 m
2.63 -4.56 l
-5.27 0 l
cp p2
np
 102.84 89.50 m
2.63 -4.56 l
-5.26 0 l
cp p2
np
 106.14 91.56 m
2.63 -4.56 l
-5.26 0 l
cp p2
np
 109.45 92.88 m
2.63 -4.56 l
-5.27 0 l
cp p2
np
 112.75 90.16 m
2.63 -4.56 l
-5.26 0 l
cp p2
np
 116.05 91.52 m
2.64 -4.56 l
-5.27 0 l
cp p2
np
 119.36 93.04 m
2.63 -4.56 l
-5.27 0 l
cp p2
np
 122.66 94.00 m
2.63 -4.56 l
-5.26 0 l
cp p2
np
 125.96 94.66 m
2.64 -4.56 l
-5.27 0 l
cp p2
np
 129.27 91.35 m
2.63 -4.56 l
-5.27 0 l
cp p2
np
 132.57 93.17 m
2.63 -4.56 l
-5.26 0 l
cp p2
np
 135.87 91.37 m
2.64 -4.56 l
-5.27 0 l
cp p2
np
 139.18 94.60 m
2.63 -4.56 l
-5.27 0 l
cp p2
np
 142.48 93.14 m
2.63 -4.56 l
-5.26 0 l
cp p2
np
 145.78 94.46 m
2.64 -4.56 l
-5.27 0 l
cp p2
np
 149.09 91.19 m
2.63 -4.56 l
-5.27 0 l
cp p2
np
 152.39 95.52 m
2.63 -4.56 l
-5.26 0 l
cp p2
np
 155.69 96.48 m
2.64 -4.56 l
-5.27 0 l
cp p2
np
 159.00 88.17 m
2.63 -4.56 l
-5.27 0 l
cp p2
np
 162.30 93.83 m
2.63 -4.56 l
-5.26 0 l
cp p2
np
 165.60 93.75 m
2.64 -4.56 l
-5.27 0 l
cp p2
np
 168.91 93.17 m
2.63 -4.56 l
-5.27 0 l
cp p2
np
 172.21 94.23 m
2.63 -4.56 l
-5.26 0 l
cp p2
np
 175.51 89.90 m
2.64 -4.56 l
-5.27 0 l
cp p2
np
 178.82 93.34 m
2.63 -4.56 l
-5.27 0 l
cp p2
np
 182.12 98.25 m
2.63 -4.56 l
-5.26 0 l
cp p2
np
 185.42 91.40 m
2.64 -4.56 l
-5.27 0 l
cp p2
np
 188.73 96.80 m
2.63 -4.56 l
-5.26 0 l
cp p2
np
 192.03 90.72 m
2.63 -4.56 l
-5.26 0 l
cp p2
np
 195.33 93.47 m
2.64 -4.56 l
-5.27 0 l
cp p2
np
 198.64 93.51 m
2.63 -4.56 l
-5.26 0 l
cp p2
np
 201.94 99.97 m
2.63 -4.56 l
-5.26 0 l
cp p2
np
 205.25 91.30 m
2.63 -4.56 l
-5.27 0 l
cp p2
np
 208.55 91.67 m
2.63 -4.56 l
-5.26 0 l
cp p2
np
 211.85 91.23 m
2.63 -4.56 l
-5.26 0 l
cp p2
np
 215.16 94.82 m
2.63 -4.56 l
-5.27 0 l
cp p2
np
 218.46 98.78 m
2.63 -4.56 l
-5.26 0 l
cp p2
np
 221.76 94.82 m
2.63 -4.56 l
-5.26 0 l
cp p2
np
 225.07 99.42 m
2.63 -4.56 l
-5.27 0 l
cp p2
np
 228.37 96.95 m
2.63 -4.56 l
-5.26 0 l
cp p2
np
 231.67 94.82 m
2.64 -4.56 l
-5.27 0 l
cp p2
np
 234.98 93.34 m
2.63 -4.56 l
-5.27 0 l
cp p2
np
 238.28 96.11 m
2.63 -4.56 l
-5.26 0 l
cp p2
np
 241.58 97.28 m
2.64 -4.56 l
-5.27 0 l
cp p2
np
 244.89 95.29 m
2.63 -4.56 l
-5.27 0 l
cp p2
np
 248.19 95.08 m
2.63 -4.56 l
-5.26 0 l
cp p2
np
 251.49 91.16 m
2.64 -4.56 l
-5.27 0 l
cp p2
np
 254.80 102.04 m
2.63 -4.56 l
-5.27 0 l
cp p2
np
 258.10 98.20 m
2.63 -4.56 l
-5.26 0 l
cp p2
np
 261.40 100.60 m
2.64 -4.56 l
-5.27 0 l
cp p2
np
 264.71 99.88 m
2.63 -4.56 l
-5.27 0 l
cp p2
np
 268.01 97.21 m
2.63 -4.56 l
-5.26 0 l
cp p2
np
 271.31 97.61 m
2.64 -4.56 l
-5.27 0 l
cp p2
np
 274.62 93.02 m
2.63 -4.56 l
-5.27 0 l
cp p2
np
 277.92 94.62 m
2.63 -4.56 l
-5.26 0 l
cp p2
np
 281.22 97.91 m
2.64 -4.56 l
-5.27 0 l
cp p2
np
 284.53 101.19 m
2.63 -4.56 l
-5.27 0 l
cp p2
np
 287.83 91.56 m
2.63 -4.56 l
-5.26 0 l
cp p2
np
 291.13 98.22 m
2.64 -4.56 l
-5.27 0 l
cp p2
np
 294.44 94.95 m
2.63 -4.56 l
-5.26 0 l
cp p2
np
 297.74 94.60 m
2.63 -4.56 l
-5.26 0 l
cp p2
np
 301.04 98.71 m
2.64 -4.56 l
-5.27 0 l
cp p2
np
 304.35 98.09 m
2.63 -4.56 l
-5.26 0 l
cp p2
np
 307.65 92.23 m
2.63 -4.56 l
-5.26 0 l
cp p2
np
 310.95 93.36 m
2.64 -4.56 l
-5.27 0 l
cp p2
np
 314.26 101.16 m
2.63 -4.56 l
-5.26 0 l
cp p2
np
 317.56 98.91 m
2.63 -4.56 l
-5.26 0 l
cp p2
np
 320.87 96.29 m
2.63 -4.56 l
-5.27 0 l
cp p2
np
 324.17 96.60 m
2.63 -4.56 l
-5.26 0 l
cp p2
np
 327.47 98.80 m
2.63 -4.56 l
-5.26 0 l
cp p2
np
 330.78 97.45 m
2.63 -4.56 l
-5.27 0 l
cp p2
np
 334.08 91.73 m
2.63 -4.56 l
-5.26 0 l
cp p2
np
 337.38 95.11 m
2.64 -4.56 l
-5.27 0 l
cp p2
np
 340.69 93.52 m
2.63 -4.56 l
-5.27 0 l
cp p2
np
 343.99 97.75 m
2.63 -4.56 l
-5.26 0 l
cp p2
np
 347.29 94.03 m
2.64 -4.56 l
-5.27 0 l
cp p2
np
 350.60 98.82 m
2.63 -4.56 l
-5.27 0 l
cp p2
np
 353.90 95.57 m
2.63 -4.56 l
-5.26 0 l
cp p2
np
 357.20 95.32 m
2.64 -4.56 l
-5.27 0 l
cp p2
np
 360.51 96.43 m
2.63 -4.56 l
-5.27 0 l
cp p2
np
 363.81 90.54 m
2.63 -4.56 l
-5.26 0 l
cp p2
np
 367.11 96.18 m
2.64 -4.56 l
-5.27 0 l
cp p2
np
 370.42 94.32 m
2.63 -4.56 l
-5.27 0 l
cp p2
np
 373.72 101.30 m
2.63 -4.56 l
-5.26 0 l
cp p2
np
 377.02 95.24 m
2.64 -4.56 l
-5.27 0 l
cp p2
np
 380.33 93.01 m
2.63 -4.56 l
-5.27 0 l
cp p2
/bg { 0 0.7490 0.7686 srgb } def
np
 57.94 54.39 m
3.91 0 l
0 3.91 l
-3.91 0 l
cp p2
np
 61.24 66.43 m
3.91 0 l
0 3.91 l
-3.91 0 l
cp p2
np
 64.55 72.63 m
3.91 0 l
0 3.91 l
-3.91 0 l
cp p2
np
 67.85 77.27 m
3.91 0 l
0 3.91 l
-3.91 0 l
cp p2
np
 71.15 77.54 m
3.91 0 l
0 3.91 l
-3.91 0 l
cp p2
np
 74.46 82.09 m
3.91 0 l
0 3.91 l
-3.91 0 l
cp p2
np
 77.76 79.52 m
3.91 0 l
0 3.91 l
-3.91 0 l
cp p2
np
 81.06 79.08 m
3.91 0 l
0 3.91 l
-3.91 0 l
cp p2
np
 84.37 83.01 m
3.91 0 l
0 3.91 l
-3.91 0 l
cp p2
np
 87.67 84.04 m
3.91 0 l
0 3.91 l
-3.91 0 l
cp p2
np
 90.97 81.80 m
3.91 0 l
0 3.91 l
-3.91 0 l
cp p2
np
 94.28 86.14 m
3.91 0 l
0 3.91 l
-3.91 0 l
cp p2
np
 97.58 83.45 m
3.91 0 l
0 3.91 l
-3.91 0 l
cp p2
np
 100.88 84.89 m
3.91 0 l
0 3.91 l
-3.91 0 l
cp p2
np
 104.19 87.35 m
3.91 0 l
0 3.91 l
-3.91 0 l
cp p2
np
 107.49 87.88 m
3.91 0 l
0 3.91 l
-3.91 0 l
cp p2
np
 110.79 85.45 m
3.91 0 l
0 3.90 l
-3.91 0 l
cp p2
np
 114.10 86.91 m
3.91 0 l
0 3.91 l
-3.91 0 l
cp p2
np
 117.40 87.32 m
3.91 0 l
0 3.91 l
-3.91 0 l
cp p2
np
 120.70 89.32 m
3.91 0 l
0 3.91 l
-3.91 0 l
cp p2
np
 124.01 89.07 m
3.91 0 l
0 3.91 l
-3.91 0 l
cp p2
np
 127.31 85.02 m
3.91 0 l
0 3.91 l
-3.91 0 l
cp p2
np
 130.61 87.33 m
3.91 0 l
0 3.91 l
-3.91 0 l
cp p2
np
 133.92 86.02 m
3.91 0 l
0 3.91 l
-3.91 0 l
cp p2
np
 137.22 89.93 m
3.91 0 l
0 3.91 l
-3.91 0 l
cp p2
np
 140.53 88.55 m
3.90 0 l
0 3.91 l
-3.90 0 l
cp p2
np
 143.83 88.55 m
3.91 0 l
0 3.91 l
-3.91 0 l
cp p2
np
 147.13 86.38 m
3.91 0 l
0 3.91 l
-3.91 0 l
cp p2
np
 150.44 90.13 m
3.91 0 l
0 3.91 l
-3.91 0 l
cp p2
np
 153.74 88.33 m
3.91 0 l
0 3.91 l
-3.91 0 l
cp p2
np
 157.04 82.88 m
3.91 0 l
0 3.91 l
-3.91 0 l
cp p2
np
 160.35 89.27 m
3.91 0 l
0 3.91 l
-3.91 0 l
cp p2
np
 163.65 87.80 m
3.91 0 l
0 3.91 l
-3.91 0 l
cp p2
np
 166.95 87.09 m
3.91 0 l
0 3.91 l
-3.91 0 l
cp p2
np
 170.26 89.90 m
3.91 0 l
0 3.91 l
-3.91 0 l
cp p2
np
 173.56 84.26 m
3.91 0 l
0 3.91 l
-3.91 0 l
cp p2
np
 176.86 88.80 m
3.91 0 l
0 3.91 l
-3.91 0 l
cp p2
np
 180.17 92.76 m
3.91 0 l
0 3.91 l
-3.91 0 l
cp p2
np
 183.47 84.47 m
3.91 0 l
0 3.91 l
-3.91 0 l
cp p2
np
 186.77 91.54 m
3.91 0 l
0 3.91 l
-3.91 0 l
cp p2
np
 190.08 84.16 m
3.91 0 l
0 3.91 l
-3.91 0 l
cp p2
np
 193.38 88.52 m
3.91 0 l
0 3.91 l
-3.91 0 l
cp p2
np
 196.68 87.66 m
3.91 0 l
0 3.91 l
-3.91 0 l
cp p2
np
 199.99 95.08 m
3.91 0 l
0 3.91 l
-3.91 0 l
cp p2
np
 203.29 85.37 m
3.91 0 l
0 3.91 l
-3.91 0 l
cp p2
np
 206.59 85.11 m
3.91 0 l
0 3.90 l
-3.91 0 l
cp p2
np
 209.90 86.54 m
3.91 0 l
0 3.91 l
-3.91 0 l
cp p2
np
 213.20 89.94 m
3.91 0 l
0 3.91 l
-3.91 0 l
cp p2
np
 216.50 91.69 m
3.91 0 l
0 3.91 l
-3.91 0 l
cp p2
np
 219.81 89.69 m
3.91 0 l
0 3.91 l
-3.91 0 l
cp p2
np
 223.11 93.51 m
3.91 0 l
0 3.91 l
-3.91 0 l
cp p2
np
 226.41 87.21 m
3.91 0 l
0 3.91 l
-3.91 0 l
cp p2
np
 229.72 90.43 m
3.91 0 l
0 3.91 l
-3.91 0 l
cp p2
np
 233.02 88.44 m
3.91 0 l
0 3.91 l
-3.91 0 l
cp p2
np
 236.32 89.07 m
3.91 0 l
0 3.91 l
-3.91 0 l
cp p2
np
 239.63 89.68 m
3.91 0 l
0 3.91 l
-3.91 0 l
cp p2
np
 242.93 89.31 m
3.91 0 l
0 3.91 l
-3.91 0 l
cp p2
np
 246.23 88.61 m
3.91 0 l
0 3.91 l
-3.91 0 l
cp p2
np
 249.54 86.46 m
3.91 0 l
0 3.91 l
-3.91 0 l
cp p2
np
 252.84 96.36 m
3.91 0 l
0 3.91 l
-3.91 0 l
cp p2
np
 256.15 92.93 m
3.90 0 l
0 3.91 l
-3.90 0 l
cp p2
np
 259.45 93.45 m
3.91 0 l
0 3.91 l
-3.91 0 l
cp p2
np
 262.75 92.06 m
3.91 0 l
0 3.91 l
-3.91 0 l
cp p2
np
 266.06 93.75 m
3.91 0 l
0 3.91 l
-3.91 0 l
cp p2
np
 269.36 92.16 m
3.91 0 l
0 3.91 l
-3.91 0 l
cp p2
np
 272.66 87.03 m
3.91 0 l
0 3.91 l
-3.91 0 l
cp p2
np
 275.97 89.24 m
3.91 0 l
0 3.91 l
-3.91 0 l
cp p2
np
 279.27 90.20 m
3.91 0 l
0 3.91 l
-3.91 0 l
cp p2
np
 282.57 96.86 m
3.91 0 l
0 3.91 l
-3.91 0 l
cp p2
np
 285.88 84.45 m
3.91 0 l
0 3.91 l
-3.91 0 l
cp p2
np
 289.18 93.93 m
3.91 0 l
0 3.91 l
-3.91 0 l
cp p2
np
 292.48 89.64 m
3.91 0 l
0 3.90 l
-3.91 0 l
cp p2
np
 295.79 89.62 m
3.91 0 l
0 3.91 l
-3.91 0 l
cp p2
np
 299.09 96.15 m
3.91 0 l
0 3.91 l
-3.91 0 l
cp p2
np
 302.39 90.85 m
3.91 0 l
0 3.91 l
-3.91 0 l
cp p2
np
 305.70 89.91 m
3.91 0 l
0 3.91 l
-3.91 0 l
cp p2
np
 309.00 85.63 m
3.91 0 l
0 3.91 l
-3.91 0 l
cp p2
np
 312.30 95.75 m
3.91 0 l
0 3.91 l
-3.91 0 l
cp p2
np
 315.61 91.16 m
3.91 0 l
0 3.91 l
-3.91 0 l
cp p2
np
 318.91 93.33 m
3.91 0 l
0 3.91 l
-3.91 0 l
cp p2
np
 322.21 89.60 m
3.91 0 l
0 3.91 l
-3.91 0 l
cp p2
np
 325.52 92.46 m
3.91 0 l
0 3.91 l
-3.91 0 l
cp p2
np
 328.82 92.87 m
3.91 0 l
0 3.91 l
-3.91 0 l
cp p2
np
 332.12 84.63 m
3.91 0 l
0 3.91 l
-3.91 0 l
cp p2
np
 335.43 87.99 m
3.91 0 l
0 3.91 l
-3.91 0 l
cp p2
np
 338.73 89.13 m
3.91 0 l
0 3.91 l
-3.91 0 l
cp p2
np
 342.03 93.25 m
3.91 0 l
0 3.91 l
-3.91 0 l
cp p2
np
 345.34 88.16 m
3.91 0 l
0 3.91 l
-3.91 0 l
cp p2
np
 348.64 89.15 m
3.91 0 l
0 3.91 l
-3.91 0 l
cp p2
np
 351.94 90.17 m
3.91 0 l
0 3.91 l
-3.91 0 l
cp p2
np
 355.25 87.22 m
3.91 0 l
0 3.91 l
-3.91 0 l
cp p2
np
 358.55 89.92 m
3.91 0 l
0 3.91 l
-3.91 0 l
cp p2
np
 361.86 84.43 m
3.90 0 l
0 3.91 l
-3.90 0 l
cp p2
np
 365.16 91.17 m
3.91 0 l
0 3.91 l
-3.91 0 l
cp p2
np
 368.46 89.22 m
3.91 0 l
0 3.91 l
-3.91 0 l
cp p2
np
 371.77 92.66 m
3.90 0 l
0 3.91 l
-3.90 0 l
cp p2
np
 375.07 85.51 m
3.91 0 l
0 3.91 l
-3.91 0 l
cp p2
np
 378.37 87.35 m
3.91 0 l
0 3.91 l
-3.91 0 l
cp p2
0.7804 0.4863 1 srgb
0.71 setlinewidth
[] 0 setdash
1 setlinecap
np
57.13 266.53 m
5.53 0 l
o
np
59.89 263.77 m
0 5.53 l
o
np
60.43 232.55 m
5.53 0 l
o
np
63.20 229.78 m
0 5.53 l
o
np
63.74 204.35 m
5.53 0 l
o
np
66.50 201.59 m
0 5.53 l
o
np
67.04 197.90 m
5.53 0 l
o
np
69.80 195.14 m
0 5.53 l
o
np
70.34 185.08 m
5.53 0 l
o
np
73.11 182.31 m
0 5.53 l
o
np
73.65 177.49 m
5.53 0 l
o
np
76.41 174.72 m
0 5.53 l
o
np
76.95 172.28 m
5.53 0 l
o
np
79.71 169.52 m
0 5.52 l
o
np
80.25 167.82 m
5.53 0 l
o
np
83.02 165.05 m
0 5.53 l
o
np
83.56 167.01 m
5.53 0 l
o
np
86.32 164.24 m
0 5.53 l
o
np
86.86 159.53 m
5.53 0 l
o
np
89.63 156.76 m
0 5.53 l
o
np
90.16 158.66 m
5.53 0 l
o
np
92.93 155.90 m
0 5.53 l
o
np
93.47 159.31 m
5.53 0 l
o
np
96.23 156.55 m
0 5.53 l
o
np
96.77 153.86 m
5.53 0 l
o
np
99.54 151.10 m
0 5.53 l
o
np
100.07 155.27 m
5.53 0 l
o
np
102.84 152.51 m
0 5.53 l
o
np
103.38 155.74 m
5.53 0 l
o
np
106.14 152.97 m
0 5.53 l
o
np
106.68 157.03 m
5.53 0 l
o
np
109.45 154.27 m
0 5.53 l
o
np
109.98 154.91 m
5.53 0 l
o
np
112.75 152.15 m
0 5.53 l
o
np
113.29 153.78 m
5.53 0 l
o
np
116.05 151.02 m
0 5.52 l
o
np
116.59 150.30 m
5.53 0 l
o
np
119.36 147.53 m
0 5.53 l
o
np
119.89 159.39 m
5.53 0 l
o
np
122.66 156.62 m
0 5.53 l
o
np
123.20 151.04 m
5.53 0 l
o
np
125.96 148.27 m
0 5.53 l
o
np
126.50 149.39 m
5.53 0 l
o
np
129.27 146.63 m
0 5.53 l
o
np
129.81 153.73 m
5.52 0 l
o
np
132.57 150.97 m
0 5.53 l
o
np
133.11 145.64 m
5.53 0 l
o
np
135.87 142.87 m
0 5.53 l
o
np
136.41 147.49 m
5.53 0 l
o
np
139.18 144.73 m
0 5.52 l
o
np
139.72 145.20 m
5.52 0 l
o
np
142.48 142.43 m
0 5.53 l
o
np
143.02 148.72 m
5.53 0 l
o
np
145.78 145.96 m
0 5.53 l
o
np
146.32 138.23 m
5.53 0 l
o
np
149.09 135.47 m
0 5.52 l
o
np
149.63 146.83 m
5.52 0 l
o
np
152.39 144.07 m
0 5.53 l
o
np
152.93 142.54 m
5.53 0 l
o
np
155.69 139.77 m
0 5.53 l
o
np
156.23 142.21 m
5.53 0 l
o
np
159.00 139.44 m
0 5.53 l
o
np
159.54 145.57 m
5.53 0 l
o
np
162.30 142.80 m
0 5.53 l
o
np
162.84 142.30 m
5.53 0 l
o
np
165.60 139.53 m
0 5.53 l
o
np
166.14 147.82 m
5.53 0 l
o
np
168.91 145.05 m
0 5.53 l
o
np
169.45 143.66 m
5.53 0 l
o
np
172.21 140.90 m
0 5.53 l
o
np
172.75 138.65 m
5.53 0 l
o
np
175.51 135.88 m
0 5.53 l
o
np
176.05 141.10 m
5.53 0 l
o
np
178.82 138.34 m
0 5.53 l
o
np
179.36 140.59 m
5.53 0 l
o
np
182.12 137.82 m
0 5.53 l
o
np
182.66 139.75 m
5.53 0 l
o
np
185.42 136.99 m
0 5.52 l
o
np
185.96 138.17 m
5.53 0 l
o
np
188.73 135.41 m
0 5.52 l
o
np
189.27 139.29 m
5.53 0 l
o
np
192.03 136.52 m
0 5.53 l
o
np
192.57 137.92 m
5.53 0 l
o
np
195.33 135.16 m
0 5.52 l
o
np
195.87 143.49 m
5.53 0 l
o
np
198.64 140.73 m
0 5.53 l
o
np
199.18 139.74 m
5.53 0 l
o
np
201.94 136.98 m
0 5.53 l
o
np
202.48 142.11 m
5.53 0 l
o
np
205.25 139.34 m
0 5.53 l
o
np
205.78 137.43 m
5.53 0 l
o
np
208.55 134.66 m
0 5.53 l
o
np
209.09 136.61 m
5.53 0 l
o
np
211.85 133.85 m
0 5.52 l
o
np
212.39 141.15 m
5.53 0 l
o
np
215.16 138.39 m
0 5.53 l
o
np
215.69 136.35 m
5.53 0 l
o
np
218.46 133.59 m
0 5.53 l
o
np
219.00 139.49 m
5.53 0 l
o
np
221.76 136.73 m
0 5.53 l
o
np
222.30 140.36 m
5.53 0 l
o
np
225.07 137.60 m
0 5.53 l
o
np
225.60 143.26 m
5.53 0 l
o
np
228.37 140.49 m
0 5.53 l
o
np
228.91 139.65 m
5.53 0 l
o
np
231.67 136.88 m
0 5.53 l
o
np
232.21 131.97 m
5.53 0 l
o
np
234.98 129.20 m
0 5.53 l
o
np
235.51 137.53 m
5.53 0 l
o
np
238.28 134.76 m
0 5.53 l
o
np
238.82 134.96 m
5.53 0 l
o
np
241.58 132.20 m
0 5.53 l
o
np
242.12 138.62 m
5.53 0 l
o
np
244.89 135.85 m
0 5.53 l
o
np
245.43 139.29 m
5.52 0 l
o
np
248.19 136.52 m
0 5.53 l
o
np
248.73 127.82 m
5.53 0 l
o
np
251.49 125.06 m
0 5.53 l
o
np
252.03 139.55 m
5.53 0 l
o
np
254.80 136.79 m
0 5.53 l
o
np
255.34 143.98 m
5.52 0 l
o
np
258.10 141.22 m
0 5.53 l
o
np
258.64 139.57 m
5.53 0 l
o
np
261.40 136.81 m
0 5.53 l
o
np
261.94 141.44 m
5.53 0 l
o
np
264.71 138.67 m
0 5.53 l
o
np
265.25 142.23 m
5.52 0 l
o
np
268.01 139.46 m
0 5.53 l
o
np
268.55 144.68 m
5.53 0 l
o
np
271.31 141.92 m
0 5.53 l
o
np
271.85 137.01 m
5.53 0 l
o
np
274.62 134.25 m
0 5.53 l
o
np
275.16 137.06 m
5.53 0 l
o
np
277.92 134.29 m
0 5.53 l
o
np
278.46 145.91 m
5.53 0 l
o
np
281.22 143.15 m
0 5.52 l
o
np
281.76 143.65 m
5.53 0 l
o
np
284.53 140.88 m
0 5.53 l
o
np
285.07 140.40 m
5.53 0 l
o
np
287.83 137.64 m
0 5.53 l
o
np
288.37 137.62 m
5.53 0 l
o
np
291.13 134.85 m
0 5.53 l
o
np
291.67 131.55 m
5.53 0 l
o
np
294.44 128.78 m
0 5.53 l
o
np
294.98 137.89 m
5.53 0 l
o
np
297.74 135.13 m
0 5.53 l
o
np
298.28 135.53 m
5.53 0 l
o
np
301.04 132.77 m
0 5.53 l
o
np
301.58 140.91 m
5.53 0 l
o
np
304.35 138.15 m
0 5.53 l
o
np
304.89 130.87 m
5.53 0 l
o
np
307.65 128.11 m
0 5.53 l
o
np
308.19 143.52 m
5.53 0 l
o
np
310.95 140.75 m
0 5.53 l
o
np
311.49 139.26 m
5.53 0 l
o
np
314.26 136.49 m
0 5.53 l
o
np
314.80 139.15 m
5.53 0 l
o
np
317.56 136.39 m
0 5.53 l
o
np
318.10 136.10 m
5.53 0 l
o
np
320.87 133.34 m
0 5.53 l
o
np
321.40 132.90 m
5.53 0 l
o
np
324.17 130.14 m
0 5.53 l
o
np
324.71 135.10 m
5.53 0 l
o
np
327.47 132.34 m
0 5.53 l
o
np
328.01 140.34 m
5.53 0 l
o
np
330.78 137.58 m
0 5.53 l
o
np
331.31 126.86 m
5.53 0 l
o
np
334.08 124.10 m
0 5.53 l
o
np
334.62 133.98 m
5.53 0 l
o
np
337.38 131.22 m
0 5.53 l
o
np
337.92 129.64 m
5.53 0 l
o
np
340.69 126.88 m
0 5.53 l
o
np
341.22 135.09 m
5.53 0 l
o
np
343.99 132.33 m
0 5.53 l
o
np
344.53 133.24 m
5.53 0 l
o
np
347.29 130.47 m
0 5.53 l
o
np
347.83 141.57 m
5.53 0 l
o
np
350.60 138.81 m
0 5.52 l
o
np
351.14 128.60 m
5.52 0 l
o
np
353.90 125.83 m
0 5.53 l
o
np
354.44 131.70 m
5.53 0 l
o
np
357.20 128.94 m
0 5.53 l
o
np
357.74 130.66 m
5.53 0 l
o
np
360.51 127.90 m
0 5.52 l
o
np
361.05 124.51 m
5.52 0 l
o
np
363.81 121.75 m
0 5.53 l
o
np
364.35 144.75 m
5.53 0 l
o
np
367.11 141.99 m
0 5.53 l
o
np
367.65 123.52 m
5.53 0 l
o
np
370.42 120.76 m
0 5.53 l
o
np
370.96 136.71 m
5.52 0 l
o
np
373.72 133.94 m
0 5.53 l
o
np
374.26 142.30 m
5.53 0 l
o
np
377.02 139.54 m
0 5.53 l
o
np
377.56 134.09 m
5.53 0 l
o
np
380.33 131.32 m
0 5.53 l
o
0.9725 0.4627 0.4275 srgb
1.07 setlinewidth
[] 0 setdash
0 setlinecap
1.00 setmiterlimit
np
59.89 47.44 m
3.31 36.01 l
3.30 17.49 l
3.30 6.69 l
3.31 8.24 l
3.30 6.83 l
3.30 2.03 l
3.31 1.19 l
3.30 3.01 l
3.31 5.33 l
3.30 1.33 l
3.30 -0.81 l
3.31 3.60 l
3.30 -1.05 l
3.30 -0.98 l
3.31 -0.39 l
3.30 1.86 l
3.30 2.35 l
3.31 1.11 l
3.30 -6.40 l
3.30 5.72 l
3.31 0 l
3.30 -1.96 l
3.30 3.85 l
3.31 -0.21 l
3.30 3.57 l
3.30 -4.40 l
3.31 7.66 l
3.30 -7.43 l
3.30 3.09 l
3.31 0.18 l
3.30 1.95 l
3.30 -4.71 l
3.31 0.34 l
3.30 1.55 l
3.30 2.29 l
3.31 -1.38 l
3.30 2.95 l
3.30 -3.82 l
3.31 2.68 l
3.30 -1.29 l
3.30 3.38 l
3.31 -5.55 l
3.30 8.31 l
3.31 -11.35 l
3.30 6.41 l
3.30 -0.04 l
3.31 0.42 l
3.30 4.13 l
3.30 -2.02 l
3.31 -1.80 l
3.30 -6.38 l
3.30 4.22 l
3.31 6.23 l
3.30 -5.19 l
3.30 2.42 l
3.31 -0.23 l
3.30 -1.38 l
3.30 4.76 l
3.31 -0.75 l
3.30 -6.33 l
3.30 2.99 l
3.31 -3.54 l
3.30 2.32 l
3.30 -1.62 l
3.31 2.44 l
3.30 -2.60 l
3.30 -4.48 l
3.31 1.30 l
3.30 -0.11 l
3.30 3.45 l
3.31 6.19 l
3.30 -7.18 l
3.30 5.27 l
3.31 -8.61 l
3.30 9.53 l
3.30 -10.40 l
3.31 4.12 l
3.30 -0.80 l
3.31 5.62 l
3.30 2.95 l
3.30 -5.86 l
3.31 2.85 l
3.30 4.52 l
3.30 -5.01 l
3.31 3.71 l
3.30 -3.50 l
3.30 2.58 l
3.31 -5.53 l
3.30 8.37 l
3.30 -5.41 l
3.31 -1.17 l
3.30 13.76 l
3.30 -23.16 l
3.31 21.79 l
3.30 -15.99 l
3.30 -1.80 l
3.31 2.92 l
o
0.4863 0.6824 0 srgb
1.07 setlinewidth
[ 2.13 2.13] 0 setdash
np
59.89 47.44 m
3.31 17.71 l
3.30 7.19 l
3.30 5.37 l
3.31 1.13 l
3.30 4.64 l
3.30 -2.52 l
3.31 -0.50 l
3.30 4.33 l
3.31 -0.62 l
3.30 -1.45 l
3.30 4.76 l
3.31 -2.93 l
3.30 1.91 l
3.30 2.06 l
3.31 1.32 l
3.30 -2.72 l
3.30 1.36 l
3.31 1.52 l
3.30 0.96 l
3.30 0.66 l
3.31 -3.31 l
3.30 1.82 l
3.30 -1.80 l
3.31 3.23 l
3.30 -1.46 l
3.30 1.32 l
3.31 -3.27 l
3.30 4.33 l
3.30 0.96 l
3.31 -8.31 l
3.30 5.66 l
3.30 -0.08 l
3.31 -0.58 l
3.30 1.06 l
3.30 -4.33 l
3.31 3.44 l
3.30 4.91 l
3.30 -6.85 l
3.31 5.40 l
3.30 -6.08 l
3.30 2.75 l
3.31 0.04 l
3.30 6.46 l
3.31 -8.67 l
3.30 0.37 l
3.30 -0.44 l
3.31 3.59 l
3.30 3.96 l
3.30 -3.96 l
3.31 4.60 l
3.30 -2.47 l
3.30 -2.13 l
3.31 -1.48 l
3.30 2.77 l
3.30 1.17 l
3.31 -1.99 l
3.30 -0.21 l
3.30 -3.92 l
3.31 10.88 l
3.30 -3.84 l
3.30 2.40 l
3.31 -0.72 l
3.30 -2.67 l
3.30 0.40 l
3.31 -4.59 l
3.30 1.60 l
3.30 3.29 l
3.31 3.28 l
3.30 -9.63 l
3.30 6.66 l
3.31 -3.27 l
3.30 -0.35 l
3.30 4.11 l
3.31 -0.62 l
3.30 -5.86 l
3.30 1.13 l
3.31 7.80 l
3.30 -2.25 l
3.31 -2.62 l
3.30 0.31 l
3.30 2.20 l
3.31 -1.35 l
3.30 -5.72 l
3.30 3.38 l
3.31 -1.59 l
3.30 4.23 l
3.30 -3.72 l
3.31 4.79 l
3.30 -3.25 l
3.30 -0.25 l
3.31 1.11 l
3.30 -5.89 l
3.30 5.64 l
3.31 -1.86 l
3.30 6.98 l
3.30 -6.06 l
3.31 -2.23 l
o
0 0.7490 0.7686 srgb
1.07 setlinewidth
[ 4.27 2.13] 0 setdash
np
59.89 56.35 m
3.31 12.04 l
3.30 6.19 l
3.30 4.65 l
3.31 0.26 l
3.30 4.55 l
3.30 -2.57 l
3.31 -0.43 l
3.30 3.93 l
3.31 1.02 l
3.30 -2.23 l
3.30 4.33 l
3.31 -2.69 l
3.30 1.44 l
3.30 2.47 l
3.31 0.53 l
3.30 -2.44 l
3.30 1.46 l
3.31 0.42 l
3.30 1.99 l
3.30 -0.25 l
3.31 -4.05 l
3.30 2.32 l
3.30 -1.32 l
3.31 3.92 l
3.30 -1.39 l
3.30 0.01 l
3.31 -2.17 l
3.30 3.75 l
3.30 -1.81 l
3.31 -5.45 l
3.30 6.39 l
3.30 -1.46 l
3.31 -0.71 l
3.30 2.81 l
3.30 -5.64 l
3.31 4.54 l
3.30 3.95 l
3.30 -8.29 l
3.31 7.08 l
3.30 -7.39 l
3.30 4.36 l
3.31 -0.86 l
3.30 7.42 l
3.31 -9.70 l
3.30 -0.27 l
3.30 1.44 l
3.31 3.39 l
3.30 1.76 l
3.30 -2.01 l
3.31 3.83 l
3.30 -6.30 l
3.30 3.21 l
3.31 -1.98 l
3.30 0.63 l
3.30 0.60 l
3.31 -0.37 l
3.30 -0.69 l
3.30 -2.15 l
3.31 9.90 l
3.30 -3.44 l
3.30 0.52 l
3.31 -1.38 l
3.30 1.68 l
3.30 -1.58 l
3.31 -5.14 l
3.30 2.22 l
3.30 0.95 l
3.31 6.67 l
3.30 -12.41 l
3.30 9.48 l
3.31 -4.30 l
3.30 -0.02 l
3.30 6.54 l
3.31 -5.31 l
3.30 -0.93 l
3.30 -4.28 l
3.31 10.12 l
3.30 -4.60 l
3.31 2.17 l
3.30 -3.72 l
3.30 2.85 l
3.31 0.41 l
3.30 -8.24 l
3.30 3.37 l
3.31 1.13 l
3.30 4.13 l
3.30 -5.09 l
3.31 0.98 l
3.30 1.03 l
3.30 -2.96 l
3.31 2.71 l
3.30 -5.49 l
3.30 6.74 l
3.31 -1.95 l
3.30 3.44 l
3.30 -7.15 l
3.31 1.83 l
o
0.7804 0.4863 1 srgb
1.07 setlinewidth
[ 4.27 4.27] 0 setdash
np
59.89 266.53 m
3.31 -33.98 l
3.30 -28.20 l
3.30 -6.45 l
3.31 -12.82 l
3.30 -7.59 l
3.30 -5.21 l
3.31 -4.46 l
3.30 -0.81 l
3.31 -7.48 l
3.30 -0.87 l
3.30 0.65 l
3.31 -5.45 l
3.30 1.41 l
3.30 0.47 l
3.31 1.29 l
3.30 -2.12 l
3.30 -1.13 l
3.31 -3.48 l
3.30 9.09 l
3.30 -8.35 l
3.31 -1.65 l
3.30 4.34 l
3.30 -8.09 l
3.31 1.85 l
3.30 -2.29 l
3.30 3.52 l
3.31 -10.49 l
3.30 8.60 l
3.30 -4.29 l
3.31 -0.33 l
3.30 3.36 l
3.30 -3.27 l
3.31 5.52 l
3.30 -4.16 l
3.30 -5.01 l
3.31 2.45 l
3.30 -0.51 l
3.30 -0.84 l
3.31 -1.58 l
3.30 1.12 l
3.30 -1.37 l
3.31 5.57 l
3.30 -3.75 l
3.31 2.37 l
3.30 -4.68 l
3.30 -0.82 l
3.31 4.54 l
3.30 -4.80 l
3.30 3.14 l
3.31 0.87 l
3.30 2.90 l
3.30 -3.61 l
3.31 -7.68 l
3.30 5.56 l
3.30 -2.57 l
3.31 3.66 l
3.30 0.67 l
3.30 -11.47 l
3.31 11.73 l
3.30 4.43 l
3.30 -4.41 l
3.31 1.87 l
3.30 0.79 l
3.30 2.45 l
3.31 -7.67 l
3.30 0.05 l
3.30 8.85 l
3.31 -2.26 l
3.30 -3.25 l
3.30 -2.78 l
3.31 -6.07 l
3.30 6.34 l
3.30 -2.36 l
3.31 5.38 l
3.30 -10.04 l
3.30 12.65 l
3.31 -4.26 l
3.30 -0.11 l
3.31 -3.05 l
3.30 -3.20 l
3.30 2.20 l
3.31 5.24 l
3.30 -13.48 l
3.30 7.12 l
3.31 -4.34 l
3.30 5.45 l
3.30 -1.85 l
3.31 8.33 l
3.30 -12.97 l
3.30 3.10 l
3.31 -1.04 l
3.30 -6.15 l
3.30 20.24 l
3.31 -21.23 l
3.30 13.19 l
3.30 5.59 l
3.31 -8.21 l
o
0.4980 0.4980 0.4980 srgb
1.07 setlinewidth
[] 0 setdash
1 setlinecap
10.00 setmiterlimit
43.87 36.48 352.48 241.01 r p1
0.00 0.00 496.06 283.46 cl
0.00 0.00 496.06 283.46 cl
0.00 0.00 496.06 283.46 cl
0.00 0.00 496.06 283.46 cl
0.00 0.00 496.06 283.46 cl
0.00 0.00 496.06 283.46 cl
/Font1 findfont 11 s
0 0 0 srgb
38.49 58.50 (0.2) 1 0 t
38.49 121.52 (0.4) 1 0 t
38.49 184.55 (0.6) 1 0 t
38.49 247.57 (0.8) 1 0 t
0.00 0.00 496.06 283.46 cl
0.00 0.00 496.06 283.46 cl
0 0 0 srgb
1.07 setlinewidth
[] 0 setdash
0 setlinecap
1 setlinejoin
10.00 setmiterlimit
np
40.88 62.45 m
2.99 0 l
o
np
40.88 125.47 m
2.99 0 l
o
np
40.88 188.49 m
2.99 0 l
o
np
40.88 251.52 m
2.99 0 l
o
0.00 0.00 496.06 283.46 cl
0.00 0.00 496.06 283.46 cl
0.00 0.00 496.06 283.46 cl
0.00 0.00 496.06 283.46 cl
0.00 0.00 496.06 283.46 cl
0.00 0.00 496.06 283.46 cl
0.00 0.00 496.06 283.46 cl
0.00 0.00 496.06 283.46 cl
0 0 0 srgb
1.07 setlinewidth
[] 0 setdash
0 setlinecap
1 setlinejoin
10.00 setmiterlimit
np
53.29 33.49 m
0 2.99 l
o
np
135.87 33.49 m
0 2.99 l
o
np
218.46 33.49 m
0 2.99 l
o
np
301.04 33.49 m
0 2.99 l
o
np
383.63 33.49 m
0 2.99 l
o
0.00 0.00 496.06 283.46 cl
0.00 0.00 496.06 283.46 cl
/Font1 findfont 11 s
0 0 0 srgb
53.29 23.20 (0) .5 0 t
135.87 23.20 (25) .5 0 t
218.46 23.20 (50) .5 0 t
301.04 23.20 (75) .5 0 t
383.63 23.20 (100) .5 0 t
0.00 0.00 496.06 283.46 cl
0.00 0.00 496.06 283.46 cl
0.00 0.00 496.06 283.46 cl
0.00 0.00 496.06 283.46 cl
/Font1 findfont 14 s
0 0 0 srgb
207.66 8.37 (siz) 0 ta
-0.210 (e) tb gr
0.00 0.00 496.06 283.46 cl
0.00 0.00 496.06 283.46 cl
/Font1 findfont 14 s
0 0 0 srgb
18.42 76.47 (Nor) 90 ta
0.350 (malised Ranking Error) tb gr
0.00 0.00 496.06 283.46 cl
0.00 0.00 496.06 283.46 cl
0.00 0.00 496.06 283.46 cl
0.00 0.00 496.06 283.46 cl
/bg { 1 1 1 srgb } def
404.85 116.01 76.73 81.94 r p2
0.00 0.00 496.06 283.46 cl
0.00 0.00 496.06 283.46 cl
0.00 0.00 496.06 283.46 cl
0.00 0.00 496.06 283.46 cl
0.00 0.00 496.06 283.46 cl
0.00 0.00 496.06 283.46 cl
/bg { 0.9725 0.4627 0.4275 srgb } def
417.74 180.74 2.49 c p2
0.00 0.00 496.06 283.46 cl
0.00 0.00 496.06 283.46 cl
0.00 0.00 496.06 283.46 cl
0.00 0.00 496.06 283.46 cl
0.00 0.00 496.06 283.46 cl
0.00 0.00 496.06 283.46 cl
/bg { 0.4863 0.6824 0 srgb } def
np
 417.74 167.33 m
3.36 -5.80 l
-6.71 0 l
cp p2
0.00 0.00 496.06 283.46 cl
0.00 0.00 496.06 283.46 cl
0.00 0.00 496.06 283.46 cl
0.00 0.00 496.06 283.46 cl
0.00 0.00 496.06 283.46 cl
0.00 0.00 496.06 283.46 cl
/bg { 0 0.7490 0.7686 srgb } def
np
 415.26 143.70 m
4.97 0 l
0 4.97 l
-4.97 0 l
cp p2
0.00 0.00 496.06 283.46 cl
0.00 0.00 496.06 283.46 cl
0.00 0.00 496.06 283.46 cl
0.00 0.00 496.06 283.46 cl
0.00 0.00 496.06 283.46 cl
0.00 0.00 496.06 283.46 cl
0.7804 0.4863 1 srgb
0.71 setlinewidth
[] 0 setdash
1 setlinecap
1 setlinejoin
10.00 setmiterlimit
np
414.23 128.90 m
7.03 0 l
o
np
417.74 125.38 m
0 7.04 l
o
0.00 0.00 496.06 283.46 cl
0.00 0.00 496.06 283.46 cl
0.00 0.00 496.06 283.46 cl
0.00 0.00 496.06 283.46 cl
/Font1 findfont 11 s
0 0 0 srgb
428.54 176.79 (bar) 0 ta
-0.110 (abasi) tb gr
0.00 0.00 496.06 283.46 cl
0.00 0.00 496.06 283.46 cl
/Font1 findfont 11 s
0 0 0 srgb
428.54 159.51 (gomez) 0 0 t
0.00 0.00 496.06 283.46 cl
0.00 0.00 496.06 283.46 cl
/Font1 findfont 11 s
0 0 0 srgb
428.54 142.23 (lumbrer) 0 ta
-0.110 (as) tb gr
0.00 0.00 496.06 283.46 cl
0.00 0.00 496.06 283.46 cl
/Font1 findfont 11 s
0 0 0 srgb
428.54 124.95 (tau) 0 0 t
0.00 0.00 496.06 283.46 cl
0.00 0.00 496.06 283.46 cl
0.00 0.00 496.06 283.46 cl
0.00 0.00 496.06 283.46 cl
0.00 0.00 496.06 283.46 cl
0.00 0.00 496.06 283.46 cl
ep
%%Trailer
%%Pages: 1
%%EOF
