%!PS-Adobe-3.0 EPSF-3.0
%%DocumentNeededResources: font Helvetica
%%+ font Helvetica-Bold
%%+ font Helvetica-Oblique
%%+ font Helvetica-BoldOblique
%%+ font Symbol
%%Title: R Graphics Output
%%Creator: R Software
%%Pages: (atend)
%%BoundingBox: 0 0 354 198
%%EndComments
%%BeginProlog
/bp  { gs sRGB gs } def
% begin .ps.prolog
/gs  { gsave } bind def
/gr  { grestore } bind def
/ep  { showpage gr gr } bind def
/m   { moveto } bind def
/l  { rlineto } bind def
/np  { newpath } bind def
/cp  { closepath } bind def
/f   { fill } bind def
/o   { stroke } bind def
/c   { newpath 0 360 arc } bind def
/r   { 4 2 roll moveto 1 copy 3 -1 roll exch 0 exch rlineto 0 rlineto -1 mul 0 exch rlineto closepath } bind def
/p1  { stroke } bind def
/p2  { gsave bg fill grestore newpath } bind def
/p3  { gsave bg fill grestore stroke } bind def
/p6  { gsave bg eofill grestore newpath } bind def
/p7  { gsave bg eofill grestore stroke } bind def
/t   { 5 -2 roll moveto gsave rotate
       1 index stringwidth pop
       mul neg 0 rmoveto show grestore } bind def
/ta  { 4 -2 roll moveto gsave rotate show } bind def
/tb  { 2 -1 roll 0 rmoveto show } bind def
/cl  { grestore gsave newpath 3 index 3 index moveto 1 index
       4 -1 roll lineto  exch 1 index lineto lineto
       closepath clip newpath } bind def
/rgb { setrgbcolor } bind def
/s   { scalefont setfont } bind def
% end   .ps.prolog
/sRGB { [ /CIEBasedABC
          << /DecodeLMN
               [ { dup 0.03928 le
                        {12.92321 div}
                        {0.055 add 1.055 div 2.4 exp }
                     ifelse
                 } bind dup dup
               ]
             /MatrixLMN [0.412457 0.212673 0.019334
                         0.357576 0.715152 0.119192
                         0.180437 0.072175 0.950301]
             /WhitePoint [0.9505 1.0 1.0890]
           >>
         ] setcolorspace } bind def
/srgb { setcolor } bind def
%%IncludeResource: font Helvetica
/Helvetica findfont
dup length dict begin
  {1 index /FID ne {def} {pop pop} ifelse} forall
  /Encoding ISOLatin1Encoding def
  currentdict
  end
/Font1 exch definefont pop
%%IncludeResource: font Helvetica-Bold
/Helvetica-Bold findfont
dup length dict begin
  {1 index /FID ne {def} {pop pop} ifelse} forall
  /Encoding ISOLatin1Encoding def
  currentdict
  end
/Font2 exch definefont pop
%%IncludeResource: font Helvetica-Oblique
/Helvetica-Oblique findfont
dup length dict begin
  {1 index /FID ne {def} {pop pop} ifelse} forall
  /Encoding ISOLatin1Encoding def
  currentdict
  end
/Font3 exch definefont pop
%%IncludeResource: font Helvetica-BoldOblique
/Helvetica-BoldOblique findfont
dup length dict begin
  {1 index /FID ne {def} {pop pop} ifelse} forall
  /Encoding ISOLatin1Encoding def
  currentdict
  end
/Font4 exch definefont pop
%%IncludeResource: font Symbol
/Symbol findfont
dup length dict begin
  {1 index /FID ne {def} {pop pop} ifelse} forall
  currentdict
  end
/Font5 exch definefont pop
%%EndProlog
%%Page: 1 1
bp
0.00 0.00 354.33 198.43 cl
0.00 0.00 354.33 198.43 cl
0.00 0.00 354.33 198.43 cl
0.00 0.00 354.33 198.43 cl
0.00 0.00 354.33 198.43 cl
0.00 0.00 354.33 198.43 cl
0.00 0.00 354.33 198.43 cl
0.00 0.00 354.33 198.43 cl
0.00 0.00 354.33 198.43 cl
0.00 0.00 354.33 198.43 cl
/bg { 1 1 1 srgb } def
1 1 1 srgb
1.07 setlinewidth
[] 0 setdash
1 setlinecap
1 setlinejoin
10.00 setmiterlimit
0.00 0.00 354.33 198.43 r p3
0.00 0.00 354.33 198.43 cl
0.00 0.00 354.33 198.43 cl
0.00 0.00 354.33 198.43 cl
65.28 36.48 348.35 192.45 cl
/bg { 1 1 1 srgb } def
65.28 36.48 283.07 155.97 r p2
0.9804 0.9804 0.9804 srgb
1.07 setlinewidth
[] 0 setdash
0 setlinecap
1 setlinejoin
10.00 setmiterlimit
np
65.28 48.31 m
283.07 0 l
o
np
65.28 93.24 m
283.07 0 l
o
np
65.28 138.17 m
283.07 0 l
o
np
65.28 183.10 m
283.07 0 l
o
np
114.33 36.48 m
0 155.97 l
o
np
194.75 36.48 m
0 155.97 l
o
np
275.17 36.48 m
0 155.97 l
o
0.8980 0.8980 0.8980 srgb
0.43 setlinewidth
[] 0 setdash
np
65.28 70.78 m
283.07 0 l
o
np
65.28 115.71 m
283.07 0 l
o
np
65.28 160.64 m
283.07 0 l
o
np
74.12 36.48 m
0 155.97 l
o
np
154.54 36.48 m
0 155.97 l
o
np
234.96 36.48 m
0 155.97 l
o
np
315.38 36.48 m
0 155.97 l
o
/bg { 0 0 0 srgb } def
0 0 0 srgb
0.71 setlinewidth
[] 0 setdash
1 setlinecap
78.15 185.36 3.56 c p3
86.19 110.72 3.56 c p3
94.23 72.28 3.56 c p3
114.33 63.58 3.56 c p3
134.44 43.57 3.56 c p3
154.54 56.55 3.56 c p3
174.65 61.17 3.56 c p3
194.75 59.48 3.56 c p3
214.86 43.71 3.56 c p3
234.96 68.06 3.56 c p3
255.07 66.65 3.56 c p3
275.17 62.82 3.56 c p3
295.28 70.81 3.56 c p3
315.38 62.00 3.56 c p3
335.49 59.13 3.56 c p3
1.07 setlinewidth
[] 0 setdash
0 setlinecap
1.00 setmiterlimit
np
78.15 185.36 m
8.04 -74.64 l
8.04 -38.44 l
20.10 -8.70 l
20.11 -20.01 l
20.10 12.98 l
20.11 4.62 l
20.10 -1.69 l
20.11 -15.77 l
20.10 24.35 l
20.11 -1.41 l
20.10 -3.83 l
20.11 7.99 l
20.10 -8.81 l
20.11 -2.87 l
o
0.4980 0.4980 0.4980 srgb
1 setlinecap
10.00 setmiterlimit
65.28 36.48 283.07 155.97 r p1
0.00 0.00 354.33 198.43 cl
0.00 0.00 354.33 198.43 cl
0.00 0.00 354.33 198.43 cl
0.00 0.00 354.33 198.43 cl
0.00 0.00 354.33 198.43 cl
0.00 0.00 354.33 198.43 cl
/Font1 findfont 11 s
0 0 0 srgb
59.90 66.83 (860000) 1 0 t
59.90 111.76 (864000) 1 0 t
59.90 156.69 (868000) 1 0 t
0.00 0.00 354.33 198.43 cl
0.00 0.00 354.33 198.43 cl
0 0 0 srgb
1.07 setlinewidth
[] 0 setdash
0 setlinecap
1 setlinejoin
10.00 setmiterlimit
np
62.29 70.78 m
2.99 0 l
o
np
62.29 115.71 m
2.99 0 l
o
np
62.29 160.64 m
2.99 0 l
o
0.00 0.00 354.33 198.43 cl
0.00 0.00 354.33 198.43 cl
0.00 0.00 354.33 198.43 cl
0.00 0.00 354.33 198.43 cl
0.00 0.00 354.33 198.43 cl
0.00 0.00 354.33 198.43 cl
0.00 0.00 354.33 198.43 cl
0.00 0.00 354.33 198.43 cl
0 0 0 srgb
1.07 setlinewidth
[] 0 setdash
0 setlinecap
1 setlinejoin
10.00 setmiterlimit
np
74.12 33.49 m
0 2.99 l
o
np
154.54 33.49 m
0 2.99 l
o
np
234.96 33.49 m
0 2.99 l
o
np
315.38 33.49 m
0 2.99 l
o
0.00 0.00 354.33 198.43 cl
0.00 0.00 354.33 198.43 cl
/Font1 findfont 11 s
0 0 0 srgb
74.12 23.20 (0) .5 0 t
154.54 23.20 (20) .5 0 t
234.96 23.20 (40) .5 0 t
315.38 23.20 (60) .5 0 t
0.00 0.00 354.33 198.43 cl
0.00 0.00 354.33 198.43 cl
0.00 0.00 354.33 198.43 cl
0.00 0.00 354.33 198.43 cl
/Font1 findfont 14 s
0 0 0 srgb
206.82 8.37 (k) .5 0 t
0.00 0.00 354.33 198.43 cl
0.00 0.00 354.33 198.43 cl
/Font1 findfont 14 s
0 0 0 srgb
18.42 114.46 (BIC) .5 90 t
0.00 0.00 354.33 198.43 cl
0.00 0.00 354.33 198.43 cl
0.00 0.00 354.33 198.43 cl
0.00 0.00 354.33 198.43 cl
ep
%%Trailer
%%Pages: 1
%%EOF
