%!PS-Adobe-3.0 EPSF-3.0
%%DocumentNeededResources: font Helvetica
%%+ font Helvetica-Bold
%%+ font Helvetica-Oblique
%%+ font Helvetica-BoldOblique
%%+ font Symbol
%%Title: R Graphics Output
%%Creator: R Software
%%Pages: (atend)
%%BoundingBox: 0 0 675 432
%%EndComments
%%BeginProlog
/bp  { gs sRGB gs } def
% begin .ps.prolog
/gs  { gsave } bind def
/gr  { grestore } bind def
/ep  { showpage gr gr } bind def
/m   { moveto } bind def
/l  { rlineto } bind def
/np  { newpath } bind def
/cp  { closepath } bind def
/f   { fill } bind def
/o   { stroke } bind def
/c   { newpath 0 360 arc } bind def
/r   { 4 2 roll moveto 1 copy 3 -1 roll exch 0 exch rlineto 0 rlineto -1 mul 0 exch rlineto closepath } bind def
/p1  { stroke } bind def
/p2  { gsave bg fill grestore newpath } bind def
/p3  { gsave bg fill grestore stroke } bind def
/p6  { gsave bg eofill grestore newpath } bind def
/p7  { gsave bg eofill grestore stroke } bind def
/t   { 5 -2 roll moveto gsave rotate
       1 index stringwidth pop
       mul neg 0 rmoveto show grestore } bind def
/ta  { 4 -2 roll moveto gsave rotate show } bind def
/tb  { 2 -1 roll 0 rmoveto show } bind def
/cl  { grestore gsave newpath 3 index 3 index moveto 1 index
       4 -1 roll lineto  exch 1 index lineto lineto
       closepath clip newpath } bind def
/rgb { setrgbcolor } bind def
/s   { scalefont setfont } bind def
% end   .ps.prolog
/sRGB { [ /CIEBasedABC
          << /DecodeLMN
               [ { dup 0.03928 le
                        {12.92321 div}
                        {0.055 add 1.055 div 2.4 exp }
                     ifelse
                 } bind dup dup
               ]
             /MatrixLMN [0.412457 0.212673 0.019334
                         0.357576 0.715152 0.119192
                         0.180437 0.072175 0.950301]
             /WhitePoint [0.9505 1.0 1.0890]
           >>
         ] setcolorspace } bind def
/srgb { setcolor } bind def
%%IncludeResource: font Helvetica
/Helvetica findfont
dup length dict begin
  {1 index /FID ne {def} {pop pop} ifelse} forall
  /Encoding ISOLatin1Encoding def
  currentdict
  end
/Font1 exch definefont pop
%%IncludeResource: font Helvetica-Bold
/Helvetica-Bold findfont
dup length dict begin
  {1 index /FID ne {def} {pop pop} ifelse} forall
  /Encoding ISOLatin1Encoding def
  currentdict
  end
/Font2 exch definefont pop
%%IncludeResource: font Helvetica-Oblique
/Helvetica-Oblique findfont
dup length dict begin
  {1 index /FID ne {def} {pop pop} ifelse} forall
  /Encoding ISOLatin1Encoding def
  currentdict
  end
/Font3 exch definefont pop
%%IncludeResource: font Helvetica-BoldOblique
/Helvetica-BoldOblique findfont
dup length dict begin
  {1 index /FID ne {def} {pop pop} ifelse} forall
  /Encoding ISOLatin1Encoding def
  currentdict
  end
/Font4 exch definefont pop
%%IncludeResource: font Symbol
/Symbol findfont
dup length dict begin
  {1 index /FID ne {def} {pop pop} ifelse} forall
  currentdict
  end
/Font5 exch definefont pop
%%EndProlog
%%Page: 1 1
bp
0.00 0.00 675.00 432.00 cl
0.00 0.00 675.00 432.00 cl
0.00 0.00 675.00 432.00 cl
0.00 0.00 675.00 432.00 cl
0.00 0.00 675.00 432.00 cl
0.00 0.00 675.00 432.00 cl
0.00 0.00 675.00 432.00 cl
0.00 0.00 675.00 432.00 cl
0.00 0.00 675.00 432.00 cl
/bg { 1 1 1 srgb } def
1 1 1 srgb
1.07 setlinewidth
[] 0 setdash
1 setlinecap
1 setlinejoin
10.00 setmiterlimit
0.00 0.00 675.00 432.00 r p3
0.00 0.00 675.00 432.00 cl
0.00 0.00 675.00 432.00 cl
0.00 0.00 675.00 432.00 cl
71.39 36.48 669.02 426.02 cl
/bg { 1 1 1 srgb } def
71.39 36.48 597.63 389.54 r p2
0.9804 0.9804 0.9804 srgb
1.07 setlinewidth
[] 0 setdash
0 setlinecap
1 setlinejoin
10.00 setmiterlimit
np
71.39 76.90 m
597.63 0 l
o
np
71.39 204.02 m
597.63 0 l
o
np
71.39 331.13 m
597.63 0 l
o
np
174.96 36.48 m
0 389.54 l
o
np
344.74 36.48 m
0 389.54 l
o
np
514.52 36.48 m
0 389.54 l
o
0.8980 0.8980 0.8980 srgb
0.43 setlinewidth
[] 0 setdash
np
71.39 140.46 m
597.63 0 l
o
np
71.39 267.57 m
597.63 0 l
o
np
71.39 394.69 m
597.63 0 l
o
np
90.07 36.48 m
0 389.54 l
o
np
259.85 36.48 m
0 389.54 l
o
np
429.63 36.48 m
0 389.54 l
o
np
599.41 36.48 m
0 389.54 l
o
/bg { 0 0 0 srgb } def
0 0 0 srgb
0.71 setlinewidth
[] 0 setdash
1 setlinecap
98.56 408.32 3.56 c p3
115.54 137.19 3.56 c p3
132.52 88.86 3.56 c p3
174.96 61.95 3.56 c p3
217.41 56.81 3.56 c p3
259.85 55.35 3.56 c p3
302.30 57.72 3.56 c p3
344.74 55.35 3.56 c p3
387.19 57.28 3.56 c p3
429.63 56.10 3.56 c p3
472.08 54.19 3.56 c p3
514.52 55.71 3.56 c p3
556.97 56.41 3.56 c p3
599.41 57.34 3.56 c p3
641.86 57.95 3.56 c p3
1.07 setlinewidth
[] 0 setdash
0 setlinecap
1.00 setmiterlimit
np
98.56 408.32 m
16.98 -271.13 l
16.98 -48.33 l
42.44 -26.91 l
42.45 -5.14 l
42.44 -1.46 l
42.45 2.37 l
42.44 -2.37 l
42.45 1.93 l
42.44 -1.18 l
42.45 -1.91 l
42.44 1.52 l
42.45 0.70 l
42.44 0.93 l
42.45 0.61 l
o
0.4980 0.4980 0.4980 srgb
1 setlinecap
10.00 setmiterlimit
71.39 36.48 597.63 389.54 r p1
0.00 0.00 675.00 432.00 cl
0.00 0.00 675.00 432.00 cl
0.00 0.00 675.00 432.00 cl
0.00 0.00 675.00 432.00 cl
0.00 0.00 675.00 432.00 cl
0.00 0.00 675.00 432.00 cl
/Font1 findfont 11 s
0 0 0 srgb
66.01 136.51 (1550000) 1 0 t
66.01 263.63 (1600000) 1 0 t
66.01 390.74 (1650000) 1 0 t
0.00 0.00 675.00 432.00 cl
0.00 0.00 675.00 432.00 cl
0 0 0 srgb
1.07 setlinewidth
[] 0 setdash
0 setlinecap
1 setlinejoin
10.00 setmiterlimit
np
68.41 140.46 m
2.98 0 l
o
np
68.41 267.57 m
2.98 0 l
o
np
68.41 394.69 m
2.98 0 l
o
0.00 0.00 675.00 432.00 cl
0.00 0.00 675.00 432.00 cl
0.00 0.00 675.00 432.00 cl
0.00 0.00 675.00 432.00 cl
0.00 0.00 675.00 432.00 cl
0.00 0.00 675.00 432.00 cl
0.00 0.00 675.00 432.00 cl
0.00 0.00 675.00 432.00 cl
0 0 0 srgb
1.07 setlinewidth
[] 0 setdash
0 setlinecap
1 setlinejoin
10.00 setmiterlimit
np
90.07 33.49 m
0 2.99 l
o
np
259.85 33.49 m
0 2.99 l
o
np
429.63 33.49 m
0 2.99 l
o
np
599.41 33.49 m
0 2.99 l
o
0.00 0.00 675.00 432.00 cl
0.00 0.00 675.00 432.00 cl
/Font1 findfont 11 s
0 0 0 srgb
90.07 23.20 (0) .5 0 t
259.85 23.20 (20) .5 0 t
429.63 23.20 (40) .5 0 t
599.41 23.20 (60) .5 0 t
0.00 0.00 675.00 432.00 cl
0.00 0.00 675.00 432.00 cl
0.00 0.00 675.00 432.00 cl
0.00 0.00 675.00 432.00 cl
/Font1 findfont 14 s
0 0 0 srgb
370.21 8.37 (k) .5 0 t
0.00 0.00 675.00 432.00 cl
0.00 0.00 675.00 432.00 cl
/Font1 findfont 14 s
0 0 0 srgb
18.42 231.25 (BIC) .5 90 t
0.00 0.00 675.00 432.00 cl
0.00 0.00 675.00 432.00 cl
0.00 0.00 675.00 432.00 cl
0.00 0.00 675.00 432.00 cl
ep
%%Trailer
%%Pages: 1
%%EOF
