%!PS-Adobe-3.0 EPSF-3.0
%%DocumentNeededResources: font Helvetica
%%+ font Helvetica-Bold
%%+ font Helvetica-Oblique
%%+ font Helvetica-BoldOblique
%%+ font Symbol
%%Title: R Graphics Output
%%Creator: R Software
%%Pages: (atend)
%%BoundingBox: 0 0 354 198
%%EndComments
%%BeginProlog
/bp  { gs sRGB gs } def
% begin .ps.prolog
/gs  { gsave } bind def
/gr  { grestore } bind def
/ep  { showpage gr gr } bind def
/m   { moveto } bind def
/l  { rlineto } bind def
/np  { newpath } bind def
/cp  { closepath } bind def
/f   { fill } bind def
/o   { stroke } bind def
/c   { newpath 0 360 arc } bind def
/r   { 4 2 roll moveto 1 copy 3 -1 roll exch 0 exch rlineto 0 rlineto -1 mul 0 exch rlineto closepath } bind def
/p1  { stroke } bind def
/p2  { gsave bg fill grestore newpath } bind def
/p3  { gsave bg fill grestore stroke } bind def
/p6  { gsave bg eofill grestore newpath } bind def
/p7  { gsave bg eofill grestore stroke } bind def
/t   { 5 -2 roll moveto gsave rotate
       1 index stringwidth pop
       mul neg 0 rmoveto show grestore } bind def
/ta  { 4 -2 roll moveto gsave rotate show } bind def
/tb  { 2 -1 roll 0 rmoveto show } bind def
/cl  { grestore gsave newpath 3 index 3 index moveto 1 index
       4 -1 roll lineto  exch 1 index lineto lineto
       closepath clip newpath } bind def
/rgb { setrgbcolor } bind def
/s   { scalefont setfont } bind def
% end   .ps.prolog
/sRGB { [ /CIEBasedABC
          << /DecodeLMN
               [ { dup 0.03928 le
                        {12.92321 div}
                        {0.055 add 1.055 div 2.4 exp }
                     ifelse
                 } bind dup dup
               ]
             /MatrixLMN [0.412457 0.212673 0.019334
                         0.357576 0.715152 0.119192
                         0.180437 0.072175 0.950301]
             /WhitePoint [0.9505 1.0 1.0890]
           >>
         ] setcolorspace } bind def
/srgb { setcolor } bind def
%%IncludeResource: font Helvetica
/Helvetica findfont
dup length dict begin
  {1 index /FID ne {def} {pop pop} ifelse} forall
  /Encoding ISOLatin1Encoding def
  currentdict
  end
/Font1 exch definefont pop
%%IncludeResource: font Helvetica-Bold
/Helvetica-Bold findfont
dup length dict begin
  {1 index /FID ne {def} {pop pop} ifelse} forall
  /Encoding ISOLatin1Encoding def
  currentdict
  end
/Font2 exch definefont pop
%%IncludeResource: font Helvetica-Oblique
/Helvetica-Oblique findfont
dup length dict begin
  {1 index /FID ne {def} {pop pop} ifelse} forall
  /Encoding ISOLatin1Encoding def
  currentdict
  end
/Font3 exch definefont pop
%%IncludeResource: font Helvetica-BoldOblique
/Helvetica-BoldOblique findfont
dup length dict begin
  {1 index /FID ne {def} {pop pop} ifelse} forall
  /Encoding ISOLatin1Encoding def
  currentdict
  end
/Font4 exch definefont pop
%%IncludeResource: font Symbol
/Symbol findfont
dup length dict begin
  {1 index /FID ne {def} {pop pop} ifelse} forall
  currentdict
  end
/Font5 exch definefont pop
%%EndProlog
%%Page: 1 1
bp
0.00 0.00 354.33 198.43 cl
0.00 0.00 354.33 198.43 cl
0.00 0.00 354.33 198.43 cl
0.00 0.00 354.33 198.43 cl
0.00 0.00 354.33 198.43 cl
0.00 0.00 354.33 198.43 cl
0.00 0.00 354.33 198.43 cl
0.00 0.00 354.33 198.43 cl
0.00 0.00 354.33 198.43 cl
0.00 0.00 354.33 198.43 cl
/bg { 1 1 1 srgb } def
1 1 1 srgb
1.07 setlinewidth
[] 0 setdash
1 setlinecap
1 setlinejoin
10.00 setmiterlimit
0.00 0.00 354.33 198.43 r p3
0.00 0.00 354.33 198.43 cl
0.00 0.00 354.33 198.43 cl
0.00 0.00 354.33 198.43 cl
71.39 36.48 348.35 192.45 cl
/bg { 1 1 1 srgb } def
71.39 36.48 276.96 155.97 r p2
0.9804 0.9804 0.9804 srgb
1.07 setlinewidth
[] 0 setdash
0 setlinecap
1 setlinejoin
10.00 setmiterlimit
np
71.39 52.73 m
276.96 0 l
o
np
71.39 103.60 m
276.96 0 l
o
np
71.39 154.47 m
276.96 0 l
o
np
119.39 36.48 m
0 155.97 l
o
np
198.07 36.48 m
0 155.97 l
o
np
276.75 36.48 m
0 155.97 l
o
0.8980 0.8980 0.8980 srgb
0.43 setlinewidth
[] 0 setdash
np
71.39 78.17 m
276.96 0 l
o
np
71.39 129.04 m
276.96 0 l
o
np
71.39 179.91 m
276.96 0 l
o
np
80.05 36.48 m
0 155.97 l
o
np
158.73 36.48 m
0 155.97 l
o
np
237.41 36.48 m
0 155.97 l
o
np
316.09 36.48 m
0 155.97 l
o
/bg { 0 0 0 srgb } def
0 0 0 srgb
0.71 setlinewidth
[] 0 setdash
1 setlinecap
83.98 185.36 3.56 c p3
87.92 106.42 3.56 c p3
91.85 76.85 3.56 c p3
95.79 62.73 3.56 c p3
99.72 57.51 3.56 c p3
103.65 52.09 3.56 c p3
111.52 48.25 3.56 c p3
119.39 46.73 3.56 c p3
127.26 45.49 3.56 c p3
135.13 44.75 3.56 c p3
139.06 44.67 3.56 c p3
142.99 44.62 3.56 c p3
150.86 44.56 3.56 c p3
158.73 44.08 3.56 c p3
178.40 45.02 3.56 c p3
198.07 44.06 3.56 c p3
217.74 44.82 3.56 c p3
237.41 44.34 3.56 c p3
257.08 43.57 3.56 c p3
276.75 44.17 3.56 c p3
296.42 44.44 3.56 c p3
316.09 44.81 3.56 c p3
335.76 45.04 3.56 c p3
1.07 setlinewidth
[] 0 setdash
0 setlinecap
1.00 setmiterlimit
np
83.98 185.36 m
3.94 -78.94 l
3.93 -29.57 l
3.94 -14.12 l
3.93 -5.22 l
3.93 -5.42 l
7.87 -3.84 l
7.87 -1.52 l
7.87 -1.24 l
7.87 -0.74 l
3.93 -0.08 l
3.93 -0.05 l
7.87 -0.06 l
7.87 -0.48 l
19.67 0.94 l
19.67 -0.96 l
19.67 0.76 l
19.67 -0.48 l
19.67 -0.77 l
19.67 0.60 l
19.67 0.27 l
19.67 0.37 l
19.67 0.23 l
o
0.4980 0.4980 0.4980 srgb
1 setlinecap
10.00 setmiterlimit
71.39 36.48 276.96 155.97 r p1
0.00 0.00 354.33 198.43 cl
0.00 0.00 354.33 198.43 cl
0.00 0.00 354.33 198.43 cl
0.00 0.00 354.33 198.43 cl
0.00 0.00 354.33 198.43 cl
0.00 0.00 354.33 198.43 cl
/Font1 findfont 11 s
0 0 0 srgb
66.01 74.22 (1550000) 1 0 t
66.01 125.09 (1600000) 1 0 t
66.01 175.96 (1650000) 1 0 t
0.00 0.00 354.33 198.43 cl
0.00 0.00 354.33 198.43 cl
0 0 0 srgb
1.07 setlinewidth
[] 0 setdash
0 setlinecap
1 setlinejoin
10.00 setmiterlimit
np
68.41 78.17 m
2.98 0 l
o
np
68.41 129.04 m
2.98 0 l
o
np
68.41 179.91 m
2.98 0 l
o
0.00 0.00 354.33 198.43 cl
0.00 0.00 354.33 198.43 cl
0.00 0.00 354.33 198.43 cl
0.00 0.00 354.33 198.43 cl
0.00 0.00 354.33 198.43 cl
0.00 0.00 354.33 198.43 cl
0.00 0.00 354.33 198.43 cl
0.00 0.00 354.33 198.43 cl
0 0 0 srgb
1.07 setlinewidth
[] 0 setdash
0 setlinecap
1 setlinejoin
10.00 setmiterlimit
np
80.05 33.49 m
0 2.99 l
o
np
158.73 33.49 m
0 2.99 l
o
np
237.41 33.49 m
0 2.99 l
o
np
316.09 33.49 m
0 2.99 l
o
0.00 0.00 354.33 198.43 cl
0.00 0.00 354.33 198.43 cl
/Font1 findfont 11 s
0 0 0 srgb
80.05 23.20 (0) .5 0 t
158.73 23.20 (20) .5 0 t
237.41 23.20 (40) .5 0 t
316.09 23.20 (60) .5 0 t
0.00 0.00 354.33 198.43 cl
0.00 0.00 354.33 198.43 cl
0.00 0.00 354.33 198.43 cl
0.00 0.00 354.33 198.43 cl
/Font1 findfont 14 s
0 0 0 srgb
209.87 8.37 (k) .5 0 t
0.00 0.00 354.33 198.43 cl
0.00 0.00 354.33 198.43 cl
/Font1 findfont 14 s
0 0 0 srgb
18.42 114.46 (BIC) .5 90 t
0.00 0.00 354.33 198.43 cl
0.00 0.00 354.33 198.43 cl
0.00 0.00 354.33 198.43 cl
0.00 0.00 354.33 198.43 cl
ep
%%Trailer
%%Pages: 1
%%EOF
