%!PS-Adobe-3.0 EPSF-3.0
%%DocumentNeededResources: font Helvetica
%%+ font Helvetica-Bold
%%+ font Helvetica-Oblique
%%+ font Helvetica-BoldOblique
%%+ font Symbol
%%Title: R Graphics Output
%%Creator: R Software
%%Pages: (atend)
%%BoundingBox: 0 0 595 213
%%EndComments
%%BeginProlog
/bp  { gs sRGB gs } def
% begin .ps.prolog
/gs  { gsave } bind def
/gr  { grestore } bind def
/ep  { showpage gr gr } bind def
/m   { moveto } bind def
/l  { rlineto } bind def
/np  { newpath } bind def
/cp  { closepath } bind def
/f   { fill } bind def
/o   { stroke } bind def
/c   { newpath 0 360 arc } bind def
/r   { 4 2 roll moveto 1 copy 3 -1 roll exch 0 exch rlineto 0 rlineto -1 mul 0 exch rlineto closepath } bind def
/p1  { stroke } bind def
/p2  { gsave bg fill grestore newpath } bind def
/p3  { gsave bg fill grestore stroke } bind def
/p6  { gsave bg eofill grestore newpath } bind def
/p7  { gsave bg eofill grestore stroke } bind def
/t   { 5 -2 roll moveto gsave rotate
       1 index stringwidth pop
       mul neg 0 rmoveto show grestore } bind def
/ta  { 4 -2 roll moveto gsave rotate show } bind def
/tb  { 2 -1 roll 0 rmoveto show } bind def
/cl  { grestore gsave newpath 3 index 3 index moveto 1 index
       4 -1 roll lineto  exch 1 index lineto lineto
       closepath clip newpath } bind def
/rgb { setrgbcolor } bind def
/s   { scalefont setfont } bind def
% end   .ps.prolog
/sRGB { [ /CIEBasedABC
          << /DecodeLMN
               [ { dup 0.03928 le
                        {12.92321 div}
                        {0.055 add 1.055 div 2.4 exp }
                     ifelse
                 } bind dup dup
               ]
             /MatrixLMN [0.412457 0.212673 0.019334
                         0.357576 0.715152 0.119192
                         0.180437 0.072175 0.950301]
             /WhitePoint [0.9505 1.0 1.0890]
           >>
         ] setcolorspace } bind def
/srgb { setcolor } bind def
%%IncludeResource: font Helvetica
/Helvetica findfont
dup length dict begin
  {1 index /FID ne {def} {pop pop} ifelse} forall
  /Encoding ISOLatin1Encoding def
  currentdict
  end
/Font1 exch definefont pop
%%IncludeResource: font Helvetica-Bold
/Helvetica-Bold findfont
dup length dict begin
  {1 index /FID ne {def} {pop pop} ifelse} forall
  /Encoding ISOLatin1Encoding def
  currentdict
  end
/Font2 exch definefont pop
%%IncludeResource: font Helvetica-Oblique
/Helvetica-Oblique findfont
dup length dict begin
  {1 index /FID ne {def} {pop pop} ifelse} forall
  /Encoding ISOLatin1Encoding def
  currentdict
  end
/Font3 exch definefont pop
%%IncludeResource: font Helvetica-BoldOblique
/Helvetica-BoldOblique findfont
dup length dict begin
  {1 index /FID ne {def} {pop pop} ifelse} forall
  /Encoding ISOLatin1Encoding def
  currentdict
  end
/Font4 exch definefont pop
%%IncludeResource: font Symbol
/Symbol findfont
dup length dict begin
  {1 index /FID ne {def} {pop pop} ifelse} forall
  currentdict
  end
/Font5 exch definefont pop
%%EndProlog
%%Page: 1 1
bp
0.00 0.00 595.28 212.60 cl
0.00 0.00 595.28 212.60 cl
0.00 0.00 595.28 212.60 cl
0.00 0.00 595.28 212.60 cl
0.00 0.00 595.28 212.60 cl
0.00 0.00 595.28 212.60 cl
0.00 0.00 595.28 212.60 cl
0.00 0.00 595.28 212.60 cl
0.00 0.00 595.28 212.60 cl
0.00 0.00 595.28 212.60 cl
/bg { 1 1 1 srgb } def
1 1 1 srgb
1.07 setlinewidth
[] 0 setdash
1 setlinecap
1 setlinejoin
10.00 setmiterlimit
0.00 0.00 595.28 212.60 r p3
0.00 0.00 595.28 212.60 cl
0.00 0.00 595.28 212.60 cl
0.00 0.00 595.28 212.60 cl
46.61 34.33 589.30 163.83 cl
/bg { 1 1 1 srgb } def
46.61 34.33 542.69 129.50 r p2
0.9804 0.9804 0.9804 srgb
1.07 setlinewidth
[] 0 setdash
0 setlinecap
1 setlinejoin
10.00 setmiterlimit
np
46.61 54.93 m
542.69 0 l
o
np
46.61 84.36 m
542.69 0 l
o
np
46.61 113.79 m
542.69 0 l
o
np
46.61 143.23 m
542.69 0 l
o
0.8980 0.8980 0.8980 srgb
0.43 setlinewidth
[] 0 setdash
np
46.61 40.21 m
542.69 0 l
o
np
46.61 69.65 m
542.69 0 l
o
np
46.61 99.08 m
542.69 0 l
o
np
46.61 128.51 m
542.69 0 l
o
np
46.61 157.94 m
542.69 0 l
o
np
68.03 34.33 m
0 129.50 l
o
np
103.73 34.33 m
0 129.50 l
o
np
139.44 34.33 m
0 129.50 l
o
np
175.14 34.33 m
0 129.50 l
o
np
210.84 34.33 m
0 129.50 l
o
np
246.55 34.33 m
0 129.50 l
o
np
282.25 34.33 m
0 129.50 l
o
np
317.95 34.33 m
0 129.50 l
o
np
353.66 34.33 m
0 129.50 l
o
np
389.36 34.33 m
0 129.50 l
o
np
425.06 34.33 m
0 129.50 l
o
np
460.77 34.33 m
0 129.50 l
o
np
496.47 34.33 m
0 129.50 l
o
np
532.17 34.33 m
0 129.50 l
o
np
567.88 34.33 m
0 129.50 l
o
0.2000 0.2000 0.2000 srgb
1.07 setlinewidth
[] 0 setdash
np
57.99 128.51 m
0 29.43 l
o
np
57.99 40.21 m
0 0 l
o
/bg { 0.9961 0.9412 0.8510 srgb } def
1 setlinecap
np
 54.64 128.51 m
0 -88.30 l
6.69 0 l
0 88.30 l
-6.69 0 l
cp p3
2.13 setlinewidth
[] 0 setdash
0 setlinecap
np
54.64 79.35 m
6.69 0 l
o
1.07 setlinewidth
[] 0 setdash
np
64.68 157.94 m
0 0 l
o
np
64.68 48.62 m
0 -8.41 l
o
/bg { 0.9922 0.8000 0.5412 srgb } def
1 setlinecap
np
 61.33 157.94 m
0 -109.32 l
6.70 0 l
0 109.32 l
-6.70 0 l
cp p3
2.13 setlinewidth
[] 0 setdash
0 setlinecap
np
61.33 115.13 m
6.70 0 l
o
1.07 setlinewidth
[] 0 setdash
np
71.38 79.46 m
0 58.56 l
o
np
71.38 40.21 m
0 0 l
o
/bg { 0.9882 0.5529 0.3490 srgb } def
1 setlinecap
np
 68.03 79.46 m
0 -39.25 l
6.69 0 l
0 39.25 l
-6.69 0 l
cp p3
2.13 setlinewidth
[] 0 setdash
0 setlinecap
np
68.03 46.25 m
6.69 0 l
o
1.07 setlinewidth
[] 0 setdash
np
78.07 81.42 m
0 61.57 l
o
np
78.07 40.21 m
0 0 l
o
/bg { 0.8431 0.1882 0.1216 srgb } def
1 setlinecap
np
 74.72 81.42 m
0 -41.21 l
6.70 0 l
0 41.21 l
-6.70 0 l
cp p3
2.13 setlinewidth
[] 0 setdash
0 setlinecap
np
74.72 46.41 m
6.70 0 l
o
1.07 setlinewidth
[] 0 setdash
np
93.69 122.62 m
0 35.32 l
o
np
93.69 40.21 m
0 0 l
o
/bg { 0.9961 0.9412 0.8510 srgb } def
1 setlinecap
np
 90.34 122.62 m
0 -82.41 l
6.70 0 l
0 82.41 l
-6.70 0 l
cp p3
2.13 setlinewidth
[] 0 setdash
0 setlinecap
np
90.34 40.21 m
6.70 0 l
o
1.07 setlinewidth
[] 0 setdash
np
100.38 157.94 m
0 0 l
o
np
100.38 64.17 m
0 -23.96 l
o
/bg { 0.9922 0.8000 0.5412 srgb } def
1 setlinecap
np
 97.04 157.94 m
0 -93.77 l
6.69 0 l
0 93.77 l
-6.69 0 l
cp p3
2.13 setlinewidth
[] 0 setdash
0 setlinecap
np
97.04 157.94 m
6.69 0 l
o
1.07 setlinewidth
[] 0 setdash
np
107.08 61.88 m
0 32.42 l
o
np
107.08 40.21 m
0 0 l
o
/bg { 0.9882 0.5529 0.3490 srgb } def
1 setlinecap
np
 103.73 61.88 m
0 -21.67 l
6.70 0 l
0 21.67 l
-6.70 0 l
cp p3
2.13 setlinewidth
[] 0 setdash
0 setlinecap
np
103.73 40.21 m
6.70 0 l
o
1.07 setlinewidth
[] 0 setdash
np
113.77 63.76 m
0 35.32 l
o
np
113.77 40.21 m
0 0 l
o
/bg { 0.8431 0.1882 0.1216 srgb } def
1 setlinecap
np
 110.43 63.76 m
0 -23.55 l
6.69 0 l
0 23.55 l
-6.69 0 l
cp p3
2.13 setlinewidth
[] 0 setdash
0 setlinecap
np
110.43 40.21 m
6.69 0 l
o
1.07 setlinewidth
[] 0 setdash
np
129.39 128.51 m
0 29.43 l
o
np
129.39 40.21 m
0 0 l
o
/bg { 0.9961 0.9412 0.8510 srgb } def
1 setlinecap
np
 126.05 128.51 m
0 -88.30 l
6.69 0 l
0 88.30 l
-6.69 0 l
cp p3
2.13 setlinewidth
[] 0 setdash
0 setlinecap
np
126.05 85.57 m
6.69 0 l
o
1.07 setlinewidth
[] 0 setdash
np
136.09 157.94 m
0 0 l
o
np
136.09 50.02 m
0 -9.81 l
o
/bg { 0.9922 0.8000 0.5412 srgb } def
1 setlinecap
np
 132.74 157.94 m
0 -107.92 l
6.70 0 l
0 107.92 l
-6.70 0 l
cp p3
2.13 setlinewidth
[] 0 setdash
0 setlinecap
np
132.74 99.08 m
6.70 0 l
o
1.07 setlinewidth
[] 0 setdash
np
142.78 79.95 m
0 59.60 l
o
np
142.78 40.21 m
0 0 l
o
/bg { 0.9882 0.5529 0.3490 srgb } def
1 setlinecap
np
 139.44 79.95 m
0 -39.74 l
6.69 0 l
0 39.74 l
-6.69 0 l
cp p3
2.13 setlinewidth
[] 0 setdash
0 setlinecap
np
139.44 48.06 m
6.69 0 l
o
1.07 setlinewidth
[] 0 setdash
np
149.48 79.46 m
0 58.73 l
o
np
149.48 40.21 m
0 0 l
o
/bg { 0.8431 0.1882 0.1216 srgb } def
1 setlinecap
np
 146.13 79.46 m
0 -39.25 l
6.69 0 l
0 39.25 l
-6.69 0 l
cp p3
2.13 setlinewidth
[] 0 setdash
0 setlinecap
np
146.13 48.06 m
6.69 0 l
o
1.07 setlinewidth
[] 0 setdash
np
165.10 132.97 m
0 24.97 l
o
np
165.10 40.21 m
0 0 l
o
/bg { 0.9961 0.9412 0.8510 srgb } def
1 setlinecap
np
 161.75 132.97 m
0 -92.76 l
6.69 0 l
0 92.76 l
-6.69 0 l
cp p3
2.13 setlinewidth
[] 0 setdash
0 setlinecap
np
161.75 119.79 m
6.69 0 l
o
1.07 setlinewidth
[] 0 setdash
np
171.79 157.94 m
0 0 l
o
np
171.79 41.84 m
0 -1.63 l
o
/bg { 0.9922 0.8000 0.5412 srgb } def
1 setlinecap
np
 168.44 157.94 m
0 -116.10 l
6.70 0 l
0 116.10 l
-6.70 0 l
cp p3
2.13 setlinewidth
[] 0 setdash
0 setlinecap
np
168.44 72.32 m
6.70 0 l
o
1.07 setlinewidth
[] 0 setdash
np
178.49 79.46 m
0 58.58 l
o
np
178.49 40.21 m
0 0 l
o
/bg { 0.9882 0.5529 0.3490 srgb } def
1 setlinecap
np
 175.14 79.46 m
0 -39.25 l
6.69 0 l
0 39.25 l
-6.69 0 l
cp p3
2.13 setlinewidth
[] 0 setdash
0 setlinecap
np
175.14 50.92 m
6.69 0 l
o
1.07 setlinewidth
[] 0 setdash
np
185.18 79.46 m
0 58.70 l
o
np
185.18 40.21 m
0 0 l
o
/bg { 0.8431 0.1882 0.1216 srgb } def
1 setlinecap
np
 181.83 79.46 m
0 -39.25 l
6.70 0 l
0 39.25 l
-6.70 0 l
cp p3
2.13 setlinewidth
[] 0 setdash
0 setlinecap
np
181.83 50.92 m
6.70 0 l
o
1.07 setlinewidth
[] 0 setdash
np
200.80 123.53 m
0 34.41 l
o
np
200.80 40.21 m
0 0 l
o
/bg { 0.9961 0.9412 0.8510 srgb } def
1 setlinecap
np
 197.45 123.53 m
0 -83.32 l
6.70 0 l
0 83.32 l
-6.70 0 l
cp p3
2.13 setlinewidth
[] 0 setdash
0 setlinecap
np
197.45 77.49 m
6.70 0 l
o
1.07 setlinewidth
[] 0 setdash
np
207.49 157.94 m
0 0 l
o
np
207.49 65.44 m
0 -25.23 l
o
/bg { 0.9922 0.8000 0.5412 srgb } def
1 setlinecap
np
 204.15 157.94 m
0 -92.50 l
6.69 0 l
0 92.50 l
-6.69 0 l
cp p3
2.13 setlinewidth
[] 0 setdash
0 setlinecap
np
204.15 120.43 m
6.69 0 l
o
1.07 setlinewidth
[] 0 setdash
np
214.19 104.12 m
0 53.82 l
o
np
214.19 40.21 m
0 0 l
o
/bg { 0.9882 0.5529 0.3490 srgb } def
1 setlinecap
np
 210.84 104.12 m
0 -63.91 l
6.70 0 l
0 63.91 l
-6.70 0 l
cp p3
2.13 setlinewidth
[] 0 setdash
0 setlinecap
np
210.84 57.03 m
6.70 0 l
o
1.07 setlinewidth
[] 0 setdash
np
220.88 104.43 m
0 53.51 l
o
np
220.88 40.21 m
0 0 l
o
/bg { 0.8431 0.1882 0.1216 srgb } def
1 setlinecap
np
 217.54 104.43 m
0 -64.22 l
6.69 0 l
0 64.22 l
-6.69 0 l
cp p3
2.13 setlinewidth
[] 0 setdash
0 setlinecap
np
217.54 59.83 m
6.69 0 l
o
1.07 setlinewidth
[] 0 setdash
np
236.50 40.21 m
0 0 l
o
np
236.50 40.21 m
0 0 l
o
/bg { 0.9961 0.9412 0.8510 srgb } def
1 setlinecap
np
 233.16 40.21 m
0 0 l
6.69 0 l
0 0 l
-6.69 0 l
cp p3
2.13 setlinewidth
[] 0 setdash
0 setlinecap
np
233.16 40.21 m
6.69 0 l
o
1.07 setlinewidth
[] 0 setdash
np
243.20 157.94 m
0 0 l
o
np
243.20 157.94 m
0 0 l
o
/bg { 0.9922 0.8000 0.5412 srgb } def
1 setlinecap
np
 239.85 157.94 m
0 0 l
6.70 0 l
0 0 l
-6.70 0 l
cp p3
2.13 setlinewidth
[] 0 setdash
0 setlinecap
np
239.85 157.94 m
6.70 0 l
o
1.07 setlinewidth
[] 0 setdash
np
249.89 40.21 m
0 0 l
o
np
249.89 40.21 m
0 0 l
o
/bg { 0.9882 0.5529 0.3490 srgb } def
1 setlinecap
np
 246.55 40.21 m
0 0 l
6.69 0 l
0 0 l
-6.69 0 l
cp p3
2.13 setlinewidth
[] 0 setdash
0 setlinecap
np
246.55 40.21 m
6.69 0 l
o
1.07 setlinewidth
[] 0 setdash
np
256.59 40.21 m
0 0 l
o
np
256.59 40.21 m
0 0 l
o
/bg { 0.8431 0.1882 0.1216 srgb } def
1 setlinecap
np
 253.24 40.21 m
0 0 l
6.69 0 l
0 0 l
-6.69 0 l
cp p3
2.13 setlinewidth
[] 0 setdash
0 setlinecap
np
253.24 40.21 m
6.69 0 l
o
1.07 setlinewidth
[] 0 setdash
np
272.21 69.65 m
0 44.14 l
o
np
272.21 40.21 m
0 0 l
o
/bg { 0.9961 0.9412 0.8510 srgb } def
1 setlinecap
np
 268.86 69.65 m
0 -29.44 l
6.69 0 l
0 29.44 l
-6.69 0 l
cp p3
2.13 setlinewidth
[] 0 setdash
0 setlinecap
np
268.86 40.21 m
6.69 0 l
o
1.07 setlinewidth
[] 0 setdash
np
278.90 157.94 m
0 0 l
o
np
278.90 125.83 m
0 -48.11 l
o
/bg { 0.9922 0.8000 0.5412 srgb } def
1 setlinecap
np
 275.55 157.94 m
0 -32.11 l
6.70 0 l
0 32.11 l
-6.70 0 l
cp p3
2.13 setlinewidth
[] 0 setdash
0 setlinecap
np
275.55 157.94 m
6.70 0 l
o
1.07 setlinewidth
[] 0 setdash
np
285.60 52.61 m
0 18.58 l
o
np
285.60 40.21 m
0 0 l
o
/bg { 0.9882 0.5529 0.3490 srgb } def
1 setlinecap
np
 282.25 52.61 m
0 -12.40 l
6.69 0 l
0 12.40 l
-6.69 0 l
cp p3
2.13 setlinewidth
[] 0 setdash
0 setlinecap
np
282.25 40.21 m
6.69 0 l
o
1.07 setlinewidth
[] 0 setdash
np
292.29 52.61 m
0 18.58 l
o
np
292.29 40.21 m
0 0 l
o
/bg { 0.8431 0.1882 0.1216 srgb } def
1 setlinecap
np
 288.94 52.61 m
0 -12.40 l
6.70 0 l
0 12.40 l
-6.70 0 l
cp p3
2.13 setlinewidth
[] 0 setdash
0 setlinecap
np
288.94 40.21 m
6.70 0 l
o
1.07 setlinewidth
[] 0 setdash
np
307.91 118.70 m
0 39.24 l
o
np
307.91 40.21 m
0 0 l
o
/bg { 0.9961 0.9412 0.8510 srgb } def
1 setlinecap
np
 304.56 118.70 m
0 -78.49 l
6.70 0 l
0 78.49 l
-6.70 0 l
cp p3
2.13 setlinewidth
[] 0 setdash
0 setlinecap
np
304.56 51.31 m
6.70 0 l
o
1.07 setlinewidth
[] 0 setdash
np
314.61 157.94 m
0 0 l
o
np
314.61 78.00 m
0 -37.79 l
o
/bg { 0.9922 0.8000 0.5412 srgb } def
1 setlinecap
np
 311.26 157.94 m
0 -79.94 l
6.69 0 l
0 79.94 l
-6.69 0 l
cp p3
2.13 setlinewidth
[] 0 setdash
0 setlinecap
np
311.26 147.37 m
6.69 0 l
o
1.07 setlinewidth
[] 0 setdash
np
321.30 94.55 m
0 63.39 l
o
np
321.30 40.21 m
0 0 l
o
/bg { 0.9882 0.5529 0.3490 srgb } def
1 setlinecap
np
 317.95 94.55 m
0 -54.34 l
6.70 0 l
0 54.34 l
-6.70 0 l
cp p3
2.13 setlinewidth
[] 0 setdash
0 setlinecap
np
317.95 45.12 m
6.70 0 l
o
1.07 setlinewidth
[] 0 setdash
np
327.99 94.03 m
0 63.91 l
o
np
327.99 40.21 m
0 0 l
o
/bg { 0.8431 0.1882 0.1216 srgb } def
1 setlinecap
np
 324.65 94.03 m
0 -53.82 l
6.69 0 l
0 53.82 l
-6.69 0 l
cp p3
2.13 setlinewidth
[] 0 setdash
0 setlinecap
np
324.65 45.33 m
6.69 0 l
o
1.07 setlinewidth
[] 0 setdash
np
343.61 125.24 m
0 32.70 l
o
np
343.61 40.21 m
0 0 l
o
/bg { 0.9961 0.9412 0.8510 srgb } def
1 setlinecap
np
 340.27 125.24 m
0 -85.03 l
6.69 0 l
0 85.03 l
-6.69 0 l
cp p3
2.13 setlinewidth
[] 0 setdash
0 setlinecap
np
340.27 63.76 m
6.69 0 l
o
1.07 setlinewidth
[] 0 setdash
np
350.31 157.94 m
0 0 l
o
np
350.31 57.03 m
0 -16.82 l
o
/bg { 0.9922 0.8000 0.5412 srgb } def
1 setlinecap
np
 346.96 157.94 m
0 -100.91 l
6.70 0 l
0 100.91 l
-6.70 0 l
cp p3
2.13 setlinewidth
[] 0 setdash
0 setlinecap
np
346.96 135.87 m
6.70 0 l
o
1.07 setlinewidth
[] 0 setdash
np
357.00 75.53 m
0 52.98 l
o
np
357.00 40.21 m
0 0 l
o
/bg { 0.9882 0.5529 0.3490 srgb } def
1 setlinecap
np
 353.66 75.53 m
0 -35.32 l
6.69 0 l
0 35.32 l
-6.69 0 l
cp p3
2.13 setlinewidth
[] 0 setdash
0 setlinecap
np
353.66 43.08 m
6.69 0 l
o
1.07 setlinewidth
[] 0 setdash
np
363.70 76.65 m
0 54.66 l
o
np
363.70 40.21 m
0 0 l
o
/bg { 0.8431 0.1882 0.1216 srgb } def
1 setlinecap
np
 360.35 76.65 m
0 -36.44 l
6.69 0 l
0 36.44 l
-6.69 0 l
cp p3
2.13 setlinewidth
[] 0 setdash
0 setlinecap
np
360.35 43.08 m
6.69 0 l
o
1.07 setlinewidth
[] 0 setdash
np
379.32 136.72 m
0 21.22 l
o
np
379.32 40.21 m
0 0 l
o
/bg { 0.9961 0.9412 0.8510 srgb } def
1 setlinecap
np
 375.97 136.72 m
0 -96.51 l
6.69 0 l
0 96.51 l
-6.69 0 l
cp p3
2.13 setlinewidth
[] 0 setdash
0 setlinecap
np
375.97 122.62 m
6.69 0 l
o
1.07 setlinewidth
[] 0 setdash
np
386.01 157.94 m
0 0 l
o
np
386.01 40.21 m
0 0 l
o
/bg { 0.9922 0.8000 0.5412 srgb } def
1 setlinecap
np
 382.66 157.94 m
0 -117.73 l
6.70 0 l
0 117.73 l
-6.70 0 l
cp p3
2.13 setlinewidth
[] 0 setdash
0 setlinecap
np
382.66 67.91 m
6.70 0 l
o
1.07 setlinewidth
[] 0 setdash
np
392.71 85.34 m
0 67.70 l
o
np
392.71 40.21 m
0 0 l
o
/bg { 0.9882 0.5529 0.3490 srgb } def
1 setlinecap
np
 389.36 85.34 m
0 -45.13 l
6.69 0 l
0 45.13 l
-6.69 0 l
cp p3
2.13 setlinewidth
[] 0 setdash
0 setlinecap
np
389.36 53.29 m
6.69 0 l
o
1.07 setlinewidth
[] 0 setdash
np
399.40 87.30 m
0 70.64 l
o
np
399.40 40.21 m
0 0 l
o
/bg { 0.8431 0.1882 0.1216 srgb } def
1 setlinecap
np
 396.05 87.30 m
0 -47.09 l
6.70 0 l
0 47.09 l
-6.70 0 l
cp p3
2.13 setlinewidth
[] 0 setdash
0 setlinecap
np
396.05 51.43 m
6.70 0 l
o
1.07 setlinewidth
[] 0 setdash
np
415.02 133.70 m
0 24.24 l
o
np
415.02 40.21 m
0 0 l
o
/bg { 0.9961 0.9412 0.8510 srgb } def
1 setlinecap
np
 411.67 133.70 m
0 -93.49 l
6.70 0 l
0 93.49 l
-6.70 0 l
cp p3
2.13 setlinewidth
[] 0 setdash
0 setlinecap
np
411.67 120.10 m
6.70 0 l
o
1.07 setlinewidth
[] 0 setdash
np
421.72 157.94 m
0 0 l
o
np
421.72 41.21 m
0 -1.00 l
o
/bg { 0.9922 0.8000 0.5412 srgb } def
1 setlinecap
np
 418.37 157.94 m
0 -116.73 l
6.69 0 l
0 116.73 l
-6.69 0 l
cp p3
2.13 setlinewidth
[] 0 setdash
0 setlinecap
np
418.37 69.65 m
6.69 0 l
o
1.07 setlinewidth
[] 0 setdash
np
428.41 79.46 m
0 58.51 l
o
np
428.41 40.21 m
0 0 l
o
/bg { 0.9882 0.5529 0.3490 srgb } def
1 setlinecap
np
 425.06 79.46 m
0 -39.25 l
6.70 0 l
0 39.25 l
-6.70 0 l
cp p3
2.13 setlinewidth
[] 0 setdash
0 setlinecap
np
425.06 48.38 m
6.70 0 l
o
1.07 setlinewidth
[] 0 setdash
np
435.10 79.46 m
0 58.49 l
o
np
435.10 40.21 m
0 0 l
o
/bg { 0.8431 0.1882 0.1216 srgb } def
1 setlinecap
np
 431.76 79.46 m
0 -39.25 l
6.69 0 l
0 39.25 l
-6.69 0 l
cp p3
2.13 setlinewidth
[] 0 setdash
0 setlinecap
np
431.76 48.38 m
6.69 0 l
o
1.07 setlinewidth
[] 0 setdash
np
450.72 138.32 m
0 19.62 l
o
np
450.72 110.85 m
0 -41.20 l
o
/bg { 0.9961 0.9412 0.8510 srgb } def
1 setlinecap
np
 447.38 138.32 m
0 -27.47 l
6.69 0 l
0 27.47 l
-6.69 0 l
cp p3
2.13 setlinewidth
[] 0 setdash
0 setlinecap
np
447.38 129.40 m
6.69 0 l
o
1.07 setlinewidth
[] 0 setdash
np
457.42 96.72 m
0 61.22 l
o
np
457.42 40.21 m
0 0 l
o
/bg { 0.9922 0.8000 0.5412 srgb } def
1 setlinecap
np
 454.07 96.72 m
0 -56.51 l
6.70 0 l
0 56.51 l
-6.70 0 l
cp p3
2.13 setlinewidth
[] 0 setdash
0 setlinecap
np
454.07 48.83 m
6.70 0 l
o
1.07 setlinewidth
[] 0 setdash
np
464.11 80.25 m
0 54.53 l
o
np
464.11 43.89 m
0 -3.68 l
o
/bg { 0.9882 0.5529 0.3490 srgb } def
1 setlinecap
np
 460.77 80.25 m
0 -36.36 l
6.69 0 l
0 36.36 l
-6.69 0 l
cp p3
2.13 setlinewidth
[] 0 setdash
0 setlinecap
np
460.77 54.93 m
6.69 0 l
o
1.07 setlinewidth
[] 0 setdash
np
470.81 86.28 m
0 68.72 l
o
np
470.81 40.21 m
0 0 l
o
/bg { 0.8431 0.1882 0.1216 srgb } def
1 setlinecap
np
 467.46 86.28 m
0 -46.07 l
6.69 0 l
0 46.07 l
-6.69 0 l
cp p3
2.13 setlinewidth
[] 0 setdash
0 setlinecap
np
467.46 48.62 m
6.69 0 l
o
1.07 setlinewidth
[] 0 setdash
np
486.43 129.18 m
0 28.76 l
o
np
486.43 45.86 m
0 -5.65 l
o
/bg { 0.9961 0.9412 0.8510 srgb } def
1 setlinecap
np
 483.08 129.18 m
0 -83.32 l
6.69 0 l
0 83.32 l
-6.69 0 l
cp p3
2.13 setlinewidth
[] 0 setdash
0 setlinecap
np
483.08 118.70 m
6.69 0 l
o
1.07 setlinewidth
[] 0 setdash
np
493.12 153.67 m
0 4.27 l
o
np
493.12 46.10 m
0 -5.89 l
o
/bg { 0.9922 0.8000 0.5412 srgb } def
1 setlinecap
np
 489.77 153.67 m
0 -107.57 l
6.70 0 l
0 107.57 l
-6.70 0 l
cp p3
2.13 setlinewidth
[] 0 setdash
0 setlinecap
np
489.77 82.09 m
6.70 0 l
o
1.07 setlinewidth
[] 0 setdash
np
499.82 99.08 m
0 58.86 l
o
np
499.82 40.90 m
0 -0.69 l
o
/bg { 0.9882 0.5529 0.3490 srgb } def
1 setlinecap
np
 496.47 99.08 m
0 -58.18 l
6.69 0 l
0 58.18 l
-6.69 0 l
cp p3
2.13 setlinewidth
[] 0 setdash
0 setlinecap
np
496.47 57.03 m
6.69 0 l
o
1.07 setlinewidth
[] 0 setdash
np
506.51 99.08 m
0 58.86 l
o
np
506.51 40.90 m
0 -0.69 l
o
/bg { 0.8431 0.1882 0.1216 srgb } def
1 setlinecap
np
 503.16 99.08 m
0 -58.18 l
6.70 0 l
0 58.18 l
-6.70 0 l
cp p3
2.13 setlinewidth
[] 0 setdash
0 setlinecap
np
503.16 57.03 m
6.70 0 l
o
1.07 setlinewidth
[] 0 setdash
np
522.13 120.48 m
0 37.46 l
o
np
522.13 43.31 m
0 -3.10 l
o
/bg { 0.9961 0.9412 0.8510 srgb } def
1 setlinecap
np
 518.78 120.48 m
0 -77.17 l
6.70 0 l
0 77.17 l
-6.70 0 l
cp p3
2.13 setlinewidth
[] 0 setdash
0 setlinecap
np
518.78 77.49 m
6.70 0 l
o
1.07 setlinewidth
[] 0 setdash
np
528.83 156.12 m
0 1.82 l
o
np
528.83 79.46 m
0 -39.25 l
o
/bg { 0.9922 0.8000 0.5412 srgb } def
1 setlinecap
np
 525.48 156.12 m
0 -76.66 l
6.69 0 l
0 76.66 l
-6.69 0 l
cp p3
2.13 setlinewidth
[] 0 setdash
0 setlinecap
np
525.48 118.70 m
6.69 0 l
o
1.07 setlinewidth
[] 0 setdash
np
535.52 125.24 m
0 32.70 l
o
np
535.52 41.78 m
0 -1.57 l
o
/bg { 0.9882 0.5529 0.3490 srgb } def
1 setlinecap
np
 532.17 125.24 m
0 -83.46 l
6.70 0 l
0 83.46 l
-6.70 0 l
cp p3
2.13 setlinewidth
[] 0 setdash
0 setlinecap
np
532.17 86.28 m
6.70 0 l
o
1.07 setlinewidth
[] 0 setdash
np
542.21 118.70 m
0 39.24 l
o
np
542.21 41.41 m
0 -1.20 l
o
/bg { 0.8431 0.1882 0.1216 srgb } def
1 setlinecap
np
 538.87 118.70 m
0 -77.29 l
6.69 0 l
0 77.29 l
-6.69 0 l
cp p3
2.13 setlinewidth
[] 0 setdash
0 setlinecap
np
538.87 77.39 m
6.69 0 l
o
1.07 setlinewidth
[] 0 setdash
np
557.83 131.03 m
0 26.91 l
o
np
557.83 69.65 m
0 -29.44 l
o
/bg { 0.9961 0.9412 0.8510 srgb } def
1 setlinecap
np
 554.49 131.03 m
0 -61.38 l
6.69 0 l
0 61.38 l
-6.69 0 l
cp p3
2.13 setlinewidth
[] 0 setdash
0 setlinecap
np
554.49 122.62 m
6.69 0 l
o
1.07 setlinewidth
[] 0 setdash
np
564.53 138.32 m
0 19.62 l
o
np
564.53 47.81 m
0 -7.60 l
o
/bg { 0.9922 0.8000 0.5412 srgb } def
1 setlinecap
np
 561.18 138.32 m
0 -90.51 l
6.70 0 l
0 90.51 l
-6.70 0 l
cp p3
2.13 setlinewidth
[] 0 setdash
0 setlinecap
np
561.18 79.46 m
6.70 0 l
o
1.07 setlinewidth
[] 0 setdash
np
571.22 106.44 m
0 51.50 l
o
np
571.22 43.45 m
0 -3.24 l
o
/bg { 0.9882 0.5529 0.3490 srgb } def
1 setlinecap
np
 567.88 106.44 m
0 -62.99 l
6.69 0 l
0 62.99 l
-6.69 0 l
cp p3
2.13 setlinewidth
[] 0 setdash
0 setlinecap
np
567.88 65.29 m
6.69 0 l
o
1.07 setlinewidth
[] 0 setdash
np
577.92 106.44 m
0 51.50 l
o
np
577.92 43.45 m
0 -3.24 l
o
/bg { 0.8431 0.1882 0.1216 srgb } def
1 setlinecap
np
 574.57 106.44 m
0 -62.99 l
6.69 0 l
0 62.99 l
-6.69 0 l
cp p3
2.13 setlinewidth
[] 0 setdash
0 setlinecap
np
574.57 64.85 m
6.69 0 l
o
/bg { 0 0 0 srgb } def
0 0 0 srgb
0.71 setlinewidth
[] 0 setdash
1 setlinecap
57.99 86.00 2.49 c p3
64.68 106.45 2.49 c p3
71.38 65.20 2.49 c p3
78.07 66.00 2.49 c p3
93.69 73.47 2.49 c p3
100.38 120.71 2.49 c p3
107.08 57.91 2.49 c p3
113.77 58.34 2.49 c p3
129.39 87.86 2.49 c p3
136.09 103.78 2.49 c p3
142.78 65.88 2.49 c p3
149.48 65.85 2.49 c p3
165.10 97.72 2.49 c p3
171.79 91.93 2.49 c p3
178.49 66.25 2.49 c p3
185.18 66.82 2.49 c p3
200.80 83.61 2.49 c p3
207.49 111.36 2.49 c p3
214.19 74.76 2.49 c p3
220.88 75.47 2.49 c p3
236.50 45.35 2.49 c p3
243.20 152.94 2.49 c p3
249.89 43.63 2.49 c p3
256.59 43.59 2.49 c p3
272.21 61.00 2.49 c p3
278.90 135.18 2.49 c p3
285.60 55.87 2.49 c p3
292.29 55.59 2.49 c p3
307.91 74.67 2.49 c p3
314.61 120.01 2.49 c p3
321.30 69.40 2.49 c p3
327.99 68.84 2.49 c p3
343.61 80.44 2.49 c p3
350.31 112.02 2.49 c p3
357.00 62.93 2.49 c p3
363.70 63.07 2.49 c p3
379.32 99.92 2.49 c p3
386.01 90.84 2.49 c p3
392.71 69.38 2.49 c p3
399.40 69.37 2.49 c p3
415.02 97.77 2.49 c p3
421.72 92.04 2.49 c p3
428.41 64.83 2.49 c p3
435.10 64.83 2.49 c p3
450.72 115.34 2.49 c p3
457.42 72.67 2.49 c p3
464.11 69.40 2.49 c p3
470.81 67.52 2.49 c p3
486.43 96.77 2.49 c p3
493.12 93.78 2.49 c p3
499.82 72.88 2.49 c p3
506.51 72.96 2.49 c p3
522.13 84.13 2.49 c p3
528.83 112.50 2.49 c p3
535.52 88.95 2.49 c p3
542.21 83.67 2.49 c p3
557.83 104.36 2.49 c p3
564.53 91.82 2.49 c p3
571.22 78.88 2.49 c p3
577.92 78.97 2.49 c p3
0.4980 0.4980 0.4980 srgb
1.07 setlinewidth
[] 0 setdash
46.61 34.33 542.69 129.50 r p1
0.00 0.00 595.28 212.60 cl
0.00 0.00 595.28 212.60 cl
0.00 0.00 595.28 212.60 cl
0.00 0.00 595.28 212.60 cl
0.00 0.00 595.28 212.60 cl
0.00 0.00 595.28 212.60 cl
/Font1 findfont 10 s
0 0 0 srgb
41.23 36.62 (0.00) 1 0 t
41.23 66.06 (0.25) 1 0 t
41.23 95.49 (0.50) 1 0 t
41.23 124.92 (0.75) 1 0 t
41.23 154.35 (1.00) 1 0 t
0.00 0.00 595.28 212.60 cl
0.00 0.00 595.28 212.60 cl
0 0 0 srgb
1.07 setlinewidth
[] 0 setdash
0 setlinecap
1 setlinejoin
10.00 setmiterlimit
np
43.62 40.21 m
2.99 0 l
o
np
43.62 69.65 m
2.99 0 l
o
np
43.62 99.08 m
2.99 0 l
o
np
43.62 128.51 m
2.99 0 l
o
np
43.62 157.94 m
2.99 0 l
o
0.00 0.00 595.28 212.60 cl
0.00 0.00 595.28 212.60 cl
0.00 0.00 595.28 212.60 cl
0.00 0.00 595.28 212.60 cl
0.00 0.00 595.28 212.60 cl
0.00 0.00 595.28 212.60 cl
0.00 0.00 595.28 212.60 cl
0.00 0.00 595.28 212.60 cl
0 0 0 srgb
1.07 setlinewidth
[] 0 setdash
0 setlinecap
1 setlinejoin
10.00 setmiterlimit
np
68.03 31.34 m
0 2.99 l
o
np
103.73 31.34 m
0 2.99 l
o
np
139.44 31.34 m
0 2.99 l
o
np
175.14 31.34 m
0 2.99 l
o
np
210.84 31.34 m
0 2.99 l
o
np
246.55 31.34 m
0 2.99 l
o
np
282.25 31.34 m
0 2.99 l
o
np
317.95 31.34 m
0 2.99 l
o
np
353.66 31.34 m
0 2.99 l
o
np
389.36 31.34 m
0 2.99 l
o
np
425.06 31.34 m
0 2.99 l
o
np
460.77 31.34 m
0 2.99 l
o
np
496.47 31.34 m
0 2.99 l
o
np
532.17 31.34 m
0 2.99 l
o
np
567.88 31.34 m
0 2.99 l
o
0.00 0.00 595.28 212.60 cl
0.00 0.00 595.28 212.60 cl
/Font1 findfont 10 s
0 0 0 srgb
68.03 21.77 (1) .5 0 t
103.73 21.77 (2) .5 0 t
139.44 21.77 (3) .5 0 t
175.14 21.77 (4) .5 0 t
210.84 21.77 (5) .5 0 t
246.55 21.77 (6) .5 0 t
282.25 21.77 (7) .5 0 t
317.95 21.77 (8) .5 0 t
353.66 21.77 (9) .5 0 t
389.36 21.77 (10) .5 0 t
425.06 21.77 (11) .5 0 t
460.77 21.77 (12) .5 0 t
496.47 21.77 (13) .5 0 t
532.17 21.77 (14) .5 0 t
567.88 21.77 (15) .5 0 t
0.00 0.00 595.28 212.60 cl
0.00 0.00 595.28 212.60 cl
0.00 0.00 595.28 212.60 cl
0.00 0.00 595.28 212.60 cl
/Font1 findfont 12 s
0 0 0 srgb
317.95 8.37 (cluster) .5 0 t
0.00 0.00 595.28 212.60 cl
0.00 0.00 595.28 212.60 cl
/Font1 findfont 12 s
0 0 0 srgb
16.98 30.07 (Nor) 90 ta
0.300 (malised Ranking Error) tb gr
0.00 0.00 595.28 212.60 cl
0.00 0.00 595.28 212.60 cl
0.00 0.00 595.28 212.60 cl
0.00 0.00 595.28 212.60 cl
/bg { 1 1 1 srgb } def
206.17 172.33 223.57 25.78 r p2
0.00 0.00 595.28 212.60 cl
0.00 0.00 595.28 212.60 cl
0.00 0.00 595.28 212.60 cl
0.00 0.00 595.28 212.60 cl
0.00 0.00 595.28 212.60 cl
0.00 0.00 595.28 212.60 cl
0.2000 0.2000 0.2000 srgb
1.07 setlinewidth
[] 0 setdash
1 setlinecap
1 setlinejoin
10.00 setmiterlimit
np
223.38 178.31 m
0 2.59 l
o
np
223.38 189.54 m
0 2.60 l
o
/bg { 0.9961 0.9412 0.8510 srgb } def
216.90 180.90 12.96 8.64 r p3
np
216.90 185.22 m
12.96 0 l
o
0.00 0.00 595.28 212.60 cl
0.00 0.00 595.28 212.60 cl
/bg { 0 0 0 srgb } def
0 0 0 srgb
0.71 setlinewidth
[] 0 setdash
1 setlinecap
1 setlinejoin
10.00 setmiterlimit
223.38 185.22 2.49 c p3
0.00 0.00 595.28 212.60 cl
0.00 0.00 595.28 212.60 cl
0.00 0.00 595.28 212.60 cl
0.00 0.00 595.28 212.60 cl
0.2000 0.2000 0.2000 srgb
1.07 setlinewidth
[] 0 setdash
1 setlinecap
1 setlinejoin
10.00 setmiterlimit
np
283.23 178.31 m
0 2.59 l
o
np
283.23 189.54 m
0 2.60 l
o
/bg { 0.9922 0.8000 0.5412 srgb } def
276.75 180.90 12.96 8.64 r p3
np
276.75 185.22 m
12.96 0 l
o
0.00 0.00 595.28 212.60 cl
0.00 0.00 595.28 212.60 cl
/bg { 0 0 0 srgb } def
0 0 0 srgb
0.71 setlinewidth
[] 0 setdash
1 setlinecap
1 setlinejoin
10.00 setmiterlimit
283.23 185.22 2.49 c p3
0.00 0.00 595.28 212.60 cl
0.00 0.00 595.28 212.60 cl
0.00 0.00 595.28 212.60 cl
0.00 0.00 595.28 212.60 cl
0.2000 0.2000 0.2000 srgb
1.07 setlinewidth
[] 0 setdash
1 setlinecap
1 setlinejoin
10.00 setmiterlimit
np
318.73 178.31 m
0 2.59 l
o
np
318.73 189.54 m
0 2.60 l
o
/bg { 0.9882 0.5529 0.3490 srgb } def
312.25 180.90 12.96 8.64 r p3
np
312.25 185.22 m
12.96 0 l
o
0.00 0.00 595.28 212.60 cl
0.00 0.00 595.28 212.60 cl
/bg { 0 0 0 srgb } def
0 0 0 srgb
0.71 setlinewidth
[] 0 setdash
1 setlinecap
1 setlinejoin
10.00 setmiterlimit
318.73 185.22 2.49 c p3
0.00 0.00 595.28 212.60 cl
0.00 0.00 595.28 212.60 cl
0.00 0.00 595.28 212.60 cl
0.00 0.00 595.28 212.60 cl
0.2000 0.2000 0.2000 srgb
1.07 setlinewidth
[] 0 setdash
1 setlinecap
1 setlinejoin
10.00 setmiterlimit
np
370.34 178.31 m
0 2.59 l
o
np
370.34 189.54 m
0 2.60 l
o
/bg { 0.8431 0.1882 0.1216 srgb } def
363.86 180.90 12.96 8.64 r p3
np
363.86 185.22 m
12.96 0 l
o
0.00 0.00 595.28 212.60 cl
0.00 0.00 595.28 212.60 cl
/bg { 0 0 0 srgb } def
0 0 0 srgb
0.71 setlinewidth
[] 0 setdash
1 setlinecap
1 setlinejoin
10.00 setmiterlimit
370.34 185.22 2.49 c p3
0.00 0.00 595.28 212.60 cl
0.00 0.00 595.28 212.60 cl
/Font1 findfont 10 s
0 0 0 srgb
234.18 181.63 (bar) 0 ta
-0.100 (abasi) tb gr
0.00 0.00 595.28 212.60 cl
0.00 0.00 595.28 212.60 cl
/Font1 findfont 10 s
0 0 0 srgb
294.03 181.63 (tau) 0 0 t
0.00 0.00 595.28 212.60 cl
0.00 0.00 595.28 212.60 cl
/Font1 findfont 10 s
0 0 0 srgb
329.53 181.63 (gomez) 0 0 t
0.00 0.00 595.28 212.60 cl
0.00 0.00 595.28 212.60 cl
/Font1 findfont 10 s
0 0 0 srgb
381.14 181.63 (lumbrer) 0 ta
-0.100 (as) tb gr
0.00 0.00 595.28 212.60 cl
0.00 0.00 595.28 212.60 cl
0.00 0.00 595.28 212.60 cl
0.00 0.00 595.28 212.60 cl
0.00 0.00 595.28 212.60 cl
0.00 0.00 595.28 212.60 cl
ep
%%Trailer
%%Pages: 1
%%EOF
