%!PS-Adobe-3.0 EPSF-3.0
%%DocumentNeededResources: font Helvetica
%%+ font Helvetica-Bold
%%+ font Helvetica-Oblique
%%+ font Helvetica-BoldOblique
%%+ font Symbol
%%Title: R Graphics Output
%%Creator: R Software
%%Pages: (atend)
%%BoundingBox: 0 0 425 198
%%EndComments
%%BeginProlog
/bp  { gs sRGB gs } def
% begin .ps.prolog
/gs  { gsave } bind def
/gr  { grestore } bind def
/ep  { showpage gr gr } bind def
/m   { moveto } bind def
/l  { rlineto } bind def
/np  { newpath } bind def
/cp  { closepath } bind def
/f   { fill } bind def
/o   { stroke } bind def
/c   { newpath 0 360 arc } bind def
/r   { 4 2 roll moveto 1 copy 3 -1 roll exch 0 exch rlineto 0 rlineto -1 mul 0 exch rlineto closepath } bind def
/p1  { stroke } bind def
/p2  { gsave bg fill grestore newpath } bind def
/p3  { gsave bg fill grestore stroke } bind def
/p6  { gsave bg eofill grestore newpath } bind def
/p7  { gsave bg eofill grestore stroke } bind def
/t   { 5 -2 roll moveto gsave rotate
       1 index stringwidth pop
       mul neg 0 rmoveto show grestore } bind def
/ta  { 4 -2 roll moveto gsave rotate show } bind def
/tb  { 2 -1 roll 0 rmoveto show } bind def
/cl  { grestore gsave newpath 3 index 3 index moveto 1 index
       4 -1 roll lineto  exch 1 index lineto lineto
       closepath clip newpath } bind def
/rgb { setrgbcolor } bind def
/s   { scalefont setfont } bind def
% end   .ps.prolog
/sRGB { [ /CIEBasedABC
          << /DecodeLMN
               [ { dup 0.03928 le
                        {12.92321 div}
                        {0.055 add 1.055 div 2.4 exp }
                     ifelse
                 } bind dup dup
               ]
             /MatrixLMN [0.412457 0.212673 0.019334
                         0.357576 0.715152 0.119192
                         0.180437 0.072175 0.950301]
             /WhitePoint [0.9505 1.0 1.0890]
           >>
         ] setcolorspace } bind def
/srgb { setcolor } bind def
%%IncludeResource: font Helvetica
/Helvetica findfont
dup length dict begin
  {1 index /FID ne {def} {pop pop} ifelse} forall
  /Encoding ISOLatin1Encoding def
  currentdict
  end
/Font1 exch definefont pop
%%IncludeResource: font Helvetica-Bold
/Helvetica-Bold findfont
dup length dict begin
  {1 index /FID ne {def} {pop pop} ifelse} forall
  /Encoding ISOLatin1Encoding def
  currentdict
  end
/Font2 exch definefont pop
%%IncludeResource: font Helvetica-Oblique
/Helvetica-Oblique findfont
dup length dict begin
  {1 index /FID ne {def} {pop pop} ifelse} forall
  /Encoding ISOLatin1Encoding def
  currentdict
  end
/Font3 exch definefont pop
%%IncludeResource: font Helvetica-BoldOblique
/Helvetica-BoldOblique findfont
dup length dict begin
  {1 index /FID ne {def} {pop pop} ifelse} forall
  /Encoding ISOLatin1Encoding def
  currentdict
  end
/Font4 exch definefont pop
%%IncludeResource: font Symbol
/Symbol findfont
dup length dict begin
  {1 index /FID ne {def} {pop pop} ifelse} forall
  currentdict
  end
/Font5 exch definefont pop
%%EndProlog
%%Page: 1 1
bp
0.00 0.00 425.20 198.43 cl
0.00 0.00 425.20 198.43 cl
0.00 0.00 425.20 198.43 cl
0.00 0.00 425.20 198.43 cl
0.00 0.00 425.20 198.43 cl
0.00 0.00 425.20 198.43 cl
0.00 0.00 425.20 198.43 cl
0.00 0.00 425.20 198.43 cl
0.00 0.00 425.20 198.43 cl
0.00 0.00 425.20 198.43 cl
/bg { 1 1 1 srgb } def
1 1 1 srgb
1.07 setlinewidth
[] 0 setdash
1 setlinecap
1 setlinejoin
10.00 setmiterlimit
0.00 0.00 425.20 198.43 r p3
0.00 0.00 425.20 198.43 cl
0.00 0.00 425.20 198.43 cl
0.00 0.00 425.20 198.43 cl
49.99 36.48 325.48 192.45 cl
/bg { 1 1 1 srgb } def
49.99 36.48 275.49 155.97 r p2
0.9804 0.9804 0.9804 srgb
1.07 setlinewidth
[] 0 setdash
0 setlinecap
1 setlinejoin
10.00 setmiterlimit
np
49.99 63.75 m
275.49 0 l
o
np
49.99 104.10 m
275.49 0 l
o
np
49.99 144.45 m
275.49 0 l
o
np
49.99 184.81 m
275.49 0 l
o
0.8980 0.8980 0.8980 srgb
0.43 setlinewidth
[] 0 setdash
np
49.99 43.57 m
275.49 0 l
o
np
49.99 83.92 m
275.49 0 l
o
np
49.99 124.28 m
275.49 0 l
o
np
49.99 164.63 m
275.49 0 l
o
np
81.78 36.48 m
0 155.97 l
o
np
134.76 36.48 m
0 155.97 l
o
np
187.74 36.48 m
0 155.97 l
o
np
240.72 36.48 m
0 155.97 l
o
np
293.69 36.48 m
0 155.97 l
o
/bg { 0.9882 0.5529 0.3490 srgb } def
0 0 0 srgb
1.07 setlinewidth
[] 0 setdash
81.78 43.57 11.92 141.79 r p3
/bg { 0.9922 0.8000 0.5412 srgb } def
69.86 43.57 11.92 141.79 r p3
/bg { 0.9961 0.9412 0.8510 srgb } def
57.94 43.57 11.92 141.05 r p3
/bg { 0.8431 0.1882 0.1216 srgb } def
93.70 43.57 11.92 4.39 r p3
/bg { 0.9882 0.5529 0.3490 srgb } def
134.76 43.57 11.92 84.67 r p3
/bg { 0.9922 0.8000 0.5412 srgb } def
122.84 43.57 11.92 84.67 r p3
/bg { 0.9961 0.9412 0.8510 srgb } def
110.92 43.57 11.92 84.16 r p3
/bg { 0.8431 0.1882 0.1216 srgb } def
146.68 43.57 11.92 19.77 r p3
/bg { 0.9882 0.5529 0.3490 srgb } def
187.74 43.57 11.92 38.36 r p3
/bg { 0.9922 0.8000 0.5412 srgb } def
175.82 43.57 11.92 38.36 r p3
/bg { 0.9961 0.9412 0.8510 srgb } def
163.89 43.57 11.92 38.12 r p3
/bg { 0.8431 0.1882 0.1216 srgb } def
199.66 43.57 11.92 30.60 r p3
/bg { 0.9882 0.5529 0.3490 srgb } def
240.72 43.57 11.92 54.20 r p3
/bg { 0.9922 0.8000 0.5412 srgb } def
228.79 43.57 11.92 41.05 r p3
/bg { 0.9961 0.9412 0.8510 srgb } def
216.87 43.57 11.92 40.87 r p3
/bg { 0.8431 0.1882 0.1216 srgb } def
252.64 43.57 11.92 49.24 r p3
/bg { 0.9882 0.5529 0.3490 srgb } def
293.69 43.57 11.92 47.55 r p3
/bg { 0.9922 0.8000 0.5412 srgb } def
281.77 43.57 11.92 47.55 r p3
/bg { 0.9961 0.9412 0.8510 srgb } def
269.85 43.57 11.92 47.27 r p3
/bg { 0.8431 0.1882 0.1216 srgb } def
305.62 43.57 11.92 26.61 r p3
0.4980 0.4980 0.4980 srgb
1 setlinecap
49.99 36.48 275.49 155.97 r p1
0.00 0.00 425.20 198.43 cl
0.00 0.00 425.20 198.43 cl
0.00 0.00 425.20 198.43 cl
0.00 0.00 425.20 198.43 cl
0.00 0.00 425.20 198.43 cl
0.00 0.00 425.20 198.43 cl
/Font1 findfont 11 s
0 0 0 srgb
44.61 39.62 (0.00) 1 0 t
44.61 79.97 (0.25) 1 0 t
44.61 120.33 (0.50) 1 0 t
44.61 160.68 (0.75) 1 0 t
0.00 0.00 425.20 198.43 cl
0.00 0.00 425.20 198.43 cl
0 0 0 srgb
1.07 setlinewidth
[] 0 setdash
0 setlinecap
1 setlinejoin
10.00 setmiterlimit
np
47.00 43.57 m
2.99 0 l
o
np
47.00 83.92 m
2.99 0 l
o
np
47.00 124.28 m
2.99 0 l
o
np
47.00 164.63 m
2.99 0 l
o
0.00 0.00 425.20 198.43 cl
0.00 0.00 425.20 198.43 cl
0.00 0.00 425.20 198.43 cl
0.00 0.00 425.20 198.43 cl
0.00 0.00 425.20 198.43 cl
0.00 0.00 425.20 198.43 cl
0.00 0.00 425.20 198.43 cl
0.00 0.00 425.20 198.43 cl
0 0 0 srgb
1.07 setlinewidth
[] 0 setdash
0 setlinecap
1 setlinejoin
10.00 setmiterlimit
np
81.78 33.49 m
0 2.99 l
o
np
134.76 33.49 m
0 2.99 l
o
np
187.74 33.49 m
0 2.99 l
o
np
240.72 33.49 m
0 2.99 l
o
np
293.69 33.49 m
0 2.99 l
o
0.00 0.00 425.20 198.43 cl
0.00 0.00 425.20 198.43 cl
/Font1 findfont 11 s
0 0 0 srgb
81.78 23.20 (1) .5 0 t
134.76 23.20 (2) .5 0 t
187.74 23.20 (3) .5 0 t
240.72 23.20 (4) .5 0 t
293.69 23.20 (5) .5 0 t
0.00 0.00 425.20 198.43 cl
0.00 0.00 425.20 198.43 cl
0.00 0.00 425.20 198.43 cl
0.00 0.00 425.20 198.43 cl
/Font1 findfont 14 s
0 0 0 srgb
187.74 8.37 (cluster) .5 0 t
0.00 0.00 425.20 198.43 cl
0.00 0.00 425.20 198.43 cl
/Font1 findfont 14 s
0 0 0 srgb
18.42 114.46 (hits) .5 90 t
0.00 0.00 425.20 198.43 cl
0.00 0.00 425.20 198.43 cl
0.00 0.00 425.20 198.43 cl
0.00 0.00 425.20 198.43 cl
/bg { 1 1 1 srgb } def
333.99 73.49 76.73 81.94 r p2
0.00 0.00 425.20 198.43 cl
0.00 0.00 425.20 198.43 cl
0.00 0.00 425.20 198.43 cl
0.00 0.00 425.20 198.43 cl
0.00 0.00 425.20 198.43 cl
0.00 0.00 425.20 198.43 cl
/bg { 0.9961 0.9412 0.8510 srgb } def
0 0 0 srgb
1.07 setlinewidth
[] 0 setdash
1 setlinecap
0 setlinejoin
10.00 setmiterlimit
338.95 130.29 15.86 15.86 r p3
0.00 0.00 425.20 198.43 cl
0.00 0.00 425.20 198.43 cl
0.00 0.00 425.20 198.43 cl
0.00 0.00 425.20 198.43 cl
/bg { 0.9922 0.8000 0.5412 srgb } def
0 0 0 srgb
1.07 setlinewidth
[] 0 setdash
1 setlinecap
0 setlinejoin
10.00 setmiterlimit
338.95 113.01 15.86 15.86 r p3
0.00 0.00 425.20 198.43 cl
0.00 0.00 425.20 198.43 cl
0.00 0.00 425.20 198.43 cl
0.00 0.00 425.20 198.43 cl
/bg { 0.9882 0.5529 0.3490 srgb } def
0 0 0 srgb
1.07 setlinewidth
[] 0 setdash
1 setlinecap
0 setlinejoin
10.00 setmiterlimit
338.95 95.73 15.86 15.86 r p3
0.00 0.00 425.20 198.43 cl
0.00 0.00 425.20 198.43 cl
0.00 0.00 425.20 198.43 cl
0.00 0.00 425.20 198.43 cl
/bg { 0.8431 0.1882 0.1216 srgb } def
0 0 0 srgb
1.07 setlinewidth
[] 0 setdash
1 setlinecap
0 setlinejoin
10.00 setmiterlimit
338.95 78.45 15.86 15.86 r p3
0.00 0.00 425.20 198.43 cl
0.00 0.00 425.20 198.43 cl
/Font1 findfont 11 s
0 0 0 srgb
357.68 134.28 (bar) 0 ta
-0.110 (abasi) tb gr
0.00 0.00 425.20 198.43 cl
0.00 0.00 425.20 198.43 cl
/Font1 findfont 11 s
0 0 0 srgb
357.68 117.00 (gomez) 0 0 t
0.00 0.00 425.20 198.43 cl
0.00 0.00 425.20 198.43 cl
/Font1 findfont 11 s
0 0 0 srgb
357.68 99.72 (lumbrer) 0 ta
-0.110 (as) tb gr
0.00 0.00 425.20 198.43 cl
0.00 0.00 425.20 198.43 cl
/Font1 findfont 11 s
0 0 0 srgb
357.68 82.44 (tau) 0 0 t
0.00 0.00 425.20 198.43 cl
0.00 0.00 425.20 198.43 cl
0.00 0.00 425.20 198.43 cl
0.00 0.00 425.20 198.43 cl
0.00 0.00 425.20 198.43 cl
0.00 0.00 425.20 198.43 cl
ep
%%Trailer
%%Pages: 1
%%EOF
