%!PS-Adobe-3.0 EPSF-3.0
%%DocumentNeededResources: font Helvetica
%%+ font Helvetica-Bold
%%+ font Helvetica-Oblique
%%+ font Helvetica-BoldOblique
%%+ font Symbol
%%Title: R Graphics Output
%%Creator: R Software
%%Pages: (atend)
%%BoundingBox: 0 0 283 213
%%EndComments
%%BeginProlog
/bp  { gs sRGB gs } def
% begin .ps.prolog
/gs  { gsave } bind def
/gr  { grestore } bind def
/ep  { showpage gr gr } bind def
/m   { moveto } bind def
/l  { rlineto } bind def
/np  { newpath } bind def
/cp  { closepath } bind def
/f   { fill } bind def
/o   { stroke } bind def
/c   { newpath 0 360 arc } bind def
/r   { 4 2 roll moveto 1 copy 3 -1 roll exch 0 exch rlineto 0 rlineto -1 mul 0 exch rlineto closepath } bind def
/p1  { stroke } bind def
/p2  { gsave bg fill grestore newpath } bind def
/p3  { gsave bg fill grestore stroke } bind def
/p6  { gsave bg eofill grestore newpath } bind def
/p7  { gsave bg eofill grestore stroke } bind def
/t   { 5 -2 roll moveto gsave rotate
       1 index stringwidth pop
       mul neg 0 rmoveto show grestore } bind def
/ta  { 4 -2 roll moveto gsave rotate show } bind def
/tb  { 2 -1 roll 0 rmoveto show } bind def
/cl  { grestore gsave newpath 3 index 3 index moveto 1 index
       4 -1 roll lineto  exch 1 index lineto lineto
       closepath clip newpath } bind def
/rgb { setrgbcolor } bind def
/s   { scalefont setfont } bind def
% end   .ps.prolog
/sRGB { [ /CIEBasedABC
          << /DecodeLMN
               [ { dup 0.03928 le
                        {12.92321 div}
                        {0.055 add 1.055 div 2.4 exp }
                     ifelse
                 } bind dup dup
               ]
             /MatrixLMN [0.412457 0.212673 0.019334
                         0.357576 0.715152 0.119192
                         0.180437 0.072175 0.950301]
             /WhitePoint [0.9505 1.0 1.0890]
           >>
         ] setcolorspace } bind def
/srgb { setcolor } bind def
%%IncludeResource: font Helvetica
/Helvetica findfont
dup length dict begin
  {1 index /FID ne {def} {pop pop} ifelse} forall
  /Encoding ISOLatin1Encoding def
  currentdict
  end
/Font1 exch definefont pop
%%IncludeResource: font Helvetica-Bold
/Helvetica-Bold findfont
dup length dict begin
  {1 index /FID ne {def} {pop pop} ifelse} forall
  /Encoding ISOLatin1Encoding def
  currentdict
  end
/Font2 exch definefont pop
%%IncludeResource: font Helvetica-Oblique
/Helvetica-Oblique findfont
dup length dict begin
  {1 index /FID ne {def} {pop pop} ifelse} forall
  /Encoding ISOLatin1Encoding def
  currentdict
  end
/Font3 exch definefont pop
%%IncludeResource: font Helvetica-BoldOblique
/Helvetica-BoldOblique findfont
dup length dict begin
  {1 index /FID ne {def} {pop pop} ifelse} forall
  /Encoding ISOLatin1Encoding def
  currentdict
  end
/Font4 exch definefont pop
%%IncludeResource: font Symbol
/Symbol findfont
dup length dict begin
  {1 index /FID ne {def} {pop pop} ifelse} forall
  currentdict
  end
/Font5 exch definefont pop
%%EndProlog
%%Page: 1 1
bp
0.00 0.00 283.46 212.60 cl
0.00 0.00 283.46 212.60 cl
0.00 0.00 283.46 212.60 cl
0.00 0.00 283.46 212.60 cl
0.00 0.00 283.46 212.60 cl
0.00 0.00 283.46 212.60 cl
0.00 0.00 283.46 212.60 cl
0.00 0.00 283.46 212.60 cl
0.00 0.00 283.46 212.60 cl
0.00 0.00 283.46 212.60 cl
/bg { 1 1 1 srgb } def
1 1 1 srgb
1.07 setlinewidth
[] 0 setdash
1 setlinecap
1 setlinejoin
10.00 setmiterlimit
0.00 0.00 283.46 212.60 r p3
0.00 0.00 283.46 212.60 cl
0.00 0.00 283.46 212.60 cl
0.00 0.00 283.46 212.60 cl
32.71 34.33 277.49 169.77 cl
/bg { 1 1 1 srgb } def
32.71 34.33 244.78 135.44 r p2
0.9804 0.9804 0.9804 srgb
1.07 setlinewidth
[] 0 setdash
0 setlinecap
1 setlinejoin
10.00 setmiterlimit
np
32.71 57.65 m
244.78 0 l
o
np
32.71 91.99 m
244.78 0 l
o
np
32.71 126.33 m
244.78 0 l
o
np
32.71 160.67 m
244.78 0 l
o
0.8980 0.8980 0.8980 srgb
0.43 setlinewidth
[] 0 setdash
np
32.71 40.48 m
244.78 0 l
o
np
32.71 74.82 m
244.78 0 l
o
np
32.71 109.16 m
244.78 0 l
o
np
32.71 143.50 m
244.78 0 l
o
np
39.32 34.33 m
0 135.44 l
o
np
50.35 34.33 m
0 135.44 l
o
np
61.37 34.33 m
0 135.44 l
o
np
72.40 34.33 m
0 135.44 l
o
np
83.43 34.33 m
0 135.44 l
o
np
94.45 34.33 m
0 135.44 l
o
np
105.48 34.33 m
0 135.44 l
o
np
116.51 34.33 m
0 135.44 l
o
np
127.53 34.33 m
0 135.44 l
o
np
138.56 34.33 m
0 135.44 l
o
np
149.58 34.33 m
0 135.44 l
o
np
160.61 34.33 m
0 135.44 l
o
np
171.64 34.33 m
0 135.44 l
o
np
182.66 34.33 m
0 135.44 l
o
np
193.69 34.33 m
0 135.44 l
o
np
204.71 34.33 m
0 135.44 l
o
np
215.74 34.33 m
0 135.44 l
o
np
226.77 34.33 m
0 135.44 l
o
np
237.79 34.33 m
0 135.44 l
o
np
248.82 34.33 m
0 135.44 l
o
np
259.85 34.33 m
0 135.44 l
o
np
270.87 34.33 m
0 135.44 l
o
/bg { 0.8000 0.8000 0.8000 srgb } def
0 0 0 srgb
1.07 setlinewidth
[] 0 setdash
39.32 40.48 2.76 80.97 r p3
/bg { 0.2000 0.2000 0.2000 srgb } def
36.57 40.48 2.76 85.78 r p3
/bg { 0.8000 0.8000 0.8000 srgb } def
50.35 40.48 2.76 90.88 r p3
/bg { 0.2000 0.2000 0.2000 srgb } def
47.59 40.48 2.76 94.72 r p3
/bg { 0.8000 0.8000 0.8000 srgb } def
61.37 40.48 2.76 74.43 r p3
/bg { 0.2000 0.2000 0.2000 srgb } def
58.62 40.48 2.76 84.97 r p3
/bg { 0.8000 0.8000 0.8000 srgb } def
72.40 40.48 2.76 84.23 r p3
/bg { 0.2000 0.2000 0.2000 srgb } def
69.64 40.48 2.76 91.87 r p3
/bg { 0.8000 0.8000 0.8000 srgb } def
83.43 40.48 2.76 94.57 r p3
/bg { 0.2000 0.2000 0.2000 srgb } def
80.67 40.48 2.76 95.97 r p3
/bg { 0.8000 0.8000 0.8000 srgb } def
94.45 40.48 2.76 84.74 r p3
/bg { 0.2000 0.2000 0.2000 srgb } def
91.70 40.48 2.76 98.62 r p3
/bg { 0.8000 0.8000 0.8000 srgb } def
105.48 40.48 2.76 71.04 r p3
/bg { 0.2000 0.2000 0.2000 srgb } def
102.72 40.48 2.76 73.21 r p3
/bg { 0.8000 0.8000 0.8000 srgb } def
116.51 40.48 2.76 80.68 r p3
/bg { 0.2000 0.2000 0.2000 srgb } def
113.75 40.48 2.76 83.30 r p3
/bg { 0.8000 0.8000 0.8000 srgb } def
127.53 40.48 2.76 64.22 r p3
/bg { 0.2000 0.2000 0.2000 srgb } def
124.77 40.48 2.76 67.92 r p3
/bg { 0.8000 0.8000 0.8000 srgb } def
138.56 40.48 2.76 55.91 r p3
/bg { 0.2000 0.2000 0.2000 srgb } def
135.80 40.48 2.76 60.58 r p3
/bg { 0.8000 0.8000 0.8000 srgb } def
149.58 40.48 2.76 83.17 r p3
/bg { 0.2000 0.2000 0.2000 srgb } def
146.83 40.48 2.76 89.29 r p3
/bg { 0.8000 0.8000 0.8000 srgb } def
160.61 40.48 2.76 92.11 r p3
/bg { 0.2000 0.2000 0.2000 srgb } def
157.85 40.48 2.76 99.83 r p3
/bg { 0.8000 0.8000 0.8000 srgb } def
171.64 40.48 2.76 105.20 r p3
/bg { 0.2000 0.2000 0.2000 srgb } def
168.88 40.48 2.76 123.13 r p3
/bg { 0.8000 0.8000 0.8000 srgb } def
182.66 40.48 2.76 100.79 r p3
/bg { 0.2000 0.2000 0.2000 srgb } def
179.91 40.48 2.76 107.18 r p3
/bg { 0.8000 0.8000 0.8000 srgb } def
193.69 40.48 2.76 73.55 r p3
/bg { 0.2000 0.2000 0.2000 srgb } def
190.93 40.48 2.76 77.58 r p3
/bg { 0.8000 0.8000 0.8000 srgb } def
204.71 40.48 2.76 34.71 r p3
/bg { 0.2000 0.2000 0.2000 srgb } def
201.96 40.48 2.76 47.27 r p3
/bg { 0.8000 0.8000 0.8000 srgb } def
215.74 40.48 2.76 8.74 r p3
/bg { 0.2000 0.2000 0.2000 srgb } def
212.98 40.48 2.76 37.18 r p3
/bg { 0.8000 0.8000 0.8000 srgb } def
226.77 40.48 2.76 71.47 r p3
/bg { 0.2000 0.2000 0.2000 srgb } def
224.01 40.48 2.76 76.59 r p3
/bg { 0.8000 0.8000 0.8000 srgb } def
237.79 40.48 2.76 70.35 r p3
/bg { 0.2000 0.2000 0.2000 srgb } def
235.04 40.48 2.76 83.22 r p3
/bg { 0.8000 0.8000 0.8000 srgb } def
248.82 40.48 2.76 52.63 r p3
/bg { 0.2000 0.2000 0.2000 srgb } def
246.06 40.48 2.76 61.33 r p3
/bg { 0.8000 0.8000 0.8000 srgb } def
259.85 40.48 2.76 59.61 r p3
/bg { 0.2000 0.2000 0.2000 srgb } def
257.09 40.48 2.76 64.53 r p3
/bg { 0.8000 0.8000 0.8000 srgb } def
270.87 40.48 2.76 86.32 r p3
/bg { 0.2000 0.2000 0.2000 srgb } def
268.11 40.48 2.76 91.38 r p3
0.4980 0.4980 0.4980 srgb
1 setlinecap
32.71 34.33 244.78 135.44 r p1
0.00 0.00 283.46 212.60 cl
0.00 0.00 283.46 212.60 cl
0.00 0.00 283.46 212.60 cl
0.00 0.00 283.46 212.60 cl
0.00 0.00 283.46 212.60 cl
0.00 0.00 283.46 212.60 cl
/Font1 findfont 10 s
0 0 0 srgb
27.33 36.89 (0) 1 0 t
27.33 71.23 (1) 1 0 t
27.33 105.57 (2) 1 0 t
27.33 139.91 (3) 1 0 t
0.00 0.00 283.46 212.60 cl
0.00 0.00 283.46 212.60 cl
0 0 0 srgb
1.07 setlinewidth
[] 0 setdash
0 setlinecap
1 setlinejoin
10.00 setmiterlimit
np
29.72 40.48 m
2.99 0 l
o
np
29.72 74.82 m
2.99 0 l
o
np
29.72 109.16 m
2.99 0 l
o
np
29.72 143.50 m
2.99 0 l
o
0.00 0.00 283.46 212.60 cl
0.00 0.00 283.46 212.60 cl
0.00 0.00 283.46 212.60 cl
0.00 0.00 283.46 212.60 cl
0.00 0.00 283.46 212.60 cl
0.00 0.00 283.46 212.60 cl
0.00 0.00 283.46 212.60 cl
0.00 0.00 283.46 212.60 cl
0 0 0 srgb
1.07 setlinewidth
[] 0 setdash
0 setlinecap
1 setlinejoin
10.00 setmiterlimit
np
39.32 31.34 m
0 2.99 l
o
np
50.35 31.34 m
0 2.99 l
o
np
61.37 31.34 m
0 2.99 l
o
np
72.40 31.34 m
0 2.99 l
o
np
83.43 31.34 m
0 2.99 l
o
np
94.45 31.34 m
0 2.99 l
o
np
105.48 31.34 m
0 2.99 l
o
np
116.51 31.34 m
0 2.99 l
o
np
127.53 31.34 m
0 2.99 l
o
np
138.56 31.34 m
0 2.99 l
o
np
149.58 31.34 m
0 2.99 l
o
np
160.61 31.34 m
0 2.99 l
o
np
171.64 31.34 m
0 2.99 l
o
np
182.66 31.34 m
0 2.99 l
o
np
193.69 31.34 m
0 2.99 l
o
np
204.71 31.34 m
0 2.99 l
o
np
215.74 31.34 m
0 2.99 l
o
np
226.77 31.34 m
0 2.99 l
o
np
237.79 31.34 m
0 2.99 l
o
np
248.82 31.34 m
0 2.99 l
o
np
259.85 31.34 m
0 2.99 l
o
np
270.87 31.34 m
0 2.99 l
o
0.00 0.00 283.46 212.60 cl
0.00 0.00 283.46 212.60 cl
/Font1 findfont 10 s
0 0 0 srgb
39.32 21.77 (1) .5 0 t
50.35 21.77 (2) .5 0 t
61.37 21.77 (3) .5 0 t
72.40 21.77 (4) .5 0 t
83.43 21.77 (5) .5 0 t
94.45 21.77 (6) .5 0 t
105.48 21.77 (7) .5 0 t
116.51 21.77 (8) .5 0 t
127.53 21.77 (9) .5 0 t
138.56 21.77 (10) .5 0 t
149.58 21.77 (11) .5 0 t
160.61 21.77 (12) .5 0 t
171.64 21.77 (13) .5 0 t
182.66 21.77 (15) .5 0 t
193.69 21.77 (16) .5 0 t
204.71 21.77 (18) .5 0 t
215.74 21.77 (19) .5 0 t
226.77 21.77 (20) .5 0 t
237.79 21.77 (21) .5 0 t
248.82 21.77 (22) .5 0 t
259.85 21.77 (23) .5 0 t
270.87 21.77 (24) .5 0 t
0.00 0.00 283.46 212.60 cl
0.00 0.00 283.46 212.60 cl
0.00 0.00 283.46 212.60 cl
0.00 0.00 283.46 212.60 cl
/Font1 findfont 12 s
0 0 0 srgb
155.10 8.37 (cluster) .5 0 t
0.00 0.00 283.46 212.60 cl
0.00 0.00 283.46 212.60 cl
/Font1 findfont 12 s
0 0 0 srgb
16.98 44.69 (negativ) 90 ta
-0.300 (e loglik) tb
-0.240 (elihood) tb gr
0.00 0.00 283.46 212.60 cl
0.00 0.00 283.46 212.60 cl
0.00 0.00 283.46 212.60 cl
0.00 0.00 283.46 212.60 cl
/bg { 1 1 1 srgb } def
96.93 178.27 116.34 19.84 r p2
0.00 0.00 283.46 212.60 cl
0.00 0.00 283.46 212.60 cl
0.00 0.00 283.46 212.60 cl
0.00 0.00 283.46 212.60 cl
0.00 0.00 283.46 212.60 cl
0.00 0.00 283.46 212.60 cl
/bg { 0.2000 0.2000 0.2000 srgb } def
0 0 0 srgb
1.07 setlinewidth
[] 0 setdash
1 setlinecap
0 setlinejoin
10.00 setmiterlimit
106.21 183.24 9.92 9.92 r p3
0.00 0.00 283.46 212.60 cl
0.00 0.00 283.46 212.60 cl
0.00 0.00 283.46 212.60 cl
0.00 0.00 283.46 212.60 cl
/bg { 0.8000 0.8000 0.8000 srgb } def
0 0 0 srgb
1.07 setlinewidth
[] 0 setdash
1 setlinecap
0 setlinejoin
10.00 setmiterlimit
151.88 183.24 9.92 9.92 r p3
0.00 0.00 283.46 212.60 cl
0.00 0.00 283.46 212.60 cl
/Font1 findfont 10 s
0 0 0 srgb
119.00 184.61 (gomez) 0 0 t
0.00 0.00 283.46 212.60 cl
0.00 0.00 283.46 212.60 cl
/Font1 findfont 10 s
0 0 0 srgb
164.67 184.61 (lumbrer) 0 ta
-0.100 (as) tb gr
0.00 0.00 283.46 212.60 cl
0.00 0.00 283.46 212.60 cl
0.00 0.00 283.46 212.60 cl
0.00 0.00 283.46 212.60 cl
0.00 0.00 283.46 212.60 cl
0.00 0.00 283.46 212.60 cl
ep
%%Trailer
%%Pages: 1
%%EOF
