%!PS-Adobe-3.0 EPSF-3.0
%%DocumentNeededResources: font Helvetica
%%+ font Helvetica-Bold
%%+ font Helvetica-Oblique
%%+ font Helvetica-BoldOblique
%%+ font Symbol
%%Title: R Graphics Output
%%Creator: R Software
%%Pages: (atend)
%%BoundingBox: 0 0 595 213
%%EndComments
%%BeginProlog
/bp  { gs sRGB gs } def
% begin .ps.prolog
/gs  { gsave } bind def
/gr  { grestore } bind def
/ep  { showpage gr gr } bind def
/m   { moveto } bind def
/l  { rlineto } bind def
/np  { newpath } bind def
/cp  { closepath } bind def
/f   { fill } bind def
/o   { stroke } bind def
/c   { newpath 0 360 arc } bind def
/r   { 4 2 roll moveto 1 copy 3 -1 roll exch 0 exch rlineto 0 rlineto -1 mul 0 exch rlineto closepath } bind def
/p1  { stroke } bind def
/p2  { gsave bg fill grestore newpath } bind def
/p3  { gsave bg fill grestore stroke } bind def
/p6  { gsave bg eofill grestore newpath } bind def
/p7  { gsave bg eofill grestore stroke } bind def
/t   { 5 -2 roll moveto gsave rotate
       1 index stringwidth pop
       mul neg 0 rmoveto show grestore } bind def
/ta  { 4 -2 roll moveto gsave rotate show } bind def
/tb  { 2 -1 roll 0 rmoveto show } bind def
/cl  { grestore gsave newpath 3 index 3 index moveto 1 index
       4 -1 roll lineto  exch 1 index lineto lineto
       closepath clip newpath } bind def
/rgb { setrgbcolor } bind def
/s   { scalefont setfont } bind def
% end   .ps.prolog
/sRGB { [ /CIEBasedABC
          << /DecodeLMN
               [ { dup 0.03928 le
                        {12.92321 div}
                        {0.055 add 1.055 div 2.4 exp }
                     ifelse
                 } bind dup dup
               ]
             /MatrixLMN [0.412457 0.212673 0.019334
                         0.357576 0.715152 0.119192
                         0.180437 0.072175 0.950301]
             /WhitePoint [0.9505 1.0 1.0890]
           >>
         ] setcolorspace } bind def
/srgb { setcolor } bind def
%%IncludeResource: font Helvetica
/Helvetica findfont
dup length dict begin
  {1 index /FID ne {def} {pop pop} ifelse} forall
  /Encoding ISOLatin1Encoding def
  currentdict
  end
/Font1 exch definefont pop
%%IncludeResource: font Helvetica-Bold
/Helvetica-Bold findfont
dup length dict begin
  {1 index /FID ne {def} {pop pop} ifelse} forall
  /Encoding ISOLatin1Encoding def
  currentdict
  end
/Font2 exch definefont pop
%%IncludeResource: font Helvetica-Oblique
/Helvetica-Oblique findfont
dup length dict begin
  {1 index /FID ne {def} {pop pop} ifelse} forall
  /Encoding ISOLatin1Encoding def
  currentdict
  end
/Font3 exch definefont pop
%%IncludeResource: font Helvetica-BoldOblique
/Helvetica-BoldOblique findfont
dup length dict begin
  {1 index /FID ne {def} {pop pop} ifelse} forall
  /Encoding ISOLatin1Encoding def
  currentdict
  end
/Font4 exch definefont pop
%%IncludeResource: font Symbol
/Symbol findfont
dup length dict begin
  {1 index /FID ne {def} {pop pop} ifelse} forall
  currentdict
  end
/Font5 exch definefont pop
%%EndProlog
%%Page: 1 1
bp
0.00 0.00 595.28 212.60 cl
0.00 0.00 595.28 212.60 cl
0.00 0.00 595.28 212.60 cl
0.00 0.00 595.28 212.60 cl
0.00 0.00 595.28 212.60 cl
0.00 0.00 595.28 212.60 cl
0.00 0.00 595.28 212.60 cl
0.00 0.00 595.28 212.60 cl
0.00 0.00 595.28 212.60 cl
0.00 0.00 595.28 212.60 cl
/bg { 1 1 1 srgb } def
1 1 1 srgb
1.07 setlinewidth
[] 0 setdash
1 setlinecap
1 setlinejoin
10.00 setmiterlimit
0.00 0.00 595.28 212.60 r p3
0.00 0.00 595.28 212.60 cl
0.00 0.00 595.28 212.60 cl
0.00 0.00 595.28 212.60 cl
46.61 34.33 589.30 169.77 cl
/bg { 1 1 1 srgb } def
46.61 34.33 542.69 135.44 r p2
0.9804 0.9804 0.9804 srgb
1.07 setlinewidth
[] 0 setdash
0 setlinecap
1 setlinejoin
10.00 setmiterlimit
np
46.61 56.92 m
542.69 0 l
o
np
46.61 89.79 m
542.69 0 l
o
np
46.61 122.66 m
542.69 0 l
o
np
46.61 155.53 m
542.69 0 l
o
0.8980 0.8980 0.8980 srgb
0.43 setlinewidth
[] 0 setdash
np
46.61 40.48 m
542.69 0 l
o
np
46.61 73.35 m
542.69 0 l
o
np
46.61 106.23 m
542.69 0 l
o
np
46.61 139.10 m
542.69 0 l
o
np
68.03 34.33 m
0 135.44 l
o
np
103.73 34.33 m
0 135.44 l
o
np
139.44 34.33 m
0 135.44 l
o
np
175.14 34.33 m
0 135.44 l
o
np
210.84 34.33 m
0 135.44 l
o
np
246.55 34.33 m
0 135.44 l
o
np
282.25 34.33 m
0 135.44 l
o
np
317.95 34.33 m
0 135.44 l
o
np
353.66 34.33 m
0 135.44 l
o
np
389.36 34.33 m
0 135.44 l
o
np
425.06 34.33 m
0 135.44 l
o
np
460.77 34.33 m
0 135.44 l
o
np
496.47 34.33 m
0 135.44 l
o
np
532.17 34.33 m
0 135.44 l
o
np
567.88 34.33 m
0 135.44 l
o
/bg { 0.8431 0.1882 0.1216 srgb } def
0 0 0 srgb
1.07 setlinewidth
[] 0 setdash
76.06 40.48 8.03 57.07 r p3
/bg { 0.9882 0.5529 0.3490 srgb } def
68.03 40.48 8.03 57.07 r p3
/bg { 0.9961 0.9412 0.8510 srgb } def
51.96 40.48 8.03 56.72 r p3
/bg { 0.9922 0.8000 0.5412 srgb } def
60.00 40.48 8.03 25.36 r p3
/bg { 0.8431 0.1882 0.1216 srgb } def
111.77 40.48 8.03 77.33 r p3
/bg { 0.9882 0.5529 0.3490 srgb } def
103.73 40.48 8.03 77.33 r p3
/bg { 0.9961 0.9412 0.8510 srgb } def
87.67 40.48 8.03 76.80 r p3
/bg { 0.9922 0.8000 0.5412 srgb } def
95.70 40.48 8.03 16.88 r p3
/bg { 0.8431 0.1882 0.1216 srgb } def
147.47 40.48 8.03 43.88 r p3
/bg { 0.9882 0.5529 0.3490 srgb } def
139.44 40.48 8.03 43.88 r p3
/bg { 0.9961 0.9412 0.8510 srgb } def
123.37 40.48 8.03 43.71 r p3
/bg { 0.9922 0.8000 0.5412 srgb } def
131.40 40.48 8.03 17.39 r p3
/bg { 0.8431 0.1882 0.1216 srgb } def
183.17 40.48 8.03 39.55 r p3
/bg { 0.9882 0.5529 0.3490 srgb } def
175.14 40.48 8.03 39.55 r p3
/bg { 0.9961 0.9412 0.8510 srgb } def
159.07 40.48 8.03 39.24 r p3
/bg { 0.9922 0.8000 0.5412 srgb } def
167.11 40.48 8.03 31.14 r p3
/bg { 0.8431 0.1882 0.1216 srgb } def
218.88 40.48 8.03 47.80 r p3
/bg { 0.9882 0.5529 0.3490 srgb } def
210.84 40.48 8.03 47.80 r p3
/bg { 0.9961 0.9412 0.8510 srgb } def
194.78 40.48 8.03 47.59 r p3
/bg { 0.9922 0.8000 0.5412 srgb } def
202.81 40.48 8.03 12.67 r p3
/bg { 0.8431 0.1882 0.1216 srgb } def
254.58 40.48 8.03 123.13 r p3
/bg { 0.9882 0.5529 0.3490 srgb } def
246.55 40.48 8.03 123.13 r p3
/bg { 0.9961 0.9412 0.8510 srgb } def
230.48 40.48 8.03 122.46 r p3
/bg { 0.9922 0.8000 0.5412 srgb } def
238.51 40.48 8.03 1.61 r p3
/bg { 0.8431 0.1882 0.1216 srgb } def
290.28 40.48 8.03 93.20 r p3
/bg { 0.9882 0.5529 0.3490 srgb } def
282.25 40.48 8.03 93.20 r p3
/bg { 0.9961 0.9412 0.8510 srgb } def
266.18 40.48 8.03 92.84 r p3
/bg { 0.9922 0.8000 0.5412 srgb } def
274.22 40.48 8.03 7.70 r p3
/bg { 0.8431 0.1882 0.1216 srgb } def
325.99 40.48 8.03 62.49 r p3
/bg { 0.9882 0.5529 0.3490 srgb } def
317.95 40.48 8.03 62.49 r p3
/bg { 0.9961 0.9412 0.8510 srgb } def
301.89 40.48 8.03 62.20 r p3
/bg { 0.9922 0.8000 0.5412 srgb } def
309.92 40.48 8.03 9.63 r p3
/bg { 0.8431 0.1882 0.1216 srgb } def
361.69 40.48 8.03 61.76 r p3
/bg { 0.9882 0.5529 0.3490 srgb } def
353.66 40.48 8.03 61.76 r p3
/bg { 0.9961 0.9412 0.8510 srgb } def
337.59 40.48 8.03 61.44 r p3
/bg { 0.9922 0.8000 0.5412 srgb } def
345.62 40.48 8.03 16.51 r p3
/bg { 0.8431 0.1882 0.1216 srgb } def
397.39 40.48 8.03 50.97 r p3
/bg { 0.9882 0.5529 0.3490 srgb } def
389.36 40.48 8.03 41.85 r p3
/bg { 0.9961 0.9412 0.8510 srgb } def
373.29 40.48 8.03 41.69 r p3
/bg { 0.9922 0.8000 0.5412 srgb } def
381.33 40.48 8.03 43.54 r p3
/bg { 0.8431 0.1882 0.1216 srgb } def
433.10 40.48 8.03 30.08 r p3
/bg { 0.9882 0.5529 0.3490 srgb } def
425.06 40.48 8.03 30.08 r p3
/bg { 0.9961 0.9412 0.8510 srgb } def
409.00 40.48 8.03 29.93 r p3
/bg { 0.9922 0.8000 0.5412 srgb } def
417.03 40.48 8.03 25.42 r p3
/bg { 0.8431 0.1882 0.1216 srgb } def
468.80 40.48 8.03 49.42 r p3
/bg { 0.9882 0.5529 0.3490 srgb } def
460.77 40.48 8.03 20.21 r p3
/bg { 0.9961 0.9412 0.8510 srgb } def
444.70 40.48 8.03 20.17 r p3
/bg { 0.9922 0.8000 0.5412 srgb } def
452.73 40.48 8.03 49.41 r p3
/bg { 0.8431 0.1882 0.1216 srgb } def
504.50 40.48 8.03 32.12 r p3
/bg { 0.9882 0.5529 0.3490 srgb } def
496.47 40.48 8.03 32.12 r p3
/bg { 0.9961 0.9412 0.8510 srgb } def
480.40 40.48 8.03 32.05 r p3
/bg { 0.9922 0.8000 0.5412 srgb } def
488.44 40.48 8.03 23.13 r p3
/bg { 0.8431 0.1882 0.1216 srgb } def
540.21 40.48 8.03 32.43 r p3
/bg { 0.9882 0.5529 0.3490 srgb } def
532.17 40.48 8.03 32.43 r p3
/bg { 0.9961 0.9412 0.8510 srgb } def
516.11 40.48 8.03 32.24 r p3
/bg { 0.9922 0.8000 0.5412 srgb } def
524.14 40.48 8.03 7.52 r p3
/bg { 0.8431 0.1882 0.1216 srgb } def
575.91 40.48 8.03 26.08 r p3
/bg { 0.9882 0.5529 0.3490 srgb } def
567.88 40.48 8.03 26.08 r p3
/bg { 0.9961 0.9412 0.8510 srgb } def
551.81 40.48 8.03 25.88 r p3
/bg { 0.9922 0.8000 0.5412 srgb } def
559.84 40.48 8.03 19.85 r p3
0.4980 0.4980 0.4980 srgb
1 setlinecap
46.61 34.33 542.69 135.44 r p1
0.00 0.00 595.28 212.60 cl
0.00 0.00 595.28 212.60 cl
0.00 0.00 595.28 212.60 cl
0.00 0.00 595.28 212.60 cl
0.00 0.00 595.28 212.60 cl
0.00 0.00 595.28 212.60 cl
/Font1 findfont 10 s
0 0 0 srgb
41.23 36.89 (0.00) 1 0 t
41.23 69.76 (0.25) 1 0 t
41.23 102.64 (0.50) 1 0 t
41.23 135.51 (0.75) 1 0 t
0.00 0.00 595.28 212.60 cl
0.00 0.00 595.28 212.60 cl
0 0 0 srgb
1.07 setlinewidth
[] 0 setdash
0 setlinecap
1 setlinejoin
10.00 setmiterlimit
np
43.62 40.48 m
2.99 0 l
o
np
43.62 73.35 m
2.99 0 l
o
np
43.62 106.23 m
2.99 0 l
o
np
43.62 139.10 m
2.99 0 l
o
0.00 0.00 595.28 212.60 cl
0.00 0.00 595.28 212.60 cl
0.00 0.00 595.28 212.60 cl
0.00 0.00 595.28 212.60 cl
0.00 0.00 595.28 212.60 cl
0.00 0.00 595.28 212.60 cl
0.00 0.00 595.28 212.60 cl
0.00 0.00 595.28 212.60 cl
0 0 0 srgb
1.07 setlinewidth
[] 0 setdash
0 setlinecap
1 setlinejoin
10.00 setmiterlimit
np
68.03 31.34 m
0 2.99 l
o
np
103.73 31.34 m
0 2.99 l
o
np
139.44 31.34 m
0 2.99 l
o
np
175.14 31.34 m
0 2.99 l
o
np
210.84 31.34 m
0 2.99 l
o
np
246.55 31.34 m
0 2.99 l
o
np
282.25 31.34 m
0 2.99 l
o
np
317.95 31.34 m
0 2.99 l
o
np
353.66 31.34 m
0 2.99 l
o
np
389.36 31.34 m
0 2.99 l
o
np
425.06 31.34 m
0 2.99 l
o
np
460.77 31.34 m
0 2.99 l
o
np
496.47 31.34 m
0 2.99 l
o
np
532.17 31.34 m
0 2.99 l
o
np
567.88 31.34 m
0 2.99 l
o
0.00 0.00 595.28 212.60 cl
0.00 0.00 595.28 212.60 cl
/Font1 findfont 10 s
0 0 0 srgb
68.03 21.77 (1) .5 0 t
103.73 21.77 (2) .5 0 t
139.44 21.77 (3) .5 0 t
175.14 21.77 (4) .5 0 t
210.84 21.77 (5) .5 0 t
246.55 21.77 (6) .5 0 t
282.25 21.77 (7) .5 0 t
317.95 21.77 (8) .5 0 t
353.66 21.77 (9) .5 0 t
389.36 21.77 (10) .5 0 t
425.06 21.77 (11) .5 0 t
460.77 21.77 (12) .5 0 t
496.47 21.77 (13) .5 0 t
532.17 21.77 (14) .5 0 t
567.88 21.77 (15) .5 0 t
0.00 0.00 595.28 212.60 cl
0.00 0.00 595.28 212.60 cl
0.00 0.00 595.28 212.60 cl
0.00 0.00 595.28 212.60 cl
/Font1 findfont 12 s
0 0 0 srgb
317.95 8.37 (cluster) .5 0 t
0.00 0.00 595.28 212.60 cl
0.00 0.00 595.28 212.60 cl
/Font1 findfont 12 s
0 0 0 srgb
16.98 102.05 (hits) .5 90 t
0.00 0.00 595.28 212.60 cl
0.00 0.00 595.28 212.60 cl
0.00 0.00 595.28 212.60 cl
0.00 0.00 595.28 212.60 cl
/bg { 1 1 1 srgb } def
218.05 178.27 199.81 19.84 r p2
0.00 0.00 595.28 212.60 cl
0.00 0.00 595.28 212.60 cl
0.00 0.00 595.28 212.60 cl
0.00 0.00 595.28 212.60 cl
0.00 0.00 595.28 212.60 cl
0.00 0.00 595.28 212.60 cl
/bg { 0.9961 0.9412 0.8510 srgb } def
0 0 0 srgb
1.07 setlinewidth
[] 0 setdash
1 setlinecap
0 setlinejoin
10.00 setmiterlimit
227.33 183.24 9.92 9.92 r p3
0.00 0.00 595.28 212.60 cl
0.00 0.00 595.28 212.60 cl
0.00 0.00 595.28 212.60 cl
0.00 0.00 595.28 212.60 cl
/bg { 0.9922 0.8000 0.5412 srgb } def
0 0 0 srgb
1.07 setlinewidth
[] 0 setdash
1 setlinecap
0 setlinejoin
10.00 setmiterlimit
281.24 183.24 9.92 9.92 r p3
0.00 0.00 595.28 212.60 cl
0.00 0.00 595.28 212.60 cl
0.00 0.00 595.28 212.60 cl
0.00 0.00 595.28 212.60 cl
/bg { 0.9882 0.5529 0.3490 srgb } def
0 0 0 srgb
1.07 setlinewidth
[] 0 setdash
1 setlinecap
0 setlinejoin
10.00 setmiterlimit
310.80 183.24 9.92 9.92 r p3
0.00 0.00 595.28 212.60 cl
0.00 0.00 595.28 212.60 cl
0.00 0.00 595.28 212.60 cl
0.00 0.00 595.28 212.60 cl
/bg { 0.8431 0.1882 0.1216 srgb } def
0 0 0 srgb
1.07 setlinewidth
[] 0 setdash
1 setlinecap
0 setlinejoin
10.00 setmiterlimit
356.46 183.24 9.92 9.92 r p3
0.00 0.00 595.28 212.60 cl
0.00 0.00 595.28 212.60 cl
/Font1 findfont 10 s
0 0 0 srgb
240.12 184.61 (bar) 0 ta
-0.100 (abasi) tb gr
0.00 0.00 595.28 212.60 cl
0.00 0.00 595.28 212.60 cl
/Font1 findfont 10 s
0 0 0 srgb
294.03 184.61 (tau) 0 0 t
0.00 0.00 595.28 212.60 cl
0.00 0.00 595.28 212.60 cl
/Font1 findfont 10 s
0 0 0 srgb
323.59 184.61 (gomez) 0 0 t
0.00 0.00 595.28 212.60 cl
0.00 0.00 595.28 212.60 cl
/Font1 findfont 10 s
0 0 0 srgb
369.25 184.61 (lumbrer) 0 ta
-0.100 (as) tb gr
0.00 0.00 595.28 212.60 cl
0.00 0.00 595.28 212.60 cl
0.00 0.00 595.28 212.60 cl
0.00 0.00 595.28 212.60 cl
0.00 0.00 595.28 212.60 cl
0.00 0.00 595.28 212.60 cl
ep
%%Trailer
%%Pages: 1
%%EOF
