%!PS-Adobe-3.0 EPSF-3.0
%%DocumentNeededResources: font Helvetica
%%+ font Helvetica-Bold
%%+ font Helvetica-Oblique
%%+ font Helvetica-BoldOblique
%%+ font Symbol
%%Title: R Graphics Output
%%Creator: R Software
%%Pages: (atend)
%%BoundingBox: 0 0 595 213
%%EndComments
%%BeginProlog
/bp  { gs sRGB gs } def
% begin .ps.prolog
/gs  { gsave } bind def
/gr  { grestore } bind def
/ep  { showpage gr gr } bind def
/m   { moveto } bind def
/l  { rlineto } bind def
/np  { newpath } bind def
/cp  { closepath } bind def
/f   { fill } bind def
/o   { stroke } bind def
/c   { newpath 0 360 arc } bind def
/r   { 4 2 roll moveto 1 copy 3 -1 roll exch 0 exch rlineto 0 rlineto -1 mul 0 exch rlineto closepath } bind def
/p1  { stroke } bind def
/p2  { gsave bg fill grestore newpath } bind def
/p3  { gsave bg fill grestore stroke } bind def
/p6  { gsave bg eofill grestore newpath } bind def
/p7  { gsave bg eofill grestore stroke } bind def
/t   { 5 -2 roll moveto gsave rotate
       1 index stringwidth pop
       mul neg 0 rmoveto show grestore } bind def
/ta  { 4 -2 roll moveto gsave rotate show } bind def
/tb  { 2 -1 roll 0 rmoveto show } bind def
/cl  { grestore gsave newpath 3 index 3 index moveto 1 index
       4 -1 roll lineto  exch 1 index lineto lineto
       closepath clip newpath } bind def
/rgb { setrgbcolor } bind def
/s   { scalefont setfont } bind def
% end   .ps.prolog
/sRGB { [ /CIEBasedABC
          << /DecodeLMN
               [ { dup 0.03928 le
                        {12.92321 div}
                        {0.055 add 1.055 div 2.4 exp }
                     ifelse
                 } bind dup dup
               ]
             /MatrixLMN [0.412457 0.212673 0.019334
                         0.357576 0.715152 0.119192
                         0.180437 0.072175 0.950301]
             /WhitePoint [0.9505 1.0 1.0890]
           >>
         ] setcolorspace } bind def
/srgb { setcolor } bind def
%%IncludeResource: font Helvetica
/Helvetica findfont
dup length dict begin
  {1 index /FID ne {def} {pop pop} ifelse} forall
  /Encoding ISOLatin1Encoding def
  currentdict
  end
/Font1 exch definefont pop
%%IncludeResource: font Helvetica-Bold
/Helvetica-Bold findfont
dup length dict begin
  {1 index /FID ne {def} {pop pop} ifelse} forall
  /Encoding ISOLatin1Encoding def
  currentdict
  end
/Font2 exch definefont pop
%%IncludeResource: font Helvetica-Oblique
/Helvetica-Oblique findfont
dup length dict begin
  {1 index /FID ne {def} {pop pop} ifelse} forall
  /Encoding ISOLatin1Encoding def
  currentdict
  end
/Font3 exch definefont pop
%%IncludeResource: font Helvetica-BoldOblique
/Helvetica-BoldOblique findfont
dup length dict begin
  {1 index /FID ne {def} {pop pop} ifelse} forall
  /Encoding ISOLatin1Encoding def
  currentdict
  end
/Font4 exch definefont pop
%%IncludeResource: font Symbol
/Symbol findfont
dup length dict begin
  {1 index /FID ne {def} {pop pop} ifelse} forall
  currentdict
  end
/Font5 exch definefont pop
%%EndProlog
%%Page: 1 1
bp
0.00 0.00 595.28 212.60 cl
0.00 0.00 595.28 212.60 cl
0.00 0.00 595.28 212.60 cl
0.00 0.00 595.28 212.60 cl
0.00 0.00 595.28 212.60 cl
0.00 0.00 595.28 212.60 cl
0.00 0.00 595.28 212.60 cl
0.00 0.00 595.28 212.60 cl
0.00 0.00 595.28 212.60 cl
0.00 0.00 595.28 212.60 cl
/bg { 1 1 1 srgb } def
1 1 1 srgb
1.07 setlinewidth
[] 0 setdash
1 setlinecap
1 setlinejoin
10.00 setmiterlimit
0.00 0.00 595.28 212.60 r p3
0.00 0.00 595.28 212.60 cl
0.00 0.00 595.28 212.60 cl
0.00 0.00 595.28 212.60 cl
41.05 34.33 589.30 169.77 cl
/bg { 1 1 1 srgb } def
41.05 34.33 548.25 135.44 r p2
0.9804 0.9804 0.9804 srgb
1.07 setlinewidth
[] 0 setdash
0 setlinecap
1 setlinejoin
10.00 setmiterlimit
np
41.05 57.31 m
548.25 0 l
o
np
41.05 90.96 m
548.25 0 l
o
np
41.05 124.60 m
548.25 0 l
o
np
41.05 158.25 m
548.25 0 l
o
0.8980 0.8980 0.8980 srgb
0.43 setlinewidth
[] 0 setdash
np
41.05 40.48 m
548.25 0 l
o
np
41.05 74.13 m
548.25 0 l
o
np
41.05 107.78 m
548.25 0 l
o
np
41.05 141.43 m
548.25 0 l
o
np
62.69 34.33 m
0 135.44 l
o
np
98.76 34.33 m
0 135.44 l
o
np
134.83 34.33 m
0 135.44 l
o
np
170.90 34.33 m
0 135.44 l
o
np
206.96 34.33 m
0 135.44 l
o
np
243.03 34.33 m
0 135.44 l
o
np
279.10 34.33 m
0 135.44 l
o
np
315.17 34.33 m
0 135.44 l
o
np
351.24 34.33 m
0 135.44 l
o
np
387.31 34.33 m
0 135.44 l
o
np
423.38 34.33 m
0 135.44 l
o
np
459.45 34.33 m
0 135.44 l
o
np
495.52 34.33 m
0 135.44 l
o
np
531.59 34.33 m
0 135.44 l
o
np
567.66 34.33 m
0 135.44 l
o
/bg { 0.8431 0.1882 0.1216 srgb } def
0 0 0 srgb
1.07 setlinewidth
[] 0 setdash
70.80 40.48 8.12 17.24 r p3
/bg { 0.9882 0.5529 0.3490 srgb } def
62.69 40.48 8.12 17.24 r p3
/bg { 0.9961 0.9412 0.8510 srgb } def
46.46 40.48 8.12 17.24 r p3
/bg { 0.9922 0.8000 0.5412 srgb } def
54.57 40.48 8.12 11.59 r p3
/bg { 0.8431 0.1882 0.1216 srgb } def
106.87 40.48 8.12 32.51 r p3
/bg { 0.9882 0.5529 0.3490 srgb } def
98.76 40.48 8.12 32.51 r p3
/bg { 0.9961 0.9412 0.8510 srgb } def
82.53 40.48 8.12 32.38 r p3
/bg { 0.9922 0.8000 0.5412 srgb } def
90.64 40.48 8.12 10.85 r p3
/bg { 0.8431 0.1882 0.1216 srgb } def
142.94 40.48 8.12 26.84 r p3
/bg { 0.9882 0.5529 0.3490 srgb } def
134.83 40.48 8.12 26.84 r p3
/bg { 0.9961 0.9412 0.8510 srgb } def
118.60 40.48 8.12 26.63 r p3
/bg { 0.9922 0.8000 0.5412 srgb } def
126.71 40.48 8.12 3.84 r p3
/bg { 0.8431 0.1882 0.1216 srgb } def
179.01 40.48 8.12 15.95 r p3
/bg { 0.9882 0.5529 0.3490 srgb } def
170.90 40.48 8.12 15.95 r p3
/bg { 0.9961 0.9412 0.8510 srgb } def
154.66 40.48 8.12 15.93 r p3
/bg { 0.9922 0.8000 0.5412 srgb } def
162.78 40.48 8.12 13.44 r p3
/bg { 0.8431 0.1882 0.1216 srgb } def
215.08 40.48 8.12 28.16 r p3
/bg { 0.9882 0.5529 0.3490 srgb } def
206.96 40.48 8.12 28.16 r p3
/bg { 0.9961 0.9412 0.8510 srgb } def
190.73 40.48 8.12 27.96 r p3
/bg { 0.9922 0.8000 0.5412 srgb } def
198.85 40.48 8.12 22.74 r p3
/bg { 0.8431 0.1882 0.1216 srgb } def
251.15 40.48 8.12 59.63 r p3
/bg { 0.9882 0.5529 0.3490 srgb } def
243.03 40.48 8.12 59.63 r p3
/bg { 0.9961 0.9412 0.8510 srgb } def
226.80 40.48 8.12 59.31 r p3
/bg { 0.9922 0.8000 0.5412 srgb } def
234.92 40.48 8.12 14.34 r p3
/bg { 0.8431 0.1882 0.1216 srgb } def
287.22 40.48 8.12 20.13 r p3
/bg { 0.9882 0.5529 0.3490 srgb } def
279.10 40.48 8.12 20.13 r p3
/bg { 0.9961 0.9412 0.8510 srgb } def
262.87 40.48 8.12 20.10 r p3
/bg { 0.9922 0.8000 0.5412 srgb } def
270.99 40.48 8.12 6.86 r p3
/bg { 0.8431 0.1882 0.1216 srgb } def
323.29 40.48 8.12 123.13 r p3
/bg { 0.9882 0.5529 0.3490 srgb } def
315.17 40.48 8.12 123.13 r p3
/bg { 0.9961 0.9412 0.8510 srgb } def
298.94 40.48 8.12 122.65 r p3
/bg { 0.9922 0.8000 0.5412 srgb } def
307.06 40.48 8.12 4.89 r p3
/bg { 0.8431 0.1882 0.1216 srgb } def
359.36 40.48 8.12 75.97 r p3
/bg { 0.9882 0.5529 0.3490 srgb } def
351.24 40.48 8.12 75.97 r p3
/bg { 0.9961 0.9412 0.8510 srgb } def
335.01 40.48 8.12 75.71 r p3
/bg { 0.9922 0.8000 0.5412 srgb } def
343.13 40.48 8.12 24.19 r p3
/bg { 0.8431 0.1882 0.1216 srgb } def
395.43 40.48 8.12 34.02 r p3
/bg { 0.9882 0.5529 0.3490 srgb } def
387.31 40.48 8.12 34.02 r p3
/bg { 0.9961 0.9412 0.8510 srgb } def
371.08 40.48 8.12 33.98 r p3
/bg { 0.9922 0.8000 0.5412 srgb } def
379.20 40.48 8.12 15.16 r p3
/bg { 0.8431 0.1882 0.1216 srgb } def
431.50 40.48 8.12 76.63 r p3
/bg { 0.9882 0.5529 0.3490 srgb } def
423.38 40.48 8.12 76.63 r p3
/bg { 0.9961 0.9412 0.8510 srgb } def
407.15 40.48 8.12 76.18 r p3
/bg { 0.9922 0.8000 0.5412 srgb } def
415.26 40.48 8.12 9.50 r p3
/bg { 0.8431 0.1882 0.1216 srgb } def
467.56 40.48 8.12 86.28 r p3
/bg { 0.9882 0.5529 0.3490 srgb } def
459.45 40.48 8.12 86.28 r p3
/bg { 0.9961 0.9412 0.8510 srgb } def
443.22 40.48 8.12 85.56 r p3
/bg { 0.9922 0.8000 0.5412 srgb } def
451.33 40.48 8.12 10.50 r p3
/bg { 0.8431 0.1882 0.1216 srgb } def
503.63 40.48 8.12 94.86 r p3
/bg { 0.9882 0.5529 0.3490 srgb } def
495.52 40.48 8.12 38.43 r p3
/bg { 0.9961 0.9412 0.8510 srgb } def
479.29 40.48 8.12 38.32 r p3
/bg { 0.9922 0.8000 0.5412 srgb } def
487.40 40.48 8.12 94.86 r p3
/bg { 0.8431 0.1882 0.1216 srgb } def
539.70 40.48 8.12 49.28 r p3
/bg { 0.9882 0.5529 0.3490 srgb } def
531.59 40.48 8.12 49.28 r p3
/bg { 0.9961 0.9412 0.8510 srgb } def
515.36 40.48 8.12 48.95 r p3
/bg { 0.9922 0.8000 0.5412 srgb } def
523.47 40.48 8.12 30.58 r p3
/bg { 0.8431 0.1882 0.1216 srgb } def
575.77 40.48 8.12 54.47 r p3
/bg { 0.9882 0.5529 0.3490 srgb } def
567.66 40.48 8.12 54.47 r p3
/bg { 0.9961 0.9412 0.8510 srgb } def
551.43 40.48 8.12 54.16 r p3
/bg { 0.9922 0.8000 0.5412 srgb } def
559.54 40.48 8.12 14.82 r p3
0.4980 0.4980 0.4980 srgb
1 setlinecap
41.05 34.33 548.25 135.44 r p1
0.00 0.00 595.28 212.60 cl
0.00 0.00 595.28 212.60 cl
0.00 0.00 595.28 212.60 cl
0.00 0.00 595.28 212.60 cl
0.00 0.00 595.28 212.60 cl
0.00 0.00 595.28 212.60 cl
/Font1 findfont 10 s
0 0 0 srgb
35.67 36.89 (0.0) 1 0 t
35.67 70.54 (0.2) 1 0 t
35.67 104.19 (0.4) 1 0 t
35.67 137.84 (0.6) 1 0 t
0.00 0.00 595.28 212.60 cl
0.00 0.00 595.28 212.60 cl
0 0 0 srgb
1.07 setlinewidth
[] 0 setdash
0 setlinecap
1 setlinejoin
10.00 setmiterlimit
np
38.06 40.48 m
2.99 0 l
o
np
38.06 74.13 m
2.99 0 l
o
np
38.06 107.78 m
2.99 0 l
o
np
38.06 141.43 m
2.99 0 l
o
0.00 0.00 595.28 212.60 cl
0.00 0.00 595.28 212.60 cl
0.00 0.00 595.28 212.60 cl
0.00 0.00 595.28 212.60 cl
0.00 0.00 595.28 212.60 cl
0.00 0.00 595.28 212.60 cl
0.00 0.00 595.28 212.60 cl
0.00 0.00 595.28 212.60 cl
0 0 0 srgb
1.07 setlinewidth
[] 0 setdash
0 setlinecap
1 setlinejoin
10.00 setmiterlimit
np
62.69 31.34 m
0 2.99 l
o
np
98.76 31.34 m
0 2.99 l
o
np
134.83 31.34 m
0 2.99 l
o
np
170.90 31.34 m
0 2.99 l
o
np
206.96 31.34 m
0 2.99 l
o
np
243.03 31.34 m
0 2.99 l
o
np
279.10 31.34 m
0 2.99 l
o
np
315.17 31.34 m
0 2.99 l
o
np
351.24 31.34 m
0 2.99 l
o
np
387.31 31.34 m
0 2.99 l
o
np
423.38 31.34 m
0 2.99 l
o
np
459.45 31.34 m
0 2.99 l
o
np
495.52 31.34 m
0 2.99 l
o
np
531.59 31.34 m
0 2.99 l
o
np
567.66 31.34 m
0 2.99 l
o
0.00 0.00 595.28 212.60 cl
0.00 0.00 595.28 212.60 cl
/Font1 findfont 10 s
0 0 0 srgb
62.69 21.77 (1) .5 0 t
98.76 21.77 (2) .5 0 t
134.83 21.77 (3) .5 0 t
170.90 21.77 (4) .5 0 t
206.96 21.77 (5) .5 0 t
243.03 21.77 (6) .5 0 t
279.10 21.77 (7) .5 0 t
315.17 21.77 (8) .5 0 t
351.24 21.77 (9) .5 0 t
387.31 21.77 (10) .5 0 t
423.38 21.77 (11) .5 0 t
459.45 21.77 (12) .5 0 t
495.52 21.77 (13) .5 0 t
531.59 21.77 (14) .5 0 t
567.66 21.77 (15) .5 0 t
0.00 0.00 595.28 212.60 cl
0.00 0.00 595.28 212.60 cl
0.00 0.00 595.28 212.60 cl
0.00 0.00 595.28 212.60 cl
/Font1 findfont 12 s
0 0 0 srgb
315.17 8.37 (cluster) .5 0 t
0.00 0.00 595.28 212.60 cl
0.00 0.00 595.28 212.60 cl
/Font1 findfont 12 s
0 0 0 srgb
16.98 102.05 (hits) .5 90 t
0.00 0.00 595.28 212.60 cl
0.00 0.00 595.28 212.60 cl
0.00 0.00 595.28 212.60 cl
0.00 0.00 595.28 212.60 cl
/bg { 1 1 1 srgb } def
215.27 178.27 199.81 19.84 r p2
0.00 0.00 595.28 212.60 cl
0.00 0.00 595.28 212.60 cl
0.00 0.00 595.28 212.60 cl
0.00 0.00 595.28 212.60 cl
0.00 0.00 595.28 212.60 cl
0.00 0.00 595.28 212.60 cl
/bg { 0.9961 0.9412 0.8510 srgb } def
0 0 0 srgb
1.07 setlinewidth
[] 0 setdash
1 setlinecap
0 setlinejoin
10.00 setmiterlimit
224.55 183.24 9.92 9.92 r p3
0.00 0.00 595.28 212.60 cl
0.00 0.00 595.28 212.60 cl
0.00 0.00 595.28 212.60 cl
0.00 0.00 595.28 212.60 cl
/bg { 0.9922 0.8000 0.5412 srgb } def
0 0 0 srgb
1.07 setlinewidth
[] 0 setdash
1 setlinecap
0 setlinejoin
10.00 setmiterlimit
278.46 183.24 9.92 9.92 r p3
0.00 0.00 595.28 212.60 cl
0.00 0.00 595.28 212.60 cl
0.00 0.00 595.28 212.60 cl
0.00 0.00 595.28 212.60 cl
/bg { 0.9882 0.5529 0.3490 srgb } def
0 0 0 srgb
1.07 setlinewidth
[] 0 setdash
1 setlinecap
0 setlinejoin
10.00 setmiterlimit
308.02 183.24 9.92 9.92 r p3
0.00 0.00 595.28 212.60 cl
0.00 0.00 595.28 212.60 cl
0.00 0.00 595.28 212.60 cl
0.00 0.00 595.28 212.60 cl
/bg { 0.8431 0.1882 0.1216 srgb } def
0 0 0 srgb
1.07 setlinewidth
[] 0 setdash
1 setlinecap
0 setlinejoin
10.00 setmiterlimit
353.68 183.24 9.92 9.92 r p3
0.00 0.00 595.28 212.60 cl
0.00 0.00 595.28 212.60 cl
/Font1 findfont 10 s
0 0 0 srgb
237.34 184.61 (bar) 0 ta
-0.100 (abasi) tb gr
0.00 0.00 595.28 212.60 cl
0.00 0.00 595.28 212.60 cl
/Font1 findfont 10 s
0 0 0 srgb
291.25 184.61 (tau) 0 0 t
0.00 0.00 595.28 212.60 cl
0.00 0.00 595.28 212.60 cl
/Font1 findfont 10 s
0 0 0 srgb
320.81 184.61 (gomez) 0 0 t
0.00 0.00 595.28 212.60 cl
0.00 0.00 595.28 212.60 cl
/Font1 findfont 10 s
0 0 0 srgb
366.47 184.61 (lumbrer) 0 ta
-0.100 (as) tb gr
0.00 0.00 595.28 212.60 cl
0.00 0.00 595.28 212.60 cl
0.00 0.00 595.28 212.60 cl
0.00 0.00 595.28 212.60 cl
0.00 0.00 595.28 212.60 cl
0.00 0.00 595.28 212.60 cl
ep
%%Trailer
%%Pages: 1
%%EOF
