%!PS-Adobe-3.0 EPSF-3.0
%%Title: ./out/20150518_2033\U_10_T_100_sigma_y_0_22_samples_29999_DP.eps
%%Creator: matplotlib version 1.4.0, http://matplotlib.org/
%%CreationDate: Mon May 18 21:07:32 2015
%%Orientation: portrait
%%BoundingBox: -270 108 882 684
%%EndComments
%%BeginProlog
/mpldict 7 dict def
mpldict begin
/m { moveto } bind def
/l { lineto } bind def
/r { rlineto } bind def
/c { curveto } bind def
/cl { closepath } bind def
/box {
m
1 index 0 r
0 exch r
neg 0 r
cl
} bind def
/clipbox {
box
clip
newpath
} bind def
end
%%EndProlog
mpldict begin
-270 108 translate
1152 576 0 0 clipbox
gsave
0 0 m
1152 0 l
1152 576 l
0 576 l
cl
1.000 setgray
fill
grestore
gsave
144 57.6 m
549.818 57.6 l
549.818 518.4 l
144 518.4 l
cl
1.000 setgray
fill
grestore
0.300 setlinewidth
1 setlinejoin
0 setlinecap
[] 0 setdash
0.000 setgray
gsave
405.8 460.8 144 57.6 clipbox
/o {
gsave
newpath
translate
0.3 setlinewidth
1 setlinejoin
0 setlinecap
144 108.508 m
144 119.339 l
148.058 148.465 l
152.116 148.386 l
156.175 177.496 l
160.233 177.821 l
164.291 206.217 l
168.349 216.761 l
172.407 222.896 l
176.465 223.712 l
180.524 227.15 l
184.582 227.134 l
188.64 235.588 l
192.698 234.296 l
196.756 243.797 l
200.815 246.967 l
204.873 247.172 l
208.931 247.25 l
212.989 245.788 l
217.047 252.754 l
221.105 253.906 l
225.164 254.758 l
229.222 259.564 l
233.28 255.229 l
237.338 259.598 l
241.396 259.56 l
245.455 263.125 l
249.513 258.39 l
253.571 263.172 l
257.629 265.047 l
261.687 263.089 l
265.745 269.245 l
269.804 268.881 l
273.862 268.961 l
277.92 268.996 l
281.978 269.037 l
286.036 272.223 l
290.095 273.163 l
294.153 273.233 l
298.211 276.112 l
302.269 273.022 l
306.327 277.502 l
310.385 273.018 l
314.444 277.607 l
318.502 279.457 l
322.56 292.618 l
326.618 292.264 l
330.676 291.97 l
334.735 292.356 l
338.793 293.455 l
342.851 291.842 l
346.909 292.087 l
350.967 292.667 l
355.025 291.515 l
359.084 292.319 l
363.142 291.911 l
367.2 292.638 l
371.258 293.582 l
375.316 291.972 l
379.375 292.605 l
383.433 292.675 l
387.491 292.088 l
391.549 291.902 l
395.607 292.869 l
399.665 293.656 l
403.724 292.655 l
407.782 312.007 l
411.84 308.326 l
415.898 320.955 l
419.956 321.261 l
424.015 321.355 l
428.073 321.374 l
432.131 322.432 l
436.189 325.096 l
440.247 322.589 l
444.305 330.24 l
448.364 330.453 l
452.422 333.041 l
456.48 330.463 l
460.538 330.361 l
464.596 338.956 l
468.655 338.955 l
472.713 335.766 l
476.771 339.048 l
480.829 350.152 l
484.887 350.756 l
488.945 362.064 l
493.004 362.028 l
497.062 361.118 l
501.12 368.868 l
505.178 377.925 l
509.236 377.941 l
513.295 384.077 l
517.353 385.813 l
521.411 388.362 l
525.469 385.603 l
529.527 408.013 l
533.585 410.118 l
537.644 435.837 l
541.702 445.017 l
545.76 465.039 l
545.76 454.283 l
545.76 454.283 l
541.702 434.06 l
537.644 425.436 l
533.585 398.795 l
529.527 397.346 l
525.469 374.896 l
521.411 377.852 l
517.353 374.988 l
513.295 373.628 l
509.236 367.19 l
505.178 367.254 l
501.12 358.202 l
497.062 350.474 l
493.004 351.574 l
488.945 351.471 l
484.887 340.21 l
480.829 339.623 l
476.771 328.391 l
472.713 325.234 l
468.655 328.432 l
464.596 328.337 l
460.538 319.737 l
456.48 319.794 l
452.422 321.867 l
448.364 319.835 l
444.305 319.919 l
440.247 311.79 l
436.189 314.518 l
432.131 311.81 l
428.073 310.938 l
424.015 310.916 l
419.956 310.611 l
415.898 310.271 l
411.84 297.831 l
407.782 301.382 l
403.724 282.197 l
399.665 282.918 l
395.607 282.413 l
391.549 281.384 l
387.491 281.687 l
383.433 282.307 l
379.375 281.964 l
375.316 281.464 l
371.258 283.167 l
367.2 281.972 l
363.142 281.144 l
359.084 281.913 l
355.025 280.986 l
350.967 282.008 l
346.909 281.395 l
342.851 281.284 l
338.793 282.532 l
334.735 281.794 l
330.676 281.373 l
326.618 281.997 l
322.56 282.166 l
318.502 268.951 l
314.444 267.155 l
310.385 262.501 l
306.327 266.941 l
302.269 262.535 l
298.211 265.57 l
294.153 262.673 l
290.095 262.654 l
286.036 261.617 l
281.978 258.26 l
277.92 258.447 l
273.862 258.481 l
269.804 258.448 l
265.745 258.723 l
261.687 252.685 l
257.629 254.5 l
253.571 252.493 l
249.513 248.062 l
245.455 252.506 l
241.396 249.016 l
237.338 249.167 l
233.28 244.671 l
229.222 249.096 l
225.164 243.618 l
221.105 243.429 l
217.047 242.078 l
212.989 235.329 l
208.931 236.64 l
204.873 236.635 l
200.815 236.321 l
196.756 233.228 l
192.698 223.733 l
188.64 224.863 l
184.582 216.724 l
180.524 216.613 l
176.465 213.119 l
172.407 212.262 l
168.349 205.879 l
164.291 195.491 l
160.233 167.115 l
156.175 166.933 l
152.116 137.87 l
148.058 137.782 l
144 108.508 l
cl
gsave
0.502 setgray
fill
grestore
stroke
grestore
} bind def
0 0 o
grestore
gsave
405.8 460.8 144 57.6 clipbox
/o {
gsave
newpath
translate
0.3 setlinewidth
1 setlinejoin
0 setlinecap
144 98.0022 m
144 131.298 l
148.058 160.641 l
152.116 160.276 l
156.175 189.344 l
160.233 190.412 l
164.291 218.151 l
168.349 229.59 l
172.407 234.563 l
176.465 235.283 l
180.524 239.086 l
184.582 238.502 l
188.64 247.713 l
192.698 246.328 l
196.756 255.42 l
200.815 259.061 l
204.873 259.118 l
208.931 258.991 l
212.989 258.142 l
217.047 265.136 l
221.105 265.822 l
225.164 266.781 l
229.222 271.482 l
233.28 267.011 l
237.338 271.671 l
241.396 271.224 l
245.455 275.125 l
249.513 269.794 l
253.571 275.58 l
257.629 277.264 l
261.687 275.176 l
265.745 280.716 l
269.804 280.738 l
273.862 280.692 l
277.92 281.256 l
281.978 281.154 l
286.036 283.937 l
290.095 285.138 l
294.153 284.612 l
298.211 288.233 l
302.269 285.146 l
306.327 289.159 l
310.385 284.781 l
314.444 289.321 l
318.502 291.332 l
322.56 304.695 l
326.618 303.751 l
330.676 304.084 l
334.735 304.276 l
338.793 305.404 l
342.851 303.531 l
346.909 303.867 l
350.967 304.685 l
355.025 303.6 l
359.084 304.131 l
363.142 303.304 l
367.2 304.645 l
371.258 305.802 l
375.316 303.742 l
379.375 304.521 l
383.433 304.637 l
387.491 303.858 l
391.549 303.851 l
395.607 304.646 l
399.665 305.51 l
403.724 304.783 l
407.782 323.42 l
411.84 320.147 l
415.898 333.241 l
419.956 333.047 l
424.015 333.222 l
428.073 333.494 l
432.131 334.57 l
436.189 336.749 l
440.247 334.411 l
444.305 342.141 l
448.364 342.396 l
452.422 345.2 l
456.48 342.398 l
460.538 341.95 l
464.596 350.707 l
468.655 350.848 l
472.713 347.491 l
476.771 350.702 l
480.829 362.062 l
484.887 362.351 l
488.945 374.138 l
493.004 373.888 l
497.062 372.954 l
501.12 380.793 l
505.178 389.849 l
509.236 390.007 l
513.295 395.942 l
517.353 397.857 l
521.411 400.224 l
525.469 397.608 l
529.527 419.942 l
533.585 423.496 l
537.644 447.952 l
541.702 456.761 l
545.76 477.237 l
545.76 443.923 l
545.76 443.923 l
541.702 423.738 l
537.644 415.097 l
533.585 387.885 l
529.527 387.408 l
525.469 364.505 l
521.411 367.516 l
517.353 364.951 l
513.295 363.305 l
509.236 357.105 l
505.178 357.115 l
501.12 348.019 l
497.062 340.394 l
493.004 341.548 l
488.945 341.2 l
484.887 330.042 l
480.829 329.469 l
476.771 318.221 l
472.713 315.315 l
468.655 318.64 l
464.596 318.216 l
460.538 309.264 l
456.48 309.367 l
452.422 310.906 l
448.364 309.727 l
444.305 309.6 l
440.247 301.496 l
436.189 304.739 l
432.131 301.598 l
428.073 300.883 l
424.015 300.909 l
419.956 300.039 l
415.898 299.512 l
411.84 287.675 l
407.782 291.597 l
403.724 272.123 l
399.665 272.367 l
395.607 272.233 l
391.549 271.322 l
387.491 271.595 l
383.433 272.416 l
379.375 271.872 l
375.316 271.271 l
371.258 272.78 l
367.2 271.796 l
363.142 270.707 l
359.084 271.913 l
355.025 270.61 l
350.967 271.854 l
346.909 271.278 l
342.851 271.257 l
338.793 272.06 l
334.735 271.271 l
330.676 271.098 l
326.618 271.866 l
322.56 271.947 l
318.502 258.625 l
314.444 256.934 l
310.385 252.197 l
306.327 256.754 l
302.269 252.471 l
298.211 255.511 l
294.153 252.663 l
290.095 252.43 l
286.036 251.469 l
281.978 247.892 l
277.92 248.099 l
273.862 248.016 l
269.804 247.907 l
265.745 248.393 l
261.687 242.21 l
257.629 243.634 l
253.571 242.34 l
249.513 237.932 l
245.455 242.372 l
241.396 238.816 l
237.338 239.017 l
233.28 234.304 l
229.222 239.12 l
225.164 232.704 l
221.105 233.495 l
217.047 231.899 l
212.989 225.336 l
208.931 226.4 l
204.873 226.569 l
200.815 226.053 l
196.756 223.046 l
192.698 213.028 l
188.64 214.414 l
184.582 206.811 l
180.524 206.375 l
176.465 202.891 l
172.407 202.018 l
168.349 195.126 l
164.291 185.162 l
160.233 156.627 l
156.175 157.038 l
152.116 127.397 l
148.058 127.77 l
144 98.0022 l
cl
gsave
0.502 setgray
fill
grestore
stroke
grestore
} bind def
0 0 o
grestore
1.750 setlinewidth
1 setlinecap
gsave
405.8 460.8 144 57.6 clipbox
144 113.886 m
148.058 143.18 l
152.116 143.114 l
156.175 172.226 l
160.233 172.494 l
164.291 200.864 l
168.349 211.344 l
172.407 217.572 l
176.465 218.414 l
180.524 221.9 l
184.582 221.867 l
188.64 230.229 l
192.698 228.985 l
196.756 238.556 l
200.815 241.611 l
204.873 241.904 l
208.931 241.926 l
212.989 240.56 l
217.047 247.437 l
221.105 248.698 l
225.164 249.149 l
229.222 254.391 l
233.28 249.923 l
237.338 254.366 l
241.396 254.307 l
245.455 257.794 l
249.513 253.237 l
253.571 257.886 l
257.629 259.739 l
261.687 257.882 l
265.745 263.995 l
269.804 263.684 l
273.862 263.731 l
277.92 263.705 l
281.978 263.633 l
286.036 266.913 l
290.095 267.945 l
294.153 267.935 l
298.211 270.892 l
302.269 267.783 l
306.327 272.185 l
310.385 267.726 l
314.444 272.397 l
318.502 274.169 l
322.56 287.435 l
326.618 287.125 l
330.676 286.704 l
334.735 287.067 l
338.793 287.928 l
342.851 286.554 l
346.909 286.75 l
350.967 287.304 l
355.025 286.257 l
359.084 287.171 l
363.142 286.505 l
367.2 287.301 l
371.258 288.449 l
375.316 286.74 l
379.375 287.32 l
383.433 287.498 l
387.491 286.905 l
391.549 286.656 l
395.607 287.608 l
399.665 288.234 l
403.724 287.465 l
407.782 306.677 l
411.84 303.071 l
415.898 315.59 l
419.956 315.915 l
424.015 316.144 l
428.073 316.196 l
432.131 317.191 l
436.189 319.827 l
440.247 317.182 l
444.305 325.058 l
448.364 325.131 l
452.422 327.399 l
456.48 325.12 l
460.538 325.011 l
464.596 333.648 l
468.655 333.729 l
472.713 330.5 l
476.771 333.736 l
480.829 344.879 l
484.887 345.473 l
488.945 356.774 l
493.004 356.851 l
497.062 355.836 l
501.12 363.593 l
505.178 372.567 l
509.236 372.565 l
513.295 378.825 l
517.353 380.456 l
521.411 383.088 l
525.469 380.284 l
529.527 402.715 l
533.585 404.483 l
537.644 430.656 l
541.702 439.567 l
545.76 459.661 l
stroke
grestore
1.000 0.000 0.000 setrgbcolor
gsave
405.8 460.8 144 57.6 clipbox
144 117.37 m
148.058 145.356 l
152.116 148.731 l
156.175 171.154 l
160.233 173.213 l
164.291 201.947 l
168.349 209.988 l
172.407 214.263 l
176.465 217.045 l
180.524 223.718 l
184.582 224.668 l
188.64 228.024 l
192.698 228.936 l
196.756 237.854 l
200.815 238.242 l
204.873 238.92 l
208.931 240.253 l
212.989 246.614 l
217.047 247.548 l
221.105 248.963 l
225.164 249.42 l
229.222 250.785 l
233.28 252.727 l
237.338 253.542 l
241.396 254.505 l
245.455 257.207 l
249.513 257.913 l
253.571 257.921 l
257.629 258.536 l
261.687 258.586 l
265.745 261.119 l
269.804 262.564 l
273.862 263.136 l
277.92 263.614 l
281.978 264.434 l
286.036 264.597 l
290.095 264.711 l
294.153 265.276 l
298.211 269.179 l
302.269 269.658 l
306.327 271.825 l
310.385 272.713 l
314.444 275.213 l
318.502 277.08 l
322.56 282.892 l
326.618 284.472 l
330.676 284.796 l
334.735 285.38 l
338.793 285.398 l
342.851 285.83 l
346.909 286.681 l
350.967 286.949 l
355.025 286.971 l
359.084 287.043 l
363.142 287.433 l
367.2 287.663 l
371.258 287.787 l
375.316 287.986 l
379.375 288.365 l
383.433 288.7 l
387.491 288.781 l
391.549 289.157 l
395.607 290.187 l
399.665 290.302 l
403.724 291.461 l
407.782 305.422 l
411.84 306.925 l
415.898 317.02 l
419.956 317.243 l
424.015 317.697 l
428.073 319.092 l
432.131 319.902 l
436.189 320.424 l
440.247 320.723 l
444.305 321.5 l
448.364 324.957 l
452.422 324.979 l
456.48 327.564 l
460.538 329.525 l
464.596 331.219 l
468.655 331.525 l
472.713 334.318 l
476.771 335.001 l
480.829 344.608 l
484.887 347.426 l
488.945 354.232 l
493.004 356.898 l
497.062 359.395 l
501.12 365.861 l
505.178 370.962 l
509.236 373.064 l
513.295 375.475 l
517.353 377.097 l
521.411 377.388 l
525.469 377.841 l
529.527 402.376 l
533.585 403.522 l
537.644 431.318 l
541.702 440.664 l
545.76 460.651 l
stroke
grestore
1.250 setlinewidth
0 setlinejoin
2 setlinecap
0.150 setgray
gsave
144 57.6 m
549.818 57.6 l
stroke
grestore
gsave
144 57.6 m
144 518.4 l
stroke
grestore
gsave
630.982 57.6 m
1036.8 57.6 l
1036.8 518.4 l
630.982 518.4 l
cl
1.000 setgray
fill
grestore
/p0_0 {
newpath
translate
630.982 57.6 m
671.564 57.6 l
671.564 103.68 l
630.982 103.68 l
630.982 57.6 l
} bind def
/p0_1 {
newpath
translate
671.564 57.6 m
712.145 57.6 l
712.145 103.68 l
671.564 103.68 l
671.564 57.6 l
} bind def
/p0_2 {
newpath
translate
712.145 57.6 m
752.727 57.6 l
752.727 103.68 l
712.145 103.68 l
712.145 57.6 l
} bind def
/p0_3 {
newpath
translate
752.727 57.6 m
793.309 57.6 l
793.309 103.68 l
752.727 103.68 l
752.727 57.6 l
} bind def
/p0_4 {
newpath
translate
793.309 57.6 m
833.891 57.6 l
833.891 103.68 l
793.309 103.68 l
793.309 57.6 l
} bind def
/p0_5 {
newpath
translate
833.891 57.6 m
874.473 57.6 l
874.473 103.68 l
833.891 103.68 l
833.891 57.6 l
} bind def
/p0_6 {
newpath
translate
874.473 57.6 m
915.055 57.6 l
915.055 103.68 l
874.473 103.68 l
874.473 57.6 l
} bind def
/p0_7 {
newpath
translate
915.055 57.6 m
955.636 57.6 l
955.636 103.68 l
915.055 103.68 l
915.055 57.6 l
} bind def
/p0_8 {
newpath
translate
955.636 57.6 m
996.218 57.6 l
996.218 103.68 l
955.636 103.68 l
955.636 57.6 l
} bind def
/p0_9 {
newpath
translate
996.218 57.6 m
1036.8 57.6 l
1036.8 103.68 l
996.218 103.68 l
996.218 57.6 l
} bind def
/p0_a {
newpath
translate
630.982 103.68 m
671.564 103.68 l
671.564 149.76 l
630.982 149.76 l
630.982 103.68 l
} bind def
/p0_b {
newpath
translate
671.564 103.68 m
712.145 103.68 l
712.145 149.76 l
671.564 149.76 l
671.564 103.68 l
} bind def
/p0_c {
newpath
translate
712.145 103.68 m
752.727 103.68 l
752.727 149.76 l
712.145 149.76 l
712.145 103.68 l
} bind def
/p0_d {
newpath
translate
752.727 103.68 m
793.309 103.68 l
793.309 149.76 l
752.727 149.76 l
752.727 103.68 l
} bind def
/p0_e {
newpath
translate
793.309 103.68 m
833.891 103.68 l
833.891 149.76 l
793.309 149.76 l
793.309 103.68 l
} bind def
/p0_f {
newpath
translate
833.891 103.68 m
874.473 103.68 l
874.473 149.76 l
833.891 149.76 l
833.891 103.68 l
} bind def
/p0_10 {
newpath
translate
874.473 103.68 m
915.055 103.68 l
915.055 149.76 l
874.473 149.76 l
874.473 103.68 l
} bind def
/p0_11 {
newpath
translate
915.055 103.68 m
955.636 103.68 l
955.636 149.76 l
915.055 149.76 l
915.055 103.68 l
} bind def
/p0_12 {
newpath
translate
955.636 103.68 m
996.218 103.68 l
996.218 149.76 l
955.636 149.76 l
955.636 103.68 l
} bind def
/p0_13 {
newpath
translate
996.218 103.68 m
1036.8 103.68 l
1036.8 149.76 l
996.218 149.76 l
996.218 103.68 l
} bind def
/p0_14 {
newpath
translate
630.982 149.76 m
671.564 149.76 l
671.564 195.84 l
630.982 195.84 l
630.982 149.76 l
} bind def
/p0_15 {
newpath
translate
671.564 149.76 m
712.145 149.76 l
712.145 195.84 l
671.564 195.84 l
671.564 149.76 l
} bind def
/p0_16 {
newpath
translate
712.145 149.76 m
752.727 149.76 l
752.727 195.84 l
712.145 195.84 l
712.145 149.76 l
} bind def
/p0_17 {
newpath
translate
752.727 149.76 m
793.309 149.76 l
793.309 195.84 l
752.727 195.84 l
752.727 149.76 l
} bind def
/p0_18 {
newpath
translate
793.309 149.76 m
833.891 149.76 l
833.891 195.84 l
793.309 195.84 l
793.309 149.76 l
} bind def
/p0_19 {
newpath
translate
833.891 149.76 m
874.473 149.76 l
874.473 195.84 l
833.891 195.84 l
833.891 149.76 l
} bind def
/p0_1a {
newpath
translate
874.473 149.76 m
915.055 149.76 l
915.055 195.84 l
874.473 195.84 l
874.473 149.76 l
} bind def
/p0_1b {
newpath
translate
915.055 149.76 m
955.636 149.76 l
955.636 195.84 l
915.055 195.84 l
915.055 149.76 l
} bind def
/p0_1c {
newpath
translate
955.636 149.76 m
996.218 149.76 l
996.218 195.84 l
955.636 195.84 l
955.636 149.76 l
} bind def
/p0_1d {
newpath
translate
996.218 149.76 m
1036.8 149.76 l
1036.8 195.84 l
996.218 195.84 l
996.218 149.76 l
} bind def
/p0_1e {
newpath
translate
630.982 195.84 m
671.564 195.84 l
671.564 241.92 l
630.982 241.92 l
630.982 195.84 l
} bind def
/p0_1f {
newpath
translate
671.564 195.84 m
712.145 195.84 l
712.145 241.92 l
671.564 241.92 l
671.564 195.84 l
} bind def
/p0_20 {
newpath
translate
712.145 195.84 m
752.727 195.84 l
752.727 241.92 l
712.145 241.92 l
712.145 195.84 l
} bind def
/p0_21 {
newpath
translate
752.727 195.84 m
793.309 195.84 l
793.309 241.92 l
752.727 241.92 l
752.727 195.84 l
} bind def
/p0_22 {
newpath
translate
793.309 195.84 m
833.891 195.84 l
833.891 241.92 l
793.309 241.92 l
793.309 195.84 l
} bind def
/p0_23 {
newpath
translate
833.891 195.84 m
874.473 195.84 l
874.473 241.92 l
833.891 241.92 l
833.891 195.84 l
} bind def
/p0_24 {
newpath
translate
874.473 195.84 m
915.055 195.84 l
915.055 241.92 l
874.473 241.92 l
874.473 195.84 l
} bind def
/p0_25 {
newpath
translate
915.055 195.84 m
955.636 195.84 l
955.636 241.92 l
915.055 241.92 l
915.055 195.84 l
} bind def
/p0_26 {
newpath
translate
955.636 195.84 m
996.218 195.84 l
996.218 241.92 l
955.636 241.92 l
955.636 195.84 l
} bind def
/p0_27 {
newpath
translate
996.218 195.84 m
1036.8 195.84 l
1036.8 241.92 l
996.218 241.92 l
996.218 195.84 l
} bind def
/p0_28 {
newpath
translate
630.982 241.92 m
671.564 241.92 l
671.564 288 l
630.982 288 l
630.982 241.92 l
} bind def
/p0_29 {
newpath
translate
671.564 241.92 m
712.145 241.92 l
712.145 288 l
671.564 288 l
671.564 241.92 l
} bind def
/p0_2a {
newpath
translate
712.145 241.92 m
752.727 241.92 l
752.727 288 l
712.145 288 l
712.145 241.92 l
} bind def
/p0_2b {
newpath
translate
752.727 241.92 m
793.309 241.92 l
793.309 288 l
752.727 288 l
752.727 241.92 l
} bind def
/p0_2c {
newpath
translate
793.309 241.92 m
833.891 241.92 l
833.891 288 l
793.309 288 l
793.309 241.92 l
} bind def
/p0_2d {
newpath
translate
833.891 241.92 m
874.473 241.92 l
874.473 288 l
833.891 288 l
833.891 241.92 l
} bind def
/p0_2e {
newpath
translate
874.473 241.92 m
915.055 241.92 l
915.055 288 l
874.473 288 l
874.473 241.92 l
} bind def
/p0_2f {
newpath
translate
915.055 241.92 m
955.636 241.92 l
955.636 288 l
915.055 288 l
915.055 241.92 l
} bind def
/p0_30 {
newpath
translate
955.636 241.92 m
996.218 241.92 l
996.218 288 l
955.636 288 l
955.636 241.92 l
} bind def
/p0_31 {
newpath
translate
996.218 241.92 m
1036.8 241.92 l
1036.8 288 l
996.218 288 l
996.218 241.92 l
} bind def
/p0_32 {
newpath
translate
630.982 288 m
671.564 288 l
671.564 334.08 l
630.982 334.08 l
630.982 288 l
} bind def
/p0_33 {
newpath
translate
671.564 288 m
712.145 288 l
712.145 334.08 l
671.564 334.08 l
671.564 288 l
} bind def
/p0_34 {
newpath
translate
712.145 288 m
752.727 288 l
752.727 334.08 l
712.145 334.08 l
712.145 288 l
} bind def
/p0_35 {
newpath
translate
752.727 288 m
793.309 288 l
793.309 334.08 l
752.727 334.08 l
752.727 288 l
} bind def
/p0_36 {
newpath
translate
793.309 288 m
833.891 288 l
833.891 334.08 l
793.309 334.08 l
793.309 288 l
} bind def
/p0_37 {
newpath
translate
833.891 288 m
874.473 288 l
874.473 334.08 l
833.891 334.08 l
833.891 288 l
} bind def
/p0_38 {
newpath
translate
874.473 288 m
915.055 288 l
915.055 334.08 l
874.473 334.08 l
874.473 288 l
} bind def
/p0_39 {
newpath
translate
915.055 288 m
955.636 288 l
955.636 334.08 l
915.055 334.08 l
915.055 288 l
} bind def
/p0_3a {
newpath
translate
955.636 288 m
996.218 288 l
996.218 334.08 l
955.636 334.08 l
955.636 288 l
} bind def
/p0_3b {
newpath
translate
996.218 288 m
1036.8 288 l
1036.8 334.08 l
996.218 334.08 l
996.218 288 l
} bind def
/p0_3c {
newpath
translate
630.982 334.08 m
671.564 334.08 l
671.564 380.16 l
630.982 380.16 l
630.982 334.08 l
} bind def
/p0_3d {
newpath
translate
671.564 334.08 m
712.145 334.08 l
712.145 380.16 l
671.564 380.16 l
671.564 334.08 l
} bind def
/p0_3e {
newpath
translate
712.145 334.08 m
752.727 334.08 l
752.727 380.16 l
712.145 380.16 l
712.145 334.08 l
} bind def
/p0_3f {
newpath
translate
752.727 334.08 m
793.309 334.08 l
793.309 380.16 l
752.727 380.16 l
752.727 334.08 l
} bind def
/p0_40 {
newpath
translate
793.309 334.08 m
833.891 334.08 l
833.891 380.16 l
793.309 380.16 l
793.309 334.08 l
} bind def
/p0_41 {
newpath
translate
833.891 334.08 m
874.473 334.08 l
874.473 380.16 l
833.891 380.16 l
833.891 334.08 l
} bind def
/p0_42 {
newpath
translate
874.473 334.08 m
915.055 334.08 l
915.055 380.16 l
874.473 380.16 l
874.473 334.08 l
} bind def
/p0_43 {
newpath
translate
915.055 334.08 m
955.636 334.08 l
955.636 380.16 l
915.055 380.16 l
915.055 334.08 l
} bind def
/p0_44 {
newpath
translate
955.636 334.08 m
996.218 334.08 l
996.218 380.16 l
955.636 380.16 l
955.636 334.08 l
} bind def
/p0_45 {
newpath
translate
996.218 334.08 m
1036.8 334.08 l
1036.8 380.16 l
996.218 380.16 l
996.218 334.08 l
} bind def
/p0_46 {
newpath
translate
630.982 380.16 m
671.564 380.16 l
671.564 426.24 l
630.982 426.24 l
630.982 380.16 l
} bind def
/p0_47 {
newpath
translate
671.564 380.16 m
712.145 380.16 l
712.145 426.24 l
671.564 426.24 l
671.564 380.16 l
} bind def
/p0_48 {
newpath
translate
712.145 380.16 m
752.727 380.16 l
752.727 426.24 l
712.145 426.24 l
712.145 380.16 l
} bind def
/p0_49 {
newpath
translate
752.727 380.16 m
793.309 380.16 l
793.309 426.24 l
752.727 426.24 l
752.727 380.16 l
} bind def
/p0_4a {
newpath
translate
793.309 380.16 m
833.891 380.16 l
833.891 426.24 l
793.309 426.24 l
793.309 380.16 l
} bind def
/p0_4b {
newpath
translate
833.891 380.16 m
874.473 380.16 l
874.473 426.24 l
833.891 426.24 l
833.891 380.16 l
} bind def
/p0_4c {
newpath
translate
874.473 380.16 m
915.055 380.16 l
915.055 426.24 l
874.473 426.24 l
874.473 380.16 l
} bind def
/p0_4d {
newpath
translate
915.055 380.16 m
955.636 380.16 l
955.636 426.24 l
915.055 426.24 l
915.055 380.16 l
} bind def
/p0_4e {
newpath
translate
955.636 380.16 m
996.218 380.16 l
996.218 426.24 l
955.636 426.24 l
955.636 380.16 l
} bind def
/p0_4f {
newpath
translate
996.218 380.16 m
1036.8 380.16 l
1036.8 426.24 l
996.218 426.24 l
996.218 380.16 l
} bind def
/p0_50 {
newpath
translate
630.982 426.24 m
671.564 426.24 l
671.564 472.32 l
630.982 472.32 l
630.982 426.24 l
} bind def
/p0_51 {
newpath
translate
671.564 426.24 m
712.145 426.24 l
712.145 472.32 l
671.564 472.32 l
671.564 426.24 l
} bind def
/p0_52 {
newpath
translate
712.145 426.24 m
752.727 426.24 l
752.727 472.32 l
712.145 472.32 l
712.145 426.24 l
} bind def
/p0_53 {
newpath
translate
752.727 426.24 m
793.309 426.24 l
793.309 472.32 l
752.727 472.32 l
752.727 426.24 l
} bind def
/p0_54 {
newpath
translate
793.309 426.24 m
833.891 426.24 l
833.891 472.32 l
793.309 472.32 l
793.309 426.24 l
} bind def
/p0_55 {
newpath
translate
833.891 426.24 m
874.473 426.24 l
874.473 472.32 l
833.891 472.32 l
833.891 426.24 l
} bind def
/p0_56 {
newpath
translate
874.473 426.24 m
915.055 426.24 l
915.055 472.32 l
874.473 472.32 l
874.473 426.24 l
} bind def
/p0_57 {
newpath
translate
915.055 426.24 m
955.636 426.24 l
955.636 472.32 l
915.055 472.32 l
915.055 426.24 l
} bind def
/p0_58 {
newpath
translate
955.636 426.24 m
996.218 426.24 l
996.218 472.32 l
955.636 472.32 l
955.636 426.24 l
} bind def
/p0_59 {
newpath
translate
996.218 426.24 m
1036.8 426.24 l
1036.8 472.32 l
996.218 472.32 l
996.218 426.24 l
} bind def
/p0_5a {
newpath
translate
630.982 472.32 m
671.564 472.32 l
671.564 518.4 l
630.982 518.4 l
630.982 472.32 l
} bind def
/p0_5b {
newpath
translate
671.564 472.32 m
712.145 472.32 l
712.145 518.4 l
671.564 518.4 l
671.564 472.32 l
} bind def
/p0_5c {
newpath
translate
712.145 472.32 m
752.727 472.32 l
752.727 518.4 l
712.145 518.4 l
712.145 472.32 l
} bind def
/p0_5d {
newpath
translate
752.727 472.32 m
793.309 472.32 l
793.309 518.4 l
752.727 518.4 l
752.727 472.32 l
} bind def
/p0_5e {
newpath
translate
793.309 472.32 m
833.891 472.32 l
833.891 518.4 l
793.309 518.4 l
793.309 472.32 l
} bind def
/p0_5f {
newpath
translate
833.891 472.32 m
874.473 472.32 l
874.473 518.4 l
833.891 518.4 l
833.891 472.32 l
} bind def
/p0_60 {
newpath
translate
874.473 472.32 m
915.055 472.32 l
915.055 518.4 l
874.473 518.4 l
874.473 472.32 l
} bind def
/p0_61 {
newpath
translate
915.055 472.32 m
955.636 472.32 l
955.636 518.4 l
915.055 518.4 l
915.055 472.32 l
} bind def
/p0_62 {
newpath
translate
955.636 472.32 m
996.218 472.32 l
996.218 518.4 l
955.636 518.4 l
955.636 472.32 l
} bind def
/p0_63 {
newpath
translate
996.218 472.32 m
1036.8 472.32 l
1036.8 518.4 l
996.218 518.4 l
996.218 472.32 l
} bind def
0.500 setlinewidth
1 setlinejoin
0 setlinecap
1.000 setgray
gsave
405.8 460.8 631 57.6 clipbox
0 0 p0_0
gsave
0.977 0.946 0.927 setrgbcolor
fill
grestore
stroke
grestore
gsave
405.8 460.8 631 57.6 clipbox
0 0 p0_1
gsave
0.977 0.946 0.927 setrgbcolor
fill
grestore
stroke
grestore
gsave
405.8 460.8 631 57.6 clipbox
0 0 p0_2
gsave
0.977 0.946 0.927 setrgbcolor
fill
grestore
stroke
grestore
gsave
405.8 460.8 631 57.6 clipbox
0 0 p0_3
gsave
0.977 0.946 0.927 setrgbcolor
fill
grestore
stroke
grestore
gsave
405.8 460.8 631 57.6 clipbox
0 0 p0_4
gsave
0.977 0.946 0.927 setrgbcolor
fill
grestore
stroke
grestore
gsave
405.8 460.8 631 57.6 clipbox
0 0 p0_5
gsave
0.977 0.946 0.927 setrgbcolor
fill
grestore
stroke
grestore
gsave
405.8 460.8 631 57.6 clipbox
0 0 p0_6
gsave
0.977 0.946 0.927 setrgbcolor
fill
grestore
stroke
grestore
gsave
405.8 460.8 631 57.6 clipbox
0 0 p0_7
gsave
0.977 0.946 0.927 setrgbcolor
fill
grestore
stroke
grestore
gsave
405.8 460.8 631 57.6 clipbox
0 0 p0_8
gsave
0.175 0.118 0.242 setrgbcolor
fill
grestore
stroke
grestore
gsave
405.8 460.8 631 57.6 clipbox
0 0 p0_9
gsave
0.175 0.118 0.242 setrgbcolor
fill
grestore
stroke
grestore
gsave
405.8 460.8 631 57.6 clipbox
0 0 p0_a
gsave
0.977 0.946 0.927 setrgbcolor
fill
grestore
stroke
grestore
gsave
405.8 460.8 631 57.6 clipbox
0 0 p0_b
gsave
0.977 0.946 0.927 setrgbcolor
fill
grestore
stroke
grestore
gsave
405.8 460.8 631 57.6 clipbox
0 0 p0_c
gsave
0.977 0.946 0.927 setrgbcolor
fill
grestore
stroke
grestore
gsave
405.8 460.8 631 57.6 clipbox
0 0 p0_d
gsave
0.977 0.946 0.927 setrgbcolor
fill
grestore
stroke
grestore
gsave
405.8 460.8 631 57.6 clipbox
0 0 p0_e
gsave
0.977 0.946 0.927 setrgbcolor
fill
grestore
stroke
grestore
gsave
405.8 460.8 631 57.6 clipbox
0 0 p0_f
gsave
0.977 0.946 0.927 setrgbcolor
fill
grestore
stroke
grestore
gsave
405.8 460.8 631 57.6 clipbox
0 0 p0_10
gsave
0.977 0.946 0.927 setrgbcolor
fill
grestore
stroke
grestore
gsave
405.8 460.8 631 57.6 clipbox
0 0 p0_11
gsave
0.977 0.946 0.927 setrgbcolor
fill
grestore
stroke
grestore
gsave
405.8 460.8 631 57.6 clipbox
0 0 p0_12
gsave
0.175 0.118 0.242 setrgbcolor
fill
grestore
stroke
grestore
gsave
405.8 460.8 631 57.6 clipbox
0 0 p0_13
gsave
0.175 0.118 0.242 setrgbcolor
fill
grestore
stroke
grestore
gsave
405.8 460.8 631 57.6 clipbox
0 0 p0_14
gsave
0.977 0.946 0.927 setrgbcolor
fill
grestore
stroke
grestore
gsave
405.8 460.8 631 57.6 clipbox
0 0 p0_15
gsave
0.977 0.946 0.927 setrgbcolor
fill
grestore
stroke
grestore
gsave
405.8 460.8 631 57.6 clipbox
0 0 p0_16
gsave
0.977 0.946 0.927 setrgbcolor
fill
grestore
stroke
grestore
gsave
405.8 460.8 631 57.6 clipbox
0 0 p0_17
gsave
0.977 0.946 0.927 setrgbcolor
fill
grestore
stroke
grestore
gsave
405.8 460.8 631 57.6 clipbox
0 0 p0_18
gsave
0.977 0.946 0.927 setrgbcolor
fill
grestore
stroke
grestore
gsave
405.8 460.8 631 57.6 clipbox
0 0 p0_19
gsave
0.977 0.946 0.927 setrgbcolor
fill
grestore
stroke
grestore
gsave
405.8 460.8 631 57.6 clipbox
0 0 p0_1a
gsave
0.175 0.118 0.242 setrgbcolor
fill
grestore
stroke
grestore
gsave
405.8 460.8 631 57.6 clipbox
0 0 p0_1b
gsave
0.175 0.118 0.242 setrgbcolor
fill
grestore
stroke
grestore
gsave
405.8 460.8 631 57.6 clipbox
0 0 p0_1c
gsave
0.977 0.946 0.927 setrgbcolor
fill
grestore
stroke
grestore
gsave
405.8 460.8 631 57.6 clipbox
0 0 p0_1d
gsave
0.977 0.946 0.927 setrgbcolor
fill
grestore
stroke
grestore
gsave
405.8 460.8 631 57.6 clipbox
0 0 p0_1e
gsave
0.977 0.946 0.927 setrgbcolor
fill
grestore
stroke
grestore
gsave
405.8 460.8 631 57.6 clipbox
0 0 p0_1f
gsave
0.977 0.946 0.927 setrgbcolor
fill
grestore
stroke
grestore
gsave
405.8 460.8 631 57.6 clipbox
0 0 p0_20
gsave
0.977 0.946 0.927 setrgbcolor
fill
grestore
stroke
grestore
gsave
405.8 460.8 631 57.6 clipbox
0 0 p0_21
gsave
0.977 0.946 0.927 setrgbcolor
fill
grestore
stroke
grestore
gsave
405.8 460.8 631 57.6 clipbox
0 0 p0_22
gsave
0.977 0.946 0.927 setrgbcolor
fill
grestore
stroke
grestore
gsave
405.8 460.8 631 57.6 clipbox
0 0 p0_23
gsave
0.977 0.946 0.927 setrgbcolor
fill
grestore
stroke
grestore
gsave
405.8 460.8 631 57.6 clipbox
0 0 p0_24
gsave
0.175 0.118 0.242 setrgbcolor
fill
grestore
stroke
grestore
gsave
405.8 460.8 631 57.6 clipbox
0 0 p0_25
gsave
0.175 0.118 0.242 setrgbcolor
fill
grestore
stroke
grestore
gsave
405.8 460.8 631 57.6 clipbox
0 0 p0_26
gsave
0.977 0.946 0.927 setrgbcolor
fill
grestore
stroke
grestore
gsave
405.8 460.8 631 57.6 clipbox
0 0 p0_27
gsave
0.977 0.946 0.927 setrgbcolor
fill
grestore
stroke
grestore
gsave
405.8 460.8 631 57.6 clipbox
0 0 p0_28
gsave
0.977 0.946 0.927 setrgbcolor
fill
grestore
stroke
grestore
gsave
405.8 460.8 631 57.6 clipbox
0 0 p0_29
gsave
0.977 0.946 0.927 setrgbcolor
fill
grestore
stroke
grestore
gsave
405.8 460.8 631 57.6 clipbox
0 0 p0_2a
gsave
0.977 0.946 0.927 setrgbcolor
fill
grestore
stroke
grestore
gsave
405.8 460.8 631 57.6 clipbox
0 0 p0_2b
gsave
0.977 0.946 0.927 setrgbcolor
fill
grestore
stroke
grestore
gsave
405.8 460.8 631 57.6 clipbox
0 0 p0_2c
gsave
0.175 0.118 0.242 setrgbcolor
fill
grestore
stroke
grestore
gsave
405.8 460.8 631 57.6 clipbox
0 0 p0_2d
gsave
0.175 0.118 0.242 setrgbcolor
fill
grestore
stroke
grestore
gsave
405.8 460.8 631 57.6 clipbox
0 0 p0_2e
gsave
0.977 0.946 0.927 setrgbcolor
fill
grestore
stroke
grestore
gsave
405.8 460.8 631 57.6 clipbox
0 0 p0_2f
gsave
0.977 0.946 0.927 setrgbcolor
fill
grestore
stroke
grestore
gsave
405.8 460.8 631 57.6 clipbox
0 0 p0_30
gsave
0.977 0.946 0.927 setrgbcolor
fill
grestore
stroke
grestore
gsave
405.8 460.8 631 57.6 clipbox
0 0 p0_31
gsave
0.977 0.946 0.927 setrgbcolor
fill
grestore
stroke
grestore
gsave
405.8 460.8 631 57.6 clipbox
0 0 p0_32
gsave
0.977 0.946 0.927 setrgbcolor
fill
grestore
stroke
grestore
gsave
405.8 460.8 631 57.6 clipbox
0 0 p0_33
gsave
0.977 0.946 0.927 setrgbcolor
fill
grestore
stroke
grestore
gsave
405.8 460.8 631 57.6 clipbox
0 0 p0_34
gsave
0.977 0.946 0.927 setrgbcolor
fill
grestore
stroke
grestore
gsave
405.8 460.8 631 57.6 clipbox
0 0 p0_35
gsave
0.977 0.946 0.927 setrgbcolor
fill
grestore
stroke
grestore
gsave
405.8 460.8 631 57.6 clipbox
0 0 p0_36
gsave
0.175 0.118 0.242 setrgbcolor
fill
grestore
stroke
grestore
gsave
405.8 460.8 631 57.6 clipbox
0 0 p0_37
gsave
0.175 0.118 0.242 setrgbcolor
fill
grestore
stroke
grestore
gsave
405.8 460.8 631 57.6 clipbox
0 0 p0_38
gsave
0.977 0.946 0.927 setrgbcolor
fill
grestore
stroke
grestore
gsave
405.8 460.8 631 57.6 clipbox
0 0 p0_39
gsave
0.977 0.946 0.927 setrgbcolor
fill
grestore
stroke
grestore
gsave
405.8 460.8 631 57.6 clipbox
0 0 p0_3a
gsave
0.977 0.946 0.927 setrgbcolor
fill
grestore
stroke
grestore
gsave
405.8 460.8 631 57.6 clipbox
0 0 p0_3b
gsave
0.977 0.946 0.927 setrgbcolor
fill
grestore
stroke
grestore
gsave
405.8 460.8 631 57.6 clipbox
0 0 p0_3c
gsave
0.977 0.946 0.927 setrgbcolor
fill
grestore
stroke
grestore
gsave
405.8 460.8 631 57.6 clipbox
0 0 p0_3d
gsave
0.977 0.946 0.927 setrgbcolor
fill
grestore
stroke
grestore
gsave
405.8 460.8 631 57.6 clipbox
0 0 p0_3e
gsave
0.219 0.141 0.285 setrgbcolor
fill
grestore
stroke
grestore
gsave
405.8 460.8 631 57.6 clipbox
0 0 p0_3f
gsave
0.175 0.118 0.242 setrgbcolor
fill
grestore
stroke
grestore
gsave
405.8 460.8 631 57.6 clipbox
0 0 p0_40
gsave
0.977 0.946 0.927 setrgbcolor
fill
grestore
stroke
grestore
gsave
405.8 460.8 631 57.6 clipbox
0 0 p0_41
gsave
0.977 0.946 0.927 setrgbcolor
fill
grestore
stroke
grestore
gsave
405.8 460.8 631 57.6 clipbox
0 0 p0_42
gsave
0.977 0.946 0.927 setrgbcolor
fill
grestore
stroke
grestore
gsave
405.8 460.8 631 57.6 clipbox
0 0 p0_43
gsave
0.977 0.946 0.927 setrgbcolor
fill
grestore
stroke
grestore
gsave
405.8 460.8 631 57.6 clipbox
0 0 p0_44
gsave
0.977 0.946 0.927 setrgbcolor
fill
grestore
stroke
grestore
gsave
405.8 460.8 631 57.6 clipbox
0 0 p0_45
gsave
0.977 0.946 0.927 setrgbcolor
fill
grestore
stroke
grestore
gsave
405.8 460.8 631 57.6 clipbox
0 0 p0_46
gsave
0.977 0.946 0.927 setrgbcolor
fill
grestore
stroke
grestore
gsave
405.8 460.8 631 57.6 clipbox
0 0 p0_47
gsave
0.977 0.946 0.927 setrgbcolor
fill
grestore
stroke
grestore
gsave
405.8 460.8 631 57.6 clipbox
0 0 p0_48
gsave
0.175 0.118 0.242 setrgbcolor
fill
grestore
stroke
grestore
gsave
405.8 460.8 631 57.6 clipbox
0 0 p0_49
gsave
0.219 0.141 0.285 setrgbcolor
fill
grestore
stroke
grestore
gsave
405.8 460.8 631 57.6 clipbox
0 0 p0_4a
gsave
0.977 0.946 0.927 setrgbcolor
fill
grestore
stroke
grestore
gsave
405.8 460.8 631 57.6 clipbox
0 0 p0_4b
gsave
0.977 0.946 0.927 setrgbcolor
fill
grestore
stroke
grestore
gsave
405.8 460.8 631 57.6 clipbox
0 0 p0_4c
gsave
0.977 0.946 0.927 setrgbcolor
fill
grestore
stroke
grestore
gsave
405.8 460.8 631 57.6 clipbox
0 0 p0_4d
gsave
0.977 0.946 0.927 setrgbcolor
fill
grestore
stroke
grestore
gsave
405.8 460.8 631 57.6 clipbox
0 0 p0_4e
gsave
0.977 0.946 0.927 setrgbcolor
fill
grestore
stroke
grestore
gsave
405.8 460.8 631 57.6 clipbox
0 0 p0_4f
gsave
0.977 0.946 0.927 setrgbcolor
fill
grestore
stroke
grestore
gsave
405.8 460.8 631 57.6 clipbox
0 0 p0_50
gsave
0.175 0.118 0.242 setrgbcolor
fill
grestore
stroke
grestore
gsave
405.8 460.8 631 57.6 clipbox
0 0 p0_51
gsave
0.175 0.118 0.242 setrgbcolor
fill
grestore
stroke
grestore
gsave
405.8 460.8 631 57.6 clipbox
0 0 p0_52
gsave
0.977 0.946 0.927 setrgbcolor
fill
grestore
stroke
grestore
gsave
405.8 460.8 631 57.6 clipbox
0 0 p0_53
gsave
0.977 0.946 0.927 setrgbcolor
fill
grestore
stroke
grestore
gsave
405.8 460.8 631 57.6 clipbox
0 0 p0_54
gsave
0.977 0.946 0.927 setrgbcolor
fill
grestore
stroke
grestore
gsave
405.8 460.8 631 57.6 clipbox
0 0 p0_55
gsave
0.977 0.946 0.927 setrgbcolor
fill
grestore
stroke
grestore
gsave
405.8 460.8 631 57.6 clipbox
0 0 p0_56
gsave
0.977 0.946 0.927 setrgbcolor
fill
grestore
stroke
grestore
gsave
405.8 460.8 631 57.6 clipbox
0 0 p0_57
gsave
0.977 0.946 0.927 setrgbcolor
fill
grestore
stroke
grestore
gsave
405.8 460.8 631 57.6 clipbox
0 0 p0_58
gsave
0.977 0.946 0.927 setrgbcolor
fill
grestore
stroke
grestore
gsave
405.8 460.8 631 57.6 clipbox
0 0 p0_59
gsave
0.977 0.946 0.927 setrgbcolor
fill
grestore
stroke
grestore
gsave
405.8 460.8 631 57.6 clipbox
0 0 p0_5a
gsave
0.175 0.118 0.242 setrgbcolor
fill
grestore
stroke
grestore
gsave
405.8 460.8 631 57.6 clipbox
0 0 p0_5b
gsave
0.175 0.118 0.242 setrgbcolor
fill
grestore
stroke
grestore
gsave
405.8 460.8 631 57.6 clipbox
0 0 p0_5c
gsave
0.977 0.946 0.927 setrgbcolor
fill
grestore
stroke
grestore
gsave
405.8 460.8 631 57.6 clipbox
0 0 p0_5d
gsave
0.977 0.946 0.927 setrgbcolor
fill
grestore
stroke
grestore
gsave
405.8 460.8 631 57.6 clipbox
0 0 p0_5e
gsave
0.977 0.946 0.927 setrgbcolor
fill
grestore
stroke
grestore
gsave
405.8 460.8 631 57.6 clipbox
0 0 p0_5f
gsave
0.977 0.946 0.927 setrgbcolor
fill
grestore
stroke
grestore
gsave
405.8 460.8 631 57.6 clipbox
0 0 p0_60
gsave
0.977 0.946 0.927 setrgbcolor
fill
grestore
stroke
grestore
gsave
405.8 460.8 631 57.6 clipbox
0 0 p0_61
gsave
0.977 0.946 0.927 setrgbcolor
fill
grestore
stroke
grestore
gsave
405.8 460.8 631 57.6 clipbox
0 0 p0_62
gsave
0.977 0.946 0.927 setrgbcolor
fill
grestore
stroke
grestore
gsave
405.8 460.8 631 57.6 clipbox
0 0 p0_63
gsave
0.977 0.946 0.927 setrgbcolor
fill
grestore
stroke
grestore

end
showpage
