\relax 
\@writefile{toc}{\contentsline {section}{\numberline {1}Introduction}{1}}
\@writefile{toc}{\contentsline {section}{\numberline {2}Posts view}{1}}
\@writefile{toc}{\contentsline {section}{\numberline {3}Authors view}{2}}
\@writefile{toc}{\contentsline {section}{\numberline {4}Temporal view}{2}}
\@writefile{toc}{\contentsline {section}{\numberline {5}Parent view}{2}}
