\relax 
\providecommand\hyper@newdestlabel[2]{}
\providecommand*{\memsetcounter}[2]{}
\providecommand\HyperFirstAtBeginDocument{\AtBeginDocument}
\HyperFirstAtBeginDocument{\ifx\hyper@anchor\@undefined
\global\let\oldcontentsline\contentsline
\gdef\contentsline#1#2#3#4{\oldcontentsline{#1}{#2}{#3}}
\global\let\oldnewlabel\newlabel
\gdef\newlabel#1#2{\newlabelxx{#1}#2}
\gdef\newlabelxx#1#2#3#4#5#6{\oldnewlabel{#1}{{#2}{#3}}}
\AtEndDocument{\ifx\hyper@anchor\@undefined
\let\contentsline\oldcontentsline
\let\newlabel\oldnewlabel
\fi}
\fi}
\global\let\hyper@last\relax 
\gdef\HyperFirstAtBeginDocument#1{#1}
\providecommand\HyField@AuxAddToFields[1]{}
\providecommand\HyField@AuxAddToCoFields[2]{}
\@writefile{@@@}{\chapterbegin }
\@writefile{@@@}{\chapterbegin }
\@writefile{@@@}{\chapterbegin }
\@writefile{@@@}{\chapterbegin }
\@writefile{toc}{\contentsline {chapter}{Contents}{ix}{section*.8}}
\citation{Duggan2015}
\citation{Kumar2010,Gomez2012}
\citation{kollock1998}
\citation{McFarland2016,Tinati2014}
\@writefile{lof}{\addvspace {10pt}}
\@writefile{lot}{\addvspace {10pt}}
\@writefile{toc}{\contentsline {chapter}{\chapternumberline {1}Introduction}{1}{chapter.1}}
\@writefile{loa}{\addvspace {10\p@ }}
\@writefile{lof}{\contentsline {xchapter}{}{1}{chapter.1}}
\@writefile{lot}{\contentsline {xchapter}{}{1}{chapter.1}}
\newlabel{ch:first}{{\M@TitleReference {1}{Introduction}}{1}{Introduction}{chapter.1}{}}
\citation{Golder2003}
\citation{Nash1975}
\@writefile{toc}{\contentsline {section}{\numberline {1.1}Role Theory}{2}{section.1.1}}
\newlabel{sec:roletheory}{{\M@TitleReference {1.1}{Role Theory}}{2}{Role Theory}{section.1.1}{}}
\citation{Goffman1959}
\citation{Golder2004}
\citation{Foucault2003}
\citation{Biddle1979}
\citation{Lynton1936,Parsons1951}
\citation{Mead1934}
\citation{Nadel1957}
\citation{White1976}
\citation{Biddle1986}
\citation{Biddle1979}
\@writefile{toc}{\contentsline {section}{\numberline {1.2}Online forums}{4}{section.1.2}}
\@writefile{toc}{\contentsline {subsection}{\numberline {1.2.1}Vocabulary}{4}{subsection.1.2.1}}
\citation{Whittaker1998}
\citation{Kumar2014}
\citation{Cheng2015}
\citation{Agarwal2008}
\citation{Forestier2012}
\citation{Goyal2008}
\citation{Chan2010}
\@writefile{toc}{\contentsline {subsection}{\numberline {1.2.2}Forums as graphs}{5}{subsection.1.2.2}}
\newlabel{sec:representations}{{\M@TitleReference {1.2.2}{Forums as graphs}}{5}{Forums as graphs}{subsection.1.2.2}{}}
\@writefile{toc}{\contentsline {section}{\numberline {1.3}Role detection in online communities}{5}{section.1.3}}
\newlabel{sec:soa}{{\M@TitleReference {1.3}{Role detection in online communities}}{5}{Role detection in online communities}{section.1.3}{}}
\citation{Golder2004}
\citation{Glea2009}
\@writefile{lof}{\contentsline {figure}{\numberline {1.1}{\ignorespaces A thread represented as a graph of interactions and as a tree graph}}{6}{figure.1.1}}
\newlabel{fig:thread_representations}{{\M@TitleReference {1.1}{A thread represented as a graph of interactions and as a tree graph}}{6}{A thread represented as a graph of interactions and as a tree graph}{figure.1.1}{}}
\@writefile{toc}{\contentsline {subsection}{\numberline {1.3.1}Social sciences}{6}{subsection.1.3.1}}
\citation{Glea2009}
\citation{Lorrain1971}
\citation{White1983}
\citation{Holland1983}
\citation{Nowicki2001}
\@writefile{toc}{\contentsline {subsection}{\numberline {1.3.2}Blockmodeling}{7}{subsection.1.3.2}}
\citation{Daudin2008,Latouche2012}
\citation{Dubois2013}
\citation{Airoldi2008}
\citation{Fu2009,Xing2011}
\citation{kemp2004,Kemp2006}
\citation{Daudin2008}
\citation{Himelboim2009}
\citation{Welser2007}
\@writefile{lof}{\contentsline {figure}{\numberline {1.2}{\ignorespaces Blockmodeling over the interactions matrix of the 100 most active users}}{9}{figure.1.2}}
\newlabel{fig:blockmodels}{{\M@TitleReference {1.2}{Blockmodeling over the interactions matrix of the 100 most active users}}{9}{Blockmodeling over the interactions matrix of the 100 most active users}{figure.1.2}{}}
\@writefile{toc}{\contentsline {subsection}{\numberline {1.3.3}Feature-based}{9}{subsection.1.3.3}}
\citation{Glea2009}
\citation{Buntain2014}
\citation{Chan2010}
\citation{White2012}
\citation{Angeletou2011}
\citation{Rowe2013}
\citation{Angeletou2011}
\citation{Anokhin2012a}
\citation{Hirsch2005}
\citation{Egghe2006}
\citation{Forestier2012}
\citation{Golder2004}
\citation{Rowe2013}
\citation{Himelboim2009,Chan2010}
\citation{Himelboim2009}
\citation{Himelboim2009}
\citation{Chan2010}
\citation{Rowe2013}
\citation{Forestier2012,Rowe2013}
\citation{Chan2010}
\citation{Chan2010}
\citation{Rowe2013}
\citation{Nolker2005}
\citation{Nolker2005}
\citation{Chan2010,White2012}
\citation{Chan2010,Forestier2012}
\citation{Chan2010}
\citation{Chan2010,White2012}
\citation{Chan2010,White2012}
\citation{Forestier2012,Rowe2013}
\citation{White2012,Forestier2012}
\citation{Rowe2013}
\citation{Nolker2005,Buntain2014}
\citation{Buntain2014}
\citation{White2012}
\citation{White2012}
\citation{Buntain2014}
\citation{Buntain2014}
\citation{Buntain2014}
\citation{Buntain2014}
\citation{Nolker2005}
\citation{Nolker2005}
\citation{Lui2010}
\citation{Holland1970}
\citation{Holland1970}
\citation{Wasserman1994}
\citation{Milo2002}
\citation{Adamic2008}
\@writefile{toc}{\contentsline {subsection}{\numberline {1.3.4}Triads and motifs}{10}{subsection.1.3.4}}
\@writefile{lot}{\contentsline {table}{\numberline {1.1}{\ignorespaces Features for role detection}}{11}{table.1.1}}
\newlabel{table:features}{{\M@TitleReference {1.1}{Features for role detection}}{11}{Features for role detection}{table.1.1}{}}
\citation{Wernicke2006}
\citation{Birmele2010a}
\citation{Dorat2007}
\citation{Gomez2012}
\citation{Viegas2004}
\citation{Fisher2006}
\citation{Welser2007}
\@writefile{lof}{\contentsline {figure}{\numberline {1.3}{\ignorespaces List of all possible triads and their labels in MAN notation \citep  {Holland1970}. This notation records the number of mutual (M), asymmetric, (A) and null (N) dyads in each triad, along with further indication of the direction of ties.}}{12}{figure.1.3}}
\newlabel{fig:triads}{{\M@TitleReference {1.3}{List of all possible triads and their labels in MAN notation \citep  {Holland1970}. This notation records the number of mutual (M), asymmetric, (A) and null (N) dyads in each triad, along with further indication of the direction of ties.}}{12}{List of all possible triads and their labels in MAN notation \citep {Holland1970}. This notation records the number of mutual (M), asymmetric, (A) and null (N) dyads in each triad, along with further indication of the direction of ties}{figure.1.3}{}}
\@writefile{toc}{\contentsline {subsection}{\numberline {1.3.5}Other methods}{12}{subsection.1.3.5}}
\citation{Furtado2013}
\citation{Maia2008}
\citation{Labatut2014}
\citation{Zhang2007}
\citation{Welser2011}
\citation{Glea2009}
\citation{Golder2004}
\citation{McCallum2007}
\citation{Scripps2007,Chou2010,Gliwa2013,Henderson2012}
\citation{Rossi2013}
\@writefile{toc}{\contentsline {section}{\numberline {1.4}Industrial context of the thesis}{13}{section.1.4}}
\@writefile{toc}{\contentsline {section}{\numberline {1.5}Outline of the thesis}{14}{section.1.5}}
\newlabel{sec:summary}{{\M@TitleReference {1.5}{Outline of the thesis}}{14}{Outline of the thesis}{section.1.5}{}}
\citation{Lumbreras2013}
\citation{Kan2012,Angeletou2011,Chan2010}
\citation{Gomez2008,Kaltenbrunner2007,Gomez2010,Gomez2012}
\@writefile{lof}{\addvspace {10pt}}
\@writefile{lot}{\addvspace {10pt}}
\@writefile{toc}{\contentsline {chapter}{\chapternumberline {2}Analysis of datasets}{17}{chapter.2}}
\@writefile{loa}{\addvspace {10\p@ }}
\@writefile{lof}{\contentsline {xchapter}{}{17}{chapter.2}}
\@writefile{lot}{\contentsline {xchapter}{}{17}{chapter.2}}
\newlabel{ch:two}{{\M@TitleReference {2}{Analysis of datasets}}{17}{Analysis of datasets}{chapter.2}{}}
\citation{Wang2012e}
\@writefile{lot}{\contentsline {table}{\numberline {2.1}{\ignorespaces Datasets used in this thesis. All comments made between 2013 and 2016 in five Reddit subforums.}}{18}{table.2.1}}
\newlabel{tab:forums}{{\M@TitleReference {2.1}{Datasets used in this thesis. All comments made between 2013 and 2016 in five Reddit subforums.}}{18}{Datasets used in this thesis. All comments made between 2013 and 2016 in five Reddit subforums}{table.2.1}{}}
\@writefile{toc}{\contentsline {section}{\numberline {2.1}Forum dynamics}{19}{section.2.1}}
\@writefile{toc}{\contentsline {subsection}{\numberline {2.1.1}Posting activity}{19}{subsection.2.1.1}}
\@writefile{lof}{\contentsline {figure}{\numberline {2.1}{\ignorespaces Posts by day (gaps in figures are missing data).}}{20}{figure.2.1}}
\newlabel{fig:posts_by_day}{{\M@TitleReference {2.1}{Posts by day (gaps in figures are missing data).}}{20}{Posts by day (gaps in figures are missing data)}{figure.2.1}{}}
\@writefile{toc}{\contentsline {subsection}{\numberline {2.1.2}Newbies versus oldies}{20}{subsection.2.1.2}}
\@writefile{lof}{\contentsline {figure}{\numberline {2.2}{\ignorespaces Thread lengths by day}}{21}{figure.2.2}}
\newlabel{fig:lengths_by_day}{{\M@TitleReference {2.2}{Thread lengths by day}}{21}{Thread lengths by day}{figure.2.2}{}}
\@writefile{lof}{\contentsline {figure}{\numberline {2.3}{\ignorespaces Births by day. Dotted lines are users that had already written before (\textit  {oldies}). Birth peaks are very related to peaks in number of posts.}}{22}{figure.2.3}}
\newlabel{fig:births}{{\M@TitleReference {2.3}{Births by day. Dotted lines are users that had already written before (\textit  {oldies}). Birth peaks are very related to peaks in number of posts.}}{22}{Births by day. Dotted lines are users that had already written before (\textit {oldies}). Birth peaks are very related to peaks in number of posts}{figure.2.3}{}}
\@writefile{lof}{\contentsline {figure}{\numberline {2.4}{\ignorespaces Percentage of posts written by new users each month.}}{23}{figure.2.4}}
\newlabel{fig:forum_posts_new_vs_old_members}{{\M@TitleReference {2.4}{Percentage of posts written by new users each month.}}{23}{Percentage of posts written by new users each month}{figure.2.4}{}}
\@writefile{lot}{\contentsline {table}{\numberline {2.2}{\ignorespaces Number of users with more than 100 and 1000 posts.}}{23}{table.2.2}}
\newlabel{tab:active_users}{{\M@TitleReference {2.2}{Number of users with more than 100 and 1000 posts.}}{23}{Number of users with more than 100 and 1000 posts}{table.2.2}{}}
\@writefile{toc}{\contentsline {section}{\numberline {2.2}User dynamics}{23}{section.2.2}}
\@writefile{toc}{\contentsline {subsection}{\numberline {2.2.1}Posting}{23}{subsection.2.2.1}}
\@writefile{toc}{\contentsline {subsection}{\numberline {2.2.2}Lifespans}{23}{subsection.2.2.2}}
\@writefile{lof}{\contentsline {figure}{\numberline {2.5}{\ignorespaces Distribution of users age by month (boxplots). Means marked by red circles.}}{24}{figure.2.5}}
\newlabel{fig:forum_users_age_by_month}{{\M@TitleReference {2.5}{Distribution of users age by month (boxplots). Means marked by red circles.}}{24}{Distribution of users age by month (boxplots). Means marked by red circles}{figure.2.5}{}}
\@writefile{toc}{\contentsline {subsection}{\numberline {2.2.3}Communities}{24}{subsection.2.2.3}}
\citation{Blondel2008}
\@writefile{lof}{\contentsline {figure}{\numberline {2.6}{\ignorespaces User activity. (\textit  {Top}) Distribution of number of posts. (\textit  {Bottom}) Complementary Cumulative Distribution with MLE fits of Power Law (dashed) and Log-normal (solid) distributions.}}{25}{figure.2.6}}
\newlabel{fig:distribution_activity}{{\M@TitleReference {2.6}{User activity. (\textit  {Top}) Distribution of number of posts. (\textit  {Bottom}) Complementary Cumulative Distribution with MLE fits of Power Law (dashed) and Log-normal (solid) distributions.}}{25}{User activity. (\textit {Top}) Distribution of number of posts. (\textit {Bottom}) Complementary Cumulative Distribution with MLE fits of Power Law (dashed) and Log-normal (solid) distributions}{figure.2.6}{}}
\citation{Gomez2012}
\@writefile{lof}{\contentsline {figure}{\numberline {2.7}{\ignorespaces User lifespans (time between first and last post). (\textit  {Top}) Distribution of lifespans. (\textit  {Bottom}) Complementary Cumulative Distribution.}}{26}{figure.2.7}}
\newlabel{fig:users_distribution_life}{{\M@TitleReference {2.7}{User lifespans (time between first and last post). (\textit  {Top}) Distribution of lifespans. (\textit  {Bottom}) Complementary Cumulative Distribution.}}{26}{User lifespans (time between first and last post). (\textit {Top}) Distribution of lifespans. (\textit {Bottom}) Complementary Cumulative Distribution}{figure.2.7}{}}
\@writefile{toc}{\contentsline {section}{\numberline {2.3}Conversation dynamics}{26}{section.2.3}}
\@writefile{toc}{\contentsline {subsection}{\numberline {2.3.1}Thread size}{26}{subsection.2.3.1}}
\newlabel{fig:communities_coparticipation_a}{{2.8(a)}{27}{Subfigure 2.8(a)\relax }{subfigure.1}{}}
\newlabel{sub@fig:communities_coparticipation_a}{{(a)}{27}{Subfigure 2.8(a)\relax }{subfigure.1}{}}
\newlabel{fig:communities_coparticipation_b}{{2.8(b)}{27}{Subfigure 2.8(b)\relax }{subfigure.2}{}}
\newlabel{sub@fig:communities_coparticipation_b}{{(b)}{27}{Subfigure 2.8(b)\relax }{subfigure.2}{}}
\newlabel{fig:communities_coparticipation_c}{{2.8(c)}{27}{Subfigure 2.8(c)\relax }{subfigure.3}{}}
\newlabel{sub@fig:communities_coparticipation_c}{{(c)}{27}{Subfigure 2.8(c)\relax }{subfigure.3}{}}
\@writefile{lof}{\contentsline {figure}{\numberline {2.8}{\ignorespaces Copartipation communities for three of the forums.}}{27}{figure.2.8}}
\newlabel{fig:communities_coparticipation}{{\M@TitleReference {2.8}{Copartipation communities for three of the forums.}}{27}{Copartipation communities for three of the forums}{figure.2.8}{}}
\@writefile{lof}{\contentsline {subfigure}{\numberline{(a)}{\ignorespaces Size of coparticipation communities. The five biggest communities are shown in the bars. The points indicate the total number of users. Spaces between bars and points correspond to users in smaller communities.}}{27}{figure.2.8}}
\@writefile{lof}{\contentsline {subfigure}{\numberline{(b)}{\ignorespaces Evolution of modularity over time. }}{27}{figure.2.8}}
\@writefile{lof}{\contentsline {subfigure}{\numberline{(c)}{\ignorespaces Size of coparticipation communities when all participations are aggregated to the same graph regardless of their time.}}{27}{figure.2.8}}
\@writefile{lof}{\contentsline {figure}{\numberline {2.9}{\ignorespaces (\textit  {Top}) Threads size distributions. (\textit  {Bottom}) Complementary Cumulative Distribution with MLE fits of Power Law (dashed) and Log-normal (solid) distributions.}}{28}{figure.2.9}}
\newlabel{fig:distribution_threadlengths}{{\M@TitleReference {2.9}{(\textit  {Top}) Threads size distributions. (\textit  {Bottom}) Complementary Cumulative Distribution with MLE fits of Power Law (dashed) and Log-normal (solid) distributions.}}{28}{(\textit {Top}) Threads size distributions. (\textit {Bottom}) Complementary Cumulative Distribution with MLE fits of Power Law (dashed) and Log-normal (solid) distributions}{figure.2.9}{}}
\@writefile{toc}{\contentsline {subsection}{\numberline {2.3.2}Thread duration}{28}{subsection.2.3.2}}
\@writefile{toc}{\contentsline {subsection}{\numberline {2.3.3}Motifs of interaction in threads}{28}{subsection.2.3.3}}
\@writefile{lof}{\contentsline {figure}{\numberline {2.10}{\ignorespaces Time from posts to root. Vertical lines mark the first hour, the first day and the first 30 days. Most posts arrive between the first hour and the first day. Conversations are practically over after the first day.}}{29}{figure.2.10}}
\newlabel{fig:timetoroot}{{\M@TitleReference {2.10}{Time from posts to root. Vertical lines mark the first hour, the first day and the first 30 days. Most posts arrive between the first hour and the first day. Conversations are practically over after the first day.}}{29}{Time from posts to root. Vertical lines mark the first hour, the first day and the first 30 days. Most posts arrive between the first hour and the first day. Conversations are practically over after the first day}{figure.2.10}{}}
\@writefile{lof}{\contentsline {figure}{\numberline {2.11}{\ignorespaces Evolution of triad census over time}}{30}{figure.2.11}}
\newlabel{fig:triad_census_evol}{{\M@TitleReference {2.11}{Evolution of triad census over time}}{30}{Evolution of triad census over time}{figure.2.11}{}}
\@writefile{lof}{\contentsline {figure}{\numberline {2.12}{\ignorespaces Triads motifs in the tree graphs. z-score with respect to the expected frequency in a random tree where all posts have the same probability to be chosen as parent.}}{31}{figure.2.12}}
\newlabel{fig:tree_motifs_by_date}{{\M@TitleReference {2.12}{Triads motifs in the tree graphs. z-score with respect to the expected frequency in a random tree where all posts have the same probability to be chosen as parent.}}{31}{Triads motifs in the tree graphs. z-score with respect to the expected frequency in a random tree where all posts have the same probability to be chosen as parent}{figure.2.12}{}}
\@writefile{toc}{\contentsline {section}{\numberline {2.4}Summary}{32}{section.2.4}}
\citation{Forestier2012}
\@writefile{lof}{\addvspace {10pt}}
\@writefile{lot}{\addvspace {10pt}}
\@writefile{toc}{\contentsline {chapter}{\chapternumberline {3}Role detection based on conversation structures}{33}{chapter.3}}
\@writefile{loa}{\addvspace {10\p@ }}
\@writefile{lof}{\contentsline {xchapter}{}{33}{chapter.3}}
\@writefile{lot}{\contentsline {xchapter}{}{33}{chapter.3}}
\newlabel{ch:three}{{\M@TitleReference {3}{Role detection based on conversation structures}}{33}{Role detection based on conversation structures}{chapter.3}{}}
\@writefile{lof}{\contentsline {figure}{\numberline {3.1}{\ignorespaces Trees with different local conversation structures.}}{34}{figure.3.1}}
\newlabel{fig:ch3_trees}{{\M@TitleReference {3.1}{Trees with different local conversation structures.}}{34}{Trees with different local conversation structures}{figure.3.1}{}}
\@writefile{toc}{\contentsline {section}{\numberline {3.1}Discussion trees}{34}{section.3.1}}
\@writefile{toc}{\contentsline {section}{\numberline {3.2}Methodology}{35}{section.3.2}}
\@writefile{toc}{\contentsline {subsection}{\numberline {3.2.1}Neighborhood extraction}{35}{subsection.3.2.1}}
\newlabel{sec:extraction}{{\M@TitleReference {3.2.1}{Neighborhood extraction}}{35}{Neighborhood extraction}{subsection.3.2.1}{}}
\@writefile{loa}{\contentsline {algocf}{\numberline {1}{\ignorespaces Neighborhood extraction}}{36}{algocf.1}}
\newlabel{alg:neighborhood_extraction}{{\M@TitleReference {1}{Neighborhood extraction}}{36}{Neighborhood extraction}{algocf.1}{}}
\@writefile{toc}{\contentsline {subsection}{\numberline {3.2.2}Clustering}{37}{subsection.3.2.2}}
\@writefile{toc}{\contentsline {section}{\numberline {3.3}Radius-based neighborhoods}{37}{section.3.3}}
\newlabel{sec:radius}{{\M@TitleReference {3.3}{Radius-based neighborhoods}}{37}{Radius-based neighborhoods}{section.3.3}{}}
\citation{Backstrom2013}
\citation{Himelboim2009,Lumbreras2013}
\citation{Gomez2010,Gomez2012}
\@writefile{toc}{\contentsline {subsubsection}{Coloring}{38}{section*.9}}
\newlabel{sec:coloring}{{\M@TitleReference {3.3}{Coloring}}{38}{Coloring}{section*.9}{}}
\@writefile{toc}{\contentsline {subsubsection}{Pruning}{39}{section*.10}}
\newlabel{sec:pruning}{{\M@TitleReference {3.3}{Pruning}}{39}{Pruning}{section*.10}{}}
\@writefile{toc}{\contentsline {subsubsection}{Choice of radius}{39}{section*.11}}
\@writefile{toc}{\contentsline {subsection}{\numberline {3.3.1}Results for radius-based neighborhood}{39}{subsection.3.3.1}}
\@writefile{toc}{\contentsline {subsubsection}{Results for $\mathbf  {r=1}$}{39}{section*.12}}
\newlabel{fig:dict_motifs_radius_r1_a}{{3.2(a)}{40}{Subfigure 3.2(a)\relax }{subfigure.1}{}}
\newlabel{sub@fig:dict_motifs_radius_r1_a}{{(a)}{40}{Subfigure 3.2(a)\relax }{subfigure.1}{}}
\newlabel{fig:dict_motifs_radius_r1_b}{{3.2(b)}{40}{Subfigure 3.2(b)\relax }{subfigure.2}{}}
\newlabel{sub@fig:dict_motifs_radius_r1_b}{{(b)}{40}{Subfigure 3.2(b)\relax }{subfigure.2}{}}
\@writefile{lof}{\contentsline {figure}{\numberline {3.2}{\ignorespaces Radius-based neighborhoods (r=1)}}{40}{figure.3.2}}
\newlabel{fig:dict_motifs_radius_r1}{{\M@TitleReference {3.2}{Radius-based neighborhoods (r=1)}}{40}{Radius-based neighborhoods (r=1)}{figure.3.2}{}}
\@writefile{lof}{\contentsline {subfigure}{\numberline{(a)}{\ignorespaces Dictionary of motifs sorted by median probability. }}{40}{figure.3.2}}
\@writefile{lof}{\contentsline {subfigure}{\numberline{(b)}{\ignorespaces Boxplots of the entries (probabilities) in the feature vectors (each dot is a user). The red solid line indicates the medians.}}{40}{figure.3.2}}
\newlabel{fig:cluster_radius_r1_a}{{3.3(a)}{41}{Subfigure 3.3(a)\relax }{subfigure.1}{}}
\newlabel{sub@fig:cluster_radius_r1_a}{{(a)}{41}{Subfigure 3.3(a)\relax }{subfigure.1}{}}
\newlabel{fig:cluster_radius_r1_b}{{3.3(b)}{41}{Subfigure 3.3(b)\relax }{subfigure.2}{}}
\newlabel{sub@fig:cluster_radius_r1_b}{{(b)}{41}{Subfigure 3.3(b)\relax }{subfigure.2}{}}
\@writefile{lof}{\contentsline {figure}{\numberline {3.3}{\ignorespaces Clusters with radius-based neighborhoods (r=1)}}{41}{figure.3.3}}
\newlabel{fig:cluster_radius_r1}{{\M@TitleReference {3.3}{Clusters with radius-based neighborhoods (r=1)}}{41}{Clusters with radius-based neighborhoods (r=1)}{figure.3.3}{}}
\@writefile{lof}{\contentsline {subfigure}{\numberline{(a)}{\ignorespaces Heatmap of feature matrices re-arranged after clustering.Clusters are sorted by size (the biggest in the bottom) }}{41}{figure.3.3}}
\@writefile{lof}{\contentsline {subfigure}{\numberline{(b)}{\ignorespaces Mean feature vectors by cluster (three most dominant features). Clusters are labeled by size (1 for the biggest). }}{41}{figure.3.3}}
\citation{Chan2010}
\@writefile{lot}{\contentsline {table}{\numberline {3.1}{\ignorespaces Summary of clusters with radius-based neighborhoods (r=1). Clusters with similar first and second motif, but different third motif, have been collapsed into the same group (the third motif is marked with an asterisk). The question mark corresponds to the \textit  {others} category.}}{42}{table.3.1}}
\newlabel{tab:summary_motifs_radius_r1}{{\M@TitleReference {3.1}{Summary of clusters with radius-based neighborhoods (r=1). Clusters with similar first and second motif, but different third motif, have been collapsed into the same group (the third motif is marked with an asterisk). The question mark corresponds to the \textit  {others} category.}}{42}{Summary of clusters with radius-based neighborhoods (r=1). Clusters with similar first and second motif, but different third motif, have been collapsed into the same group (the third motif is marked with an asterisk). The question mark corresponds to the \textit {others} category}{table.3.1}{}}
\@writefile{lot}{\contentsline {table}{\numberline {3.2}{\ignorespaces Summary of clusters with radius-based neighborhoods (r=2). Clusters with similar first and second motif, but different third motif, have been collapsed into a same group (the third motif is marked with an asterisk). The question mark corresponds to the \textit  {others} category.}}{43}{table.3.2}}
\newlabel{tab:summary_motifs_radius_r2}{{\M@TitleReference {3.2}{Summary of clusters with radius-based neighborhoods (r=2). Clusters with similar first and second motif, but different third motif, have been collapsed into a same group (the third motif is marked with an asterisk). The question mark corresponds to the \textit  {others} category.}}{43}{Summary of clusters with radius-based neighborhoods (r=2). Clusters with similar first and second motif, but different third motif, have been collapsed into a same group (the third motif is marked with an asterisk). The question mark corresponds to the \textit {others} category}{table.3.2}{}}
\@writefile{toc}{\contentsline {subsubsection}{Results for $\mathbf  {r=2}$}{43}{section*.13}}
\newlabel{fig:dict_motifs_radius_r2_a}{{3.4(a)}{44}{Subfigure 3.4(a)\relax }{subfigure.1}{}}
\newlabel{sub@fig:dict_motifs_radius_r2_a}{{(a)}{44}{Subfigure 3.4(a)\relax }{subfigure.1}{}}
\newlabel{fig:dict_motifs_radius_r2_b}{{3.4(b)}{44}{Subfigure 3.4(b)\relax }{subfigure.2}{}}
\newlabel{sub@fig:dict_motifs_radius_r2_b}{{(b)}{44}{Subfigure 3.4(b)\relax }{subfigure.2}{}}
\@writefile{lof}{\contentsline {figure}{\numberline {3.4}{\ignorespaces Radius-based neighborhoods (r=2)}}{44}{figure.3.4}}
\newlabel{fig:dict_motifs_radius_r2}{{\M@TitleReference {3.4}{Radius-based neighborhoods (r=2)}}{44}{Radius-based neighborhoods (r=2)}{figure.3.4}{}}
\@writefile{lof}{\contentsline {subfigure}{\numberline{(a)}{\ignorespaces Dictionary of the first motifs sorted by median probability (out of 1269). }}{44}{figure.3.4}}
\@writefile{lof}{\contentsline {subfigure}{\numberline{(b)}{\ignorespaces Boxplots of the entries (probabilities) in the feature vectors (each dot is a user). The red solid line indicates the medians. }}{44}{figure.3.4}}
\newlabel{fig:cluster_radius_r2_a}{{3.5(a)}{45}{Subfigure 3.5(a)\relax }{subfigure.1}{}}
\newlabel{sub@fig:cluster_radius_r2_a}{{(a)}{45}{Subfigure 3.5(a)\relax }{subfigure.1}{}}
\newlabel{fig:cluster_radius_r2_b}{{3.5(b)}{45}{Subfigure 3.5(b)\relax }{subfigure.2}{}}
\newlabel{sub@fig:cluster_radius_r2_b}{{(b)}{45}{Subfigure 3.5(b)\relax }{subfigure.2}{}}
\@writefile{lof}{\contentsline {figure}{\numberline {3.5}{\ignorespaces Clusters with radius-based neighborhoods (r=2)}}{45}{figure.3.5}}
\newlabel{fig:cluster_radius_r2}{{\M@TitleReference {3.5}{Clusters with radius-based neighborhoods (r=2)}}{45}{Clusters with radius-based neighborhoods (r=2)}{figure.3.5}{}}
\@writefile{lof}{\contentsline {subfigure}{\numberline{(a)}{\ignorespaces Heatmap of feature matrices re-arranged after clustering. Clusters are labeled by size (1 for the biggest) }}{45}{figure.3.5}}
\@writefile{lof}{\contentsline {subfigure}{\numberline{(b)}{\ignorespaces Mean feature vectors by cluster (three most dominant features). Clusters are labeled by size (1 for the biggest). }}{45}{figure.3.5}}
\@writefile{lof}{\contentsline {figure}{\numberline {3.6}{\ignorespaces Four motifs detected using radius-based neighborhood with $r=2$ that are considered the same with $r=1$. For $r=1$, all four are seen as the three-vertices motif on the left.}}{46}{figure.3.6}}
\newlabel{fig:specialized_motif}{{\M@TitleReference {3.6}{Four motifs detected using radius-based neighborhood with $r=2$ that are considered the same with $r=1$. For $r=1$, all four are seen as the three-vertices motif on the left.}}{46}{Four motifs detected using radius-based neighborhood with $r=2$ that are considered the same with $r=1$. For $r=1$, all four are seen as the three-vertices motif on the left}{figure.3.6}{}}
\@writefile{toc}{\contentsline {section}{\numberline {3.4}Order-based neighborhoods}{47}{section.3.4}}
\newlabel{sec:order}{{\M@TitleReference {3.4}{Order-based neighborhoods}}{47}{Order-based neighborhoods}{section.3.4}{}}
\@writefile{toc}{\contentsline {subsection}{\numberline {3.4.1}Pruning and coloring}{47}{subsection.3.4.1}}
\@writefile{lot}{\contentsline {table}{\numberline {3.3}{\ignorespaces Summary of clusters with order-based neighborhoods (r=3). Clusters with similar first and second motif, but different third motif, have been collapsed into a same group (the third motif is marked with an asterisk). The question mark corresponds to the \textit  {others} category.}}{48}{table.3.3}}
\newlabel{tab:summary_motifs_order}{{\M@TitleReference {3.3}{Summary of clusters with order-based neighborhoods (r=3). Clusters with similar first and second motif, but different third motif, have been collapsed into a same group (the third motif is marked with an asterisk). The question mark corresponds to the \textit  {others} category.}}{48}{Summary of clusters with order-based neighborhoods (r=3). Clusters with similar first and second motif, but different third motif, have been collapsed into a same group (the third motif is marked with an asterisk). The question mark corresponds to the \textit {others} category}{table.3.3}{}}
\@writefile{toc}{\contentsline {subsubsection}{Choice of radius}{48}{section*.14}}
\@writefile{toc}{\contentsline {subsection}{\numberline {3.4.2}Results for order-based neighborhood}{48}{subsection.3.4.2}}
\newlabel{fig:dict_motifs_order_r3_a}{{3.7(a)}{49}{Subfigure 3.7(a)\relax }{subfigure.1}{}}
\newlabel{sub@fig:dict_motifs_order_r3_a}{{(a)}{49}{Subfigure 3.7(a)\relax }{subfigure.1}{}}
\newlabel{fig:dict_motifs_order_r3_b}{{3.7(b)}{49}{Subfigure 3.7(b)\relax }{subfigure.2}{}}
\newlabel{sub@fig:dict_motifs_order_r3_b}{{(b)}{49}{Subfigure 3.7(b)\relax }{subfigure.2}{}}
\@writefile{lof}{\contentsline {figure}{\numberline {3.7}{\ignorespaces Order-based neighborhoods (r=3)}}{49}{figure.3.7}}
\newlabel{fig:dict_motifs_order_r3}{{\M@TitleReference {3.7}{Order-based neighborhoods (r=3)}}{49}{Order-based neighborhoods (r=3)}{figure.3.7}{}}
\@writefile{lof}{\contentsline {subfigure}{\numberline{(a)}{\ignorespaces Dictionary of the first motifs sorted by median probability }}{49}{figure.3.7}}
\@writefile{lof}{\contentsline {subfigure}{\numberline{(b)}{\ignorespaces Boxplots of the entries (probabilities) in the feature vectors (each dot is a user). The red solid line indicates the medians. }}{49}{figure.3.7}}
\newlabel{fig:cluster_order_r3_a}{{3.8(a)}{50}{Subfigure 3.8(a)\relax }{subfigure.1}{}}
\newlabel{sub@fig:cluster_order_r3_a}{{(a)}{50}{Subfigure 3.8(a)\relax }{subfigure.1}{}}
\newlabel{fig:cluster_order_r3_b}{{3.8(b)}{50}{Subfigure 3.8(b)\relax }{subfigure.2}{}}
\newlabel{sub@fig:cluster_order_r3_b}{{(b)}{50}{Subfigure 3.8(b)\relax }{subfigure.2}{}}
\@writefile{lof}{\contentsline {figure}{\numberline {3.8}{\ignorespaces Clusters with order-based neighborhoods (r=3)}}{50}{figure.3.8}}
\newlabel{fig:cluster_order_r3}{{\M@TitleReference {3.8}{Clusters with order-based neighborhoods (r=3)}}{50}{Clusters with order-based neighborhoods (r=3)}{figure.3.8}{}}
\@writefile{lof}{\contentsline {subfigure}{\numberline{(a)}{\ignorespaces Heatmap of feature matrices re-arranged after clustering }}{50}{figure.3.8}}
\@writefile{lof}{\contentsline {subfigure}{\numberline{(b)}{\ignorespaces Mean feature vectors by cluster (three most dominant features). }}{50}{figure.3.8}}
\citation{Killick2012}
\@writefile{toc}{\contentsline {section}{\numberline {3.5}Time-based neighborhoods}{51}{section.3.5}}
\newlabel{sec:time}{{\M@TitleReference {3.5}{Time-based neighborhoods}}{51}{Time-based neighborhoods}{section.3.5}{}}
\@writefile{lof}{\contentsline {figure}{\numberline {3.9}{\ignorespaces Illustration of time-based neighborhoods. The time-based neighborhood has parameter $r=3$. In the time-based neighborhood, horizontal changepoints (yellow) and vertical changepoints (orange) represent posts that are temporally far from their predecessors (siblings or parents) and therefore set the limits of the neighborhood. In this example $\mathcal  {N}_{6}^T(3)$ is the subtree induced by \{2,4,5,6,10,11,13,14,15,16,18,19\}.}}{52}{figure.3.9}}
\newlabel{fig:changepoints}{{\M@TitleReference {3.9}{Illustration of time-based neighborhoods. The time-based neighborhood has parameter $r=3$. In the time-based neighborhood, horizontal changepoints (yellow) and vertical changepoints (orange) represent posts that are temporally far from their predecessors (siblings or parents) and therefore set the limits of the neighborhood. In this example $\mathcal  {N}_{6}^T(3)$ is the subtree induced by \{2,4,5,6,10,11,13,14,15,16,18,19\}.}}{52}{Illustration of time-based neighborhoods. The time-based neighborhood has parameter $r=3$. In the time-based neighborhood, horizontal changepoints (yellow) and vertical changepoints (orange) represent posts that are temporally far from their predecessors (siblings or parents) and therefore set the limits of the neighborhood. In this example $\mathcal {N}_{6}^T(3)$ is the subtree induced by \{2,4,5,6,10,11,13,14,15,16,18,19\}}{figure.3.9}{}}
\@writefile{loa}{\contentsline {algocf}{\numberline {2}{\ignorespaces Extraction of time-based neighborhood}}{54}{algocf.2}}
\newlabel{alg:temporal_neighborhood}{{\M@TitleReference {2}{Time-based neighborhoods}}{54}{Time-based neighborhoods}{algocf.2}{}}
\@writefile{toc}{\contentsline {subsection}{\numberline {3.5.1}Choice of radius}{54}{subsection.3.5.1}}
\@writefile{toc}{\contentsline {subsection}{\numberline {3.5.2}Results for time-based neighborhood}{54}{subsection.3.5.2}}
\newlabel{fig:dict_motifs_radius_r2_a}{{3.10(a)}{55}{Subfigure 3.10(a)\relax }{subfigure.1}{}}
\newlabel{sub@fig:dict_motifs_radius_r2_a}{{(a)}{55}{Subfigure 3.10(a)\relax }{subfigure.1}{}}
\newlabel{fig:dict_motifs_time_r2_b}{{3.10(b)}{55}{Subfigure 3.10(b)\relax }{subfigure.2}{}}
\newlabel{sub@fig:dict_motifs_time_r2_b}{{(b)}{55}{Subfigure 3.10(b)\relax }{subfigure.2}{}}
\@writefile{lof}{\contentsline {figure}{\numberline {3.10}{\ignorespaces Time-based neighborhoods (r=2)}}{55}{figure.3.10}}
\newlabel{fig:dict_motifs_time_r2}{{\M@TitleReference {3.10}{Time-based neighborhoods (r=2)}}{55}{Time-based neighborhoods (r=2)}{figure.3.10}{}}
\@writefile{lof}{\contentsline {subfigure}{\numberline{(a)}{\ignorespaces Dictionary of the first motifs sorted by median probability (out of 746). }}{55}{figure.3.10}}
\@writefile{lof}{\contentsline {subfigure}{\numberline{(b)}{\ignorespaces Boxplots of the entries (probabilities) in the feature vectors (each dot is a user). The red solid line indicates the medians. }}{55}{figure.3.10}}
\newlabel{fig:cluster_time_r2_a}{{3.11(a)}{56}{Subfigure 3.11(a)\relax }{subfigure.1}{}}
\newlabel{sub@fig:cluster_time_r2_a}{{(a)}{56}{Subfigure 3.11(a)\relax }{subfigure.1}{}}
\newlabel{fig:cluster_time_r2_b}{{3.11(b)}{56}{Subfigure 3.11(b)\relax }{subfigure.2}{}}
\newlabel{sub@fig:cluster_time_r2_b}{{(b)}{56}{Subfigure 3.11(b)\relax }{subfigure.2}{}}
\@writefile{lof}{\contentsline {figure}{\numberline {3.11}{\ignorespaces Clusters with time-based neighborhoods (r=2)}}{56}{figure.3.11}}
\newlabel{fig:cluster_time_r2}{{\M@TitleReference {3.11}{Clusters with time-based neighborhoods (r=2)}}{56}{Clusters with time-based neighborhoods (r=2)}{figure.3.11}{}}
\@writefile{lof}{\contentsline {subfigure}{\numberline{(a)}{\ignorespaces Heatmap of feature matrices re-arranged after clustering }}{56}{figure.3.11}}
\@writefile{lof}{\contentsline {subfigure}{\numberline{(b)}{\ignorespaces Mean feature vectors by cluster (three most dominant features) }}{56}{figure.3.11}}
\@writefile{lot}{\contentsline {table}{\numberline {3.4}{\ignorespaces Summary of clusters with time-based neighborhoods (r=2). Clusters with similar first and second motif, but different third motif, have been collapsed into a same group (the third motif is marked with an asterisk). The question mark corresponds to the \textit  {others} category.}}{57}{table.3.4}}
\newlabel{tab:summary_motifs_time}{{\M@TitleReference {3.4}{Summary of clusters with time-based neighborhoods (r=2). Clusters with similar first and second motif, but different third motif, have been collapsed into a same group (the third motif is marked with an asterisk). The question mark corresponds to the \textit  {others} category.}}{57}{Summary of clusters with time-based neighborhoods (r=2). Clusters with similar first and second motif, but different third motif, have been collapsed into a same group (the third motif is marked with an asterisk). The question mark corresponds to the \textit {others} category}{table.3.4}{}}
\@writefile{toc}{\contentsline {section}{\numberline {3.6}Comparative analysis}{57}{section.3.6}}
\@writefile{toc}{\contentsline {section}{\numberline {3.7}Summary}{58}{section.3.7}}
\citation{Gomez2012,Kumar2010}
\@writefile{lof}{\addvspace {10pt}}
\@writefile{lot}{\addvspace {10pt}}
\@writefile{toc}{\contentsline {chapter}{\chapternumberline {4}Role detection based on thread growth models}{61}{chapter.4}}
\@writefile{loa}{\addvspace {10\p@ }}
\@writefile{lof}{\contentsline {xchapter}{}{61}{chapter.4}}
\@writefile{lot}{\contentsline {xchapter}{}{61}{chapter.4}}
\newlabel{ch:four}{{\M@TitleReference {4}{Role detection based on thread growth models}}{61}{Role detection based on thread growth models}{chapter.4}{}}
\citation{Kolaczyk2009}
\newlabel{eq:growthmodel}{{4.1}{62}{Role detection based on thread growth models}{equation.4.0.1}{}}
\citation{Gomez2012}
\citation{Kumar2010}
\citation{Gomez2012}
\citation{Kumar2010}
\citation{Gomez2012}
\citation{Barabasi1999}
\citation{Kumar2010,Gomez2010,Gomez2012}
\citation{Gomez2012}
\@writefile{lof}{\contentsline {figure}{\numberline {4.1}{\ignorespaces An example of a thread and its parents vector $\pi $. $\pi $ starts at t=1 ($\pi _1$) because the root ($\pi _0$) has not parent.}}{63}{figure.4.1}}
\newlabel{fig:parents_vector}{{\M@TitleReference {4.1}{An example of a thread and its parents vector $\pi $. $\pi $ starts at t=1 ($\pi _1$) because the root ($\pi _0$) has not parent.}}{63}{An example of a thread and its parents vector $\pi $. $\pi $ starts at t=1 ($\pi _1$) because the root ($\pi _0$) has not parent}{figure.4.1}{}}
\@writefile{toc}{\contentsline {section}{\numberline {4.1}Network Growth models}{63}{section.4.1}}
\newlabel{sec:related-work}{{\M@TitleReference {4.1}{Network Growth models}}{63}{Network Growth models}{section.4.1}{}}
\citation{Barabasi1999}
\citation{Gomez2010}
\citation{Kumar2010}
\citation{Gomez2012}
\citation{Barabasi1999}
\citation{Kumar2010}
\@writefile{lot}{\contentsline {table}{\numberline {4.1}{\ignorespaces Growth models for online discussions}}{64}{table.4.1}}
\newlabel{tab:models}{{\M@TitleReference {4.1}{Growth models for online discussions}}{64}{Growth models for online discussions}{table.4.1}{}}
\@writefile{lof}{\contentsline {figure}{\numberline {4.2}{\ignorespaces Barabasi-Albert graphs with one edge created at every step.}}{64}{figure.4.2}}
\newlabel{fig:Barabasi-Albert}{{\M@TitleReference {4.2}{Barabasi-Albert graphs with one edge created at every step.}}{64}{Barabasi-Albert graphs with one edge created at every step}{figure.4.2}{}}
\@writefile{lof}{\contentsline {subfigure}{\numberline{(a)}{\ignorespaces $\alpha =0$}}{64}{figure.4.2}}
\@writefile{lof}{\contentsline {subfigure}{\numberline{(b)}{\ignorespaces $\alpha =1$}}{64}{figure.4.2}}
\@writefile{lof}{\contentsline {subfigure}{\numberline{(c)}{\ignorespaces $\alpha =1.8$}}{64}{figure.4.2}}
\@writefile{toc}{\contentsline {subsection}{\numberline {4.1.1}Barabasi-Albert (1999)}{64}{subsection.4.1.1}}
\citation{Gomez2010}
\@writefile{toc}{\contentsline {subsection}{\numberline {4.1.2}Kumar et al. (2010)}{65}{subsection.4.1.2}}
\@writefile{toc}{\contentsline {subsection}{\numberline {4.1.3}G\IeC {\'o}mez et al. (2010)}{65}{subsection.4.1.3}}
\citation{Nelder1964}
\citation{Gomez2010}
\citation{Gomez2010}
\citation{Gomez2012}
\citation{Gomez2010}
\citation{Kumar2010}
\citation{Gomez2012}
\citation{Gomez2010}
\citation{Gomez2012}
\@writefile{toc}{\contentsline {subsection}{\numberline {4.1.4}G\IeC {\'o}mez et al. (2012)}{66}{subsection.4.1.4}}
\newlabel{eq:gomez2012}{{4.11}{66}{Gómez et al. (2012)}{equation.4.1.11}{}}
\citation{Gomez2012}
\@writefile{lof}{\contentsline {figure}{\numberline {4.3}{\ignorespaces Random graphs for discussion threads \citep  {Gomez2010}.}}{67}{figure.4.3}}
\newlabel{fig:Gomez}{{\M@TitleReference {4.3}{Random graphs for discussion threads \citep  {Gomez2010}.}}{67}{Random graphs for discussion threads \citep {Gomez2010}}{figure.4.3}{}}
\@writefile{lof}{\contentsline {subfigure}{\numberline{(a)}{\ignorespaces real}}{67}{figure.4.3}}
\@writefile{lof}{\contentsline {subfigure}{\numberline{(b)}{\ignorespaces synthetic}}{67}{figure.4.3}}
\@writefile{toc}{\contentsline {section}{\numberline {4.2}A new role-based network growth model}{67}{section.4.2}}
\newlabel{sec:lumbreras}{{\M@TitleReference {4.2}{A new role-based network growth model}}{67}{A new role-based network growth model}{section.4.2}{}}
\citation{Gomez2012}
\@writefile{toc}{\contentsline {subsection}{\numberline {4.2.1}Formalization}{68}{subsection.4.2.1}}
\@writefile{toc}{\contentsline {subsection}{\numberline {4.2.2}Expectation-Maximization for the role-based growth model}{68}{subsection.4.2.2}}
\newlabel{sec:em}{{\M@TitleReference {4.2.2}{Expectation-Maximization for the role-based growth model}}{68}{Expectation-Maximization for the role-based growth model}{subsection.4.2.2}{}}
\newlabel{eq:jensen}{{4.20}{69}{Expectation-Maximization for the role-based growth model}{equation.4.2.20}{}}
\newlabel{eq:m-step}{{4.25}{70}{Expectation-Maximization for the role-based growth model}{equation.4.2.25}{}}
\citation{Gomez2012}
\citation{Gomez2012}
\citation{Gomez2012}
\newlabel{eq:e-step}{{4.29}{71}{Expectation-Maximization for the role-based growth model}{equation.4.2.29}{}}
\@writefile{toc}{\contentsline {section}{\numberline {4.3}Experiments}{71}{section.4.3}}
\newlabel{sec:ch4_experiments}{{\M@TitleReference {4.3}{Experiments}}{71}{Experiments}{section.4.3}{}}
\@writefile{toc}{\contentsline {subsection}{\numberline {4.3.1}Dataset}{71}{subsection.4.3.1}}
\@writefile{toc}{\contentsline {subsection}{\numberline {4.3.2}Inference}{71}{subsection.4.3.2}}
\newlabel{sec:em_inference}{{\M@TitleReference {4.3.2}{Inference}}{71}{Inference}{subsection.4.3.2}{}}
\citation{Bensmail1997}
\@writefile{lof}{\contentsline {figure}{\numberline {4.4}{\ignorespaces BIC values in \texttt  {podemos} and \texttt  {gameofthrones}}}{72}{figure.4.4}}
\newlabel{fig:BIC}{{\M@TitleReference {4.4}{BIC values in \texttt  {podemos} and \texttt  {gameofthrones}}}{72}{BIC values in \texttt {podemos} and \texttt {gameofthrones}}{figure.4.4}{}}
\@writefile{lot}{\contentsline {table}{\numberline {4.2}{\ignorespaces Estimated paramaters for \texttt  {podemos}}}{73}{table.4.2}}
\newlabel{tab:parameters_podemos}{{\M@TitleReference {4.2}{Estimated paramaters for \texttt  {podemos}}}{73}{Estimated paramaters for \texttt {podemos}}{table.4.2}{}}
\@writefile{lot}{\contentsline {table}{\numberline {4.3}{\ignorespaces Estimated paramaters for \texttt  {gameofthrones}}}{73}{table.4.3}}
\newlabel{tab:parameters_got}{{\M@TitleReference {4.3}{Estimated paramaters for \texttt  {gameofthrones}}}{73}{Estimated paramaters for \texttt {gameofthrones}}{table.4.3}{}}
\citation{Gomez2012}
\@writefile{toc}{\contentsline {subsection}{\numberline {4.3.3}Structural properties}{74}{subsection.4.3.3}}
\newlabel{sec:structural_properties}{{\M@TitleReference {4.3.3}{Structural properties}}{74}{Structural properties}{subsection.4.3.3}{}}
\@writefile{toc}{\contentsline {subsection}{\numberline {4.3.4}Link prediction}{74}{subsection.4.3.4}}
\newlabel{sec:link_prediction}{{\M@TitleReference {4.3.4}{Link prediction}}{74}{Link prediction}{subsection.4.3.4}{}}
\@writefile{lof}{\contentsline {figure}{\numberline {4.5}{\ignorespaces Properties of synthetic trees and real trees in \texttt  {podemos}}}{75}{figure.4.5}}
\newlabel{fig:xp_synthetic_trees}{{\M@TitleReference {4.5}{Properties of synthetic trees and real trees in \texttt  {podemos}}}{75}{Properties of synthetic trees and real trees in \texttt {podemos}}{figure.4.5}{}}
\@writefile{lof}{\contentsline {figure}{\numberline {4.6}{\ignorespaces Mean negative log-likelihoods per cluster in the test set (lower is better)}}{76}{figure.4.6}}
\newlabel{fig:likelihoods_per_cluster}{{\M@TitleReference {4.6}{Mean negative log-likelihoods per cluster in the test set (lower is better)}}{76}{Mean negative log-likelihoods per cluster in the test set (lower is better)}{figure.4.6}{}}
\@writefile{lof}{\contentsline {subfigure}{\numberline{(a)}{\ignorespaces \texttt {podemos}}}{76}{figure.4.6}}
\@writefile{lof}{\contentsline {subfigure}{\numberline{(b)}{\ignorespaces \texttt {gameofthrones}}}{76}{figure.4.6}}
\@writefile{lof}{\contentsline {figure}{\numberline {4.7}{\ignorespaces Hits per cluster in the test set}}{77}{figure.4.7}}
\newlabel{fig:post_rankings}{{\M@TitleReference {4.7}{Hits per cluster in the test set}}{77}{Hits per cluster in the test set}{figure.4.7}{}}
\@writefile{lof}{\contentsline {subfigure}{\numberline{(a)}{\ignorespaces podemos}}{77}{figure.4.7}}
\@writefile{lof}{\contentsline {subfigure}{\numberline{(b)}{\ignorespaces gameofthrones}}{77}{figure.4.7}}
\@writefile{lof}{\contentsline {figure}{\numberline {4.8}{\ignorespaces Normalized Ranking Error per cluster in the test set. Boxplots and means (black points).}}{78}{figure.4.8}}
\newlabel{fig:nre_cluster}{{\M@TitleReference {4.8}{Normalized Ranking Error per cluster in the test set. Boxplots and means (black points).}}{78}{Normalized Ranking Error per cluster in the test set. Boxplots and means (black points)}{figure.4.8}{}}
\@writefile{lof}{\contentsline {subfigure}{\numberline{(a)}{\ignorespaces podemos}}{78}{figure.4.8}}
\@writefile{lof}{\contentsline {subfigure}{\numberline{(b)}{\ignorespaces gameofthrones}}{78}{figure.4.8}}
\@writefile{lof}{\contentsline {figure}{\numberline {4.9}{\ignorespaces Normalized Ranking Error by size of thread in \texttt  {podemos}}}{78}{figure.4.9}}
\newlabel{fig:nre_size}{{\M@TitleReference {4.9}{Normalized Ranking Error by size of thread in \texttt  {podemos}}}{78}{Normalized Ranking Error by size of thread in \texttt {podemos}}{figure.4.9}{}}
\@writefile{toc}{\contentsline {section}{\numberline {4.4}Summary}{79}{section.4.4}}
\@writefile{lof}{\addvspace {10pt}}
\@writefile{lot}{\addvspace {10pt}}
\@writefile{toc}{\contentsline {chapter}{\chapternumberline {5}Role detection based on features and latent behavioral functions}{81}{chapter.5}}
\@writefile{loa}{\addvspace {10\p@ }}
\@writefile{lof}{\contentsline {xchapter}{}{81}{chapter.5}}
\@writefile{lot}{\contentsline {xchapter}{}{81}{chapter.5}}
\newlabel{ch:five}{{\M@TitleReference {5}{Role detection based on features and latent behavioral functions}}{81}{Role detection based on features and latent behavioral functions}{chapter.5}{}}
\citation{SteffenandTobiasScheffer}
\@writefile{toc}{\contentsline {section}{\numberline {5.1}Introduction. Why a dual-view model?}{82}{section.5.1}}
\newlabel{sec:introduction}{{\M@TitleReference {5.1}{Introduction. Why a dual-view model?}}{82}{Introduction. Why a dual-view model?}{section.5.1}{}}
\@writefile{toc}{\contentsline {section}{\numberline {5.2}Related models}{82}{section.5.2}}
\citation{Kumar2011}
\citation{Mitchell1998}
\citation{Greene2009a}
\citation{Niu2012}
\citation{Eisen1998}
\citation{Brown2000}
\citation{Pavlidis2002}
\citation{Pellegrini1999a}
\citation{Cheng2014}
\citation{Bonilla2010}
\citation{Abbasnejad2013a}
\citation{Abbasnejad2013a}
\@writefile{toc}{\contentsline {section}{\numberline {5.3}Model description}{84}{section.5.3}}
\newlabel{sec:modeldescription}{{\M@TitleReference {5.3}{Model description}}{84}{Model description}{section.5.3}{}}
\@writefile{toc}{\contentsline {subsection}{\numberline {5.3.1}Mixture models}{84}{subsection.5.3.1}}
\newlabel{sec:mixturemodels}{{\M@TitleReference {5.3.1}{Mixture models}}{84}{Mixture models}{subsection.5.3.1}{}}
\citation{Bonilla2010,Abbasnejad2013a}
\citation{Cheung2004}
\@writefile{toc}{\contentsline {subsection}{\numberline {5.3.2}Dual-view mixture model}{85}{subsection.5.3.2}}
\newlabel{sec:dual-view}{{\M@TitleReference {5.3.2}{Dual-view mixture model}}{85}{Dual-view mixture model}{subsection.5.3.2}{}}
\@writefile{lof}{\contentsline {figure}{\numberline {5.1}{\ignorespaces Graphical model of the generative process for $U$ users and $K$ clusters. Shaded circles represent observations and white circles represent latent variables. Views are connected through the latent assignments $\mathbf  {z}$. A user $u$ draws a feature vector $\mathbf  {a}_u$ and a behavior $\mathbf  {f}_u$ from the cluster indicated by $z_u$ (the $u$-th element of $\mathbf  {z}$).}}{86}{figure.5.1}}
\newlabel{fig:general}{{\M@TitleReference {5.1}{Graphical model of the generative process for $U$ users and $K$ clusters. Shaded circles represent observations and white circles represent latent variables. Views are connected through the latent assignments $\mathbf  {z}$. A user $u$ draws a feature vector $\mathbf  {a}_u$ and a behavior $\mathbf  {f}_u$ from the cluster indicated by $z_u$ (the $u$-th element of $\mathbf  {z}$).}}{86}{Graphical model of the generative process for $U$ users and $K$ clusters. Shaded circles represent observations and white circles represent latent variables. Views are connected through the latent assignments $\mathbf {z}$. A user $u$ draws a feature vector $\mathbf {a}_u$ and a behavior $\mathbf {f}_u$ from the cluster indicated by $z_u$ (the $u$-th element of $\mathbf {z}$)}{figure.5.1}{}}
\newlabel{eq:z_posterior}{{5.4}{87}{Dual-view mixture model}{equation.5.3.4}{}}
\newlabel{eq:z_posterior_ratio}{{5.5}{87}{Dual-view mixture model}{equation.5.3.5}{}}
\@writefile{toc}{\contentsline {subsection}{\numberline {5.3.3}Infinite number of clusters}{87}{subsection.5.3.3}}
\newlabel{sec:CRP}{{\M@TitleReference {5.3.3}{Infinite number of clusters}}{87}{Infinite number of clusters}{subsection.5.3.3}{}}
\citation{Rasmussen2000a}
\citation{Gorur2010}
\@writefile{toc}{\contentsline {section}{\numberline {5.4}Application to role detection in online forums}{88}{section.5.4}}
\newlabel{sec:forums}{{\M@TitleReference {5.4}{Application to role detection in online forums}}{88}{Application to role detection in online forums}{section.5.4}{}}
\citation{Gorur2010}
\@writefile{toc}{\contentsline {subsection}{\numberline {5.4.1}Feature view}{89}{subsection.5.4.1}}
\newlabel{sec:forums_features}{{\M@TitleReference {5.4.1}{Feature view}}{89}{Feature view}{subsection.5.4.1}{}}
\newlabel{eq:wishart_sar}{{5.10}{89}{Feature view}{equation.5.4.10}{}}
\newlabel{eq:gamma_ba0}{{5.14}{89}{Feature view}{equation.5.4.14}{}}
\@writefile{toc}{\contentsline {subsection}{\numberline {5.4.2}Behavior view}{90}{subsection.5.4.2}}
\newlabel{sec:forums_behaviors}{{\M@TitleReference {5.4.2}{Behavior view}}{90}{Behavior view}{subsection.5.4.2}{}}
\citation{Gilks1992}
\@writefile{toc}{\contentsline {subsection}{\numberline {5.4.3}Shared parameters}{91}{subsection.5.4.3}}
\newlabel{sec:sharedparams}{{\M@TitleReference {5.4.3}{Shared parameters}}{91}{Shared parameters}{subsection.5.4.3}{}}
\newlabel{eq:prior_z_CRP}{{5.24}{91}{Shared parameters}{equation.5.4.24}{}}
\@writefile{toc}{\contentsline {section}{\numberline {5.5}Inference}{91}{section.5.5}}
\newlabel{sec:inference}{{\M@TitleReference {5.5}{Inference}}{91}{Inference}{section.5.5}{}}
\citation{Neal2000}
\citation{Neal2000}
\@writefile{toc}{\contentsline {subsection}{\numberline {5.5.1}Predictive distribution}{92}{subsection.5.5.1}}
\newlabel{eq:predictive_posterior_approx}{{5.28}{92}{Predictive distribution}{equation.5.5.28}{}}
\@writefile{toc}{\contentsline {section}{\numberline {5.6}Experiments}{92}{section.5.6}}
\newlabel{sec:experiments}{{\M@TitleReference {5.6}{Experiments}}{92}{Experiments}{section.5.6}{}}
\citation{coda}
\@writefile{toc}{\contentsline {subsection}{\numberline {5.6.1}Compared models}{93}{subsection.5.6.1}}
\citation{Dahl2006}
\@writefile{lot}{\contentsline {table}{\numberline {5.1}{\ignorespaces Compared and related models. Both single models are the same since if the number of clusters is fixed to one they cannot use the feature view. The row marked as $-$ corresponds to a model that has no interest in this context since it simply finds the Gaussian distribution that best fits the observed features and makes neither clustering nor predictions.}}{94}{table.5.1}}
\newlabel{tab:models}{{\M@TitleReference {5.1}{Compared and related models. Both single models are the same since if the number of clusters is fixed to one they cannot use the feature view. The row marked as $-$ corresponds to a model that has no interest in this context since it simply finds the Gaussian distribution that best fits the observed features and makes neither clustering nor predictions.}}{94}{Compared and related models. Both single models are the same since if the number of clusters is fixed to one they cannot use the feature view. The row marked as $-$ corresponds to a model that has no interest in this context since it simply finds the Gaussian distribution that best fits the observed features and makes neither clustering nor predictions}{table.5.1}{}}
\@writefile{toc}{\contentsline {subsection}{\numberline {5.6.2}Metrics}{94}{subsection.5.6.2}}
\@writefile{toc}{\contentsline {paragraph}{Metric for clustering:}{94}{section*.15}}
\@writefile{toc}{\contentsline {paragraph}{Metric for predictions:}{95}{section*.16}}
\@writefile{toc}{\contentsline {subsection}{\numberline {5.6.3}Agreement between views}{95}{subsection.5.6.3}}
\@writefile{lof}{\contentsline {figure}{\numberline {5.2}{\ignorespaces Dataset for agreement between the views. User features (left) and user coefficients (right). Every group (shape) of users has a well differentiated set of features and coefficients.}}{96}{figure.5.2}}
\newlabel{fig:data_agreement}{{\M@TitleReference {5.2}{Dataset for agreement between the views. User features (left) and user coefficients (right). Every group (shape) of users has a well differentiated set of features and coefficients.}}{96}{Dataset for agreement between the views. User features (left) and user coefficients (right). Every group (shape) of users has a well differentiated set of features and coefficients}{figure.5.2}{}}
\@writefile{lof}{\contentsline {figure}{\numberline {5.3}{\ignorespaces Results for agreement between the views. Comparison of models under different threads/users ratios (50 users and variable number of threads). Means and standard errors over 5 runs.}}{96}{figure.5.3}}
\newlabel{fig:results_agreement}{{\M@TitleReference {5.3}{Results for agreement between the views. Comparison of models under different threads/users ratios (50 users and variable number of threads). Means and standard errors over 5 runs.}}{96}{Results for agreement between the views. Comparison of models under different threads/users ratios (50 users and variable number of threads). Means and standard errors over 5 runs}{figure.5.3}{}}
\@writefile{lof}{\contentsline {figure}{\numberline {5.4}{\ignorespaces Dataset for disagreement between the views. User features (left) and user coefficients (right). Two of the groups (shapes) of users have similar features but different coefficients.}}{97}{figure.5.4}}
\newlabel{fig:data_disagreement}{{\M@TitleReference {5.4}{Dataset for disagreement between the views. User features (left) and user coefficients (right). Two of the groups (shapes) of users have similar features but different coefficients.}}{97}{Dataset for disagreement between the views. User features (left) and user coefficients (right). Two of the groups (shapes) of users have similar features but different coefficients}{figure.5.4}{}}
\@writefile{toc}{\contentsline {subsection}{\numberline {5.6.4}Disagreement between views}{97}{subsection.5.6.4}}
\@writefile{lof}{\contentsline {figure}{\numberline {5.5}{\ignorespaces Posteriors for DP-dual when the two views see a different number of clusters. (a) 10 users and 100 threads. (b) 25 users and 25 threads. (c) 100 users and 10 threads. Figures on the left: examples of posterior distributions of thread length predictions over 100 test threads with 50\% and 95\% credible intervals in test set with 50 users and 10, 50 and 100 threads. x-axis correspond to threads sorted by their (true) length while y-axis correspond to predicted thread lengths. True lengths are plotted in red (smoothest lines). Figures on the right: examples of posterior pairwise clustering matrices $\mathaccentV {hat}05E{\pi }$. x-axes and y-axes correspond to the users. A dark point means a high probability of being in the same cluster. The worst case is (c), which makes a similar clustering to (b) but worse predictions, because the feature view receives misguiding information from the behavior view and the number of threads is not high enough to compensate for it.}}{98}{figure.5.5}}
\newlabel{fig:confused}{{\M@TitleReference {5.5}{Posteriors for DP-dual when the two views see a different number of clusters. (a) 10 users and 100 threads. (b) 25 users and 25 threads. (c) 100 users and 10 threads. Figures on the left: examples of posterior distributions of thread length predictions over 100 test threads with 50\% and 95\% credible intervals in test set with 50 users and 10, 50 and 100 threads. x-axis correspond to threads sorted by their (true) length while y-axis correspond to predicted thread lengths. True lengths are plotted in red (smoothest lines). Figures on the right: examples of posterior pairwise clustering matrices $\mathaccentV {hat}05E{\pi }$. x-axes and y-axes correspond to the users. A dark point means a high probability of being in the same cluster. The worst case is (c), which makes a similar clustering to (b) but worse predictions, because the feature view receives misguiding information from the behavior view and the number of threads is not high enough to compensate for it.}}{98}{Posteriors for DP-dual when the two views see a different number of clusters. (a) 10 users and 100 threads. (b) 25 users and 25 threads. (c) 100 users and 10 threads. Figures on the left: examples of posterior distributions of thread length predictions over 100 test threads with 50\% and 95\% credible intervals in test set with 50 users and 10, 50 and 100 threads. x-axis correspond to threads sorted by their (true) length while y-axis correspond to predicted thread lengths. True lengths are plotted in red (smoothest lines). Figures on the right: examples of posterior pairwise clustering matrices $\hat {\pi }$. x-axes and y-axes correspond to the users. A dark point means a high probability of being in the same cluster. The worst case is (c), which makes a similar clustering to (b) but worse predictions, because the feature view receives misguiding information from the behavior view and the number of threads is not high enough to compensate for it}{figure.5.5}{}}
\@writefile{lof}{\contentsline {subfigure}{\numberline{(a)}{\ignorespaces }}{98}{figure.5.5}}
\@writefile{lof}{\contentsline {subfigure}{\numberline{(b)}{\ignorespaces }}{98}{figure.5.5}}
\@writefile{lof}{\contentsline {subfigure}{\numberline{(c)}{\ignorespaces }}{98}{figure.5.5}}
\@writefile{lof}{\contentsline {figure}{\numberline {5.6}{\ignorespaces Results for disagreement between the views. Comparison of models under different threads/users ratios (50 users and variable number of threads) when the two views see a different number of clusters. Means and standard errors over 5 runs.}}{98}{figure.5.6}}
\newlabel{fig:results_disagreement}{{\M@TitleReference {5.6}{Results for disagreement between the views. Comparison of models under different threads/users ratios (50 users and variable number of threads) when the two views see a different number of clusters. Means and standard errors over 5 runs.}}{98}{Results for disagreement between the views. Comparison of models under different threads/users ratios (50 users and variable number of threads) when the two views see a different number of clusters. Means and standard errors over 5 runs}{figure.5.6}{}}
\citation{IrisData1935}
\citation{mclust}
\@writefile{toc}{\contentsline {paragraph}{(a) Lack of information in feature view:}{99}{section*.17}}
\@writefile{toc}{\contentsline {paragraph}{(b) Lack of information in both views:}{99}{section*.18}}
\@writefile{toc}{\contentsline {paragraph}{(c) Lack of information in behavior view:}{99}{section*.19}}
\@writefile{toc}{\contentsline {subsection}{\numberline {5.6.5}Iris dataset}{99}{subsection.5.6.5}}
\@writefile{lof}{\contentsline {figure}{\numberline {5.7}{\ignorespaces Iris dataset. User features (left) and synthetic user coefficients (right)}}{100}{figure.5.7}}
\newlabel{fig:iris_data}{{\M@TitleReference {5.7}{Iris dataset. User features (left) and synthetic user coefficients (right)}}{100}{Iris dataset. User features (left) and synthetic user coefficients (right)}{figure.5.7}{}}
\@writefile{lof}{\contentsline {figure}{\numberline {5.8}{\ignorespaces Results for the iris dataset. Comparison of models under different threads/users ratios (50 users and variable number of threads). Means and standard errors over 5 runs.}}{100}{figure.5.8}}
\newlabel{fig:iris_results}{{\M@TitleReference {5.8}{Results for the iris dataset. Comparison of models under different threads/users ratios (50 users and variable number of threads). Means and standard errors over 5 runs.}}{100}{Results for the iris dataset. Comparison of models under different threads/users ratios (50 users and variable number of threads). Means and standard errors over 5 runs}{figure.5.8}{}}
\@writefile{lof}{\contentsline {figure}{\numberline {5.9}{\ignorespaces Predictive posteriors given by the \texttt  {DP-dual} model over thread lengths and pairwise clustering matrices with 50 users and a training set of 10 threads (left) and 100 threads (right). Shadowed areas indicate 95\% and 50\% credible intervals. True lengths are plotted in red (smoothest lines). As the number of thread increases, the model starts to see the three cluster structure as well as to make better predictions.}}{101}{figure.5.9}}
\newlabel{fig:iris_posteriors}{{\M@TitleReference {5.9}{Predictive posteriors given by the \texttt  {DP-dual} model over thread lengths and pairwise clustering matrices with 50 users and a training set of 10 threads (left) and 100 threads (right). Shadowed areas indicate 95\% and 50\% credible intervals. True lengths are plotted in red (smoothest lines). As the number of thread increases, the model starts to see the three cluster structure as well as to make better predictions.}}{101}{Predictive posteriors given by the \texttt {DP-dual} model over thread lengths and pairwise clustering matrices with 50 users and a training set of 10 threads (left) and 100 threads (right). Shadowed areas indicate 95\% and 50\% credible intervals. True lengths are plotted in red (smoothest lines). As the number of thread increases, the model starts to see the three cluster structure as well as to make better predictions}{figure.5.9}{}}
\@writefile{toc}{\contentsline {subsection}{\numberline {5.6.6}Computational cost}{101}{subsection.5.6.6}}
\newlabel{sec:cost}{{\M@TitleReference {5.6.6}{Computational cost}}{101}{Computational cost}{subsection.5.6.6}{}}
\@writefile{lof}{\contentsline {figure}{\numberline {5.10}{\ignorespaces Left: histogram of the number of active clusters estimated by the \texttt  {DP-model} in the \textit  {iris} scenario with 50 threads. Right: mean and standard deviations of the number of users assigned to each cluster during the chain. Most users are assigned to the three major clusters and a small group of users is assigned to a fourth cluster.}}{102}{figure.5.10}}
\newlabel{fig:nclusters}{{\M@TitleReference {5.10}{Left: histogram of the number of active clusters estimated by the \texttt  {DP-model} in the \textit  {iris} scenario with 50 threads. Right: mean and standard deviations of the number of users assigned to each cluster during the chain. Most users are assigned to the three major clusters and a small group of users is assigned to a fourth cluster.}}{102}{Left: histogram of the number of active clusters estimated by the \texttt {DP-model} in the \textit {iris} scenario with 50 threads. Right: mean and standard deviations of the number of users assigned to each cluster during the chain. Most users are assigned to the three major clusters and a small group of users is assigned to a fourth cluster}{figure.5.10}{}}
\@writefile{toc}{\contentsline {subsection}{\numberline {5.6.7}Summary of the experiments}{102}{subsection.5.6.7}}
\citation{Bishop2006}
\@writefile{toc}{\contentsline {section}{\numberline {5.7}Summary}{103}{section.5.7}}
\newlabel{sec:conclusions}{{\M@TitleReference {5.7}{Summary}}{103}{Summary}{section.5.7}{}}
\citation{Biddle1979}
\@writefile{lof}{\addvspace {10pt}}
\@writefile{lot}{\addvspace {10pt}}
\@writefile{toc}{\contentsline {chapter}{\chapternumberline {6}Contributions and perspectives}{105}{chapter.6}}
\@writefile{loa}{\addvspace {10\p@ }}
\@writefile{lof}{\contentsline {xchapter}{}{105}{chapter.6}}
\@writefile{lot}{\contentsline {xchapter}{}{105}{chapter.6}}
\newlabel{ch:six}{{\M@TitleReference {6}{Contributions and perspectives}}{105}{Contributions and perspectives}{chapter.6}{}}
\@writefile{toc}{\contentsline {section}{\numberline {6.1}Contributions}{105}{section.6.1}}
\@writefile{toc}{\contentsline {section}{\numberline {6.2}Roles or not roles?}{105}{section.6.2}}
\@writefile{toc}{\contentsline {section}{\numberline {6.3}Perspectives}{106}{section.6.3}}
\@writefile{toc}{\contentsline {subsection}{\numberline {6.3.1}Technical}{106}{subsection.6.3.1}}
\@writefile{toc}{\contentsline {subsubsection}{Clustering based on count data}{106}{section*.20}}
\@writefile{toc}{\contentsline {subsubsection}{A scalable dual-view model}{106}{section*.21}}
\citation{Gomez2012}
\@writefile{toc}{\contentsline {subsection}{\numberline {6.3.2}Methodological}{107}{subsection.6.3.2}}
\@writefile{toc}{\contentsline {subsubsection}{A dictionary of conversations}{107}{section*.22}}
\@writefile{toc}{\contentsline {subsubsection}{A better tree growth model}{107}{section*.23}}
\bibstyle{chicago}
\bibdata{bibliography}
\@writefile{toc}{\contentsline {subsubsection}{Combining structure and text}{108}{section*.24}}
\bibcite{Abbasnejad2013a}{{1}{2013}{{Abbasnejad et~al.}}{{Abbasnejad, Sanner, Bonilla, and Poupart}}}
\bibcite{Adamic2008}{{2}{2008}{{Adamic et~al.}}{{Adamic, Zhang, Bakshy, and Ackerman}}}
\bibcite{Agarwal2008}{{3}{2008}{{Agarwal et~al.}}{{Agarwal, Liu, Tang, and Yu}}}
\bibcite{Airoldi2008}{{4}{2008}{{Airoldi et~al.}}{{Airoldi, Blei, Fienberg, and Xing}}}
\bibcite{IrisData1935}{{5}{1935}{{Anderson}}{{Anderson}}}
\bibcite{Angeletou2011}{{6}{2011}{{Angeletou et~al.}}{{Angeletou, Rowe, and Alani}}}
\bibcite{Anokhin2012a}{{7}{2012}{{Anokhin et~al.}}{{Anokhin, Lanagan, and Velcin}}}
\bibcite{Backstrom2013}{{8}{2013}{{Backstrom et~al.}}{{Backstrom, Kleinberg, Lee, and Danescu-Niculescu-Mizil}}}
\bibcite{Barabasi1999}{{9}{1999}{{Barab{\'{a}}si and Albert}}{{Barab{\'{a}}si and Albert}}}
\bibcite{Bensmail1997}{{10}{1997}{{Bensmail et~al.}}{{Bensmail, Celeux, Raftery, and Robert}}}
\bibcite{SteffenandTobiasScheffer}{{11}{2004}{{Bickel and Scheffer}}{{Bickel and Scheffer}}}
\bibcite{Biddle1986}{{12}{1986}{{Biddle}}{{Biddle}}}
\bibcite{Biddle1979}{{13}{1979}{{Biddle}}{{Biddle}}}
\@writefile{@@@}{\chapterbegin }
\@writefile{toc}{\contentsline {chapter}{Bibliography}{109}{section*.26}}
\bibcite{Birmele2010a}{{14}{2012}{{Birmel{\'{e}}}}{{Birmel{\'{e}}}}}
\bibcite{Bishop2006}{{15}{2006}{{Bishop}}{{Bishop}}}
\bibcite{Blondel2008}{{16}{2008}{{Blondel et~al.}}{{Blondel, Guillaume, Lambiotte, and Lefebvre}}}
\bibcite{Bonilla2010}{{17}{2010}{{Bonilla et~al.}}{{Bonilla, Guo, and Sanner}}}
\bibcite{Brown2000}{{18}{2000}{{Brown et~al.}}{{Brown, Grundy, Lin, Cristianini, Sugnet, Furey, Ares, and Haussler}}}
\bibcite{Buntain2014}{{19}{2014}{{Buntain and Golbeck}}{{Buntain and Golbeck}}}
\bibcite{Chan2010}{{20}{2010}{{Chan et~al.}}{{Chan, Hayes, and Daly}}}
\bibcite{Cheng2015}{{21}{2015}{{Cheng et~al.}}{{Cheng, Danescu-niculescu mizil, and Leskovec}}}
\bibcite{Cheng2014}{{22}{2014}{{Cheng et~al.}}{{Cheng, Agrawal, Choudhary, Liu, and Zhang}}}
\bibcite{Cheung2004}{{23}{2004}{{Cheung et~al.}}{{Cheung, Tsui, and Liu}}}
\bibcite{Chou2010}{{24}{2010}{{Chou and Suzuki}}{{Chou and Suzuki}}}
\bibcite{Dahl2006}{{25}{2006}{{Dahl}}{{Dahl}}}
\bibcite{Daudin2008}{{26}{2008}{{Daudin et~al.}}{{Daudin, Picard, and Robin}}}
\bibcite{Dorat2007}{{27}{2007}{{Dorat et~al.}}{{Dorat, Latapy, Conein, and Auray}}}
\bibcite{Dubois2013}{{28}{2013}{{DuBois et~al.}}{{DuBois, Butts, and Smyth}}}
\bibcite{Duggan2015}{{29}{2015}{{Duggan}}{{Duggan}}}
\bibcite{Egghe2006}{{30}{2006}{{Egghe}}{{Egghe}}}
\bibcite{Eisen1998}{{31}{1998}{{Eisen et~al.}}{{Eisen, Spellman, Brown, and Botstein}}}
\bibcite{Fisher2006}{{32}{2006}{{Fisher et~al.}}{{Fisher, Smith, and Welser}}}
\bibcite{Forestier2012}{{33}{2012}{{Forestier et~al.}}{{Forestier, Velcin, Stavrianou, and Zighed}}}
\bibcite{Foucault2003}{{34}{2003}{{Foucault}}{{Foucault}}}
\bibcite{mclust}{{35}{2012}{{Fraley et~al.}}{{Fraley, Raftery, Murphy, and Scrucca}}}
\bibcite{Fu2009}{{36}{2009}{{Fu et~al.}}{{Fu, Song, and Xing}}}
\bibcite{Furtado2013}{{37}{2013}{{Furtado et~al.}}{{Furtado, Andrade, Oliveira, and Brasileiro}}}
\bibcite{Gilks1992}{{38}{1992}{{Gilks and Wild}}{{Gilks and Wild}}}
\bibcite{Glea2009}{{39}{2009}{{Gleave et~al.}}{{Gleave, Welser, Lento, and Smith}}}
\bibcite{Gliwa2013}{{40}{2013}{{Gliwa et~al.}}{{Gliwa, Zygmunt, and Ko{\'{z}}lak}}}
\bibcite{Goffman1959}{{41}{1959}{{Goffman}}{{Goffman}}}
\bibcite{Golder2003}{{42}{2003}{{Golder}}{{Golder}}}
\bibcite{Golder2004}{{43}{2004}{{Golder and Donath}}{{Golder and Donath}}}
\bibcite{Gomez2008}{{44}{2008}{{G{\'{o}}mez et~al.}}{{G{\'{o}}mez, Kaltenbrunner, and L{\'{o}}pez}}}
\bibcite{Gomez2010}{{45}{2010}{{G{\'{o}}mez et~al.}}{{G{\'{o}}mez, Kappen, and Kaltenbrunner}}}
\bibcite{Gomez2012}{{46}{2012}{{G{\'{o}}mez et~al.}}{{G{\'{o}}mez, Kappen, Litvak, and Kaltenbrunner}}}
\bibcite{Gorur2010}{{47}{2010}{{G{\"{o}}r{\"{u}}r and Rasmussen}}{{G{\"{o}}r{\"{u}}r and Rasmussen}}}
\bibcite{Goyal2008}{{48}{2008}{{Goyal et~al.}}{{Goyal, Bonchi, and Lakshmanan}}}
\bibcite{Greene2009a}{{49}{2009}{{Greene and P{\'{a}}draig}}{{Greene and P{\'{a}}draig}}}
\bibcite{Henderson2012}{{50}{2012}{{Henderson et~al.}}{{Henderson, Gallagher, Eliassi-Rad, Tong, Basu, Akoglu, Koutra, Faloutsos, and Li}}}
\bibcite{Himelboim2009}{{51}{2009}{{Himelboim et~al.}}{{Himelboim, Gleave, and Smith}}}
\bibcite{Hirsch2005}{{52}{2005}{{Hirsch}}{{Hirsch}}}
\bibcite{Xing2011}{{53}{2011}{{Ho et~al.}}{{Ho, Song, and Xing}}}
\bibcite{Holland1983}{{54}{1983}{{Holland et~al.}}{{Holland, Laskey, and Leinhardt}}}
\bibcite{Holland1970}{{55}{1970}{{Holland and Leinhardt}}{{Holland and Leinhardt}}}
\bibcite{Kaltenbrunner2007}{{56}{2007}{{Kaltenbrunner et~al.}}{{Kaltenbrunner, G{\'{o}}mez, and L{\'{o}}pez}}}
\bibcite{Kan2012}{{57}{2013}{{Kan et~al.}}{{Kan, Chan, Hayes, Hogan, Bailey, and Leckie}}}
\bibcite{kemp2004}{{58}{2004}{{Kemp et~al.}}{{Kemp, Griffiths, and Tenenbaum}}}
\bibcite{Kemp2006}{{59}{2006}{{Kemp et~al.}}{{Kemp, Tenenbaum, Griffiths, Yamada, and Ueda}}}
\bibcite{Killick2012}{{60}{2012}{{Killick et~al.}}{{Killick, Fearnhead, and Eckely}}}
\bibcite{Kolaczyk2009}{{61}{2009}{{Kolaczyk}}{{Kolaczyk}}}
\bibcite{kollock1998}{{62}{1998}{{Kollock}}{{Kollock}}}
\bibcite{Kumar2011}{{63}{2011}{{Kumar et~al.}}{{Kumar, Rai, and Daume}}}
\bibcite{Kumar2010}{{64}{2010}{{Kumar et~al.}}{{Kumar, Mahdian, and McGlohon}}}
\bibcite{Kumar2014}{{65}{2014}{{Kumar et~al.}}{{Kumar, Spezzano, and Subrahmanian}}}
\bibcite{Labatut2014}{{66}{2014}{{Labatut et~al.}}{{Labatut, Dugu{\'{e}}, and Perez}}}
\bibcite{Latouche2012}{{67}{2012}{{Latouche et~al.}}{{Latouche, Birmele, and Ambroise}}}
\bibcite{Lynton1936}{{68}{1936}{{Linton}}{{Linton}}}
\bibcite{Lorrain1971}{{69}{1971}{{Lorrain and White}}{{Lorrain and White}}}
\bibcite{Lui2010}{{70}{2010}{{Lui and Baldwin}}{{Lui and Baldwin}}}
\bibcite{Lumbreras2013}{{71}{2013}{{Lumbreras et~al.}}{{Lumbreras, Lanagan, Velcin, Jouve, Eric, Lyon, and France}}}
\bibcite{Maia2008}{{72}{2008}{{Maia et~al.}}{{Maia, Almeida, and Almeida}}}
\bibcite{McCallum2007}{{73}{2007}{{McCallum et~al.}}{{McCallum, Wang, and Corrada-Emmanuel}}}
\bibcite{McFarland2016}{{74}{2016}{{McFarland et~al.}}{{McFarland, Lewis, and Goldberg}}}
\bibcite{Mead1934}{{75}{1934}{{Mead}}{{Mead}}}
\bibcite{Milo2002}{{76}{2002}{{Milo et~al.}}{{Milo, Shen-Orr, Itzkovitz, Kashtan, Chklovskii, and Alon}}}
\bibcite{Mitchell1998}{{77}{1998}{{Mitchell and Blum}}{{Mitchell and Blum}}}
\bibcite{Nadel1957}{{78}{1957}{{Nadel}}{{Nadel}}}
\bibcite{Nash1975}{{79}{1975}{{Nash}}{{Nash}}}
\bibcite{Neal2000}{{80}{2000}{{Neal}}{{Neal}}}
\bibcite{Nelder1964}{{81}{1965}{{Nelder et~al.}}{{Nelder, Mead, Nelder, and Mead}}}
\bibcite{Niu2012}{{82}{2012}{{Niu et~al.}}{{Niu, Dy, and Ghahramani}}}
\bibcite{Nolker2005}{{83}{2005}{{Nolker and Zhou}}{{Nolker and Zhou}}}
\bibcite{Nowicki2001}{{84}{2001}{{Nowicki and Snijders}}{{Nowicki and Snijders}}}
\bibcite{Parsons1951}{{85}{1951}{{Parsons}}{{Parsons}}}
\bibcite{Pavlidis2002}{{86}{2002}{{Pavlidis et~al.}}{{Pavlidis, Weston, Cai, and Noble}}}
\bibcite{Pellegrini1999a}{{87}{1999}{{Pellegrini et~al.}}{{Pellegrini, Marcotte, Thompson, Eisenberg, and Yeates}}}
\bibcite{coda}{{88}{2006}{{Plummer et~al.}}{{Plummer, Best, Cowles, and Vines}}}
\bibcite{Rasmussen2000a}{{89}{2000}{{Rasmussen}}{{Rasmussen}}}
\bibcite{Rossi2013}{{90}{2013}{{Rossi et~al.}}{{Rossi, Gallagher, Neville, and Henderson}}}
\bibcite{Rowe2013}{{91}{2013}{{Rowe et~al.}}{{Rowe, Fernandez, Angeletou, and Alani}}}
\bibcite{Scripps2007}{{92}{2007}{{Scripps et~al.}}{{Scripps, Tan, and Esfahanian}}}
\bibcite{Tinati2014}{{93}{2014}{{Tinati et~al.}}{{Tinati, Halford, Carr, and Pope}}}
\bibcite{Viegas2004}{{94}{2004}{{Viegas and Smith}}{{Viegas and Smith}}}
\bibcite{Wang2012e}{{95}{2012}{{Wang et~al.}}{{Wang, Ye, and Huberman}}}
\bibcite{Wasserman1994}{{96}{1994}{{Wasserman and Faust}}{{Wasserman and Faust}}}
\bibcite{Welser2011}{{97}{2011}{{Welser et~al.}}{{Welser, Cosley, Kossinets, Lin, Dokshin, Gay, and Smith}}}
\bibcite{Welser2007}{{98}{2007}{{Welser et~al.}}{{Welser, Gleave, Fisher, and Smith}}}
\bibcite{Wernicke2006}{{99}{2006}{{Wernicke and Rasche}}{{Wernicke and Rasche}}}
\bibcite{White2012}{{100}{2012}{{White et~al.}}{{White, Chan, Hayes, and Murphy}}}
\bibcite{White1983}{{101}{1983}{{White and Reitz}}{{White and Reitz}}}
\bibcite{White1976}{{102}{1976}{{White et~al.}}{{White, Boorman, and Breiger}}}
\bibcite{Whittaker1998}{{103}{1998}{{Whittaker et~al.}}{{Whittaker, Terveen, Hill, and Cherny}}}
\bibcite{Caulkins1992}{{104}{1992}{{Windham and Cutler}}{{Windham and Cutler}}}
\bibcite{Zhang2007}{{105}{2007}{{Zhang et~al.}}{{Zhang, Ackerman, and Adamic}}}
\@writefile{lof}{\addvspace {10pt}}
\@writefile{lot}{\addvspace {10pt}}
\@writefile{toc}{\contentsline {appendix}{\chapternumberline {A}Conditional distributions for the dual-view mixture model}{119}{appendix.A}}
\@writefile{loa}{\addvspace {10\p@ }}
\@writefile{lof}{\contentsline {xchapter}{}{119}{appendix.A}}
\@writefile{lot}{\contentsline {xchapter}{}{119}{appendix.A}}
\@writefile{toc}{\contentsline {section}{\numberline {A.1}Chinese Restaurant Process}{119}{section.A.1}}
\newlabel{eq:p_z}{{A.1}{119}{Chinese Restaurant Process}{equation.A.1.1}{}}
\newlabel{eq:z_cond}{{A.2}{120}{Chinese Restaurant Process}{equation.A.1.2}{}}
\newlabel{eq:p_z_minus}{{A.3}{120}{Chinese Restaurant Process}{equation.A.1.3}{}}
\@writefile{toc}{\contentsline {section}{\numberline {A.2}Conditionals for the feature view}{120}{section.A.2}}
\@writefile{toc}{\contentsline {subsection}{\numberline {A.2.1}Component parameters}{121}{subsection.A.2.1}}
\@writefile{toc}{\contentsline {subsection}{\numberline {A.2.2}Shared hyper-parameters}{121}{subsection.A.2.2}}
\@writefile{toc}{\contentsline {section}{\numberline {A.3}Conditionals for the behavior view}{123}{section.A.3}}
\@writefile{toc}{\contentsline {subsection}{\numberline {A.3.1}Users parameters}{123}{subsection.A.3.1}}
\newlabel{sec:appendix_coefficients}{{\M@TitleReference {A.3.1}{Users latent coefficient $p(b_u | \cdot )$:}}{123}{Users latent coefficient $p(b_u | \cdot )$:}{section*.33}{}}
\@writefile{toc}{\contentsline {subsection}{\numberline {A.3.2}Component parameters}{124}{subsection.A.3.2}}
\@writefile{toc}{\contentsline {subsection}{\numberline {A.3.3}Shared hyper-parameters}{124}{subsection.A.3.3}}
\@writefile{toc}{\contentsline {subsection}{\numberline {A.3.4}Regression noise}{126}{subsection.A.3.4}}
\@writefile{toc}{\contentsline {section}{\numberline {A.4}Sampling $\beta _{0}^\text  {(a)}$}{126}{section.A.4}}
\@writefile{toc}{\contentsline {section}{\numberline {A.5}Sampling $\beta _{0}^\text  {(f)}$}{127}{section.A.5}}
\@writefile{toc}{\contentsline {section}{\numberline {A.6}Sampling $\alpha $}{128}{section.A.6}}
\global\mtcsecondpartfalse
\memsetcounter{lastsheet}{141}
\memsetcounter{lastpage}{129}
