X Error of failed request:  BadWindow (invalid Window parameter)
  Major opcode of failed request:  20 (X_GetProperty)
  Resource id in failed request:  0x5670635
  Serial number of failed request:  13
  Current serial number in output stream:  13
X Error of failed request:  BadWindow (invalid Window parameter)
  Major opcode of failed request:  20 (X_GetProperty)
  Resource id in failed request:  0x4e1ee84
  Serial number of failed request:  13
  Current serial number in output stream:  13
