\relax 
\@writefile{toc}{\contentsline {chapter}{\numberline {1}Introduction}{5}}
\@writefile{lof}{\addvspace {10\p@ }}
\@writefile{lot}{\addvspace {10\p@ }}
\newmarginnote{note.5.1}{{5}{3356458sp}}
\newmarginnote{note.5.2}{{5}{23341023sp}}
\@writefile{tdo}{\contentsline {todo}{J'aime pas ce paragraphe-ci}{5}}
\pgfsyspdfmark {pgfid1}{4339498}{29081997}
\pgfsyspdfmark {pgfid4}{35534875}{29095453}
\pgfsyspdfmark {pgfid5}{39319579}{28850267}
\newmarginnote{note.5.3}{{5}{3356458sp}}
\newmarginnote{note.5.4}{{5}{3356458sp}}
\citation{Callero1994}
\newmarginnote{note.6.1}{{6}{8391145sp}}
\@writefile{toc}{\contentsline {section}{\numberline {1.1}Roles in (offline) sociology}{6}}
\newmarginnote{note.6.2}{{6}{8391145sp}}
\citation{Zhang}
\citation{Godath}
\@writefile{toc}{\contentsline {section}{\numberline {1.2}Roles in online communities}{7}}
\newmarginnote{note.7.1}{{7}{3356458sp}}
\@writefile{toc}{\contentsline {subsection}{\numberline {1.2.1}Expert and celebrity finding}{7}}
\@writefile{toc}{\contentsline {subsubsection}{Simple metrics}{7}}
\@writefile{toc}{\contentsline {subsubsection}{z-score}{7}}
\@writefile{toc}{\contentsline {subsubsection}{Centrality metrics}{7}}
\citation{Moreno1934}
\citation{White1976}
\@writefile{toc}{\contentsline {subsection}{\numberline {1.2.2}Ethnology}{8}}
\@writefile{toc}{\contentsline {subsection}{\numberline {1.2.3}Attribute clustering}{8}}
\@writefile{tdo}{\contentsline {todo}{la plupart son la-dessus}{8}}
\pgfsyspdfmark {pgfid6}{8391145}{35662070}
\pgfsyspdfmark {pgfid7}{3590633}{35675526}
\pgfsyspdfmark {pgfid8}{7375337}{35430340}
\@writefile{toc}{\contentsline {subsection}{\numberline {1.2.4}Positional analysis}{8}}
\@writefile{tdo}{\contentsline {todo}{menos historia y mas al grano}{8}}
\pgfsyspdfmark {pgfid11}{8391145}{24966509}
\pgfsyspdfmark {pgfid12}{3590633}{24979965}
\pgfsyspdfmark {pgfid13}{7375337}{24734779}
\@writefile{toc}{\contentsline {section}{\numberline {1.3}Drawbacks of current methods}{9}}
\@writefile{toc}{\contentsline {chapter}{\numberline {2}Bayesian background}{11}}
\@writefile{lof}{\addvspace {10\p@ }}
\@writefile{lot}{\addvspace {10\p@ }}
\@writefile{tdo}{\contentsline {todo}{future work}{11}}
\pgfsyspdfmark {pgfid16}{3356458}{33602642}
\pgfsyspdfmark {pgfid19}{35534875}{33616098}
\pgfsyspdfmark {pgfid20}{39319579}{33370912}
\@writefile{toc}{\contentsline {section}{\numberline {2.1}Principles}{11}}
\@writefile{toc}{\contentsline {subsection}{\numberline {2.1.1}Frequentist statistics}{11}}
\@writefile{toc}{\contentsline {subsection}{\numberline {2.1.2}Bayesian statistics}{12}}
\@writefile{toc}{\contentsline {subsection}{\numberline {2.1.3}Bayes rule}{12}}
\@writefile{toc}{\contentsline {subsection}{\numberline {2.1.4}Bayesian inference}{12}}
\@writefile{toc}{\contentsline {section}{\numberline {2.2}$f_r$: classic prediction schemes}{12}}
\@writefile{toc}{\contentsline {subsection}{\numberline {2.2.1}Discriminative models}{12}}
\@writefile{tdo}{\contentsline {todo}{not the best explanaition for dis Vs gen. Use the p(y | x) vs p(x, y) analogy}{12}}
\pgfsyspdfmark {pgfid21}{8391145}{11091701}
\pgfsyspdfmark {pgfid22}{3590633}{11105157}
\pgfsyspdfmark {pgfid23}{7375337}{10859971}
\@writefile{toc}{\contentsline {subsection}{\numberline {2.2.2}Generative models}{13}}
\@writefile{toc}{\contentsline {subsection}{\numberline {2.2.3}A probabilistic comparison between discriminative and generative}{13}}
\@writefile{tdo}{\contentsline {todo}{still not clear the role of $\theta $}{14}}
\pgfsyspdfmark {pgfid26}{32304078}{34768662}
\pgfsyspdfmark {pgfid27}{3590633}{34782118}
\pgfsyspdfmark {pgfid28}{7375337}{34536932}
\@writefile{toc}{\contentsline {subsection}{\numberline {2.2.4}Discriminative vs Generative}{14}}
\newmarginnote{note.14.1}{{14}{8391145sp}}
\newmarginnote{note.14.2}{{14}{8391145sp}}
\@writefile{toc}{\contentsline {section}{\numberline {2.3}Techniques}{15}}
\@writefile{toc}{\contentsline {subsection}{\numberline {2.3.1}Bayesian regression}{15}}
\@writefile{toc}{\contentsline {subsection}{\numberline {2.3.2}Mixture models}{15}}
\@writefile{toc}{\contentsline {subsection}{\numberline {2.3.3}Gaussian Processes}{15}}
\@writefile{toc}{\contentsline {chapter}{\numberline {3}A new role analysis}{17}}
\@writefile{lof}{\addvspace {10\p@ }}
\@writefile{lot}{\addvspace {10\p@ }}
\@writefile{toc}{\contentsline {section}{\numberline {3.1}Formalization}{17}}
\@writefile{toc}{\contentsline {section}{\numberline {3.2}Role definition}{17}}
\newmarginnote{note.18.1}{{18}{13016272sp}}
\@writefile{tdo}{\contentsline {todo}{this definition is useful to cluster users by life evolution}{18}}
\pgfsyspdfmark {pgfid31}{8391145}{36290847}
\pgfsyspdfmark {pgfid32}{3590633}{36304303}
\pgfsyspdfmark {pgfid33}{7375337}{36059117}
\newmarginnote{note.18.2}{{18}{13016272sp}}
\newmarginnote{note.18.3}{{18}{13016272sp}}
\citation{Meredith}
\newmarginnote{note.18.4}{{19}{7981585sp}}
\newmarginnote{note.19.1}{{19}{3356458sp}}
\@writefile{toc}{\contentsline {section}{\numberline {3.3}Role-based predictions}{19}}
\@writefile{toc}{\contentsline {subsection}{\numberline {3.3.1}Predicting successful threads}{19}}
\newmarginnote{note.19.2}{{20}{28842695sp}}
\newmarginnote{note.20.1}{{20}{16102128sp}}
\newlabel{basic_belbin}{{3.5}{20}}
\@writefile{toc}{\contentsline {subsubsection}{Non-linear model}{20}}
\newlabel{interdependence_belbin}{{3.6}{20}}
\newlabel{interdependence_belbin}{{3.7}{20}}
\@writefile{toc}{\contentsline {subsection}{\numberline {3.3.2}Predicting users' replies}{20}}
\@writefile{toc}{\contentsline {subsection}{\numberline {3.3.3}Predicting reactions to a post}{21}}
\@writefile{toc}{\contentsline {chapter}{\numberline {4}Predicting the success of a thread}{23}}
\@writefile{lof}{\addvspace {10\p@ }}
\@writefile{lot}{\addvspace {10\p@ }}
\@writefile{toc}{\contentsline {section}{\numberline {4.1}Baseline predictions}{23}}
\@writefile{toc}{\contentsline {subsection}{\numberline {4.1.1}Metrics}{23}}
\@writefile{toc}{\contentsline {subsubsection}{Initial speed}{23}}
\@writefile{toc}{\contentsline {subsubsection}{Replies to root}{23}}
\citation{Meredith}
\@writefile{toc}{\contentsline {subsubsection}{Number of users}{24}}
\@writefile{toc}{\contentsline {subsubsection}{Posts length}{24}}
\@writefile{toc}{\contentsline {subsubsection}{Ramification ratio length}{24}}
\@writefile{toc}{\contentsline {subsection}{\numberline {4.1.2}Experiments}{24}}
\@writefile{lof}{\contentsline {figure}{\numberline {4.1}{\ignorespaces Scatter plots of proposed metrics against thread final length\relax }}{25}}
\providecommand*\caption@xref[2]{\@setref\relax\@undefined{#1}}
\newlabel{metrics_scatter}{{4.1}{25}}
\@writefile{toc}{\contentsline {section}{\numberline {4.2}Role-based predictions}{25}}
\@writefile{toc}{\contentsline {subsection}{\numberline {4.2.1}Motivation}{25}}
\@writefile{toc}{\contentsline {subsection}{\numberline {4.2.2}Naive model}{25}}
\@writefile{lof}{\contentsline {figure}{\numberline {4.2}{\ignorespaces Scatter plots of proposed metrics against thread final length\relax }}{26}}
\newlabel{triads_scatter_1}{{4.2}{26}}
\@writefile{lof}{\contentsline {figure}{\numberline {4.3}{\ignorespaces Sqqq\relax }}{26}}
\newlabel{triads_scatter_1}{{4.3}{26}}
\newmarginnote{note.25.1}{{26}{14266393sp}}
\@writefile{lof}{\contentsline {figure}{\numberline {4.4}{\ignorespaces qqq\relax }}{27}}
\newlabel{triads_scatter_1}{{4.4}{27}}
\@writefile{lof}{\contentsline {figure}{\numberline {4.5}{\ignorespaces Scatter plots of proposed metrics against thread final length\relax }}{27}}
\newlabel{triads_scatter_1}{{4.5}{27}}
\@writefile{lof}{\contentsline {figure}{\numberline {4.6}{\ignorespaces Scatter plots of proposed metrics against thread final length\relax }}{27}}
\newlabel{triads_scatter_1}{{4.6}{27}}
\newmarginnote{note.26.1}{{27}{11067441sp}}
\newlabel{basic_belbin}{{4.1}{27}}
\@writefile{toc}{\contentsline {subsection}{\numberline {4.2.3}Generative model}{28}}
\@writefile{toc}{\contentsline {subsection}{\numberline {4.2.4}Joint probability}{28}}
\newlabel{success_joint_prob}{{4.3}{29}}
\@writefile{toc}{\contentsline {subsection}{\numberline {4.2.5}Inference: Gibbs sampling}{29}}
\@writefile{toc}{\contentsline {subsubsection}{Conditional distribution of $\mathbf  {w}$}{30}}
\@writefile{toc}{\contentsline {subsubsection}{Conditional distribution of $\mathbf  {z_n}$}{32}}
\@writefile{toc}{\contentsline {chapter}{\numberline {5}Context prediction}{33}}
\@writefile{lof}{\addvspace {10\p@ }}
\@writefile{lot}{\addvspace {10\p@ }}
\@writefile{toc}{\contentsline {section}{\numberline {5.1}$C$: codification of contexts}{33}}
\@writefile{toc}{\contentsline {section}{\numberline {5.2}Experiments}{34}}
\@writefile{toc}{\contentsline {subsection}{\numberline {5.2.1}Users reactions to contexts}{34}}
\@writefile{toc}{\contentsline {subsection}{\numberline {5.2.2}Clustering users with similar reactions}{35}}
\@writefile{toc}{\contentsline {subsection}{\numberline {5.2.3}Evolution of contexts}{35}}
\@writefile{toc}{\contentsline {section}{\numberline {5.3}Towards context-based predictions}{36}}
\@writefile{toc}{\contentsline {chapter}{\numberline {6}Roles to predict reactions}{37}}
\@writefile{lof}{\addvspace {10\p@ }}
\@writefile{lot}{\addvspace {10\p@ }}
\@writefile{toc}{\contentsline {chapter}{\numberline {7}Predicting the death of a discussion}{39}}
\@writefile{lof}{\addvspace {10\p@ }}
\@writefile{lot}{\addvspace {10\p@ }}
\bibstyle{chicago}
\bibdata{./bibtex/Papers-Report_aug_2014}
\@writefile{toc}{\contentsline {chapter}{\numberline {8}Threads similarity}{41}}
\@writefile{lof}{\addvspace {10\p@ }}
\@writefile{lot}{\addvspace {10\p@ }}
\bibcite{Moreno1934}{{1}{1934}{{Moreno}}{{Moreno}}}
\bibcite{White1976}{{2}{1976}{{White et~al.}}{{White, Boorman, and Breiger}}}
