\beamer@endinputifotherversion {3.36pt}
\headcommand {\slideentry {0}{0}{1}{1/1}{}{0}}
\headcommand {\beamer@framepages {1}{1}}
\headcommand {\slideentry {0}{0}{2}{2/2}{}{0}}
\headcommand {\beamer@framepages {2}{2}}
\headcommand {\slideentry {0}{0}{3}{3/3}{}{0}}
\headcommand {\beamer@framepages {3}{3}}
\headcommand {\slideentry {0}{0}{4}{4/4}{}{0}}
\headcommand {\beamer@framepages {4}{4}}
\headcommand {\slideentry {0}{0}{5}{5/5}{}{0}}
\headcommand {\beamer@framepages {5}{5}}
\headcommand {\slideentry {0}{0}{6}{6/6}{}{0}}
\headcommand {\beamer@framepages {6}{6}}
\headcommand {\sectionentry {1}{Part I: Role detection in social networks}{7}{Part I: Role detection in social networks}{0}}
\headcommand {\beamer@sectionpages {1}{6}}
\headcommand {\beamer@subsectionpages {1}{6}}
\headcommand {\slideentry {1}{0}{1}{7/7}{}{0}}
\headcommand {\beamer@framepages {7}{7}}
\headcommand {\beamer@subsectionentry {0}{1}{1}{8}{Position-based (blockmodeling)}}\headcommand {\beamer@subsectionpages {7}{7}}
\headcommand {\slideentry {1}{1}{1}{8/8}{Position-based (blockmodeling)}{0}}
\headcommand {\beamer@framepages {8}{8}}
\headcommand {\slideentry {1}{1}{2}{9/9}{Position-based (blockmodeling)}{0}}
\headcommand {\beamer@framepages {9}{9}}
\headcommand {\slideentry {1}{1}{3}{10/10}{Position-based (blockmodeling)}{0}}
\headcommand {\beamer@framepages {10}{10}}
\headcommand {\beamer@subsectionentry {0}{1}{2}{11}{Feature-based}}\headcommand {\beamer@subsectionpages {8}{10}}
\headcommand {\slideentry {1}{2}{1}{11/11}{Feature-based}{0}}
\headcommand {\beamer@framepages {11}{11}}
\headcommand {\slideentry {1}{2}{2}{12/12}{Feature-based}{0}}
\headcommand {\beamer@framepages {12}{12}}
\headcommand {\slideentry {1}{2}{3}{13/13}{Feature-based}{0}}
\headcommand {\beamer@framepages {13}{13}}
\headcommand {\beamer@subsectionentry {0}{1}{3}{14}{Discussion}}\headcommand {\beamer@subsectionpages {11}{13}}
\headcommand {\slideentry {1}{3}{1}{14/14}{Discussion}{0}}
\headcommand {\beamer@framepages {14}{14}}
\headcommand {\slideentry {1}{3}{2}{15/15}{Discussion}{0}}
\headcommand {\beamer@framepages {15}{15}}
\headcommand {\sectionentry {2}{Part II: Role detection in discussion trees}{16}{Part II: Role detection in discussion trees}{0}}
\headcommand {\beamer@sectionpages {7}{15}}
\headcommand {\beamer@subsectionpages {14}{15}}
\headcommand {\slideentry {2}{0}{1}{16/16}{}{0}}
\headcommand {\beamer@framepages {16}{16}}
\headcommand {\beamer@subsectionentry {0}{2}{1}{17}{Discussion trees}}\headcommand {\beamer@subsectionpages {16}{16}}
\headcommand {\slideentry {2}{1}{1}{17/17}{Discussion trees}{0}}
\headcommand {\beamer@framepages {17}{17}}
\headcommand {\slideentry {2}{1}{2}{18/18}{Discussion trees}{0}}
\headcommand {\beamer@framepages {18}{18}}
\headcommand {\slideentry {2}{1}{3}{19/19}{Discussion trees}{0}}
\headcommand {\beamer@framepages {19}{19}}
\headcommand {\slideentry {2}{1}{4}{20/20}{Discussion trees}{0}}
\headcommand {\beamer@framepages {20}{20}}
\headcommand {\slideentry {2}{1}{5}{21/21}{Discussion trees}{0}}
\headcommand {\beamer@framepages {21}{21}}
\headcommand {\beamer@subsectionentry {0}{2}{2}{22}{Feature-based analysis of roles}}\headcommand {\beamer@subsectionpages {17}{21}}
\headcommand {\slideentry {2}{2}{1}{22/22}{Feature-based analysis of roles}{0}}
\headcommand {\beamer@framepages {22}{22}}
\headcommand {\slideentry {2}{2}{2}{23/23}{Feature-based analysis of roles}{0}}
\headcommand {\beamer@framepages {23}{23}}
\headcommand {\slideentry {2}{2}{3}{24/24}{Feature-based analysis of roles}{0}}
\headcommand {\beamer@framepages {24}{24}}
\headcommand {\beamer@subsectionentry {0}{2}{3}{25}{Prediction-based}}\headcommand {\beamer@subsectionpages {22}{24}}
\headcommand {\slideentry {2}{3}{1}{25/25}{Prediction-based}{0}}
\headcommand {\beamer@framepages {25}{25}}
\headcommand {\slideentry {2}{3}{2}{26/26}{Prediction-based}{0}}
\headcommand {\beamer@framepages {26}{26}}
\headcommand {\slideentry {2}{3}{3}{27/27}{Prediction-based}{0}}
\headcommand {\beamer@framepages {27}{27}}
\headcommand {\slideentry {2}{3}{4}{28/28}{Prediction-based}{0}}
\headcommand {\beamer@framepages {28}{28}}
\headcommand {\slideentry {2}{3}{5}{29/29}{Prediction-based}{0}}
\headcommand {\beamer@framepages {29}{29}}
\headcommand {\slideentry {2}{3}{6}{30/30}{Prediction-based}{0}}
\headcommand {\beamer@framepages {30}{30}}
\headcommand {\slideentry {2}{3}{7}{31/31}{Prediction-based}{0}}
\headcommand {\beamer@framepages {31}{31}}
\headcommand {\slideentry {2}{3}{8}{32/32}{Prediction-based}{0}}
\headcommand {\beamer@framepages {32}{32}}
\headcommand {\slideentry {2}{3}{9}{33/33}{Prediction-based}{0}}
\headcommand {\beamer@framepages {33}{33}}
\headcommand {\slideentry {2}{3}{10}{34/34}{Prediction-based}{0}}
\headcommand {\beamer@framepages {34}{34}}
\headcommand {\slideentry {2}{3}{11}{35/35}{Prediction-based}{0}}
\headcommand {\beamer@framepages {35}{35}}
\headcommand {\slideentry {2}{3}{12}{36/36}{Prediction-based}{0}}
\headcommand {\beamer@framepages {36}{36}}
\headcommand {\slideentry {2}{3}{13}{37/37}{Prediction-based}{0}}
\headcommand {\beamer@framepages {37}{37}}
\headcommand {\beamer@subsectionentry {0}{2}{4}{38}{Generative model for threads}}\headcommand {\beamer@subsectionpages {25}{37}}
\headcommand {\slideentry {2}{4}{1}{38/38}{Generative model for threads}{0}}
\headcommand {\beamer@framepages {38}{38}}
\headcommand {\slideentry {2}{4}{2}{39/39}{Generative model for threads}{0}}
\headcommand {\beamer@framepages {39}{39}}
\headcommand {\slideentry {2}{4}{3}{40/40}{Generative model for threads}{0}}
\headcommand {\beamer@framepages {40}{40}}
\headcommand {\slideentry {2}{4}{4}{41/41}{Generative model for threads}{0}}
\headcommand {\beamer@framepages {41}{41}}
\headcommand {\slideentry {2}{4}{5}{42/42}{Generative model for threads}{0}}
\headcommand {\beamer@framepages {42}{42}}
\headcommand {\beamer@subsectionentry {0}{2}{5}{43}{Discussion}}\headcommand {\beamer@subsectionpages {38}{42}}
\headcommand {\slideentry {2}{5}{1}{43/43}{Discussion}{0}}
\headcommand {\beamer@framepages {43}{43}}
\headcommand {\sectionentry {3}{Future work}{44}{Future work}{0}}
\headcommand {\beamer@sectionpages {16}{43}}
\headcommand {\beamer@subsectionpages {43}{43}}
\headcommand {\slideentry {3}{0}{1}{44/44}{}{0}}
\headcommand {\beamer@framepages {44}{44}}
\headcommand {\slideentry {3}{0}{2}{45/45}{}{0}}
\headcommand {\beamer@framepages {45}{45}}
\headcommand {\slideentry {3}{0}{3}{46/46}{}{0}}
\headcommand {\beamer@framepages {46}{46}}
\headcommand {\sectionentry {4}{\translate {References}}{47}{\translate {References}}{0}}
\headcommand {\beamer@sectionpages {44}{46}}
\headcommand {\beamer@subsectionpages {44}{46}}
\headcommand {\slideentry {4}{0}{0}{47/47}{}{0}}
\headcommand {\beamer@framepages {47}{47}}
\headcommand {\beamer@partpages {1}{47}}
\headcommand {\beamer@subsectionpages {44}{47}}
\headcommand {\beamer@sectionpages {44}{47}}
\headcommand {\beamer@documentpages {47}}
\headcommand {\def \inserttotalframenumber {46}}
