\relax 
\providecommand\hyper@newdestlabel[2]{}
\providecommand\HyperFirstAtBeginDocument{\AtBeginDocument}
\HyperFirstAtBeginDocument{\ifx\hyper@anchor\@undefined
\global\let\oldcontentsline\contentsline
\gdef\contentsline#1#2#3#4{\oldcontentsline{#1}{#2}{#3}}
\global\let\oldnewlabel\newlabel
\gdef\newlabel#1#2{\newlabelxx{#1}#2}
\gdef\newlabelxx#1#2#3#4#5#6{\oldnewlabel{#1}{{#2}{#3}}}
\AtEndDocument{\ifx\hyper@anchor\@undefined
\let\contentsline\oldcontentsline
\let\newlabel\oldnewlabel
\fi}
\fi}
\global\let\hyper@last\relax 
\gdef\HyperFirstAtBeginDocument#1{#1}
\providecommand\HyField@AuxAddToFields[1]{}
\providecommand\HyField@AuxAddToCoFields[2]{}
\pgfsyspdfmark {pgfid2}{0}{17900937}
\providecommand \oddpage@label [2]{}
\@writefile{toc}{\beamer@endinputifotherversion {3.36pt}}
\@writefile{nav}{\beamer@endinputifotherversion {3.36pt}}
\pgfsyspdfmark {pgfid1}{1864679}{10452204}
\@writefile{nav}{\headcommand {\slideentry {0}{0}{1}{1/1}{}{0}}}
\@writefile{nav}{\headcommand {\beamer@framepages {1}{1}}}
\pgfsyspdfmark {pgfid3}{0}{17900937}
\@writefile{nav}{\headcommand {\slideentry {0}{0}{2}{2/2}{}{0}}}
\@writefile{nav}{\headcommand {\beamer@framepages {2}{2}}}
\pgfsyspdfmark {pgfid4}{0}{17900937}
\@writefile{nav}{\headcommand {\slideentry {0}{0}{3}{3/3}{}{0}}}
\@writefile{nav}{\headcommand {\beamer@framepages {3}{3}}}
\pgfsyspdfmark {pgfid5}{0}{17900937}
\@writefile{nav}{\headcommand {\slideentry {0}{0}{4}{4/4}{}{0}}}
\@writefile{nav}{\headcommand {\beamer@framepages {4}{4}}}
\pgfsyspdfmark {pgfid6}{0}{17900937}
\@writefile{nav}{\headcommand {\slideentry {0}{0}{5}{5/5}{}{0}}}
\@writefile{nav}{\headcommand {\beamer@framepages {5}{5}}}
\pgfsyspdfmark {pgfid7}{0}{17900937}
\@writefile{nav}{\headcommand {\slideentry {0}{0}{6}{6/6}{}{0}}}
\@writefile{nav}{\headcommand {\beamer@framepages {6}{6}}}
\pgfsyspdfmark {pgfid8}{0}{17900937}
\@writefile{toc}{\beamer@sectionintoc {1}{Part I: Role detection in social networks}{7}{0}{1}}
\@writefile{nav}{\headcommand {\sectionentry {1}{Part I: Role detection in social networks}{7}{Part I: Role detection in social networks}{0}}}
\@writefile{nav}{\headcommand {\beamer@sectionpages {1}{6}}}
\@writefile{nav}{\headcommand {\beamer@subsectionpages {1}{6}}}
\@writefile{nav}{\headcommand {\slideentry {1}{0}{1}{7/7}{}{0}}}
\@writefile{nav}{\headcommand {\beamer@framepages {7}{7}}}
\pgfsyspdfmark {pgfid9}{0}{17900937}
\@writefile{toc}{\beamer@subsectionintoc {1}{1}{Position-based (blockmodeling)}{8}{0}{1}}
\@writefile{nav}{\headcommand {\beamer@subsectionentry {0}{1}{1}{8}{Position-based (blockmodeling)}}\headcommand {\beamer@subsectionpages {7}{7}}}
\@writefile{nav}{\headcommand {\slideentry {1}{1}{1}{8/8}{Position-based (blockmodeling)}{0}}}
\@writefile{nav}{\headcommand {\beamer@framepages {8}{8}}}
\pgfsyspdfmark {pgfid10}{0}{17900937}
\@writefile{nav}{\headcommand {\slideentry {1}{1}{2}{9/9}{Position-based (blockmodeling)}{0}}}
\@writefile{nav}{\headcommand {\beamer@framepages {9}{9}}}
\pgfsyspdfmark {pgfid11}{0}{17900937}
\@writefile{nav}{\headcommand {\slideentry {1}{1}{3}{10/10}{Position-based (blockmodeling)}{0}}}
\@writefile{nav}{\headcommand {\beamer@framepages {10}{10}}}
\pgfsyspdfmark {pgfid12}{0}{17900937}
\@writefile{toc}{\beamer@subsectionintoc {1}{2}{Feature-based}{11}{0}{1}}
\@writefile{nav}{\headcommand {\beamer@subsectionentry {0}{1}{2}{11}{Feature-based}}\headcommand {\beamer@subsectionpages {8}{10}}}
\@writefile{nav}{\headcommand {\slideentry {1}{2}{1}{11/11}{Feature-based}{0}}}
\@writefile{nav}{\headcommand {\beamer@framepages {11}{11}}}
\citation{Chan2010}
\pgfsyspdfmark {pgfid13}{0}{17900937}
\@writefile{nav}{\headcommand {\slideentry {1}{2}{2}{12/12}{Feature-based}{0}}}
\@writefile{nav}{\headcommand {\beamer@framepages {12}{12}}}
\pgfsyspdfmark {pgfid14}{0}{17900937}
\@writefile{nav}{\headcommand {\slideentry {1}{2}{3}{13/13}{Feature-based}{0}}}
\@writefile{nav}{\headcommand {\beamer@framepages {13}{13}}}
\pgfsyspdfmark {pgfid15}{0}{17900937}
\@writefile{toc}{\beamer@subsectionintoc {1}{3}{Discussion}{14}{0}{1}}
\@writefile{nav}{\headcommand {\beamer@subsectionentry {0}{1}{3}{14}{Discussion}}\headcommand {\beamer@subsectionpages {11}{13}}}
\@writefile{nav}{\headcommand {\slideentry {1}{3}{1}{14/14}{Discussion}{0}}}
\@writefile{nav}{\headcommand {\beamer@framepages {14}{14}}}
\pgfsyspdfmark {pgfid16}{0}{17900937}
\@writefile{nav}{\headcommand {\slideentry {1}{3}{2}{15/15}{Discussion}{0}}}
\@writefile{nav}{\headcommand {\beamer@framepages {15}{15}}}
\pgfsyspdfmark {pgfid17}{0}{17900937}
\@writefile{toc}{\beamer@sectionintoc {2}{Part II: Role detection in discussion trees}{16}{0}{2}}
\@writefile{nav}{\headcommand {\sectionentry {2}{Part II: Role detection in discussion trees}{16}{Part II: Role detection in discussion trees}{0}}}
\@writefile{nav}{\headcommand {\beamer@sectionpages {7}{15}}}
\@writefile{nav}{\headcommand {\beamer@subsectionpages {14}{15}}}
\@writefile{nav}{\headcommand {\slideentry {2}{0}{1}{16/16}{}{0}}}
\@writefile{nav}{\headcommand {\beamer@framepages {16}{16}}}
\pgfsyspdfmark {pgfid18}{0}{17900937}
\@writefile{toc}{\beamer@subsectionintoc {2}{1}{Discussion trees}{17}{0}{2}}
\@writefile{nav}{\headcommand {\beamer@subsectionentry {0}{2}{1}{17}{Discussion trees}}\headcommand {\beamer@subsectionpages {16}{16}}}
\@writefile{nav}{\headcommand {\slideentry {2}{1}{1}{17/17}{Discussion trees}{0}}}
\@writefile{nav}{\headcommand {\beamer@framepages {17}{17}}}
\pgfsyspdfmark {pgfid19}{0}{17900937}
\@writefile{nav}{\headcommand {\slideentry {2}{1}{2}{18/18}{Discussion trees}{0}}}
\@writefile{nav}{\headcommand {\beamer@framepages {18}{18}}}
\pgfsyspdfmark {pgfid20}{0}{17900937}
\@writefile{nav}{\headcommand {\slideentry {2}{1}{3}{19/19}{Discussion trees}{0}}}
\@writefile{nav}{\headcommand {\beamer@framepages {19}{19}}}
\pgfsyspdfmark {pgfid21}{0}{17900937}
\@writefile{nav}{\headcommand {\slideentry {2}{1}{4}{20/20}{Discussion trees}{0}}}
\@writefile{nav}{\headcommand {\beamer@framepages {20}{20}}}
\citation{Lumbreras2013}
\pgfsyspdfmark {pgfid22}{0}{17900937}
\@writefile{nav}{\headcommand {\slideentry {2}{1}{5}{21/21}{Discussion trees}{0}}}
\@writefile{nav}{\headcommand {\beamer@framepages {21}{21}}}
\pgfsyspdfmark {pgfid23}{0}{17900937}
\@writefile{toc}{\beamer@subsectionintoc {2}{2}{Feature-based analysis of roles}{22}{0}{2}}
\@writefile{nav}{\headcommand {\beamer@subsectionentry {0}{2}{2}{22}{Feature-based analysis of roles}}\headcommand {\beamer@subsectionpages {17}{21}}}
\@writefile{nav}{\headcommand {\slideentry {2}{2}{1}{22/22}{Feature-based analysis of roles}{0}}}
\@writefile{nav}{\headcommand {\beamer@framepages {22}{22}}}
\pgfsyspdfmark {pgfid24}{0}{17900937}
\@writefile{nav}{\headcommand {\slideentry {2}{2}{2}{23/23}{Feature-based analysis of roles}{0}}}
\@writefile{nav}{\headcommand {\beamer@framepages {23}{23}}}
\pgfsyspdfmark {pgfid25}{0}{17900937}
\@writefile{nav}{\headcommand {\slideentry {2}{2}{3}{24/24}{Feature-based analysis of roles}{0}}}
\@writefile{nav}{\headcommand {\beamer@framepages {24}{24}}}
\pgfsyspdfmark {pgfid26}{0}{17900937}
\@writefile{toc}{\beamer@subsectionintoc {2}{3}{Prediction-based}{25}{0}{2}}
\@writefile{nav}{\headcommand {\beamer@subsectionentry {0}{2}{3}{25}{Prediction-based}}\headcommand {\beamer@subsectionpages {22}{24}}}
\@writefile{nav}{\headcommand {\slideentry {2}{3}{1}{25/25}{Prediction-based}{0}}}
\@writefile{nav}{\headcommand {\beamer@framepages {25}{25}}}
\pgfsyspdfmark {pgfid27}{0}{17900937}
\@writefile{nav}{\headcommand {\slideentry {2}{3}{2}{26/26}{Prediction-based}{0}}}
\@writefile{nav}{\headcommand {\beamer@framepages {26}{26}}}
\pgfsyspdfmark {pgfid28}{0}{17900937}
\@writefile{nav}{\headcommand {\slideentry {2}{3}{3}{27/27}{Prediction-based}{0}}}
\@writefile{nav}{\headcommand {\beamer@framepages {27}{27}}}
\pgfsyspdfmark {pgfid29}{0}{17900937}
\@writefile{nav}{\headcommand {\slideentry {2}{3}{4}{28/28}{Prediction-based}{0}}}
\@writefile{nav}{\headcommand {\beamer@framepages {28}{28}}}
\pgfsyspdfmark {pgfid31}{0}{17900937}
\providecommand*\caption@xref[2]{\@setref\relax\@undefined{#1}}
\newlabel{fig:general}{{\caption@xref {fig:general}{ on input line 136}}{29}{Prediction-based}{Doc-Start}{}}
\@writefile{snm}{\beamer@slide {fig:general}{29}}
\@writefile{nav}{\headcommand {\slideentry {2}{3}{5}{29/29}{Prediction-based}{0}}}
\@writefile{nav}{\headcommand {\beamer@framepages {29}{29}}}
\pgfsyspdfmark {pgfid32}{0}{17900937}
\@writefile{nav}{\headcommand {\slideentry {2}{3}{6}{30/30}{Prediction-based}{0}}}
\@writefile{nav}{\headcommand {\beamer@framepages {30}{30}}}
\pgfsyspdfmark {pgfid33}{0}{17900937}
\@writefile{nav}{\headcommand {\slideentry {2}{3}{7}{31/31}{Prediction-based}{0}}}
\@writefile{nav}{\headcommand {\beamer@framepages {31}{31}}}
\pgfsyspdfmark {pgfid34}{0}{17900937}
\@writefile{nav}{\headcommand {\slideentry {2}{3}{8}{32/32}{Prediction-based}{0}}}
\@writefile{nav}{\headcommand {\beamer@framepages {32}{32}}}
\citation{Rasmussen2000a,Gorur2010}
\pgfsyspdfmark {pgfid35}{0}{17900937}
\@writefile{nav}{\headcommand {\slideentry {2}{3}{9}{33/33}{Prediction-based}{0}}}
\@writefile{nav}{\headcommand {\beamer@framepages {33}{33}}}
\pgfsyspdfmark {pgfid36}{0}{17900937}
\@writefile{nav}{\headcommand {\slideentry {2}{3}{10}{34/34}{Prediction-based}{0}}}
\@writefile{nav}{\headcommand {\beamer@framepages {34}{34}}}
\pgfsyspdfmark {pgfid37}{0}{17900937}
\newlabel{fig:benchmark_bars}{{6}{35}{Prediction-based}{Doc-Start}{}}
\@writefile{snm}{\beamer@slide {fig:benchmark_bars}{35}}
\@writefile{nav}{\headcommand {\slideentry {2}{3}{11}{35/35}{Prediction-based}{0}}}
\@writefile{nav}{\headcommand {\beamer@framepages {35}{35}}}
\pgfsyspdfmark {pgfid38}{0}{17900937}
\newlabel{fig:benchmark_bars_ari}{{7}{36}{Prediction-based}{Doc-Start}{}}
\@writefile{snm}{\beamer@slide {fig:benchmark_bars_ari}{36}}
\@writefile{nav}{\headcommand {\slideentry {2}{3}{12}{36/36}{Prediction-based}{0}}}
\@writefile{nav}{\headcommand {\beamer@framepages {36}{36}}}
\pgfsyspdfmark {pgfid39}{0}{17900937}
\@writefile{nav}{\headcommand {\slideentry {2}{3}{13}{37/37}{Prediction-based}{0}}}
\@writefile{nav}{\headcommand {\beamer@framepages {37}{37}}}
\pgfsyspdfmark {pgfid40}{0}{17900937}
\@writefile{toc}{\beamer@subsectionintoc {2}{4}{Generative model for threads}{38}{0}{2}}
\@writefile{nav}{\headcommand {\beamer@subsectionentry {0}{2}{4}{38}{Generative model for threads}}\headcommand {\beamer@subsectionpages {25}{37}}}
\@writefile{nav}{\headcommand {\slideentry {2}{4}{1}{38/38}{Generative model for threads}{0}}}
\@writefile{nav}{\headcommand {\beamer@framepages {38}{38}}}
\pgfsyspdfmark {pgfid41}{0}{17900937}
\@writefile{nav}{\headcommand {\slideentry {2}{4}{2}{39/39}{Generative model for threads}{0}}}
\@writefile{nav}{\headcommand {\beamer@framepages {39}{39}}}
\citation{Gomez2012a}
\pgfsyspdfmark {pgfid42}{0}{17900937}
\@writefile{}{\contentsline {subfigure}{\numberline{(a)}{\ignorespaces {real}}}}
\@writefile{}{\contentsline {subfigure}{\numberline{(b)}{\ignorespaces {synthetic}}}}
\@writefile{nav}{\headcommand {\slideentry {2}{4}{3}{40/40}{Generative model for threads}{0}}}
\@writefile{nav}{\headcommand {\beamer@framepages {40}{40}}}
\citation{Gomez2012a}
\pgfsyspdfmark {pgfid43}{0}{17900937}
\@writefile{}{\contentsline {subfigure}{\numberline{(a)}{\ignorespaces {real}}}}
\@writefile{}{\contentsline {subfigure}{\numberline{(b)}{\ignorespaces {synthetic}}}}
\@writefile{nav}{\headcommand {\slideentry {2}{4}{4}{41/41}{Generative model for threads}{0}}}
\@writefile{nav}{\headcommand {\beamer@framepages {41}{41}}}
\pgfsyspdfmark {pgfid44}{0}{17900937}
\@writefile{nav}{\headcommand {\slideentry {2}{4}{5}{42/42}{Generative model for threads}{0}}}
\@writefile{nav}{\headcommand {\beamer@framepages {42}{42}}}
\pgfsyspdfmark {pgfid45}{0}{17900937}
\@writefile{toc}{\beamer@subsectionintoc {2}{5}{Discussion}{43}{0}{2}}
\@writefile{nav}{\headcommand {\beamer@subsectionentry {0}{2}{5}{43}{Discussion}}\headcommand {\beamer@subsectionpages {38}{42}}}
\@writefile{nav}{\headcommand {\slideentry {2}{5}{1}{43/43}{Discussion}{0}}}
\@writefile{nav}{\headcommand {\beamer@framepages {43}{43}}}
\pgfsyspdfmark {pgfid46}{0}{17900937}
\@writefile{toc}{\beamer@sectionintoc {3}{Future work}{44}{0}{3}}
\@writefile{nav}{\headcommand {\sectionentry {3}{Future work}{44}{Future work}{0}}}
\@writefile{nav}{\headcommand {\beamer@sectionpages {16}{43}}}
\@writefile{nav}{\headcommand {\beamer@subsectionpages {43}{43}}}
\@writefile{nav}{\headcommand {\slideentry {3}{0}{1}{44/44}{}{0}}}
\@writefile{nav}{\headcommand {\beamer@framepages {44}{44}}}
\pgfsyspdfmark {pgfid47}{0}{17900937}
\@writefile{nav}{\headcommand {\slideentry {3}{0}{2}{45/45}{}{0}}}
\@writefile{nav}{\headcommand {\beamer@framepages {45}{45}}}
\pgfsyspdfmark {pgfid48}{0}{17900937}
\@writefile{nav}{\headcommand {\slideentry {3}{0}{3}{46/46}{}{0}}}
\@writefile{nav}{\headcommand {\beamer@framepages {46}{46}}}
\bibstyle{chicago}
\bibdata{./bibtex/library}
\bibcite{Chan2010}{{1}{2010}{{Chan et~al.}}{{Chan, Hayes, and Daly}}}
\bibcite{Gomez2012a}{{2}{2012}{{G\'{o}mez et~al.}}{{G\'{o}mez, Kappen, Litvak, and Kaltenbrunner}}}
\bibcite{Gorur2010}{{3}{2010}{{G\"{o}r\"{u}r and Rasmussen}}{{G\"{o}r\"{u}r and Rasmussen}}}
\bibcite{Lumbreras2013}{{4}{2013}{{Lumbreras et~al.}}{{Lumbreras, Lanagan, Velcin, Jouve, Eric, Lyon, and France}}}
\bibcite{Rasmussen2000a}{{5}{2000}{{Rasmussen}}{{Rasmussen}}}
\pgfsyspdfmark {pgfid49}{0}{17900937}
\@writefile{nav}{\headcommand {\sectionentry {4}{\translate  {References}}{47}{\translate  {References}}{0}}}
\@writefile{nav}{\headcommand {\beamer@sectionpages {44}{46}}}
\@writefile{nav}{\headcommand {\beamer@subsectionpages {44}{46}}}
\@writefile{nav}{\headcommand {\slideentry {4}{0}{0}{47/47}{}{0}}}
\@writefile{nav}{\headcommand {\beamer@framepages {47}{47}}}
\@writefile{nav}{\headcommand {\beamer@partpages {1}{47}}}
\@writefile{nav}{\headcommand {\beamer@subsectionpages {44}{47}}}
\@writefile{nav}{\headcommand {\beamer@sectionpages {44}{47}}}
\@writefile{nav}{\headcommand {\beamer@documentpages {47}}}
\@writefile{nav}{\headcommand {\def \inserttotalframenumber {46}}}
