\relax 
\providecommand*{\memsetcounter}[2]{}
\providecommand\hyper@newdestlabel[2]{}
\providecommand\HyperFirstAtBeginDocument{\AtBeginDocument}
\HyperFirstAtBeginDocument{\ifx\hyper@anchor\@undefined
\global\let\oldcontentsline\contentsline
\gdef\contentsline#1#2#3#4{\oldcontentsline{#1}{#2}{#3}}
\global\let\oldnewlabel\newlabel
\gdef\newlabel#1#2{\newlabelxx{#1}#2}
\gdef\newlabelxx#1#2#3#4#5#6{\oldnewlabel{#1}{{#2}{#3}}}
\AtEndDocument{\ifx\hyper@anchor\@undefined
\let\contentsline\oldcontentsline
\let\newlabel\oldnewlabel
\fi}
\fi}
\global\let\hyper@last\relax 
\gdef\HyperFirstAtBeginDocument#1{#1}
\providecommand\HyField@AuxAddToFields[1]{}
\providecommand\HyField@AuxAddToCoFields[2]{}
\@writefile{lof}{\addvspace {10pt}}
\@writefile{lot}{\addvspace {10pt}}
\@writefile{toc}{\contentsline {chapter}{\chapternumberline {1}Bayesian background}{1}{chapter.1}}
\@writefile{loa}{\addvspace {10\p@ }}
\@writefile{toc}{\contentsline {section}{\numberline {1.1}Bayes rule}{2}{section.1.1}}
\@writefile{toc}{\contentsline {section}{\numberline {1.2}Bayesian inference}{2}{section.1.2}}
\@writefile{toc}{\contentsline {section}{\numberline {1.3}$f_r$: classic prediction schemes}{2}{section.1.3}}
\@writefile{toc}{\contentsline {subsection}{Discriminative models}{2}{section*.1}}
\@writefile{toc}{\contentsline {subsection}{Generative models}{2}{section*.2}}
\@writefile{toc}{\contentsline {subsection}{A probabilistic comparison between discriminative and generative}{3}{section*.3}}
\@writefile{toc}{\contentsline {subsection}{Discriminative vs Generative}{3}{section*.4}}
\@writefile{toc}{\contentsline {section}{\numberline {1.4}Techniques}{4}{section.1.4}}
\@writefile{toc}{\contentsline {subsection}{Bayesian regression}{4}{section*.5}}
\@writefile{toc}{\contentsline {subsection}{Mixture models}{4}{section*.6}}
\@writefile{toc}{\contentsline {subsection}{Gaussian Processes}{4}{section*.7}}
\memsetcounter{lastsheet}{4}
\memsetcounter{lastpage}{4}
