\relax 
\citation{Moreno1934}
\citation{White1976}
\@writefile{toc}{\contentsline {section}{\numberline {1}Introduction}{1}}
\@writefile{toc}{\contentsline {section}{\numberline {2}Roles in sociology: a brief conclusion}{1}}
\citation{Nowicki2001}
\@writefile{toc}{\contentsline {section}{\numberline {3}Stochastic blockmodels}{2}}
\citation{CharlesKemp}
\citation{CharlesKemp}
\citation{DuBois2013}
\@writefile{toc}{\contentsline {subsubsection}{Infinite Relational Model}{3}}
\@writefile{toc}{\contentsline {subsubsection}{Other stochastic blockmodels}{3}}
\@writefile{toc}{\contentsline {section}{\numberline {4}Experiments}{4}}
\@writefile{lof}{\contentsline {figure}{\numberline {1}{\ignorespaces The Godfather: graph of the discussion thread\relax }}{5}}
\providecommand*\caption@xref[2]{\@setref\relax\@undefined{#1}}
\newlabel{godfather_thread1_tree}{{1}{5}}
\@writefile{lof}{\contentsline {figure}{\numberline {2}{\ignorespaces The Godfather: colored graph of the discussion thread according to BM output\relax }}{6}}
\newlabel{label!}{{2}{6}}
\@writefile{lof}{\contentsline {figure}{\numberline {3}{\ignorespaces The Godfather: blockmodel of the discussion thread\relax }}{7}}
\newlabel{godfather_thread1_BM}{{3}{7}}
\@writefile{lof}{\contentsline {figure}{\numberline {4}{\ignorespaces The Godfather: total number of posts of center and periphery members\relax }}{7}}
\newlabel{label!}{{4}{7}}
\@writefile{toc}{\contentsline {section}{\numberline {5}Discussion}{8}}
\@writefile{toc}{\contentsline {subsection}{Limitations of block models}{8}}
\@writefile{toc}{\contentsline {subsection}{Roles beyond block modeling: a first idea}{8}}
\citation{)}
\@writefile{toc}{\contentsline {section}{\numberline {6}Future work}{9}}
\@writefile{lof}{\contentsline {figure}{\numberline {5}{\ignorespaces A user's life (all attributes)\relax }}{10}}
\newlabel{users_life}{{5}{10}}
\@writefile{lof}{\contentsline {figure}{\numberline {6}{\ignorespaces A user's life (entry depth attribute)\relax }}{10}}
\newlabel{users_life2}{{6}{10}}
\bibstyle{chicago}
\bibdata{./bibtex/Papers-Report_feb_2014}
\bibcite{DuBois2013}{{1}{2013}{{DuBois et~al.}}{{DuBois, Butts, and Smyth}}}
\bibcite{CharlesKemp}{{2}{2004}{{Kemp et~al.}}{{Kemp, Griffiths, and Tenenbaum}}}
\bibcite{Moreno1934}{{3}{1934}{{Moreno}}{{Moreno}}}
\bibcite{Nowicki2001}{{4}{2001}{{Nowicki and Snijders}}{{Nowicki and Snijders}}}
\bibcite{White1976}{{5}{1976}{{White et~al.}}{{White, Boorman, and Breiger}}}
\@writefile{lof}{\contentsline {figure}{\numberline {7}{\ignorespaces The Godfather: graph of the discussion thread\relax }}{12}}
\@writefile{lof}{\contentsline {figure}{\numberline {8}{\ignorespaces Patton: graph of the discussion thread\relax }}{13}}
\@writefile{lof}{\contentsline {figure}{\numberline {9}{\ignorespaces The touch of Satan: graph of the discussion thread\relax }}{14}}
