\BOOKMARK [2][]{Outline0.1}{Introduction}{}% 1
\BOOKMARK [2][]{Outline0.2}{Mixture models}{}% 2
\BOOKMARK [2][]{Outline0.3}{Dual-view mixture models}{}% 3
\BOOKMARK [2][]{Outline0.4}{Experiments}{}% 4
\BOOKMARK [2][]{Outline0.5}{Conclusions}{}% 5
\BOOKMARK [1][]{Outline1}{Appendix}{}% 6
