\relax 
\providecommand\hyper@newdestlabel[2]{}
\providecommand\HyperFirstAtBeginDocument{\AtBeginDocument}
\HyperFirstAtBeginDocument{\ifx\hyper@anchor\@undefined
\global\let\oldcontentsline\contentsline
\gdef\contentsline#1#2#3#4{\oldcontentsline{#1}{#2}{#3}}
\global\let\oldnewlabel\newlabel
\gdef\newlabel#1#2{\newlabelxx{#1}#2}
\gdef\newlabelxx#1#2#3#4#5#6{\oldnewlabel{#1}{{#2}{#3}}}
\AtEndDocument{\ifx\hyper@anchor\@undefined
\let\contentsline\oldcontentsline
\let\newlabel\oldnewlabel
\fi}
\fi}
\global\let\hyper@last\relax 
\gdef\HyperFirstAtBeginDocument#1{#1}
\providecommand\HyField@AuxAddToFields[1]{}
\providecommand\HyField@AuxAddToCoFields[2]{}
\pgfsyspdfmark {pgfid2}{0}{17900937}
\providecommand \oddpage@label [2]{}
\@writefile{toc}{\beamer@endinputifotherversion {3.36pt}}
\@writefile{nav}{\beamer@endinputifotherversion {3.36pt}}
\pgfsyspdfmark {pgfid1}{1864679}{10353900}
\@writefile{nav}{\headcommand {\slideentry {0}{0}{1}{1/1}{}{0}}}
\@writefile{nav}{\headcommand {\beamer@framepages {1}{1}}}
\@writefile{nav}{\headcommand {\slideentry {0}{0}{2}{2/2}{}{0}}}
\@writefile{nav}{\headcommand {\beamer@framepages {2}{2}}}
\@writefile{toc}{\beamer@sectionintoc {1}{Introduction}{3}{0}{1}}
\@writefile{nav}{\headcommand {\sectionentry {1}{Introduction}{3}{Introduction}{0}}}
\@writefile{nav}{\headcommand {\beamer@sectionpages {1}{2}}}
\@writefile{nav}{\headcommand {\beamer@subsectionpages {1}{2}}}
\@writefile{nav}{\headcommand {\slideentry {1}{0}{3}{3/3}{}{0}}}
\@writefile{nav}{\headcommand {\beamer@framepages {3}{3}}}
\@writefile{nav}{\headcommand {\slideentry {1}{0}{4}{4/4}{}{0}}}
\@writefile{nav}{\headcommand {\beamer@framepages {4}{4}}}
\@writefile{nav}{\headcommand {\slideentry {1}{0}{5}{5/5}{}{0}}}
\@writefile{nav}{\headcommand {\beamer@framepages {5}{5}}}
\@writefile{nav}{\headcommand {\slideentry {1}{0}{6}{6/6}{}{0}}}
\@writefile{nav}{\headcommand {\beamer@framepages {6}{6}}}
\@writefile{toc}{\beamer@sectionintoc {2}{Mixture models}{7}{0}{2}}
\@writefile{nav}{\headcommand {\sectionentry {2}{Mixture models}{7}{Mixture models}{0}}}
\@writefile{nav}{\headcommand {\beamer@sectionpages {3}{6}}}
\@writefile{nav}{\headcommand {\beamer@subsectionpages {3}{6}}}
\@writefile{nav}{\headcommand {\slideentry {2}{0}{7}{7/7}{}{0}}}
\@writefile{nav}{\headcommand {\beamer@framepages {7}{7}}}
\@writefile{nav}{\headcommand {\slideentry {2}{0}{8}{8/8}{}{0}}}
\@writefile{nav}{\headcommand {\beamer@framepages {8}{8}}}
\@writefile{toc}{\beamer@sectionintoc {3}{Dual-view mixture models}{9}{0}{3}}
\@writefile{nav}{\headcommand {\sectionentry {3}{Dual-view mixture models}{9}{Dual-view mixture models}{0}}}
\@writefile{nav}{\headcommand {\beamer@sectionpages {7}{8}}}
\@writefile{nav}{\headcommand {\beamer@subsectionpages {7}{8}}}
\@writefile{nav}{\headcommand {\slideentry {3}{0}{9}{9/9}{}{0}}}
\@writefile{nav}{\headcommand {\beamer@framepages {9}{9}}}
\newlabel{fig:general}{{9}{10}{Dual-view mixture models}{Doc-Start}{}}
\@writefile{snm}{\beamer@slide {fig:general}{10}}
\@writefile{nav}{\headcommand {\slideentry {3}{0}{10}{10/10}{}{0}}}
\@writefile{nav}{\headcommand {\beamer@framepages {10}{10}}}
\@writefile{nav}{\headcommand {\slideentry {3}{0}{11}{11/11}{}{0}}}
\@writefile{nav}{\headcommand {\beamer@framepages {11}{11}}}
\@writefile{nav}{\headcommand {\slideentry {3}{0}{12}{12/12}{}{0}}}
\@writefile{nav}{\headcommand {\beamer@framepages {12}{12}}}
\@writefile{toc}{\beamer@sectionintoc {4}{Experiments}{13}{0}{4}}
\@writefile{nav}{\headcommand {\sectionentry {4}{Experiments}{13}{Experiments}{0}}}
\@writefile{nav}{\headcommand {\beamer@sectionpages {9}{12}}}
\@writefile{nav}{\headcommand {\beamer@subsectionpages {9}{12}}}
\@writefile{nav}{\headcommand {\slideentry {4}{0}{13}{13/13}{}{0}}}
\@writefile{nav}{\headcommand {\beamer@framepages {13}{13}}}
\@writefile{nav}{\headcommand {\slideentry {4}{0}{14}{14/14}{}{0}}}
\@writefile{nav}{\headcommand {\beamer@framepages {14}{14}}}
\@writefile{nav}{\headcommand {\slideentry {4}{0}{15}{15/15}{}{0}}}
\@writefile{nav}{\headcommand {\beamer@framepages {15}{15}}}
\citation{Rasmussen2000a,Gorur2010}
\@writefile{nav}{\headcommand {\slideentry {4}{0}{16}{16/16}{}{0}}}
\@writefile{nav}{\headcommand {\beamer@framepages {16}{16}}}
\@writefile{nav}{\headcommand {\slideentry {4}{0}{17}{17/17}{}{0}}}
\@writefile{nav}{\headcommand {\beamer@framepages {17}{17}}}
\newlabel{fig:benchmark_bars}{{1}{18}{Experiments}{Doc-Start}{}}
\@writefile{snm}{\beamer@slide {fig:benchmark_bars}{18}}
\@writefile{nav}{\headcommand {\slideentry {4}{0}{18}{18/18}{}{0}}}
\@writefile{nav}{\headcommand {\beamer@framepages {18}{18}}}
\newlabel{fig:benchmark_bars_ari}{{2}{19}{Experiments}{Doc-Start}{}}
\@writefile{snm}{\beamer@slide {fig:benchmark_bars_ari}{19}}
\@writefile{nav}{\headcommand {\slideentry {4}{0}{19}{19/19}{}{0}}}
\@writefile{nav}{\headcommand {\beamer@framepages {19}{19}}}
\@writefile{toc}{\beamer@sectionintoc {5}{Conclusions}{20}{0}{5}}
\@writefile{nav}{\headcommand {\sectionentry {5}{Conclusions}{20}{Conclusions}{0}}}
\@writefile{nav}{\headcommand {\beamer@sectionpages {13}{19}}}
\@writefile{nav}{\headcommand {\beamer@subsectionpages {13}{19}}}
\@writefile{nav}{\headcommand {\slideentry {5}{0}{20}{20/20}{}{0}}}
\@writefile{nav}{\headcommand {\beamer@framepages {20}{20}}}
\@writefile{nav}{\headcommand {\slideentry {5}{0}{21}{21/21}{}{0}}}
\@writefile{nav}{\headcommand {\beamer@framepages {21}{21}}}
\@writefile{nav}{\headcommand {\slideentry {5}{0}{22}{22/22}{}{0}}}
\@writefile{nav}{\headcommand {\beamer@framepages {22}{22}}}
\bibstyle{chicago}
\bibdata{Mendeley}
\bibcite{Abbasnejad2013a}{{1}{2013}{{Abbasnejad et~al.}}{{Abbasnejad, Sanner, Bonilla, and Poupart}}}
\bibcite{Bonilla2010}{{2}{2010}{{Bonilla et~al.}}{{Bonilla, Guo, and Sanner}}}
\bibcite{Gorur2010}{{3}{2010}{{G{\"{o}}r{\"{u}}r and Rasmussen}}{{G{\"{o}}r{\"{u}}r and Rasmussen}}}
\bibcite{Greene2009}{{4}{2009}{{Greene}}{{Greene}}}
\bibcite{Kumar2011}{{5}{2011}{{Kumar et~al.}}{{Kumar, Rai, and Daume}}}
\bibcite{Mitchell1998}{{6}{1998}{{Mitchell and Blum}}{{Mitchell and Blum}}}
\bibcite{Niu2012}{{7}{2012}{{Niu et~al.}}{{Niu, Dy, and Ghahramani}}}
\bibcite{Rasmussen2000a}{{8}{2000}{{Rasmussen}}{{Rasmussen}}}
\@writefile{nav}{\headcommand {\sectionentry {6}{\translate  {References}}{23}{\translate  {References}}{0}}}
\@writefile{nav}{\headcommand {\beamer@sectionpages {20}{22}}}
\@writefile{nav}{\headcommand {\beamer@subsectionpages {20}{22}}}
\@writefile{nav}{\headcommand {\slideentry {6}{0}{23}{23/23}{}{0}}}
\@writefile{nav}{\headcommand {\beamer@framepages {23}{23}}}
\@writefile{nav}{\headcommand {\slideentry {6}{0}{23}{23/24}{}{0}}}
\@writefile{nav}{\headcommand {\beamer@framepages {23}{24}}}
\@writefile{nav}{\headcommand {\partentry {\translate  {Appendix}}{1}}}
\@writefile{nav}{\headcommand {\beamer@partpages {1}{24}}}
\@writefile{nav}{\headcommand {\beamer@sectionpages {20}{24}}}
\@writefile{nav}{\headcommand {\beamer@subsectionpages {20}{24}}}
\@writefile{nav}{\headcommand {\beamer@appendixpages {25}}}
\@writefile{nav}{\headcommand {\slideentry {6}{0}{24}{25/25}{}{1}}}
\@writefile{nav}{\headcommand {\beamer@framepages {25}{25}}}
\@writefile{nav}{\headcommand {\slideentry {6}{0}{25}{26/26}{}{1}}}
\@writefile{nav}{\headcommand {\beamer@framepages {26}{26}}}
\@writefile{nav}{\headcommand {\slideentry {6}{0}{26}{27/27}{}{1}}}
\@writefile{nav}{\headcommand {\beamer@framepages {27}{27}}}
\@writefile{nav}{\headcommand {\beamer@partpages {25}{27}}}
\@writefile{nav}{\headcommand {\beamer@subsectionpages {25}{27}}}
\@writefile{nav}{\headcommand {\beamer@sectionpages {25}{27}}}
\@writefile{nav}{\headcommand {\beamer@documentpages {27}}}
\@writefile{nav}{\headcommand {\def \inserttotalframenumber {26}}}
