\relax 
\citation{Golder2003,Welser2007,Welser2011,Chan2010}
\citation{Labatut2014}
\citation{SteffenandTobiasScheffer,Xu2013,Sun2013}
\citation{Caruana1997,Zhang2008,Zhang2005}
\citation{Yang2013,He2011}
\citation{Cheng2014}
\providecommand \oddpage@label [2]{}
\@writefile{toc}{\contentsline {section}{\numberline {1}Introduction}{1}}
\citation{Cheng2014}
\@writefile{toc}{\contentsline {section}{\numberline {2}Chinese Restaurant Process}{2}}
\newlabel{eq:p_z}{{4}{3}}
\newlabel{eq:z_cond}{{5}{3}}
\newlabel{eq:p_z_minus}{{6}{3}}
\@writefile{lof}{\contentsline {figure}{\numberline {1}{\ignorespaces Graphical model of the generative process. All views are connected through the latent variables $\mathbf  {z}$.\relax }}{4}}
\providecommand*\caption@xref[2]{\@setref\relax\@undefined{#1}}
\newlabel{fig:general}{{1}{4}}
\@writefile{toc}{\contentsline {section}{\numberline {3}General generative model}{4}}
\@writefile{toc}{\contentsline {section}{\numberline {4}Predicting behavior in online forums}{5}}
\citation{Rasmussen2000a}
\citation{Gorur2010}
\newlabel{graphicalmodel}{{\caption@xref {graphicalmodel}{ on input line 321}}{6}}
\@writefile{lof}{\contentsline {figure}{\numberline {2}{\ignorespaces Proposed model. The left branch corresponds to a traditional DP-GMM. The right branch corresponds to a linear regressions which coefficients are also generated from a DP-GMM. Both branches share the class assignments $\mathbf  {z}$\relax }}{6}}
\@writefile{toc}{\contentsline {subsection}{\numberline {4.1}Descriptive view}{7}}
\newlabel{eq:wishart_sar}{{15}{7}}
\newlabel{eq:gamma_ba0}{{19}{7}}
\@writefile{toc}{\contentsline {subsection}{\numberline {4.2}Predictive view}{7}}
\@writefile{lot}{\contentsline {table}{\numberline {1}{\ignorespaces Notations\relax }}{8}}
\@writefile{toc}{\contentsline {subsection}{\numberline {4.3}Shared parameters}{9}}
\newlabel{eq:prior_z_CRP}{{28}{9}}
\@writefile{toc}{\contentsline {section}{\numberline {5}Inference using Gibbs sampling}{9}}
\citation{Neal1998}
\@writefile{toc}{\contentsline {subsection}{\numberline {5.1}Predictive distribution}{10}}
\@writefile{toc}{\contentsline {section}{\numberline {6}Experiments with synthetic data}{10}}
\@writefile{lof}{\contentsline {figure}{\numberline {3}{\ignorespaces Synthetic data. Left: users features. Right: users coefficients. Every group of users have a well differentiated set of features and coefficients. Note that coefficients are latent variables that affect the length of the threads.\relax }}{11}}
\@writefile{toc}{\contentsline {subsection}{\numberline {6.1}Evaluation metrics}{11}}
\@writefile{toc}{\contentsline {subsection}{\numberline {6.2}Benchmarks}{11}}
\@writefile{lof}{\contentsline {figure}{\numberline {4}{\ignorespaces Comparison of the three models for different numbers of users and threads. Bars indicate means of $L$-criterion score over 10 experiments. Error bars are standard deviations.\relax }}{12}}
\newlabel{fig:benchmark_bars}{{4}{12}}
\@writefile{lof}{\contentsline {figure}{\numberline {5}{\ignorespaces Comparison of the three models for different numbers of users and threads. Bars indicate means of Adjusted Rand Index over 10 experiments. Error bars are standard deviations.\relax }}{12}}
\newlabel{fig:benchmark_bars_ari}{{5}{12}}
\@writefile{lof}{\contentsline {figure}{\numberline {6}{\ignorespaces Comparison of the three models. Predictions (left columns) show the predictive posterior mean, draws from the predictive posterior and the true values. Clustering show the most frequent clustering during the Gibbs sampling\relax }}{13}}
\newlabel{fig:benchmark}{{6}{13}}
\@writefile{lof}{\contentsline {figure}{\numberline {7}{\ignorespaces Influence of density\relax }}{14}}
\@writefile{toc}{\contentsline {subsection}{\numberline {6.3}Influence of participations density}{14}}
\@writefile{toc}{\contentsline {subsection}{\numberline {6.4}Unclear features}{14}}
\@writefile{lof}{\contentsline {figure}{\numberline {8}{\ignorespaces Results for unclear behavior (left) and unclear features (right)\relax }}{15}}
\newlabel{fig:confused}{{8}{15}}
\@writefile{toc}{\contentsline {subsection}{\numberline {6.5}Unclear behaviors}{15}}
\@writefile{toc}{\contentsline {section}{\numberline {7}Conclusions}{15}}
\@writefile{toc}{\contentsline {section}{\numberline {A}Conditionals for the descriptive branch}{17}}
\@writefile{toc}{\contentsline {subsection}{\numberline {A.1}Component parameters}{17}}
\@writefile{toc}{\contentsline {subsection}{\numberline {A.2}Shared hyper-parameters}{18}}
\@writefile{toc}{\contentsline {section}{\numberline {B}Conditionals for the predictive branch}{19}}
\@writefile{toc}{\contentsline {subsection}{\numberline {B.1}User parameters}{19}}
\@writefile{toc}{\contentsline {subsection}{\numberline {B.2}Component parameters}{20}}
\@writefile{toc}{\contentsline {subsection}{\numberline {B.3}Shared hyper-parameters}{20}}
\@writefile{toc}{\contentsline {subsection}{\numberline {B.4}Regression noise}{22}}
\@writefile{toc}{\contentsline {section}{\numberline {C}Sampling $\beta _{b_0}$}{22}}
\@writefile{toc}{\contentsline {section}{\numberline {D}Sampling $\beta _{a_0}$}{23}}
\bibstyle{chicago}
\bibdata{./bibtex/references}
\bibcite{SteffenandTobiasScheffer}{{1}{2004}{{Bickel and Scheffer}}{{Bickel and Scheffer}}}
\bibcite{Caruana1997}{{2}{1997}{{Caruana}}{{Caruana}}}
\bibcite{Chan2010}{{3}{2010}{{Chan et~al.}}{{Chan, Hayes, and Daly}}}
\bibcite{Cheng2014}{{4}{2014}{{Cheng et~al.}}{{Cheng, Agrawal, Choudhary, Liu, and Zhang}}}
\bibcite{Golder2003}{{5}{2003}{{Golder}}{{Golder}}}
\bibcite{Gorur2010}{{6}{2010}{{G\"{o}r\"{u}r and Rasmussen}}{{G\"{o}r\"{u}r and Rasmussen}}}
\bibcite{He2011}{{7}{2011}{{He and Lawrence}}{{He and Lawrence}}}
\bibcite{Labatut2014}{{8}{2014}{{Labatut et~al.}}{{Labatut, Dugu\'{e}, and Perez}}}
\bibcite{Neal1998}{{9}{1998}{{Neal}}{{Neal}}}
\bibcite{Rasmussen2000a}{{10}{2000}{{Rasmussen}}{{Rasmussen}}}
\bibcite{Sun2013}{{11}{2013}{{Sun}}{{Sun}}}
\bibcite{Welser2011}{{12}{2011}{{Welser et~al.}}{{Welser, Cosley, Kossinets, Lin, Dokshin, Gay, and Smith}}}
\bibcite{Welser2007}{{13}{2007}{{Welser et~al.}}{{Welser, Gleave, Fisher, and Smith}}}
\bibcite{Xu2013}{{14}{2013}{{Xu et~al.}}{{Xu, Tao, and Xu}}}
\bibcite{Yang2013}{{15}{2013}{{Yang and He}}{{Yang and He}}}
\bibcite{Zhang2005}{{16}{2005}{{Zhang et~al.}}{{Zhang, Ghahramani, and Yang}}}
\bibcite{Zhang2008}{{17}{2008}{{Zhang et~al.}}{{Zhang, Ghahramani, and Yang}}}
