\relax 
\providecommand\hyper@newdestlabel[2]{}
\providecommand\HyperFirstAtBeginDocument{\AtBeginDocument}
\HyperFirstAtBeginDocument{\ifx\hyper@anchor\@undefined
\global\let\oldcontentsline\contentsline
\gdef\contentsline#1#2#3#4{\oldcontentsline{#1}{#2}{#3}}
\global\let\oldnewlabel\newlabel
\gdef\newlabel#1#2{\newlabelxx{#1}#2}
\gdef\newlabelxx#1#2#3#4#5#6{\oldnewlabel{#1}{{#2}{#3}}}
\AtEndDocument{\ifx\hyper@anchor\@undefined
\let\contentsline\oldcontentsline
\let\newlabel\oldnewlabel
\fi}
\fi}
\global\let\hyper@last\relax 
\gdef\HyperFirstAtBeginDocument#1{#1}
\providecommand\HyField@AuxAddToFields[1]{}
\providecommand\HyField@AuxAddToCoFields[2]{}
\providecommand \oddpage@label [2]{}
\@writefile{toc}{\beamer@endinputifotherversion {3.36pt}}
\@writefile{nav}{\beamer@endinputifotherversion {3.36pt}}
\pgfsyspdfmark {pgfid1}{1864679}{10353900}
\@writefile{nav}{\headcommand {\slideentry {0}{0}{1}{1/1}{}{0}}}
\@writefile{nav}{\headcommand {\beamer@framepages {1}{1}}}
\@writefile{nav}{\headcommand {\slideentry {0}{0}{2}{2/2}{}{0}}}
\@writefile{nav}{\headcommand {\beamer@framepages {2}{2}}}
\@writefile{toc}{\beamer@sectionintoc {1}{Introduction}{3}{0}{1}}
\@writefile{nav}{\headcommand {\sectionentry {1}{Introduction}{3}{Introduction}{0}}}
\@writefile{nav}{\headcommand {\beamer@sectionpages {1}{2}}}
\@writefile{nav}{\headcommand {\beamer@subsectionpages {1}{2}}}
\@writefile{nav}{\headcommand {\slideentry {1}{0}{1}{3/3}{}{0}}}
\@writefile{nav}{\headcommand {\beamer@framepages {3}{3}}}
\@writefile{nav}{\headcommand {\slideentry {1}{0}{2}{4/4}{}{0}}}
\@writefile{nav}{\headcommand {\beamer@framepages {4}{4}}}
\citation{Furtado2013,Angeletou2011a,Chan2010,Maia2008}
\@writefile{nav}{\headcommand {\slideentry {1}{0}{3}{5/5}{}{0}}}
\@writefile{nav}{\headcommand {\beamer@framepages {5}{5}}}
\@writefile{nav}{\headcommand {\slideentry {1}{0}{4}{6/6}{}{0}}}
\@writefile{nav}{\headcommand {\beamer@framepages {6}{6}}}
\@writefile{nav}{\headcommand {\slideentry {1}{0}{5}{7/7}{}{0}}}
\@writefile{nav}{\headcommand {\beamer@framepages {7}{7}}}
\@writefile{toc}{\beamer@sectionintoc {2}{Work done}{8}{0}{2}}
\@writefile{nav}{\headcommand {\sectionentry {2}{Work done}{8}{Work done}{0}}}
\@writefile{nav}{\headcommand {\beamer@sectionpages {3}{7}}}
\@writefile{nav}{\headcommand {\beamer@subsectionpages {3}{7}}}
\@writefile{nav}{\headcommand {\slideentry {2}{0}{1}{8/8}{}{0}}}
\@writefile{nav}{\headcommand {\beamer@framepages {8}{8}}}
\citation{Nowicki2001}
\citation{CharlesKemp}
\@writefile{toc}{\beamer@subsectionintoc {2}{1}{Blockmodeling}{9}{0}{2}}
\@writefile{nav}{\headcommand {\beamer@subsectionentry {0}{2}{1}{9}{Blockmodeling}}\headcommand {\beamer@subsectionpages {8}{8}}}
\@writefile{nav}{\headcommand {\slideentry {2}{1}{1}{9/9}{Blockmodeling}{0}}}
\@writefile{nav}{\headcommand {\beamer@framepages {9}{9}}}
\@writefile{nav}{\headcommand {\slideentry {2}{1}{2}{10/10}{Blockmodeling}{0}}}
\@writefile{nav}{\headcommand {\beamer@framepages {10}{10}}}
\citation{KatherineFaust}
\citation{Adamic2008}
\@writefile{toc}{\beamer@subsectionintoc {2}{2}{Motifs}{11}{0}{2}}
\@writefile{nav}{\headcommand {\beamer@subsectionentry {0}{2}{2}{11}{Motifs}}\headcommand {\beamer@subsectionpages {9}{10}}}
\@writefile{nav}{\headcommand {\slideentry {2}{2}{1}{11/11}{Motifs}{0}}}
\@writefile{nav}{\headcommand {\beamer@framepages {11}{11}}}
\@writefile{nav}{\headcommand {\slideentry {2}{2}{2}{12/12}{Motifs}{0}}}
\@writefile{nav}{\headcommand {\beamer@framepages {12}{12}}}
\@writefile{toc}{\beamer@subsectionintoc {2}{3}{Contexts}{13}{0}{2}}
\@writefile{nav}{\headcommand {\beamer@subsectionentry {0}{2}{3}{13}{Contexts}}\headcommand {\beamer@subsectionpages {11}{12}}}
\@writefile{nav}{\headcommand {\slideentry {2}{3}{1}{13/13}{Contexts}{0}}}
\@writefile{nav}{\headcommand {\beamer@framepages {13}{13}}}
\@writefile{nav}{\headcommand {\slideentry {2}{3}{2}{14/14}{Contexts}{0}}}
\@writefile{nav}{\headcommand {\beamer@framepages {14}{14}}}
\@writefile{toc}{\beamer@sectionintoc {3}{Dual-view learning}{15}{0}{3}}
\@writefile{nav}{\headcommand {\sectionentry {3}{Dual-view learning}{15}{Dual-view learning}{0}}}
\@writefile{nav}{\headcommand {\beamer@sectionpages {8}{14}}}
\@writefile{nav}{\headcommand {\beamer@subsectionpages {13}{14}}}
\@writefile{nav}{\headcommand {\slideentry {3}{0}{1}{15/15}{}{0}}}
\@writefile{nav}{\headcommand {\beamer@framepages {15}{15}}}
\@writefile{nav}{\headcommand {\slideentry {3}{0}{2}{16/16}{}{0}}}
\@writefile{nav}{\headcommand {\beamer@framepages {16}{16}}}
\citation{Cheng2014}
\@writefile{nav}{\headcommand {\slideentry {3}{0}{3}{17/17}{}{0}}}
\@writefile{nav}{\headcommand {\beamer@framepages {17}{17}}}
\newlabel{fig:general}{{20}{18}{Dual-view learning}{Doc-Start}{}}
\@writefile{snm}{\beamer@slide {fig:general}{18}}
\@writefile{nav}{\headcommand {\slideentry {3}{0}{4}{18/18}{}{0}}}
\@writefile{nav}{\headcommand {\beamer@framepages {18}{18}}}
\newlabel{fig:general}{{21}{19}{Dual-view learning}{Doc-Start}{}}
\@writefile{snm}{\beamer@slide {fig:general}{19}}
\@writefile{nav}{\headcommand {\slideentry {3}{0}{5}{19/19}{}{0}}}
\@writefile{nav}{\headcommand {\beamer@framepages {19}{19}}}
\@writefile{nav}{\headcommand {\slideentry {3}{0}{6}{20/20}{}{0}}}
\@writefile{nav}{\headcommand {\beamer@framepages {20}{20}}}
\@writefile{nav}{\headcommand {\slideentry {3}{0}{7}{21/21}{}{0}}}
\@writefile{nav}{\headcommand {\beamer@framepages {21}{21}}}
\@writefile{toc}{\beamer@sectionintoc {4}{Experiments}{22}{0}{4}}
\@writefile{nav}{\headcommand {\sectionentry {4}{Experiments}{22}{Experiments}{0}}}
\@writefile{nav}{\headcommand {\beamer@sectionpages {15}{21}}}
\@writefile{nav}{\headcommand {\beamer@subsectionpages {15}{21}}}
\@writefile{nav}{\headcommand {\slideentry {4}{0}{1}{22/22}{}{0}}}
\@writefile{nav}{\headcommand {\beamer@framepages {22}{22}}}
\@writefile{nav}{\headcommand {\slideentry {4}{0}{2}{23/23}{}{0}}}
\@writefile{nav}{\headcommand {\beamer@framepages {23}{23}}}
\@writefile{nav}{\headcommand {\slideentry {4}{0}{3}{24/24}{}{0}}}
\@writefile{nav}{\headcommand {\beamer@framepages {24}{24}}}
\@writefile{nav}{\headcommand {\slideentry {4}{0}{4}{25/25}{}{0}}}
\@writefile{nav}{\headcommand {\beamer@framepages {25}{25}}}
\newlabel{fig:benchmark_bars}{{5}{26}{Experiments}{Doc-Start}{}}
\@writefile{snm}{\beamer@slide {fig:benchmark_bars}{26}}
\@writefile{nav}{\headcommand {\slideentry {4}{0}{5}{26/26}{}{0}}}
\@writefile{nav}{\headcommand {\beamer@framepages {26}{26}}}
\newlabel{fig:benchmark_bars_ari}{{6}{27}{Experiments}{Doc-Start}{}}
\@writefile{snm}{\beamer@slide {fig:benchmark_bars_ari}{27}}
\@writefile{nav}{\headcommand {\slideentry {4}{0}{6}{27/27}{}{0}}}
\@writefile{nav}{\headcommand {\beamer@framepages {27}{27}}}
\newlabel{fig:confused}{{7}{28}{Experiments}{Doc-Start}{}}
\@writefile{snm}{\beamer@slide {fig:confused}{28}}
\@writefile{nav}{\headcommand {\slideentry {4}{0}{7}{28/28}{}{0}}}
\@writefile{nav}{\headcommand {\beamer@framepages {28}{28}}}
\@writefile{toc}{\beamer@sectionintoc {5}{Conclusions}{29}{0}{5}}
\@writefile{nav}{\headcommand {\sectionentry {5}{Conclusions}{29}{Conclusions}{0}}}
\@writefile{nav}{\headcommand {\beamer@sectionpages {22}{28}}}
\@writefile{nav}{\headcommand {\beamer@subsectionpages {22}{28}}}
\@writefile{nav}{\headcommand {\slideentry {5}{0}{1}{29/29}{}{0}}}
\@writefile{nav}{\headcommand {\beamer@framepages {29}{29}}}
\@writefile{nav}{\headcommand {\slideentry {5}{0}{2}{30/30}{}{0}}}
\@writefile{nav}{\headcommand {\beamer@framepages {30}{30}}}
\@writefile{nav}{\headcommand {\slideentry {5}{0}{3}{31/31}{}{0}}}
\@writefile{nav}{\headcommand {\beamer@framepages {31}{31}}}
\bibstyle{chicago}
\bibdata{./bibtex/references}
\bibcite{Adamic2008}{{1}{2008}{{Adamic et~al.}}{{Adamic, Zhang, Bakshy, and Ackerman}}}
\bibcite{Angeletou2011a}{{2}{2011}{{Angeletou et~al.}}{{Angeletou, Rowe, and Alani}}}
\bibcite{Chan2010}{{3}{2010}{{Chan et~al.}}{{Chan, Hayes, and Daly}}}
\bibcite{Cheng2014}{{4}{2014}{{Cheng et~al.}}{{Cheng, Agrawal, Choudhary, Liu, and Zhang}}}
\bibcite{KatherineFaust}{{5}{2002}{{Faust and Skvoretz}}{{Faust and Skvoretz}}}
\bibcite{Furtado2013}{{6}{2013}{{Furtado et~al.}}{{Furtado, Andrade, Oliveira, and Brasileiro}}}
\bibcite{CharlesKemp}{{7}{2004}{{Kemp et~al.}}{{Kemp, Griffiths, and Tenenbaum}}}
\bibcite{Maia2008}{{8}{2008}{{Maia et~al.}}{{Maia, Almeida, and Almeida}}}
\bibcite{Nowicki2001}{{9}{2001}{{Nowicki and Snijders}}{{Nowicki and Snijders}}}
\@writefile{nav}{\headcommand {\sectionentry {6}{\translate  {References}}{32}{\translate  {References}}{0}}}
\@writefile{nav}{\headcommand {\beamer@sectionpages {29}{31}}}
\@writefile{nav}{\headcommand {\beamer@subsectionpages {29}{31}}}
\@writefile{nav}{\headcommand {\slideentry {6}{0}{0}{32/32}{}{0}}}
\@writefile{nav}{\headcommand {\beamer@framepages {32}{32}}}
\@writefile{nav}{\headcommand {\slideentry {6}{0}{0}{32/33}{}{0}}}
\@writefile{nav}{\headcommand {\beamer@framepages {32}{33}}}
\@writefile{nav}{\headcommand {\partentry {\translate  {Appendix}}{1}}}
\@writefile{nav}{\headcommand {\beamer@partpages {1}{33}}}
\@writefile{nav}{\headcommand {\beamer@sectionpages {29}{33}}}
\@writefile{nav}{\headcommand {\beamer@subsectionpages {29}{33}}}
\@writefile{nav}{\headcommand {\beamer@appendixpages {34}}}
\@writefile{nav}{\headcommand {\slideentry {6}{0}{1}{34/34}{}{1}}}
\@writefile{nav}{\headcommand {\beamer@framepages {34}{34}}}
\@writefile{nav}{\headcommand {\slideentry {6}{0}{2}{35/35}{}{1}}}
\@writefile{nav}{\headcommand {\beamer@framepages {35}{35}}}
\@writefile{nav}{\headcommand {\slideentry {6}{0}{3}{36/36}{}{1}}}
\@writefile{nav}{\headcommand {\beamer@framepages {36}{36}}}
\@writefile{nav}{\headcommand {\slideentry {6}{0}{4}{37/37}{}{1}}}
\@writefile{nav}{\headcommand {\beamer@framepages {37}{37}}}
\@writefile{nav}{\headcommand {\beamer@partpages {34}{37}}}
\@writefile{nav}{\headcommand {\beamer@subsectionpages {34}{37}}}
\@writefile{nav}{\headcommand {\beamer@sectionpages {34}{37}}}
\@writefile{nav}{\headcommand {\beamer@documentpages {37}}}
\@writefile{nav}{\headcommand {\def \inserttotalframenumber {39}}}
