\relax 
\@writefile{toc}{\contentsline {section}{\numberline {1}Cluster-based regressions}{1}}
\@writefile{toc}{\contentsline {subsection}{\numberline {1.1}Problem}{1}}
\newlabel{regression}{{1}{1}}
\newlabel{interdependence_belbin}{{2}{1}}
\@writefile{toc}{\contentsline {subsection}{\numberline {1.2}Solution}{1}}
\@writefile{toc}{\contentsline {section}{\numberline {2}Role-based predictions}{1}}
\@writefile{toc}{\contentsline {subsection}{\numberline {2.1}Problem}{1}}
\@writefile{toc}{\contentsline {subsection}{\numberline {2.2}Solution}{2}}
\@writefile{toc}{\contentsline {section}{\numberline {3}Why the conversation ends?}{2}}
\@writefile{toc}{\contentsline {subsection}{\numberline {3.1}Problem}{2}}
\@writefile{toc}{\contentsline {subsection}{\numberline {3.2}Solution}{2}}
\@writefile{toc}{\contentsline {section}{\numberline {4}Datasets}{2}}
\@writefile{toc}{\contentsline {section}{\numberline {5}Deadlines}{2}}
