%!PS-Adobe-3.0 EPSF-3.0
%%DocumentNeededResources: font Helvetica
%%+ font Helvetica-Bold
%%+ font Helvetica-Oblique
%%+ font Helvetica-BoldOblique
%%+ font Symbol
%%Title: R Graphics Output
%%Creator: R Software
%%Pages: (atend)
%%BoundingBox: 0 0 816 410
%%EndComments
%%BeginProlog
/bp  { gs sRGB gs } def
% begin .ps.prolog
/gs  { gsave } bind def
/gr  { grestore } bind def
/ep  { showpage gr gr } bind def
/m   { moveto } bind def
/l  { rlineto } bind def
/np  { newpath } bind def
/cp  { closepath } bind def
/f   { fill } bind def
/o   { stroke } bind def
/c   { newpath 0 360 arc } bind def
/r   { 4 2 roll moveto 1 copy 3 -1 roll exch 0 exch rlineto 0 rlineto -1 mul 0 exch rlineto closepath } bind def
/p1  { stroke } bind def
/p2  { gsave bg fill grestore newpath } bind def
/p3  { gsave bg fill grestore stroke } bind def
/p6  { gsave bg eofill grestore newpath } bind def
/p7  { gsave bg eofill grestore stroke } bind def
/t   { 5 -2 roll moveto gsave rotate
       1 index stringwidth pop
       mul neg 0 rmoveto show grestore } bind def
/ta  { 4 -2 roll moveto gsave rotate show } bind def
/tb  { 2 -1 roll 0 rmoveto show } bind def
/cl  { grestore gsave newpath 3 index 3 index moveto 1 index
       4 -1 roll lineto  exch 1 index lineto lineto
       closepath clip newpath } bind def
/rgb { setrgbcolor } bind def
/s   { scalefont setfont } bind def
% end   .ps.prolog
/sRGB { [ /CIEBasedABC
          << /DecodeLMN
               [ { dup 0.03928 le
                        {12.92321 div}
                        {0.055 add 1.055 div 2.4 exp }
                     ifelse
                 } bind dup dup
               ]
             /MatrixLMN [0.412457 0.212673 0.019334
                         0.357576 0.715152 0.119192
                         0.180437 0.072175 0.950301]
             /WhitePoint [0.9505 1.0 1.0890]
           >>
         ] setcolorspace } bind def
/srgb { setcolor } bind def
%%IncludeResource: font Helvetica
/Helvetica findfont
dup length dict begin
  {1 index /FID ne {def} {pop pop} ifelse} forall
  /Encoding ISOLatin1Encoding def
  currentdict
  end
/Font1 exch definefont pop
%%IncludeResource: font Helvetica-Bold
/Helvetica-Bold findfont
dup length dict begin
  {1 index /FID ne {def} {pop pop} ifelse} forall
  /Encoding ISOLatin1Encoding def
  currentdict
  end
/Font2 exch definefont pop
%%IncludeResource: font Helvetica-Oblique
/Helvetica-Oblique findfont
dup length dict begin
  {1 index /FID ne {def} {pop pop} ifelse} forall
  /Encoding ISOLatin1Encoding def
  currentdict
  end
/Font3 exch definefont pop
%%IncludeResource: font Helvetica-BoldOblique
/Helvetica-BoldOblique findfont
dup length dict begin
  {1 index /FID ne {def} {pop pop} ifelse} forall
  /Encoding ISOLatin1Encoding def
  currentdict
  end
/Font4 exch definefont pop
%%IncludeResource: font Symbol
/Symbol findfont
dup length dict begin
  {1 index /FID ne {def} {pop pop} ifelse} forall
  currentdict
  end
/Font5 exch definefont pop
%%EndProlog
%%Page: 1 1
bp
0.00 0.00 816.00 409.50 cl
0.00 0.00 816.00 409.50 cl
0.00 0.00 816.00 409.50 cl
0.00 0.00 816.00 409.50 cl
0.00 0.00 816.00 409.50 cl
0.00 0.00 816.00 409.50 cl
0.00 0.00 816.00 409.50 cl
0.00 0.00 816.00 409.50 cl
0.00 0.00 816.00 409.50 cl
0.00 0.00 816.00 409.50 cl
0.00 0.00 816.00 409.50 cl
0.00 0.00 816.00 409.50 cl
0.00 0.00 816.00 409.50 cl
0.00 0.00 816.00 409.50 cl
0.00 0.00 816.00 409.50 cl
0.00 0.00 816.00 409.50 cl
0.00 0.00 816.00 409.50 cl
0.00 0.00 816.00 409.50 cl
0.00 0.00 816.00 409.50 cl
0.00 0.00 816.00 409.50 cl
0.00 0.00 816.00 409.50 cl
0.00 0.00 816.00 409.50 cl
0.00 0.00 816.00 409.50 cl
0.00 0.00 816.00 409.50 cl
0.00 0.00 816.00 409.50 cl
0.00 0.00 816.00 409.50 cl
0.00 0.00 816.00 409.50 cl
0.00 0.00 816.00 409.50 cl
0.00 0.00 816.00 409.50 cl
274.50 35.20 386.40 147.10 cl
0.00 0.00 816.00 409.50 cl
0.00 0.00 816.00 409.50 cl
0.00 0.00 816.00 409.50 cl
0.00 0.00 816.00 409.50 cl
0.00 0.00 816.00 409.50 cl
0.00 0.00 816.00 409.50 cl
0.00 0.00 816.00 409.50 cl
0.00 0.00 816.00 409.50 cl
0.00 0.00 816.00 409.50 cl
0.00 0.00 816.00 409.50 cl
43.98 273.99 155.88 385.89 cl
0.00 0.00 816.00 409.50 cl
274.50 273.99 386.40 385.89 cl
0.00 0.00 816.00 409.50 cl
0.00 0.00 816.00 409.50 cl
0.00 0.00 816.00 409.50 cl
0.00 0.00 816.00 409.50 cl
0.00 0.00 816.00 409.50 cl
0.00 0.00 816.00 409.50 cl
0.00 0.00 816.00 409.50 cl
0.00 0.00 816.00 409.50 cl
0.00 0.00 816.00 409.50 cl
0.00 0.00 816.00 409.50 cl
159.24 35.20 271.14 147.10 cl
0.00 0.00 816.00 409.50 cl
274.50 154.60 386.40 266.50 cl
0.00 0.00 816.00 409.50 cl
159.24 273.99 271.14 385.89 cl
0.00 0.00 816.00 409.50 cl
43.98 35.20 155.88 147.10 cl
0.00 0.00 816.00 409.50 cl
0.00 0.00 816.00 409.50 cl
0.00 0.00 816.00 409.50 cl
0.00 0.00 816.00 409.50 cl
0.00 0.00 816.00 409.50 cl
0.00 0.00 816.00 409.50 cl
0.00 0.00 816.00 409.50 cl
0.00 0.00 816.00 409.50 cl
0.00 0.00 816.00 409.50 cl
0.00 0.00 816.00 409.50 cl
159.24 154.60 271.14 266.50 cl
0.00 0.00 816.00 409.50 cl
43.98 154.60 155.88 266.50 cl
0.00 0.00 816.00 409.50 cl
0.00 0.00 816.00 409.50 cl
0.00 0.00 816.00 409.50 cl
0.00 0.00 816.00 409.50 cl
0.00 0.00 816.00 409.50 cl
0.00 0.00 816.00 409.50 cl
0.00 0.00 816.00 409.50 cl
0.00 0.00 816.00 409.50 cl
/Font1 findfont 12 s
0 0 0 srgb
18.71 329.94 (f1) .5 90 t
0.00 0.00 816.00 409.50 cl
0.00 0.00 816.00 409.50 cl
/Font1 findfont 12 s
0 0 0 srgb
18.71 210.55 (f2) .5 90 t
0.00 0.00 816.00 409.50 cl
0.00 0.00 816.00 409.50 cl
/Font1 findfont 12 s
0 0 0 srgb
18.71 91.15 (f3) .5 90 t
0.00 0.00 816.00 409.50 cl
0.00 0.00 816.00 409.50 cl
/Font1 findfont 12 s
0 0 0 srgb
99.93 10.09 (f1) .5 0 t
0.00 0.00 816.00 409.50 cl
0.00 0.00 816.00 409.50 cl
/Font1 findfont 12 s
0 0 0 srgb
215.19 10.09 (f2) .5 0 t
0.00 0.00 816.00 409.50 cl
0.00 0.00 816.00 409.50 cl
/Font1 findfont 12 s
0 0 0 srgb
330.45 10.09 (f3) .5 0 t
0.00 0.00 816.00 409.50 cl
0.00 0.00 816.00 409.50 cl
0.00 0.00 816.00 409.50 cl
0.00 0.00 816.00 409.50 cl
0.00 0.00 816.00 409.50 cl
0.00 0.00 816.00 409.50 cl
/Font1 findfont 10 s
0 0 0 srgb
38.60 290.30 (2.5) 1 0 t
38.60 318.03 (3.0) 1 0 t
38.60 345.76 (3.5) 1 0 t
38.60 373.49 (4.0) 1 0 t
0.00 0.00 816.00 409.50 cl
0.00 0.00 816.00 409.50 cl
0.00 0.00 816.00 409.50 cl
0 0 0 srgb
1.07 setlinewidth
[] 0 setdash
0 setlinecap
1 setlinejoin
10.00 setmiterlimit
np
40.99 293.89 m
2.99 0 l
o
np
40.99 321.62 m
2.99 0 l
o
np
40.99 349.35 m
2.99 0 l
o
np
40.99 377.08 m
2.99 0 l
o
0.00 0.00 816.00 409.50 cl
0.00 0.00 816.00 409.50 cl
0.00 0.00 816.00 409.50 cl
0.00 0.00 816.00 409.50 cl
43.98 273.99 155.88 385.89 cl
/bg { 1 1 1 srgb } def
43.98 273.99 111.90 111.90 r p2
0.9725 0.4627 0.4275 srgb
1.07 setlinewidth
[] 0 setdash
0 setlinecap
1 setlinejoin
1.00 setmiterlimit
np
49.07 287.49 m
0.20 0.48 l
0.19 0.50 l
0.20 0.50 l
0.20 0.51 l
0.20 0.50 l
0.20 0.51 l
0.20 0.51 l
0.20 0.50 l
0.20 0.50 l
0.20 0.49 l
0.20 0.47 l
0.20 0.46 l
0.19 0.45 l
0.20 0.43 l
0.20 0.41 l
0.20 0.38 l
0.20 0.36 l
0.20 0.33 l
0.20 0.30 l
0.20 0.27 l
0.20 0.24 l
0.20 0.21 l
0.20 0.16 l
0.19 0.13 l
0.20 0.09 l
0.20 0.06 l
0.20 0.01 l
0.20 -0.03 l
0.20 -0.06 l
0.20 -0.09 l
0.20 -0.14 l
0.20 -0.18 l
0.20 -0.21 l
0.20 -0.24 l
0.19 -0.28 l
0.20 -0.31 l
0.20 -0.33 l
0.20 -0.36 l
0.20 -0.40 l
0.20 -0.41 l
0.20 -0.43 l
0.20 -0.45 l
0.20 -0.47 l
0.20 -0.48 l
0.20 -0.49 l
0.19 -0.49 l
0.20 -0.51 l
0.20 -0.50 l
0.20 -0.51 l
0.20 -0.51 l
0.20 -0.51 l
0.20 -0.50 l
0.20 -0.49 l
0.20 -0.48 l
0.20 -0.48 l
0.20 -0.46 l
0.19 -0.45 l
0.20 -0.44 l
0.20 -0.42 l
0.20 -0.41 l
0.20 -0.39 l
0.20 -0.37 l
0.20 -0.36 l
0.20 -0.34 l
0.20 -0.32 l
0.20 -0.31 l
0.19 -0.29 l
0.20 -0.27 l
0.20 -0.25 l
0.20 -0.24 l
0.20 -0.22 l
0.20 -0.21 l
0.20 -0.20 l
0.20 -0.17 l
0.20 -0.17 l
0.20 -0.15 l
0.20 -0.14 l
0.19 -0.13 l
0.20 -0.11 l
0.20 -0.11 l
0.20 -0.10 l
0.20 -0.09 l
0.20 -0.08 l
0.20 -0.07 l
0.20 -0.07 l
0.20 -0.05 l
0.20 -0.06 l
0.20 -0.04 l
0.19 -0.04 l
0.20 -0.04 l
0.20 -0.03 l
0.20 -0.03 l
0.20 -0.03 l
0.20 -0.02 l
0.20 -0.02 l
0.20 -0.02 l
0.20 -0.02 l
0.20 -0.01 l
0.20 -0.01 l
68.97 279.14 lineto
0.20 -0.01 l
0.20 -0.01 l
0.20 -0.01 l
0.20 0 l
0.20 -0.01 l
0.20 0 l
0.20 0 l
0.20 -0.01 l
0.20 0 l
0.20 0 l
0.19 0 l
0.20 -0.01 l
0.20 0 l
0.20 0 l
0.20 0 l
0.20 0 l
0.20 0 l
0.20 0 l
0.20 0 l
0.20 0 l
0.20 0 l
0.19 0 l
0.20 0 l
0.20 0 l
0.20 0 l
0.20 0 l
0.20 0 l
0.20 0 l
0.20 0 l
0.20 0 l
0.20 0 l
0.19 0 l
0.20 0 l
0.20 0 l
0.20 0 l
0.20 0 l
0.20 0 l
0.20 0 l
0.20 0 l
0.20 0 l
0.20 0 l
0.20 0 l
0.19 0 l
0.20 0 l
0.20 0 l
0.20 0 l
0.20 0 l
0.20 0 l
0.20 0 l
0.20 0 l
0.20 0 l
0.20 0 l
0.20 0 l
0.19 0 l
0.20 0 l
0.20 0 l
0.20 0 l
0.20 0.01 l
0.20 0 l
0.20 0 l
0.20 0 l
0.20 0.01 l
0.20 0 l
0.20 0 l
0.19 0.01 l
0.20 0.01 l
0.20 0 l
0.20 0.01 l
0.20 0.01 l
0.20 0.01 l
0.20 0.01 l
0.20 0.01 l
0.20 0.02 l
0.20 0.02 l
0.20 0.02 l
0.19 0.02 l
0.20 0.03 l
0.20 0.03 l
0.20 0.03 l
0.20 0.04 l
0.20 0.04 l
0.20 0.05 l
0.20 0.05 l
0.20 0.06 l
0.20 0.06 l
0.20 0.08 l
0.19 0.08 l
0.20 0.09 l
0.20 0.09 l
0.20 0.11 l
0.20 0.12 l
0.20 0.13 l
0.20 0.14 l
0.20 0.15 l
0.20 0.17 l
0.20 0.17 l
0.19 0.20 l
0.20 0.21 l
0.20 0.22 l
88.88 281.84 lineto
0.20 0.26 l
0.20 0.27 l
0.20 0.29 l
0.20 0.30 l
0.20 0.33 l
0.20 0.34 l
0.20 0.36 l
0.19 0.37 l
0.20 0.39 l
0.20 0.41 l
0.20 0.42 l
0.20 0.44 l
0.20 0.45 l
0.20 0.47 l
0.20 0.47 l
0.20 0.49 l
0.20 0.49 l
0.20 0.50 l
0.19 0.51 l
0.20 0.50 l
0.20 0.51 l
0.20 0.51 l
0.20 0.50 l
0.20 0.50 l
0.20 0.49 l
0.20 0.48 l
0.20 0.46 l
0.20 0.46 l
0.20 0.42 l
0.19 0.41 l
0.20 0.39 l
0.20 0.37 l
0.20 0.33 l
0.20 0.31 l
0.20 0.28 l
0.20 0.24 l
0.20 0.21 l
0.20 0.17 l
0.20 0.14 l
0.20 0.10 l
0.19 0.06 l
0.20 0.02 l
0.20 -0.01 l
0.20 -0.05 l
0.20 -0.09 l
0.20 -0.13 l
0.20 -0.16 l
0.20 -0.19 l
0.20 -0.24 l
0.20 -0.26 l
0.20 -0.29 l
0.19 -0.32 l
0.20 -0.34 l
0.20 -0.37 l
0.20 -0.39 l
0.20 -0.41 l
0.20 -0.42 l
0.20 -0.43 l
0.20 -0.45 l
0.20 -0.45 l
0.20 -0.45 l
0.20 -0.46 l
0.19 -0.45 l
0.20 -0.45 l
0.20 -0.44 l
0.20 -0.43 l
0.20 -0.42 l
0.20 -0.40 l
0.20 -0.39 l
0.20 -0.36 l
0.20 -0.34 l
0.20 -0.31 l
0.19 -0.28 l
0.20 -0.26 l
0.20 -0.23 l
0.20 -0.19 l
0.20 -0.15 l
0.20 -0.12 l
0.20 -0.08 l
0.20 -0.04 l
0.20 0.01 l
0.20 0.04 l
0.20 0.08 l
0.19 0.14 l
0.20 0.19 l
0.20 0.23 l
0.20 0.27 l
0.20 0.33 l
0.20 0.38 l
0.20 0.43 l
0.20 0.47 l
0.20 0.55 l
0.20 0.59 l
0.20 0.64 l
0.19 0.69 l
0.20 0.76 l
0.20 0.82 l
0.20 0.87 l
0.20 0.91 l
108.79 295.41 lineto
0.20 1.04 l
0.20 1.10 l
0.20 1.15 l
0.20 1.23 l
0.20 1.28 l
0.19 1.33 l
0.20 1.39 l
0.20 1.46 l
0.20 1.52 l
0.20 1.56 l
0.20 1.61 l
0.20 1.69 l
0.20 1.73 l
0.20 1.77 l
0.20 1.83 l
0.20 1.88 l
0.19 1.92 l
0.20 1.96 l
0.20 2.00 l
0.20 2.03 l
0.20 2.07 l
0.20 2.09 l
0.20 2.12 l
0.20 2.14 l
0.20 2.15 l
0.20 2.15 l
0.20 2.16 l
0.19 2.16 l
0.20 2.15 l
0.20 2.14 l
0.20 2.12 l
0.20 2.08 l
0.20 2.06 l
0.20 2.02 l
0.20 1.98 l
0.20 1.91 l
0.20 1.86 l
0.19 1.81 l
0.20 1.73 l
0.20 1.65 l
0.20 1.57 l
0.20 1.50 l
0.20 1.40 l
0.20 1.29 l
0.20 1.21 l
0.20 1.12 l
0.20 1.01 l
0.20 0.89 l
0.19 0.79 l
0.20 0.70 l
0.20 0.58 l
0.20 0.46 l
0.20 0.37 l
0.20 0.27 l
0.20 0.16 l
0.20 0.05 l
0.20 -0.04 l
0.20 -0.12 l
0.20 -0.23 l
0.19 -0.32 l
0.20 -0.39 l
0.20 -0.46 l
0.20 -0.55 l
0.20 -0.62 l
0.20 -0.67 l
0.20 -0.72 l
0.20 -0.79 l
0.20 -0.83 l
0.20 -0.87 l
0.20 -0.90 l
0.19 -0.95 l
0.20 -0.97 l
0.20 -0.99 l
0.20 -1.01 l
0.20 -1.04 l
0.20 -1.04 l
0.20 -1.06 l
0.20 -1.06 l
0.20 -1.07 l
0.20 -1.08 l
0.20 -1.08 l
0.19 -1.08 l
0.20 -1.08 l
0.20 -1.08 l
0.20 -1.09 l
0.20 -1.09 l
0.20 -1.09 l
0.20 -1.09 l
0.20 -1.10 l
0.20 -1.10 l
0.20 -1.10 l
0.20 -1.12 l
0.19 -1.12 l
0.20 -1.13 l
0.20 -1.14 l
0.20 -1.15 l
0.20 -1.16 l
0.20 -1.18 l
0.20 -1.19 l
128.70 340.66 lineto
0.20 -1.22 l
0.20 -1.23 l
0.19 -1.24 l
0.20 -1.26 l
0.20 -1.26 l
0.20 -1.28 l
0.20 -1.28 l
0.20 -1.29 l
0.20 -1.29 l
0.20 -1.30 l
0.20 -1.30 l
0.20 -1.29 l
0.20 -1.28 l
0.19 -1.28 l
0.20 -1.26 l
0.20 -1.25 l
0.20 -1.23 l
0.20 -1.20 l
0.20 -1.18 l
0.20 -1.15 l
0.20 -1.12 l
0.20 -1.08 l
0.20 -1.04 l
0.20 -1.01 l
0.19 -0.96 l
0.20 -0.92 l
0.20 -0.86 l
0.20 -0.82 l
0.20 -0.78 l
0.20 -0.72 l
0.20 -0.67 l
0.20 -0.63 l
0.20 -0.58 l
0.20 -0.52 l
0.20 -0.47 l
0.19 -0.44 l
0.20 -0.39 l
0.20 -0.34 l
0.20 -0.31 l
0.20 -0.27 l
0.20 -0.24 l
0.20 -0.20 l
0.20 -0.17 l
0.20 -0.15 l
0.20 -0.13 l
0.20 -0.11 l
0.19 -0.10 l
0.20 -0.08 l
0.20 -0.08 l
0.20 -0.06 l
0.20 -0.07 l
0.20 -0.07 l
0.20 -0.06 l
0.20 -0.07 l
0.20 -0.08 l
0.20 -0.09 l
0.20 -0.09 l
0.19 -0.11 l
0.20 -0.11 l
0.20 -0.13 l
0.20 -0.13 l
0.20 -0.15 l
0.20 -0.16 l
0.20 -0.17 l
0.20 -0.18 l
0.20 -0.18 l
0.20 -0.20 l
0.20 -0.19 l
0.19 -0.20 l
0.20 -0.20 l
0.20 -0.19 l
0.20 -0.19 l
0.20 -0.19 l
0.20 -0.18 l
0.20 -0.17 l
0.20 -0.16 l
0.20 -0.15 l
0.20 -0.13 l
0.19 -0.11 l
0.20 -0.10 l
0.20 -0.08 l
0.20 -0.06 l
0.20 -0.04 l
0.20 -0.02 l
0.20 0 l
0.20 0.03 l
0.20 0.04 l
0.20 0.06 l
0.20 0.08 l
0.19 0.09 l
0.20 0.11 l
0.20 0.12 l
0.20 0.14 l
0.20 0.14 l
0.20 0.15 l
0.20 0.15 l
0.20 0.15 l
0.20 0.16 l
0.20 0.15 l
148.61 297.64 lineto
0.19 0.13 l
0.20 0.12 l
0.20 0.11 l
0.20 0.09 l
0.20 0.07 l
0.20 0.05 l
0.20 0.03 l
0.20 0 l
0.20 -0.02 l
0.20 -0.06 l
0.20 -0.08 l
o
0 0.7294 0.2196 srgb
np
49.07 310.19 m
0.20 0.42 l
0.19 0.41 l
0.20 0.39 l
0.20 0.39 l
0.20 0.37 l
0.20 0.36 l
0.20 0.35 l
0.20 0.34 l
0.20 0.32 l
0.20 0.31 l
0.20 0.30 l
0.20 0.28 l
0.19 0.27 l
0.20 0.26 l
0.20 0.24 l
0.20 0.23 l
0.20 0.21 l
0.20 0.20 l
0.20 0.19 l
0.20 0.18 l
0.20 0.15 l
0.20 0.15 l
0.20 0.14 l
0.19 0.12 l
0.20 0.11 l
0.20 0.09 l
0.20 0.09 l
0.20 0.07 l
0.20 0.06 l
0.20 0.05 l
0.20 0.04 l
0.20 0.03 l
0.20 0.02 l
0.20 0.01 l
0.19 0 l
0.20 -0.01 l
0.20 -0.01 l
0.20 -0.03 l
0.20 -0.02 l
0.20 -0.04 l
0.20 -0.04 l
0.20 -0.05 l
0.20 -0.05 l
0.20 -0.05 l
0.20 -0.06 l
0.19 -0.06 l
0.20 -0.07 l
0.20 -0.06 l
0.20 -0.07 l
0.20 -0.06 l
0.20 -0.07 l
0.20 -0.07 l
0.20 -0.06 l
0.20 -0.06 l
0.20 -0.07 l
0.20 -0.05 l
0.19 -0.06 l
0.20 -0.05 l
0.20 -0.05 l
0.20 -0.04 l
0.20 -0.04 l
0.20 -0.04 l
0.20 -0.02 l
0.20 -0.03 l
0.20 -0.01 l
0.20 -0.01 l
0.19 0 l
0.20 0 l
0.20 0.01 l
0.20 0.02 l
0.20 0.03 l
0.20 0.04 l
0.20 0.04 l
0.20 0.06 l
0.20 0.06 l
0.20 0.07 l
0.20 0.08 l
0.19 0.09 l
0.20 0.10 l
0.20 0.11 l
0.20 0.12 l
0.20 0.13 l
0.20 0.13 l
0.20 0.15 l
0.20 0.16 l
0.20 0.16 l
0.20 0.18 l
0.20 0.18 l
0.19 0.20 l
0.20 0.21 l
0.20 0.21 l
0.20 0.22 l
0.20 0.24 l
0.20 0.24 l
0.20 0.26 l
0.20 0.26 l
0.20 0.28 l
0.20 0.28 l
0.20 0.30 l
68.97 320.85 lineto
0.20 0.31 l
0.20 0.33 l
0.20 0.33 l
0.20 0.34 l
0.20 0.35 l
0.20 0.37 l
0.20 0.37 l
0.20 0.38 l
0.20 0.39 l
0.20 0.40 l
0.19 0.41 l
0.20 0.43 l
0.20 0.43 l
0.20 0.44 l
0.20 0.45 l
0.20 0.46 l
0.20 0.47 l
0.20 0.48 l
0.20 0.49 l
0.20 0.51 l
0.20 0.51 l
0.19 0.52 l
0.20 0.53 l
0.20 0.54 l
0.20 0.55 l
0.20 0.57 l
0.20 0.57 l
0.20 0.58 l
0.20 0.59 l
0.20 0.60 l
0.20 0.62 l
0.19 0.62 l
0.20 0.63 l
0.20 0.64 l
0.20 0.65 l
0.20 0.67 l
0.20 0.67 l
0.20 0.68 l
0.20 0.69 l
0.20 0.69 l
0.20 0.71 l
0.20 0.72 l
0.19 0.72 l
0.20 0.74 l
0.20 0.74 l
0.20 0.75 l
0.20 0.75 l
0.20 0.76 l
0.20 0.78 l
0.20 0.77 l
0.20 0.78 l
0.20 0.79 l
0.20 0.79 l
0.19 0.80 l
0.20 0.80 l
0.20 0.81 l
0.20 0.80 l
0.20 0.81 l
0.20 0.82 l
0.20 0.81 l
0.20 0.81 l
0.20 0.82 l
0.20 0.81 l
0.20 0.81 l
0.19 0.81 l
0.20 0.81 l
0.20 0.80 l
0.20 0.79 l
0.20 0.80 l
0.20 0.78 l
0.20 0.78 l
0.20 0.77 l
0.20 0.76 l
0.20 0.75 l
0.20 0.74 l
0.19 0.73 l
0.20 0.71 l
0.20 0.71 l
0.20 0.68 l
0.20 0.67 l
0.20 0.65 l
0.20 0.64 l
0.20 0.62 l
0.20 0.59 l
0.20 0.58 l
0.20 0.56 l
0.19 0.52 l
0.20 0.51 l
0.20 0.49 l
0.20 0.45 l
0.20 0.44 l
0.20 0.40 l
0.20 0.37 l
0.20 0.36 l
0.20 0.31 l
0.20 0.29 l
0.19 0.26 l
0.20 0.22 l
0.20 0.20 l
88.88 380.51 lineto
0.20 0.12 l
0.20 0.10 l
0.20 0.05 l
0.20 0.03 l
0.20 -0.02 l
0.20 -0.05 l
0.20 -0.08 l
0.19 -0.12 l
0.20 -0.16 l
0.20 -0.19 l
0.20 -0.24 l
0.20 -0.26 l
0.20 -0.30 l
0.20 -0.34 l
0.20 -0.37 l
0.20 -0.41 l
0.20 -0.44 l
0.20 -0.47 l
0.19 -0.53 l
0.20 -0.54 l
0.20 -0.58 l
0.20 -0.61 l
0.20 -0.64 l
0.20 -0.68 l
0.20 -0.71 l
0.20 -0.73 l
0.20 -0.77 l
0.20 -0.79 l
0.20 -0.81 l
0.19 -0.85 l
0.20 -0.87 l
0.20 -0.89 l
0.20 -0.92 l
0.20 -0.93 l
0.20 -0.97 l
0.20 -0.97 l
0.20 -1.00 l
0.20 -1.01 l
0.20 -1.03 l
0.20 -1.04 l
0.19 -1.06 l
0.20 -1.07 l
0.20 -1.08 l
0.20 -1.09 l
0.20 -1.09 l
0.20 -1.11 l
0.20 -1.11 l
0.20 -1.11 l
0.20 -1.12 l
0.20 -1.12 l
0.20 -1.12 l
0.19 -1.13 l
0.20 -1.12 l
0.20 -1.12 l
0.20 -1.11 l
0.20 -1.11 l
0.20 -1.11 l
0.20 -1.10 l
0.20 -1.09 l
0.20 -1.08 l
0.20 -1.08 l
0.20 -1.07 l
0.19 -1.05 l
0.20 -1.05 l
0.20 -1.03 l
0.20 -1.02 l
0.20 -1.01 l
0.20 -0.99 l
0.20 -0.98 l
0.20 -0.96 l
0.20 -0.95 l
0.20 -0.94 l
0.19 -0.91 l
0.20 -0.91 l
0.20 -0.88 l
0.20 -0.87 l
0.20 -0.85 l
0.20 -0.83 l
0.20 -0.82 l
0.20 -0.80 l
0.20 -0.78 l
0.20 -0.77 l
0.20 -0.75 l
0.19 -0.73 l
0.20 -0.72 l
0.20 -0.69 l
0.20 -0.68 l
0.20 -0.66 l
0.20 -0.65 l
0.20 -0.63 l
0.20 -0.62 l
0.20 -0.60 l
0.20 -0.58 l
0.20 -0.57 l
0.19 -0.55 l
0.20 -0.55 l
0.20 -0.52 l
0.20 -0.52 l
0.20 -0.50 l
108.79 305.89 lineto
0.20 -0.48 l
0.20 -0.46 l
0.20 -0.45 l
0.20 -0.45 l
0.20 -0.42 l
0.19 -0.43 l
0.20 -0.41 l
0.20 -0.40 l
0.20 -0.39 l
0.20 -0.39 l
0.20 -0.37 l
0.20 -0.37 l
0.20 -0.36 l
0.20 -0.36 l
0.20 -0.35 l
0.20 -0.34 l
0.19 -0.34 l
0.20 -0.33 l
0.20 -0.33 l
0.20 -0.32 l
0.20 -0.32 l
0.20 -0.32 l
0.20 -0.31 l
0.20 -0.30 l
0.20 -0.31 l
0.20 -0.30 l
0.20 -0.30 l
0.19 -0.30 l
0.20 -0.29 l
0.20 -0.30 l
0.20 -0.29 l
0.20 -0.28 l
0.20 -0.29 l
0.20 -0.29 l
0.20 -0.28 l
0.20 -0.28 l
0.20 -0.28 l
0.19 -0.28 l
0.20 -0.28 l
0.20 -0.28 l
0.20 -0.28 l
0.20 -0.27 l
0.20 -0.27 l
0.20 -0.28 l
0.20 -0.27 l
0.20 -0.27 l
0.20 -0.26 l
0.20 -0.27 l
0.19 -0.26 l
0.20 -0.27 l
0.20 -0.26 l
0.20 -0.26 l
0.20 -0.25 l
0.20 -0.26 l
0.20 -0.25 l
0.20 -0.25 l
0.20 -0.25 l
0.20 -0.25 l
0.20 -0.24 l
0.19 -0.24 l
0.20 -0.23 l
0.20 -0.24 l
0.20 -0.23 l
0.20 -0.23 l
0.20 -0.22 l
0.20 -0.22 l
0.20 -0.22 l
0.20 -0.21 l
0.20 -0.21 l
0.20 -0.21 l
0.19 -0.20 l
0.20 -0.20 l
0.20 -0.19 l
0.20 -0.19 l
0.20 -0.19 l
0.20 -0.18 l
0.20 -0.18 l
0.20 -0.17 l
0.20 -0.17 l
0.20 -0.16 l
0.20 -0.16 l
0.19 -0.16 l
0.20 -0.15 l
0.20 -0.15 l
0.20 -0.14 l
0.20 -0.14 l
0.20 -0.13 l
0.20 -0.13 l
0.20 -0.13 l
0.20 -0.12 l
0.20 -0.12 l
0.20 -0.11 l
0.19 -0.11 l
0.20 -0.11 l
0.20 -0.10 l
0.20 -0.10 l
0.20 -0.09 l
0.20 -0.09 l
0.20 -0.09 l
128.70 280.58 lineto
0.20 -0.07 l
0.20 -0.08 l
0.19 -0.08 l
0.20 -0.06 l
0.20 -0.07 l
0.20 -0.07 l
0.20 -0.06 l
0.20 -0.06 l
0.20 -0.05 l
0.20 -0.05 l
0.20 -0.06 l
0.20 -0.04 l
0.20 -0.05 l
0.19 -0.04 l
0.20 -0.04 l
0.20 -0.04 l
0.20 -0.04 l
0.20 -0.03 l
0.20 -0.04 l
0.20 -0.03 l
0.20 -0.03 l
0.20 -0.02 l
0.20 -0.03 l
0.20 -0.02 l
0.19 -0.03 l
0.20 -0.02 l
0.20 -0.02 l
0.20 -0.02 l
0.20 -0.02 l
0.20 -0.01 l
0.20 -0.02 l
0.20 -0.01 l
0.20 -0.02 l
0.20 -0.01 l
0.20 -0.01 l
0.19 -0.01 l
0.20 -0.01 l
0.20 -0.01 l
0.20 -0.01 l
0.20 -0.01 l
0.20 -0.01 l
0.20 -0.01 l
0.20 0 l
0.20 -0.01 l
0.20 -0.01 l
0.20 0 l
0.19 -0.01 l
0.20 0 l
0.20 -0.01 l
0.20 0 l
0.20 0 l
0.20 -0.01 l
0.20 0 l
0.20 0 l
0.20 -0.01 l
0.20 0 l
0.20 0 l
0.19 0 l
0.20 0 l
0.20 -0.01 l
0.20 0 l
0.20 0 l
0.20 0 l
0.20 0 l
0.20 0 l
0.20 0 l
0.20 0 l
0.20 -0.01 l
0.19 0 l
0.20 0 l
0.20 0 l
0.20 0 l
0.20 0 l
0.20 0 l
0.20 0 l
0.20 0 l
0.20 0 l
0.20 0 l
0.19 0 l
0.20 0 l
0.20 0 l
0.20 0 l
0.20 0 l
0.20 0 l
0.20 0 l
0.20 0 l
0.20 0 l
0.20 0 l
0.20 0 l
0.19 0 l
0.20 0 l
0.20 0 l
0.20 0 l
0.20 0 l
0.20 0 l
0.20 0 l
0.20 0 l
0.20 0 l
0.20 0 l
148.61 279.08 lineto
0.19 0 l
0.20 0 l
0.20 0 l
0.20 0 l
0.20 0 l
0.20 0 l
0.20 0 l
0.20 0 l
0.20 0 l
0.20 0 l
0.20 0 l
o
0.3804 0.6118 1 srgb
np
49.07 280.91 m
0.20 0.12 l
0.19 0.13 l
0.20 0.14 l
0.20 0.14 l
0.20 0.15 l
0.20 0.16 l
0.20 0.17 l
0.20 0.18 l
0.20 0.18 l
0.20 0.19 l
0.20 0.20 l
0.20 0.22 l
0.19 0.21 l
0.20 0.23 l
0.20 0.24 l
0.20 0.25 l
0.20 0.26 l
0.20 0.27 l
0.20 0.27 l
0.20 0.29 l
0.20 0.30 l
0.20 0.31 l
0.20 0.32 l
0.19 0.33 l
0.20 0.34 l
0.20 0.35 l
0.20 0.36 l
0.20 0.38 l
0.20 0.38 l
0.20 0.39 l
0.20 0.41 l
0.20 0.41 l
0.20 0.43 l
0.20 0.43 l
0.19 0.45 l
0.20 0.45 l
0.20 0.46 l
0.20 0.48 l
0.20 0.48 l
0.20 0.49 l
0.20 0.50 l
0.20 0.50 l
0.20 0.52 l
0.20 0.52 l
0.20 0.53 l
0.19 0.54 l
0.20 0.54 l
0.20 0.55 l
0.20 0.55 l
0.20 0.56 l
0.20 0.57 l
0.20 0.57 l
0.20 0.58 l
0.20 0.58 l
0.20 0.58 l
0.20 0.59 l
0.19 0.59 l
0.20 0.59 l
0.20 0.59 l
0.20 0.60 l
0.20 0.60 l
0.20 0.60 l
0.20 0.61 l
0.20 0.60 l
0.20 0.61 l
0.20 0.61 l
0.19 0.61 l
0.20 0.61 l
0.20 0.61 l
0.20 0.62 l
0.20 0.61 l
0.20 0.62 l
0.20 0.62 l
0.20 0.62 l
0.20 0.62 l
0.20 0.63 l
0.20 0.62 l
0.19 0.63 l
0.20 0.64 l
0.20 0.63 l
0.20 0.64 l
0.20 0.65 l
0.20 0.65 l
0.20 0.65 l
0.20 0.66 l
0.20 0.66 l
0.20 0.68 l
0.20 0.68 l
0.19 0.68 l
0.20 0.70 l
0.20 0.70 l
0.20 0.71 l
0.20 0.72 l
0.20 0.73 l
0.20 0.74 l
0.20 0.75 l
0.20 0.77 l
0.20 0.77 l
0.20 0.78 l
68.97 330.45 lineto
0.20 0.81 l
0.20 0.82 l
0.20 0.83 l
0.20 0.85 l
0.20 0.86 l
0.20 0.86 l
0.20 0.89 l
0.20 0.89 l
0.20 0.91 l
0.20 0.92 l
0.19 0.92 l
0.20 0.94 l
0.20 0.95 l
0.20 0.96 l
0.20 0.97 l
0.20 0.98 l
0.20 0.98 l
0.20 1.00 l
0.20 0.99 l
0.20 1.00 l
0.20 1.01 l
0.19 1.01 l
0.20 1.01 l
0.20 1.01 l
0.20 1.01 l
0.20 1.01 l
0.20 1.01 l
0.20 1.00 l
0.20 1.00 l
0.20 0.99 l
0.20 0.98 l
0.19 0.97 l
0.20 0.96 l
0.20 0.95 l
0.20 0.94 l
0.20 0.91 l
0.20 0.91 l
0.20 0.88 l
0.20 0.87 l
0.20 0.85 l
0.20 0.82 l
0.20 0.81 l
0.19 0.78 l
0.20 0.76 l
0.20 0.73 l
0.20 0.70 l
0.20 0.68 l
0.20 0.65 l
0.20 0.62 l
0.20 0.59 l
0.20 0.57 l
0.20 0.53 l
0.20 0.51 l
0.19 0.48 l
0.20 0.43 l
0.20 0.41 l
0.20 0.39 l
0.20 0.34 l
0.20 0.33 l
0.20 0.29 l
0.20 0.25 l
0.20 0.24 l
0.20 0.20 l
0.20 0.16 l
0.19 0.15 l
0.20 0.12 l
0.20 0.09 l
0.20 0.07 l
0.20 0.03 l
0.20 0.02 l
0.20 -0.01 l
0.20 -0.03 l
0.20 -0.06 l
0.20 -0.07 l
0.20 -0.09 l
0.19 -0.11 l
0.20 -0.13 l
0.20 -0.15 l
0.20 -0.16 l
0.20 -0.18 l
0.20 -0.19 l
0.20 -0.20 l
0.20 -0.21 l
0.20 -0.23 l
0.20 -0.23 l
0.20 -0.25 l
0.19 -0.26 l
0.20 -0.26 l
0.20 -0.27 l
0.20 -0.27 l
0.20 -0.28 l
0.20 -0.29 l
0.20 -0.29 l
0.20 -0.30 l
0.20 -0.30 l
0.20 -0.30 l
0.19 -0.31 l
0.20 -0.31 l
0.20 -0.31 l
88.88 374.45 lineto
0.20 -0.32 l
0.20 -0.32 l
0.20 -0.32 l
0.20 -0.32 l
0.20 -0.33 l
0.20 -0.33 l
0.20 -0.33 l
0.19 -0.33 l
0.20 -0.34 l
0.20 -0.34 l
0.20 -0.34 l
0.20 -0.34 l
0.20 -0.35 l
0.20 -0.35 l
0.20 -0.36 l
0.20 -0.35 l
0.20 -0.37 l
0.20 -0.36 l
0.19 -0.37 l
0.20 -0.38 l
0.20 -0.38 l
0.20 -0.39 l
0.20 -0.39 l
0.20 -0.40 l
0.20 -0.40 l
0.20 -0.41 l
0.20 -0.41 l
0.20 -0.42 l
0.20 -0.42 l
0.19 -0.43 l
0.20 -0.44 l
0.20 -0.44 l
0.20 -0.45 l
0.20 -0.45 l
0.20 -0.46 l
0.20 -0.46 l
0.20 -0.47 l
0.20 -0.48 l
0.20 -0.48 l
0.20 -0.48 l
0.19 -0.49 l
0.20 -0.50 l
0.20 -0.50 l
0.20 -0.50 l
0.20 -0.51 l
0.20 -0.51 l
0.20 -0.52 l
0.20 -0.52 l
0.20 -0.52 l
0.20 -0.53 l
0.20 -0.53 l
0.19 -0.53 l
0.20 -0.53 l
0.20 -0.54 l
0.20 -0.54 l
0.20 -0.55 l
0.20 -0.54 l
0.20 -0.55 l
0.20 -0.55 l
0.20 -0.55 l
0.20 -0.55 l
0.20 -0.55 l
0.19 -0.56 l
0.20 -0.56 l
0.20 -0.56 l
0.20 -0.56 l
0.20 -0.56 l
0.20 -0.56 l
0.20 -0.56 l
0.20 -0.57 l
0.20 -0.57 l
0.20 -0.56 l
0.19 -0.57 l
0.20 -0.58 l
0.20 -0.57 l
0.20 -0.57 l
0.20 -0.58 l
0.20 -0.57 l
0.20 -0.58 l
0.20 -0.58 l
0.20 -0.59 l
0.20 -0.58 l
0.20 -0.59 l
0.19 -0.59 l
0.20 -0.59 l
0.20 -0.59 l
0.20 -0.60 l
0.20 -0.59 l
0.20 -0.60 l
0.20 -0.60 l
0.20 -0.61 l
0.20 -0.60 l
0.20 -0.61 l
0.20 -0.61 l
0.19 -0.62 l
0.20 -0.61 l
0.20 -0.62 l
0.20 -0.62 l
0.20 -0.63 l
108.79 325.04 lineto
0.20 -0.63 l
0.20 -0.63 l
0.20 -0.63 l
0.20 -0.63 l
0.20 -0.64 l
0.19 -0.64 l
0.20 -0.63 l
0.20 -0.64 l
0.20 -0.65 l
0.20 -0.64 l
0.20 -0.64 l
0.20 -0.65 l
0.20 -0.64 l
0.20 -0.65 l
0.20 -0.64 l
0.20 -0.65 l
0.19 -0.64 l
0.20 -0.65 l
0.20 -0.64 l
0.20 -0.64 l
0.20 -0.64 l
0.20 -0.64 l
0.20 -0.64 l
0.20 -0.64 l
0.20 -0.63 l
0.20 -0.63 l
0.20 -0.62 l
0.19 -0.63 l
0.20 -0.62 l
0.20 -0.61 l
0.20 -0.61 l
0.20 -0.60 l
0.20 -0.60 l
0.20 -0.60 l
0.20 -0.58 l
0.20 -0.58 l
0.20 -0.58 l
0.19 -0.56 l
0.20 -0.56 l
0.20 -0.55 l
0.20 -0.54 l
0.20 -0.54 l
0.20 -0.52 l
0.20 -0.52 l
0.20 -0.50 l
0.20 -0.50 l
0.20 -0.48 l
0.20 -0.48 l
0.19 -0.46 l
0.20 -0.45 l
0.20 -0.44 l
0.20 -0.42 l
0.20 -0.42 l
0.20 -0.40 l
0.20 -0.39 l
0.20 -0.38 l
0.20 -0.36 l
0.20 -0.35 l
0.20 -0.33 l
0.19 -0.33 l
0.20 -0.30 l
0.20 -0.30 l
0.20 -0.28 l
0.20 -0.26 l
0.20 -0.25 l
0.20 -0.24 l
0.20 -0.22 l
0.20 -0.21 l
0.20 -0.19 l
0.20 -0.18 l
0.19 -0.17 l
0.20 -0.15 l
0.20 -0.13 l
0.20 -0.13 l
0.20 -0.10 l
0.20 -0.10 l
0.20 -0.08 l
0.20 -0.06 l
0.20 -0.06 l
0.20 -0.04 l
0.20 -0.03 l
0.19 -0.02 l
0.20 0 l
0.20 0 l
0.20 0.02 l
0.20 0.03 l
0.20 0.04 l
0.20 0.04 l
0.20 0.06 l
0.20 0.07 l
0.20 0.07 l
0.20 0.08 l
0.19 0.09 l
0.20 0.10 l
0.20 0.10 l
0.20 0.11 l
0.20 0.11 l
0.20 0.12 l
0.20 0.12 l
128.70 289.10 lineto
0.20 0.13 l
0.20 0.13 l
0.19 0.13 l
0.20 0.14 l
0.20 0.13 l
0.20 0.14 l
0.20 0.13 l
0.20 0.14 l
0.20 0.13 l
0.20 0.13 l
0.20 0.13 l
0.20 0.12 l
0.20 0.12 l
0.19 0.11 l
0.20 0.12 l
0.20 0.10 l
0.20 0.10 l
0.20 0.09 l
0.20 0.09 l
0.20 0.08 l
0.20 0.08 l
0.20 0.06 l
0.20 0.06 l
0.20 0.05 l
0.19 0.04 l
0.20 0.03 l
0.20 0.03 l
0.20 0.01 l
0.20 0.01 l
0.20 -0.01 l
0.20 -0.01 l
0.20 -0.02 l
0.20 -0.03 l
0.20 -0.04 l
0.20 -0.06 l
0.19 -0.05 l
0.20 -0.07 l
0.20 -0.08 l
0.20 -0.09 l
0.20 -0.10 l
0.20 -0.10 l
0.20 -0.11 l
0.20 -0.13 l
0.20 -0.12 l
0.20 -0.14 l
0.20 -0.15 l
0.19 -0.15 l
0.20 -0.16 l
0.20 -0.16 l
0.20 -0.17 l
0.20 -0.18 l
0.20 -0.18 l
0.20 -0.19 l
0.20 -0.19 l
0.20 -0.20 l
0.20 -0.20 l
0.20 -0.21 l
0.19 -0.20 l
0.20 -0.21 l
0.20 -0.22 l
0.20 -0.21 l
0.20 -0.22 l
0.20 -0.21 l
0.20 -0.22 l
0.20 -0.22 l
0.20 -0.22 l
0.20 -0.22 l
0.20 -0.22 l
0.19 -0.21 l
0.20 -0.22 l
0.20 -0.21 l
0.20 -0.21 l
0.20 -0.22 l
0.20 -0.20 l
0.20 -0.21 l
0.20 -0.20 l
0.20 -0.20 l
0.20 -0.20 l
0.19 -0.19 l
0.20 -0.19 l
0.20 -0.19 l
0.20 -0.18 l
0.20 -0.17 l
0.20 -0.18 l
0.20 -0.17 l
0.20 -0.16 l
0.20 -0.16 l
0.20 -0.16 l
0.20 -0.15 l
0.19 -0.15 l
0.20 -0.14 l
0.20 -0.14 l
0.20 -0.13 l
0.20 -0.13 l
0.20 -0.12 l
0.20 -0.12 l
0.20 -0.11 l
0.20 -0.12 l
0.20 -0.10 l
148.61 280.85 lineto
0.19 -0.10 l
0.20 -0.10 l
0.20 -0.09 l
0.20 -0.08 l
0.20 -0.08 l
0.20 -0.08 l
0.20 -0.08 l
0.20 -0.07 l
0.20 -0.06 l
0.20 -0.07 l
0.20 -0.06 l
o
0.4980 0.4980 0.4980 srgb
1 setlinecap
10.00 setmiterlimit
43.98 273.99 111.90 111.90 r p1
0.00 0.00 816.00 409.50 cl
0.00 0.00 816.00 409.50 cl
0.00 0.00 816.00 409.50 cl
0.00 0.00 816.00 409.50 cl
159.24 273.99 271.14 385.89 cl
/bg { 1 1 1 srgb } def
159.24 273.99 111.90 111.90 r p2
/bg { 0.9725 0.4627 0.4275 srgb } def
0.9725 0.4627 0.4275 srgb
0.71 setlinewidth
[] 0 setdash
1 setlinecap
1 setlinejoin
10.00 setmiterlimit
166.21 348.68 1.95 c p3
166.21 354.03 1.95 c p3
171.86 370.10 1.95 c p3
171.86 343.33 1.95 c p3
168.09 359.39 1.95 c p3
168.09 348.68 1.95 c p3
168.09 380.81 1.95 c p3
168.09 327.26 1.95 c p3
166.21 354.03 1.95 c p3
164.33 348.68 1.95 c p3
164.33 284.43 1.95 c p3
169.98 348.68 1.95 c p3
168.09 359.39 1.95 c p3
/bg { 0 0.7294 0.2196 srgb } def
0 0.7294 0.2196 srgb
228.38 332.62 1.95 c p3
218.96 321.91 1.95 c p3
215.19 279.08 1.95 c p3
222.72 327.26 1.95 c p3
224.61 321.91 1.95 c p3
217.07 305.85 1.95 c p3
232.14 295.14 1.95 c p3
220.84 316.56 1.95 c p3
230.26 311.20 1.95 c p3
234.03 321.91 1.95 c p3
205.77 300.49 1.95 c p3
224.61 343.33 1.95 c p3
222.72 284.43 1.95 c p3
226.49 321.91 1.95 c p3
202.00 284.43 1.95 c p3
218.96 321.91 1.95 c p3
220.84 316.56 1.95 c p3
217.07 311.20 1.95 c p3
/bg { 0.3804 0.6118 1 srgb } def
0.3804 0.6118 1 srgb
252.87 337.97 1.95 c p3
235.91 305.85 1.95 c p3
264.17 321.91 1.95 c p3
224.61 295.14 1.95 c p3
249.10 295.14 1.95 c p3
235.91 311.20 1.95 c p3
247.22 332.62 1.95 c p3
232.14 311.20 1.95 c p3
266.05 311.20 1.95 c p3
252.87 332.62 1.95 c p3
254.75 311.20 1.95 c p3
260.40 364.74 1.95 c p3
235.91 311.20 1.95 c p3
243.45 327.26 1.95 c p3
230.26 321.91 1.95 c p3
235.91 305.85 1.95 c p3
237.80 321.91 1.95 c p3
237.80 321.91 1.95 c p3
241.56 343.33 1.95 c p3
0.4980 0.4980 0.4980 srgb
1.07 setlinewidth
[] 0 setdash
159.24 273.99 111.90 111.90 r p1
0.00 0.00 816.00 409.50 cl
0.00 0.00 816.00 409.50 cl
0.00 0.00 816.00 409.50 cl
0.00 0.00 816.00 409.50 cl
274.50 273.99 386.40 385.89 cl
/bg { 1 1 1 srgb } def
274.50 273.99 111.90 111.90 r p2
/bg { 0.9725 0.4627 0.4275 srgb } def
0.9725 0.4627 0.4275 srgb
0.71 setlinewidth
[] 0 setdash
1 setlinecap
1 setlinejoin
10.00 setmiterlimit
283.82 348.68 1.95 c p3
283.82 354.03 1.95 c p3
292.30 370.10 1.95 c p3
283.82 343.33 1.95 c p3
292.30 359.39 1.95 c p3
283.82 348.68 1.95 c p3
279.58 380.81 1.95 c p3
283.82 327.26 1.95 c p3
279.58 354.03 1.95 c p3
288.06 348.68 1.95 c p3
288.06 284.43 1.95 c p3
300.78 348.68 1.95 c p3
283.82 359.39 1.95 c p3
/bg { 0 0.7294 0.2196 srgb } def
0 0.7294 0.2196 srgb
334.69 332.62 1.95 c p3
338.93 321.91 1.95 c p3
317.73 279.08 1.95 c p3
334.69 327.26 1.95 c p3
338.93 321.91 1.95 c p3
317.73 305.85 1.95 c p3
338.93 295.14 1.95 c p3
330.45 316.56 1.95 c p3
334.69 311.20 1.95 c p3
347.40 321.91 1.95 c p3
317.73 300.49 1.95 c p3
343.16 343.33 1.95 c p3
330.45 284.43 1.95 c p3
334.69 321.91 1.95 c p3
317.73 284.43 1.95 c p3
326.21 321.91 1.95 c p3
330.45 316.56 1.95 c p3
330.45 311.20 1.95 c p3
/bg { 0.3804 0.6118 1 srgb } def
0.3804 0.6118 1 srgb
381.31 337.97 1.95 c p3
355.88 305.85 1.95 c p3
364.36 321.91 1.95 c p3
347.40 295.14 1.95 c p3
351.64 295.14 1.95 c p3
377.07 311.20 1.95 c p3
372.83 332.62 1.95 c p3
360.12 311.20 1.95 c p3
360.12 311.20 1.95 c p3
351.64 332.62 1.95 c p3
355.88 311.20 1.95 c p3
360.12 364.74 1.95 c p3
338.93 311.20 1.95 c p3
351.64 327.26 1.95 c p3
351.64 321.91 1.95 c p3
355.88 305.85 1.95 c p3
372.83 321.91 1.95 c p3
360.12 321.91 1.95 c p3
372.83 343.33 1.95 c p3
0.4980 0.4980 0.4980 srgb
1.07 setlinewidth
[] 0 setdash
274.50 273.99 111.90 111.90 r p1
0.00 0.00 816.00 409.50 cl
0.00 0.00 816.00 409.50 cl
0.00 0.00 816.00 409.50 cl
0.00 0.00 816.00 409.50 cl
0.00 0.00 816.00 409.50 cl
0.00 0.00 816.00 409.50 cl
0.00 0.00 816.00 409.50 cl
0.00 0.00 816.00 409.50 cl
/Font1 findfont 10 s
0 0 0 srgb
38.60 167.93 (2) 1 0 t
38.60 187.44 (3) 1 0 t
38.60 206.96 (4) 1 0 t
38.60 226.47 (5) 1 0 t
38.60 245.99 (6) 1 0 t
0.00 0.00 816.00 409.50 cl
0.00 0.00 816.00 409.50 cl
0.00 0.00 816.00 409.50 cl
0 0 0 srgb
1.07 setlinewidth
[] 0 setdash
0 setlinecap
1 setlinejoin
10.00 setmiterlimit
np
40.99 171.52 m
2.99 0 l
o
np
40.99 191.03 m
2.99 0 l
o
np
40.99 210.55 m
2.99 0 l
o
np
40.99 230.06 m
2.99 0 l
o
np
40.99 249.58 m
2.99 0 l
o
0.00 0.00 816.00 409.50 cl
0.00 0.00 816.00 409.50 cl
0.00 0.00 816.00 409.50 cl
0.00 0.00 816.00 409.50 cl
43.98 154.60 155.88 266.50 cl
/bg { 1 1 1 srgb } def
43.98 154.60 111.90 111.90 r p2
/bg { 0.9725 0.4627 0.4275 srgb } def
0.9725 0.4627 0.4275 srgb
0.71 setlinewidth
[] 0 setdash
1 setlinecap
1 setlinejoin
10.00 setmiterlimit
118.67 161.57 1.95 c p3
124.02 161.57 1.95 c p3
140.09 167.22 1.95 c p3
113.32 167.22 1.95 c p3
129.38 163.45 1.95 c p3
118.67 163.45 1.95 c p3
150.80 163.45 1.95 c p3
97.25 163.45 1.95 c p3
124.02 161.57 1.95 c p3
118.67 159.68 1.95 c p3
54.42 159.68 1.95 c p3
118.67 165.33 1.95 c p3
129.38 163.45 1.95 c p3
/bg { 0 0.7294 0.2196 srgb } def
0 0.7294 0.2196 srgb
102.61 223.73 1.95 c p3
91.90 214.31 1.95 c p3
49.07 210.55 1.95 c p3
97.25 218.08 1.95 c p3
91.90 219.97 1.95 c p3
75.84 212.43 1.95 c p3
65.13 227.50 1.95 c p3
86.55 216.20 1.95 c p3
81.19 225.62 1.95 c p3
91.90 229.38 1.95 c p3
70.48 201.13 1.95 c p3
113.32 219.97 1.95 c p3
54.42 218.08 1.95 c p3
91.90 221.85 1.95 c p3
54.42 197.36 1.95 c p3
91.90 214.31 1.95 c p3
86.55 216.20 1.95 c p3
81.19 212.43 1.95 c p3
/bg { 0.3804 0.6118 1 srgb } def
0.3804 0.6118 1 srgb
107.96 248.22 1.95 c p3
75.84 231.27 1.95 c p3
91.90 259.53 1.95 c p3
65.13 219.97 1.95 c p3
65.13 244.46 1.95 c p3
81.19 231.27 1.95 c p3
102.61 242.57 1.95 c p3
81.19 227.50 1.95 c p3
81.19 261.41 1.95 c p3
102.61 248.22 1.95 c p3
81.19 250.11 1.95 c p3
134.73 255.76 1.95 c p3
81.19 231.27 1.95 c p3
97.25 238.80 1.95 c p3
91.90 225.62 1.95 c p3
75.84 231.27 1.95 c p3
91.90 233.15 1.95 c p3
91.90 233.15 1.95 c p3
113.32 236.92 1.95 c p3
0.4980 0.4980 0.4980 srgb
1.07 setlinewidth
[] 0 setdash
43.98 154.60 111.90 111.90 r p1
0.00 0.00 816.00 409.50 cl
0.00 0.00 816.00 409.50 cl
0.00 0.00 816.00 409.50 cl
0.00 0.00 816.00 409.50 cl
159.24 154.60 271.14 266.50 cl
/bg { 1 1 1 srgb } def
159.24 154.60 111.90 111.90 r p2
0.9725 0.4627 0.4275 srgb
1.07 setlinewidth
[] 0 setdash
0 setlinecap
1 setlinejoin
1.00 setmiterlimit
np
164.33 201.69 m
0.19 1.16 l
0.20 0.19 l
0.20 0.14 l
0.20 1.08 l
0.20 2.62 l
0.20 4.19 l
0.20 5.06 l
0.20 4.73 l
0.20 3.41 l
0.20 1.73 l
0.20 0.51 l
0.19 0.44 l
0.20 1.77 l
0.20 4.09 l
0.20 6.56 l
0.20 8.08 l
0.20 7.75 l
0.20 5.26 l
0.20 0.95 l
0.20 -4.16 l
0.20 -8.85 l
0.19 -12.01 l
0.20 -13.07 l
0.20 -12.16 l
0.20 -9.75 l
0.20 -6.99 l
0.20 -4.61 l
0.20 -2.90 l
0.20 -1.78 l
0.20 -0.94 l
0.20 -0.08 l
0.20 0.97 l
0.19 2.14 l
0.20 3.18 l
0.20 3.70 l
0.20 3.40 l
0.20 2.17 l
0.20 0.22 l
0.20 -2.08 l
0.20 -4.18 l
0.20 -5.67 l
0.20 -6.27 l
0.20 -6.00 l
0.19 -5.09 l
0.20 -3.94 l
0.20 -2.80 l
0.20 -1.83 l
0.20 -1.12 l
0.20 -0.62 l
0.20 -0.33 l
0.20 -0.16 l
0.20 -0.07 l
0.20 -0.03 l
0.20 -0.01 l
0.19 -0.01 l
0.20 0 l
0.20 0 l
0.20 0 l
0.20 0 l
0.20 0 l
0.20 0 l
0.20 0 l
0.20 0 l
0.20 0 l
0.20 0 l
0.19 0 l
0.20 0 l
0.20 0 l
0.20 0 l
0.20 0 l
0.20 0 l
0.20 0 l
0.20 0 l
0.20 0 l
0.20 0 l
0.20 0 l
0.19 0 l
0.20 0 l
0.20 0 l
0.20 0 l
0.20 0 l
0.20 0 l
0.20 0 l
0.20 0 l
0.20 0 l
0.20 0 l
0.19 0 l
0.20 0 l
0.20 0 l
0.20 0 l
0.20 0 l
0.20 0 l
0.20 0 l
0.20 0 l
0.20 0 l
0.20 0 l
0.20 0 l
0.19 0 l
0.20 0 l
184.23 159.68 lineto
0.20 0 l
0.20 0 l
0.20 0 l
0.20 0 l
0.20 0 l
0.20 0 l
0.20 0 l
0.20 0 l
0.19 0 l
0.20 0 l
0.20 0 l
0.20 0 l
0.20 0 l
0.20 0 l
0.20 0 l
0.20 0 l
0.20 0 l
0.20 0 l
0.20 0 l
0.19 0 l
0.20 0 l
0.20 0 l
0.20 0 l
0.20 0 l
0.20 0 l
0.20 0 l
0.20 0 l
0.20 0 l
0.20 0 l
0.20 0 l
0.19 0 l
0.20 0 l
0.20 0 l
0.20 0 l
0.20 0 l
0.20 0 l
0.20 0 l
0.20 0 l
0.20 0 l
0.20 0 l
0.20 0 l
0.19 0 l
0.20 0 l
0.20 0 l
0.20 0 l
0.20 0 l
0.20 0 l
0.20 0 l
0.20 0 l
0.20 0 l
0.20 0 l
0.20 0 l
0.19 0 l
0.20 0 l
0.20 0 l
0.20 0 l
0.20 0 l
0.20 0 l
0.20 0 l
0.20 0 l
0.20 0 l
0.20 0 l
0.19 0 l
0.20 0 l
0.20 0 l
0.20 0 l
0.20 0 l
0.20 0 l
0.20 0 l
0.20 0 l
0.20 0 l
0.20 0 l
0.20 0 l
0.19 0 l
0.20 0 l
0.20 0 l
0.20 0 l
0.20 0 l
0.20 0 l
0.20 0 l
0.20 0 l
0.20 0 l
0.20 0 l
0.20 0 l
0.19 0 l
0.20 0 l
0.20 0 l
0.20 0 l
0.20 0 l
0.20 0 l
0.20 0 l
0.20 0 l
0.20 0 l
0.20 0 l
0.20 0 l
0.19 0 l
0.20 0 l
0.20 0 l
0.20 0 l
204.14 159.68 lineto
0.20 0 l
0.20 0 l
0.20 0 l
0.20 0 l
0.20 0 l
0.20 0 l
0.19 0 l
0.20 0 l
0.20 0 l
0.20 0 l
0.20 0 l
0.20 0 l
0.20 0 l
0.20 0 l
0.20 0 l
0.20 0 l
0.20 0 l
0.19 0 l
0.20 0 l
0.20 0 l
0.20 0 l
0.20 0 l
0.20 0 l
0.20 0 l
0.20 0 l
0.20 0 l
0.20 0 l
0.19 0 l
0.20 0 l
0.20 0 l
0.20 0 l
0.20 0 l
0.20 0 l
0.20 0 l
0.20 0 l
0.20 0 l
0.20 0 l
0.20 0 l
0.19 0 l
0.20 0 l
0.20 0 l
0.20 0 l
0.20 0 l
0.20 0 l
0.20 0 l
0.20 0 l
0.20 0 l
0.20 0 l
0.20 0 l
0.19 0 l
0.20 0 l
0.20 0 l
0.20 0 l
0.20 0 l
0.20 0 l
0.20 0 l
0.20 0 l
0.20 0 l
0.20 0 l
0.20 0 l
0.19 0 l
0.20 0 l
0.20 0 l
0.20 0 l
0.20 0 l
0.20 0 l
0.20 0 l
0.20 0 l
0.20 0 l
0.20 0 l
0.20 0 l
0.19 0 l
0.20 0 l
0.20 0 l
0.20 0 l
0.20 0 l
0.20 0 l
0.20 0 l
0.20 0 l
0.20 0 l
0.20 0 l
0.20 0 l
0.19 0 l
0.20 0 l
0.20 0 l
0.20 0 l
0.20 0 l
0.20 0 l
0.20 0 l
0.20 0 l
0.20 0 l
0.20 0 l
0.19 0 l
0.20 0 l
0.20 0 l
0.20 0 l
0.20 0 l
0.20 0 l
0.20 0 l
224.05 159.68 lineto
0.20 0 l
0.20 0 l
0.20 0 l
0.19 0 l
0.20 0 l
0.20 0 l
0.20 0 l
0.20 0 l
0.20 0 l
0.20 0 l
0.20 0 l
0.20 0 l
0.20 0 l
0.20 0 l
0.19 0 l
0.20 0 l
0.20 0 l
0.20 0 l
0.20 0 l
0.20 0 l
0.20 0 l
0.20 0 l
0.20 0 l
0.20 0 l
0.20 0 l
0.19 0 l
0.20 0 l
0.20 0 l
0.20 0 l
0.20 0 l
0.20 0 l
0.20 0 l
0.20 0 l
0.20 0 l
0.20 0 l
0.20 0 l
0.19 0 l
0.20 0 l
0.20 0 l
0.20 0 l
0.20 0 l
0.20 0 l
0.20 0 l
0.20 0 l
0.20 0 l
0.20 0 l
0.20 0 l
0.19 0 l
0.20 0 l
0.20 0 l
0.20 0 l
0.20 0 l
0.20 0 l
0.20 0 l
0.20 0 l
0.20 0 l
0.20 0 l
0.19 0 l
0.20 0 l
0.20 0 l
0.20 0 l
0.20 0 l
0.20 0 l
0.20 0 l
0.20 0 l
0.20 0 l
0.20 0 l
0.20 0 l
0.19 0 l
0.20 0 l
0.20 0 l
0.20 0 l
0.20 0 l
0.20 0 l
0.20 0 l
0.20 0 l
0.20 0 l
0.20 0 l
0.20 0 l
0.19 0 l
0.20 0 l
0.20 0 l
0.20 0 l
0.20 0 l
0.20 0 l
0.20 0 l
0.20 0 l
0.20 0 l
0.20 0 l
0.20 0 l
0.19 0 l
0.20 0 l
0.20 0 l
0.20 0 l
0.20 0 l
0.20 0 l
0.20 0 l
0.20 0 l
0.20 0 l
243.96 159.68 lineto
0.20 0 l
0.19 0 l
0.20 0 l
0.20 0 l
0.20 0 l
0.20 0 l
0.20 0 l
0.20 0 l
0.20 0 l
0.20 0 l
0.20 0 l
0.20 0 l
0.19 0 l
0.20 0 l
0.20 0 l
0.20 0 l
0.20 0 l
0.20 0 l
0.20 0 l
0.20 0 l
0.20 0 l
0.20 0 l
0.20 0 l
0.19 0 l
0.20 0 l
0.20 0 l
0.20 0 l
0.20 0 l
0.20 0 l
0.20 0 l
0.20 0 l
0.20 0 l
0.20 0 l
0.19 0 l
0.20 0 l
0.20 0 l
0.20 0 l
0.20 0 l
0.20 0 l
0.20 0 l
0.20 0 l
0.20 0 l
0.20 0 l
0.20 0 l
0.19 0 l
0.20 0 l
0.20 0 l
0.20 0 l
0.20 0 l
0.20 0 l
0.20 0 l
0.20 0 l
0.20 0 l
0.20 0 l
0.20 0 l
0.19 0 l
0.20 0 l
0.20 0 l
0.20 0 l
0.20 0 l
0.20 0 l
0.20 0 l
0.20 0 l
0.20 0 l
0.20 0 l
0.20 0 l
0.19 0 l
0.20 0 l
0.20 0 l
0.20 0 l
0.20 0 l
0.20 0 l
0.20 0 l
0.20 0 l
0.20 0 l
0.20 0 l
0.20 0 l
0.19 0 l
0.20 0 l
0.20 0 l
0.20 0 l
0.20 0 l
0.20 0 l
0.20 0 l
0.20 0 l
0.20 0 l
0.20 0 l
0.20 0 l
0.19 0 l
0.20 0 l
0.20 0 l
0.20 0 l
0.20 0 l
0.20 0 l
0.20 0 l
0.20 0 l
0.20 0 l
0.20 0 l
0.19 0 l
263.86 159.68 lineto
0.20 0 l
0.20 0 l
0.20 0 l
0.20 0 l
0.20 0 l
0.20 0 l
0.20 0 l
0.20 0 l
0.20 0 l
0.19 0 l
0.20 0 l
o
0 0.7294 0.2196 srgb
np
164.33 159.68 m
0.19 0 l
0.20 0 l
0.20 0 l
0.20 0 l
0.20 0 l
0.20 0 l
0.20 0 l
0.20 0 l
0.20 0 l
0.20 0 l
0.20 0 l
0.19 0 l
0.20 0 l
0.20 0 l
0.20 0 l
0.20 0 l
0.20 0 l
0.20 0 l
0.20 0 l
0.20 0 l
0.20 0 l
0.19 0 l
0.20 0 l
0.20 0 l
0.20 0 l
0.20 0 l
0.20 0 l
0.20 0 l
0.20 0 l
0.20 0 l
0.20 0 l
0.20 0 l
0.19 0 l
0.20 0 l
0.20 0 l
0.20 0 l
0.20 0 l
0.20 0 l
0.20 0 l
0.20 0 l
0.20 0 l
0.20 0 l
0.20 0 l
0.19 0 l
0.20 0 l
0.20 0 l
0.20 0 l
0.20 0 l
0.20 0 l
0.20 0 l
0.20 0 l
0.20 0 l
0.20 0 l
0.20 0 l
0.19 0 l
0.20 0 l
0.20 0 l
0.20 0 l
0.20 0 l
0.20 0 l
0.20 0 l
0.20 0 l
0.20 0 l
0.20 0 l
0.20 0 l
0.19 0 l
0.20 0 l
0.20 0 l
0.20 0 l
0.20 0 l
0.20 0 l
0.20 0 l
0.20 0 l
0.20 0 l
0.20 0 l
0.20 0 l
0.19 0 l
0.20 0 l
0.20 0 l
0.20 0 l
0.20 0 l
0.20 0 l
0.20 0 l
0.20 0 l
0.20 0 l
0.20 0 l
0.19 0 l
0.20 0 l
0.20 0 l
0.20 0 l
0.20 0 l
0.20 0 l
0.20 0 l
0.20 0 l
0.20 0 l
0.20 0 l
0.20 0 l
0.19 0 l
0.20 0 l
184.23 159.68 lineto
0.20 0 l
0.20 0 l
0.20 0 l
0.20 0 l
0.20 0 l
0.20 0 l
0.20 0 l
0.20 0 l
0.19 0 l
0.20 0 l
0.20 0 l
0.20 0 l
0.20 0 l
0.20 0 l
0.20 0 l
0.20 0 l
0.20 0 l
0.20 0 l
0.20 0 l
0.19 0 l
0.20 0 l
0.20 0 l
0.20 0 l
0.20 0.01 l
0.20 0 l
0.20 0 l
0.20 0 l
0.20 0 l
0.20 0 l
0.20 0.01 l
0.19 0 l
0.20 0 l
0.20 0.01 l
0.20 0.01 l
0.20 0.01 l
0.20 0.01 l
0.20 0.01 l
0.20 0.01 l
0.20 0.02 l
0.20 0.02 l
0.20 0.03 l
0.19 0.03 l
0.20 0.03 l
0.20 0.04 l
0.20 0.05 l
0.20 0.05 l
0.20 0.07 l
0.20 0.07 l
0.20 0.09 l
0.20 0.10 l
0.20 0.11 l
0.20 0.12 l
0.19 0.15 l
0.20 0.15 l
0.20 0.18 l
0.20 0.20 l
0.20 0.22 l
0.20 0.25 l
0.20 0.26 l
0.20 0.29 l
0.20 0.32 l
0.20 0.35 l
0.19 0.38 l
0.20 0.40 l
0.20 0.43 l
0.20 0.46 l
0.20 0.49 l
0.20 0.52 l
0.20 0.55 l
0.20 0.57 l
0.20 0.59 l
0.20 0.62 l
0.20 0.64 l
0.19 0.66 l
0.20 0.67 l
0.20 0.68 l
0.20 0.69 l
0.20 0.70 l
0.20 0.70 l
0.20 0.70 l
0.20 0.69 l
0.20 0.68 l
0.20 0.67 l
0.20 0.65 l
0.19 0.63 l
0.20 0.60 l
0.20 0.57 l
0.20 0.54 l
0.20 0.50 l
0.20 0.47 l
0.20 0.43 l
0.20 0.37 l
0.20 0.33 l
0.20 0.28 l
0.20 0.23 l
0.19 0.18 l
0.20 0.12 l
0.20 0.07 l
0.20 0.02 l
204.14 181.41 lineto
0.20 -0.08 l
0.20 -0.14 l
0.20 -0.20 l
0.20 -0.23 l
0.20 -0.28 l
0.20 -0.33 l
0.19 -0.37 l
0.20 -0.41 l
0.20 -0.44 l
0.20 -0.46 l
0.20 -0.50 l
0.20 -0.51 l
0.20 -0.53 l
0.20 -0.53 l
0.20 -0.54 l
0.20 -0.53 l
0.20 -0.53 l
0.19 -0.50 l
0.20 -0.48 l
0.20 -0.46 l
0.20 -0.41 l
0.20 -0.36 l
0.20 -0.31 l
0.20 -0.26 l
0.20 -0.19 l
0.20 -0.12 l
0.20 -0.02 l
0.19 0.05 l
0.20 0.15 l
0.20 0.23 l
0.20 0.34 l
0.20 0.47 l
0.20 0.57 l
0.20 0.68 l
0.20 0.79 l
0.20 0.92 l
0.20 1.05 l
0.20 1.17 l
0.19 1.29 l
0.20 1.40 l
0.20 1.53 l
0.20 1.66 l
0.20 1.76 l
0.20 1.87 l
0.20 1.97 l
0.20 2.08 l
0.20 2.18 l
0.20 2.26 l
0.20 2.33 l
0.19 2.40 l
0.20 2.46 l
0.20 2.52 l
0.20 2.55 l
0.20 2.59 l
0.20 2.60 l
0.20 2.61 l
0.20 2.61 l
0.20 2.60 l
0.20 2.58 l
0.20 2.55 l
0.19 2.50 l
0.20 2.45 l
0.20 2.39 l
0.20 2.32 l
0.20 2.26 l
0.20 2.16 l
0.20 2.07 l
0.20 1.98 l
0.20 1.88 l
0.20 1.79 l
0.20 1.67 l
0.19 1.55 l
0.20 1.44 l
0.20 1.33 l
0.20 1.23 l
0.20 1.10 l
0.20 0.97 l
0.20 0.87 l
0.20 0.76 l
0.20 0.65 l
0.20 0.52 l
0.20 0.41 l
0.19 0.30 l
0.20 0.20 l
0.20 0.10 l
0.20 -0.02 l
0.20 -0.12 l
0.20 -0.21 l
0.20 -0.31 l
0.20 -0.39 l
0.20 -0.50 l
0.20 -0.59 l
0.19 -0.67 l
0.20 -0.74 l
0.20 -0.82 l
0.20 -0.90 l
0.20 -0.97 l
0.20 -1.03 l
0.20 -1.09 l
224.05 251.91 lineto
0.20 -1.19 l
0.20 -1.25 l
0.20 -1.27 l
0.19 -1.31 l
0.20 -1.34 l
0.20 -1.35 l
0.20 -1.38 l
0.20 -1.38 l
0.20 -1.39 l
0.20 -1.38 l
0.20 -1.38 l
0.20 -1.37 l
0.20 -1.35 l
0.20 -1.33 l
0.19 -1.31 l
0.20 -1.28 l
0.20 -1.25 l
0.20 -1.22 l
0.20 -1.19 l
0.20 -1.16 l
0.20 -1.12 l
0.20 -1.09 l
0.20 -1.06 l
0.20 -1.03 l
0.20 -1.00 l
0.19 -0.98 l
0.20 -0.95 l
0.20 -0.94 l
0.20 -0.93 l
0.20 -0.91 l
0.20 -0.91 l
0.20 -0.91 l
0.20 -0.92 l
0.20 -0.92 l
0.20 -0.93 l
0.20 -0.95 l
0.19 -0.97 l
0.20 -0.99 l
0.20 -1.02 l
0.20 -1.04 l
0.20 -1.08 l
0.20 -1.12 l
0.20 -1.14 l
0.20 -1.18 l
0.20 -1.20 l
0.20 -1.25 l
0.20 -1.27 l
0.19 -1.31 l
0.20 -1.32 l
0.20 -1.35 l
0.20 -1.37 l
0.20 -1.39 l
0.20 -1.39 l
0.20 -1.40 l
0.20 -1.41 l
0.20 -1.40 l
0.20 -1.39 l
0.19 -1.37 l
0.20 -1.36 l
0.20 -1.34 l
0.20 -1.30 l
0.20 -1.27 l
0.20 -1.24 l
0.20 -1.20 l
0.20 -1.16 l
0.20 -1.10 l
0.20 -1.06 l
0.20 -1.01 l
0.19 -0.96 l
0.20 -0.91 l
0.20 -0.84 l
0.20 -0.80 l
0.20 -0.75 l
0.20 -0.69 l
0.20 -0.65 l
0.20 -0.59 l
0.20 -0.54 l
0.20 -0.50 l
0.20 -0.46 l
0.19 -0.42 l
0.20 -0.37 l
0.20 -0.33 l
0.20 -0.30 l
0.20 -0.28 l
0.20 -0.24 l
0.20 -0.21 l
0.20 -0.19 l
0.20 -0.16 l
0.20 -0.15 l
0.20 -0.13 l
0.19 -0.11 l
0.20 -0.09 l
0.20 -0.09 l
0.20 -0.07 l
0.20 -0.06 l
0.20 -0.05 l
0.20 -0.04 l
0.20 -0.04 l
0.20 -0.03 l
243.96 159.80 lineto
0.20 -0.02 l
0.19 -0.02 l
0.20 -0.01 l
0.20 -0.02 l
0.20 -0.01 l
0.20 0 l
0.20 -0.01 l
0.20 -0.01 l
0.20 0 l
0.20 0 l
0.20 -0.01 l
0.20 0 l
0.19 0 l
0.20 0 l
0.20 0 l
0.20 -0.01 l
0.20 0 l
0.20 0 l
0.20 0 l
0.20 0 l
0.20 0 l
0.20 0 l
0.20 0 l
0.19 0 l
0.20 0 l
0.20 0 l
0.20 0 l
0.20 0 l
0.20 0 l
0.20 0 l
0.20 0 l
0.20 0 l
0.20 0 l
0.19 0 l
0.20 0 l
0.20 0 l
0.20 0 l
0.20 0 l
0.20 0 l
0.20 0 l
0.20 0 l
0.20 0 l
0.20 0 l
0.20 0 l
0.19 0 l
0.20 0 l
0.20 0 l
0.20 0 l
0.20 0 l
0.20 0 l
0.20 0 l
0.20 0 l
0.20 0 l
0.20 0 l
0.20 0 l
0.19 0 l
0.20 0 l
0.20 0 l
0.20 0 l
0.20 0 l
0.20 0 l
0.20 0 l
0.20 0 l
0.20 0 l
0.20 0 l
0.20 0 l
0.19 0 l
0.20 0 l
0.20 0 l
0.20 0 l
0.20 0 l
0.20 0 l
0.20 0 l
0.20 0 l
0.20 0 l
0.20 0 l
0.20 0 l
0.19 0 l
0.20 0 l
0.20 0 l
0.20 0 l
0.20 0 l
0.20 0 l
0.20 0 l
0.20 0 l
0.20 0 l
0.20 0 l
0.20 0 l
0.19 0 l
0.20 0 l
0.20 0 l
0.20 0 l
0.20 0 l
0.20 0 l
0.20 0 l
0.20 0 l
0.20 0 l
0.20 0 l
0.19 0 l
263.86 159.68 lineto
0.20 0 l
0.20 0 l
0.20 0 l
0.20 0 l
0.20 0 l
0.20 0 l
0.20 0 l
0.20 0 l
0.20 0 l
0.19 0 l
0.20 0 l
o
0.3804 0.6118 1 srgb
np
164.33 159.68 m
0.19 0 l
0.20 0 l
0.20 0 l
0.20 0 l
0.20 0 l
0.20 0 l
0.20 0 l
0.20 0 l
0.20 0 l
0.20 0 l
0.20 0 l
0.19 0 l
0.20 0 l
0.20 0 l
0.20 0 l
0.20 0 l
0.20 0 l
0.20 0 l
0.20 0 l
0.20 0 l
0.20 0 l
0.19 0 l
0.20 0 l
0.20 0 l
0.20 0 l
0.20 0 l
0.20 0 l
0.20 0 l
0.20 0 l
0.20 0 l
0.20 0 l
0.20 0 l
0.19 0 l
0.20 0 l
0.20 0 l
0.20 0 l
0.20 0 l
0.20 0 l
0.20 0 l
0.20 0 l
0.20 0 l
0.20 0 l
0.20 0 l
0.19 0 l
0.20 0 l
0.20 0 l
0.20 0 l
0.20 0 l
0.20 0 l
0.20 0 l
0.20 0 l
0.20 0 l
0.20 0 l
0.20 0 l
0.19 0 l
0.20 0 l
0.20 0 l
0.20 0 l
0.20 0 l
0.20 0 l
0.20 0 l
0.20 0 l
0.20 0 l
0.20 0 l
0.20 0 l
0.19 0 l
0.20 0 l
0.20 0 l
0.20 0 l
0.20 0 l
0.20 0 l
0.20 0 l
0.20 0 l
0.20 0 l
0.20 0 l
0.20 0 l
0.19 0 l
0.20 0 l
0.20 0 l
0.20 0 l
0.20 0 l
0.20 0 l
0.20 0 l
0.20 0 l
0.20 0 l
0.20 0 l
0.19 0 l
0.20 0 l
0.20 0 l
0.20 0 l
0.20 0 l
0.20 0 l
0.20 0 l
0.20 0 l
0.20 0 l
0.20 0 l
0.20 0 l
0.19 0 l
0.20 0 l
184.23 159.68 lineto
0.20 0 l
0.20 0 l
0.20 0 l
0.20 0 l
0.20 0 l
0.20 0 l
0.20 0 l
0.20 0 l
0.19 0 l
0.20 0 l
0.20 0 l
0.20 0 l
0.20 0 l
0.20 0 l
0.20 0 l
0.20 0 l
0.20 0 l
0.20 0 l
0.20 0 l
0.19 0 l
0.20 0 l
0.20 0 l
0.20 0 l
0.20 0 l
0.20 0 l
0.20 0 l
0.20 0 l
0.20 0 l
0.20 0 l
0.20 0 l
0.19 0 l
0.20 0 l
0.20 0 l
0.20 0 l
0.20 0 l
0.20 0 l
0.20 0 l
0.20 0 l
0.20 0 l
0.20 0 l
0.20 0 l
0.19 0 l
0.20 0 l
0.20 0 l
0.20 0 l
0.20 0 l
0.20 0 l
0.20 0 l
0.20 0 l
0.20 0 l
0.20 0 l
0.20 0 l
0.19 0 l
0.20 0 l
0.20 0 l
0.20 0 l
0.20 0 l
0.20 0 l
0.20 0 l
0.20 0 l
0.20 0 l
0.20 0 l
0.19 0 l
0.20 0 l
0.20 0 l
0.20 0 l
0.20 0 l
0.20 0 l
0.20 0 l
0.20 0 l
0.20 0 l
0.20 0 l
0.20 0 l
0.19 0 l
0.20 0 l
0.20 0 l
0.20 0 l
0.20 0 l
0.20 0 l
0.20 0 l
0.20 0 l
0.20 0 l
0.20 0 l
0.20 0.01 l
0.19 0 l
0.20 0 l
0.20 0 l
0.20 0 l
0.20 0 l
0.20 0 l
0.20 0 l
0.20 0 l
0.20 0 l
0.20 0.01 l
0.20 0 l
0.19 0 l
0.20 0 l
0.20 0 l
0.20 0.01 l
204.14 159.71 lineto
0.20 0 l
0.20 0.01 l
0.20 0 l
0.20 0.01 l
0.20 0 l
0.20 0.01 l
0.19 0.01 l
0.20 0 l
0.20 0.01 l
0.20 0.01 l
0.20 0.01 l
0.20 0.01 l
0.20 0.02 l
0.20 0.01 l
0.20 0.01 l
0.20 0.02 l
0.20 0.02 l
0.19 0.02 l
0.20 0.02 l
0.20 0.02 l
0.20 0.02 l
0.20 0.03 l
0.20 0.03 l
0.20 0.03 l
0.20 0.04 l
0.20 0.03 l
0.20 0.04 l
0.19 0.05 l
0.20 0.05 l
0.20 0.05 l
0.20 0.05 l
0.20 0.06 l
0.20 0.06 l
0.20 0.07 l
0.20 0.07 l
0.20 0.08 l
0.20 0.08 l
0.20 0.09 l
0.19 0.09 l
0.20 0.10 l
0.20 0.11 l
0.20 0.11 l
0.20 0.12 l
0.20 0.13 l
0.20 0.14 l
0.20 0.14 l
0.20 0.15 l
0.20 0.16 l
0.20 0.17 l
0.19 0.18 l
0.20 0.19 l
0.20 0.20 l
0.20 0.20 l
0.20 0.22 l
0.20 0.23 l
0.20 0.24 l
0.20 0.26 l
0.20 0.26 l
0.20 0.27 l
0.20 0.30 l
0.19 0.30 l
0.20 0.31 l
0.20 0.33 l
0.20 0.34 l
0.20 0.35 l
0.20 0.37 l
0.20 0.39 l
0.20 0.39 l
0.20 0.42 l
0.20 0.43 l
0.20 0.44 l
0.19 0.46 l
0.20 0.48 l
0.20 0.49 l
0.20 0.51 l
0.20 0.53 l
0.20 0.54 l
0.20 0.56 l
0.20 0.58 l
0.20 0.59 l
0.20 0.62 l
0.20 0.63 l
0.19 0.66 l
0.20 0.66 l
0.20 0.70 l
0.20 0.71 l
0.20 0.72 l
0.20 0.76 l
0.20 0.77 l
0.20 0.78 l
0.20 0.82 l
0.20 0.83 l
0.19 0.85 l
0.20 0.88 l
0.20 0.90 l
0.20 0.92 l
0.20 0.94 l
0.20 0.97 l
0.20 0.98 l
224.05 189.75 lineto
0.20 1.04 l
0.20 1.05 l
0.20 1.08 l
0.19 1.10 l
0.20 1.13 l
0.20 1.14 l
0.20 1.17 l
0.20 1.19 l
0.20 1.21 l
0.20 1.24 l
0.20 1.26 l
0.20 1.27 l
0.20 1.30 l
0.20 1.32 l
0.19 1.33 l
0.20 1.35 l
0.20 1.37 l
0.20 1.39 l
0.20 1.40 l
0.20 1.41 l
0.20 1.43 l
0.20 1.44 l
0.20 1.45 l
0.20 1.45 l
0.20 1.46 l
0.19 1.47 l
0.20 1.47 l
0.20 1.47 l
0.20 1.47 l
0.20 1.46 l
0.20 1.46 l
0.20 1.45 l
0.20 1.45 l
0.20 1.43 l
0.20 1.41 l
0.20 1.40 l
0.19 1.38 l
0.20 1.36 l
0.20 1.33 l
0.20 1.31 l
0.20 1.29 l
0.20 1.24 l
0.20 1.21 l
0.20 1.19 l
0.20 1.13 l
0.20 1.10 l
0.20 1.07 l
0.19 1.00 l
0.20 0.97 l
0.20 0.92 l
0.20 0.86 l
0.20 0.82 l
0.20 0.77 l
0.20 0.71 l
0.20 0.65 l
0.20 0.61 l
0.20 0.53 l
0.19 0.48 l
0.20 0.44 l
0.20 0.37 l
0.20 0.30 l
0.20 0.26 l
0.20 0.20 l
0.20 0.12 l
0.20 0.09 l
0.20 0.03 l
0.20 -0.04 l
0.20 -0.08 l
0.19 -0.13 l
0.20 -0.20 l
0.20 -0.24 l
0.20 -0.28 l
0.20 -0.34 l
0.20 -0.37 l
0.20 -0.41 l
0.20 -0.47 l
0.20 -0.50 l
0.20 -0.52 l
0.20 -0.57 l
0.19 -0.59 l
0.20 -0.62 l
0.20 -0.65 l
0.20 -0.67 l
0.20 -0.69 l
0.20 -0.70 l
0.20 -0.73 l
0.20 -0.73 l
0.20 -0.75 l
0.20 -0.75 l
0.20 -0.76 l
0.19 -0.76 l
0.20 -0.76 l
0.20 -0.76 l
0.20 -0.75 l
0.20 -0.76 l
0.20 -0.74 l
0.20 -0.74 l
0.20 -0.72 l
0.20 -0.71 l
243.96 242.22 lineto
0.20 -0.69 l
0.19 -0.67 l
0.20 -0.66 l
0.20 -0.63 l
0.20 -0.62 l
0.20 -0.61 l
0.20 -0.58 l
0.20 -0.56 l
0.20 -0.55 l
0.20 -0.53 l
0.20 -0.51 l
0.20 -0.49 l
0.19 -0.48 l
0.20 -0.45 l
0.20 -0.44 l
0.20 -0.42 l
0.20 -0.41 l
0.20 -0.39 l
0.20 -0.38 l
0.20 -0.36 l
0.20 -0.35 l
0.20 -0.35 l
0.20 -0.33 l
0.19 -0.32 l
0.20 -0.32 l
0.20 -0.31 l
0.20 -0.30 l
0.20 -0.30 l
0.20 -0.29 l
0.20 -0.29 l
0.20 -0.29 l
0.20 -0.29 l
0.20 -0.29 l
0.19 -0.30 l
0.20 -0.29 l
0.20 -0.30 l
0.20 -0.30 l
0.20 -0.30 l
0.20 -0.31 l
0.20 -0.32 l
0.20 -0.32 l
0.20 -0.32 l
0.20 -0.34 l
0.20 -0.34 l
0.19 -0.35 l
0.20 -0.35 l
0.20 -0.36 l
0.20 -0.37 l
0.20 -0.38 l
0.20 -0.38 l
0.20 -0.39 l
0.20 -0.40 l
0.20 -0.41 l
0.20 -0.41 l
0.20 -0.41 l
0.19 -0.42 l
0.20 -0.43 l
0.20 -0.43 l
0.20 -0.44 l
0.20 -0.43 l
0.20 -0.45 l
0.20 -0.44 l
0.20 -0.45 l
0.20 -0.45 l
0.20 -0.45 l
0.20 -0.45 l
0.19 -0.45 l
0.20 -0.46 l
0.20 -0.45 l
0.20 -0.46 l
0.20 -0.45 l
0.20 -0.45 l
0.20 -0.45 l
0.20 -0.46 l
0.20 -0.45 l
0.20 -0.45 l
0.20 -0.45 l
0.19 -0.45 l
0.20 -0.45 l
0.20 -0.45 l
0.20 -0.45 l
0.20 -0.45 l
0.20 -0.45 l
0.20 -0.45 l
0.20 -0.45 l
0.20 -0.46 l
0.20 -0.46 l
0.20 -0.46 l
0.19 -0.46 l
0.20 -0.47 l
0.20 -0.47 l
0.20 -0.48 l
0.20 -0.48 l
0.20 -0.49 l
0.20 -0.49 l
0.20 -0.50 l
0.20 -0.51 l
0.20 -0.52 l
0.19 -0.52 l
263.86 199.39 lineto
0.20 -0.54 l
0.20 -0.55 l
0.20 -0.56 l
0.20 -0.56 l
0.20 -0.58 l
0.20 -0.58 l
0.20 -0.60 l
0.20 -0.60 l
0.20 -0.61 l
0.19 -0.62 l
0.20 -0.63 l
o
0.4980 0.4980 0.4980 srgb
1 setlinecap
10.00 setmiterlimit
159.24 154.60 111.90 111.90 r p1
0.00 0.00 816.00 409.50 cl
0.00 0.00 816.00 409.50 cl
0.00 0.00 816.00 409.50 cl
0.00 0.00 816.00 409.50 cl
274.50 154.60 386.40 266.50 cl
/bg { 1 1 1 srgb } def
274.50 154.60 111.90 111.90 r p2
/bg { 0.9725 0.4627 0.4275 srgb } def
0.9725 0.4627 0.4275 srgb
0.71 setlinewidth
[] 0 setdash
1 setlinecap
1 setlinejoin
10.00 setmiterlimit
283.82 161.57 1.95 c p3
283.82 161.57 1.95 c p3
292.30 167.22 1.95 c p3
283.82 167.22 1.95 c p3
292.30 163.45 1.95 c p3
283.82 163.45 1.95 c p3
279.58 163.45 1.95 c p3
283.82 163.45 1.95 c p3
279.58 161.57 1.95 c p3
288.06 159.68 1.95 c p3
288.06 159.68 1.95 c p3
300.78 165.33 1.95 c p3
283.82 163.45 1.95 c p3
/bg { 0 0.7294 0.2196 srgb } def
0 0.7294 0.2196 srgb
334.69 223.73 1.95 c p3
338.93 214.31 1.95 c p3
317.73 210.55 1.95 c p3
334.69 218.08 1.95 c p3
338.93 219.97 1.95 c p3
317.73 212.43 1.95 c p3
338.93 227.50 1.95 c p3
330.45 216.20 1.95 c p3
334.69 225.62 1.95 c p3
347.40 229.38 1.95 c p3
317.73 201.13 1.95 c p3
343.16 219.97 1.95 c p3
330.45 218.08 1.95 c p3
334.69 221.85 1.95 c p3
317.73 197.36 1.95 c p3
326.21 214.31 1.95 c p3
330.45 216.20 1.95 c p3
330.45 212.43 1.95 c p3
/bg { 0.3804 0.6118 1 srgb } def
0.3804 0.6118 1 srgb
381.31 248.22 1.95 c p3
355.88 231.27 1.95 c p3
364.36 259.53 1.95 c p3
347.40 219.97 1.95 c p3
351.64 244.46 1.95 c p3
377.07 231.27 1.95 c p3
372.83 242.57 1.95 c p3
360.12 227.50 1.95 c p3
360.12 261.41 1.95 c p3
351.64 248.22 1.95 c p3
355.88 250.11 1.95 c p3
360.12 255.76 1.95 c p3
338.93 231.27 1.95 c p3
351.64 238.80 1.95 c p3
351.64 225.62 1.95 c p3
355.88 231.27 1.95 c p3
372.83 233.15 1.95 c p3
360.12 233.15 1.95 c p3
372.83 236.92 1.95 c p3
0.4980 0.4980 0.4980 srgb
1.07 setlinewidth
[] 0 setdash
274.50 154.60 111.90 111.90 r p1
0.00 0.00 816.00 409.50 cl
0.00 0.00 816.00 409.50 cl
0.00 0.00 816.00 409.50 cl
0.00 0.00 816.00 409.50 cl
0.00 0.00 816.00 409.50 cl
0.00 0.00 816.00 409.50 cl
0.00 0.00 816.00 409.50 cl
0.00 0.00 816.00 409.50 cl
/Font1 findfont 10 s
0 0 0 srgb
38.60 30.48 (0.0) 1 0 t
38.60 52.43 (0.5) 1 0 t
38.60 74.39 (1.0) 1 0 t
38.60 96.34 (1.5) 1 0 t
38.60 118.30 (2.0) 1 0 t
38.60 140.25 (2.5) 1 0 t
0.00 0.00 816.00 409.50 cl
0.00 0.00 816.00 409.50 cl
0.00 0.00 816.00 409.50 cl
0 0 0 srgb
1.07 setlinewidth
[] 0 setdash
0 setlinecap
1 setlinejoin
10.00 setmiterlimit
np
40.99 34.07 m
2.99 0 l
o
np
40.99 56.02 m
2.99 0 l
o
np
40.99 77.98 m
2.99 0 l
o
np
40.99 99.93 m
2.99 0 l
o
np
40.99 121.89 m
2.99 0 l
o
np
40.99 143.84 m
2.99 0 l
o
0.00 0.00 816.00 409.50 cl
0.00 0.00 816.00 409.50 cl
0.00 0.00 816.00 409.50 cl
0.00 0.00 816.00 409.50 cl
0.00 0.00 816.00 409.50 cl
0.00 0.00 816.00 409.50 cl
0.00 0.00 816.00 409.50 cl
0.00 0.00 816.00 409.50 cl
0 0 0 srgb
1.07 setlinewidth
[] 0 setdash
0 setlinecap
1 setlinejoin
10.00 setmiterlimit
np
65.13 30.20 m
0 2.99 l
o
np
91.90 30.20 m
0 2.99 l
o
np
118.67 30.20 m
0 2.99 l
o
np
145.44 30.20 m
0 2.99 l
o
0.00 0.00 816.00 409.50 cl
0.00 0.00 816.00 409.50 cl
/Font1 findfont 10 s
0 0 0 srgb
65.13 20.63 (2.5) .5 0 t
91.90 20.63 (3.0) .5 0 t
118.67 20.63 (3.5) .5 0 t
145.44 20.63 (4.0) .5 0 t
0.00 0.00 816.00 409.50 cl
0.00 0.00 816.00 409.50 cl
0.00 0.00 816.00 409.50 cl
0.00 0.00 816.00 409.50 cl
0.00 0.00 816.00 409.50 cl
43.98 35.20 155.88 147.10 cl
/bg { 1 1 1 srgb } def
43.98 35.20 111.90 111.90 r p2
/bg { 0.9725 0.4627 0.4275 srgb } def
0.9725 0.4627 0.4275 srgb
0.71 setlinewidth
[] 0 setdash
1 setlinecap
1 setlinejoin
10.00 setmiterlimit
118.67 44.53 1.95 c p3
124.02 44.53 1.95 c p3
140.09 53.00 1.95 c p3
113.32 44.53 1.95 c p3
129.38 53.00 1.95 c p3
118.67 44.53 1.95 c p3
150.80 40.29 1.95 c p3
97.25 44.53 1.95 c p3
124.02 40.29 1.95 c p3
118.67 48.76 1.95 c p3
54.42 48.76 1.95 c p3
118.67 61.48 1.95 c p3
129.38 44.53 1.95 c p3
/bg { 0 0.7294 0.2196 srgb } def
0 0.7294 0.2196 srgb
102.61 95.39 1.95 c p3
91.90 99.63 1.95 c p3
49.07 78.43 1.95 c p3
97.25 95.39 1.95 c p3
91.90 99.63 1.95 c p3
75.84 78.43 1.95 c p3
65.13 99.63 1.95 c p3
86.55 91.15 1.95 c p3
81.19 95.39 1.95 c p3
91.90 108.11 1.95 c p3
70.48 78.43 1.95 c p3
113.32 103.87 1.95 c p3
54.42 91.15 1.95 c p3
91.90 95.39 1.95 c p3
54.42 78.43 1.95 c p3
91.90 86.91 1.95 c p3
86.55 91.15 1.95 c p3
81.19 91.15 1.95 c p3
/bg { 0.3804 0.6118 1 srgb } def
0.3804 0.6118 1 srgb
107.96 142.01 1.95 c p3
75.84 116.58 1.95 c p3
91.90 125.06 1.95 c p3
65.13 108.11 1.95 c p3
65.13 112.34 1.95 c p3
81.19 137.78 1.95 c p3
102.61 133.54 1.95 c p3
81.19 120.82 1.95 c p3
81.19 120.82 1.95 c p3
102.61 112.34 1.95 c p3
81.19 116.58 1.95 c p3
134.73 120.82 1.95 c p3
81.19 99.63 1.95 c p3
97.25 112.34 1.95 c p3
91.90 112.34 1.95 c p3
75.84 116.58 1.95 c p3
91.90 133.54 1.95 c p3
91.90 120.82 1.95 c p3
113.32 133.54 1.95 c p3
0.4980 0.4980 0.4980 srgb
1.07 setlinewidth
[] 0 setdash
43.98 35.20 111.90 111.90 r p1
0.00 0.00 816.00 409.50 cl
0.00 0.00 816.00 409.50 cl
0.00 0.00 816.00 409.50 cl
0.00 0.00 816.00 409.50 cl
0.00 0.00 816.00 409.50 cl
0.00 0.00 816.00 409.50 cl
0.00 0.00 816.00 409.50 cl
0.00 0.00 816.00 409.50 cl
0 0 0 srgb
1.07 setlinewidth
[] 0 setdash
0 setlinecap
1 setlinejoin
10.00 setmiterlimit
np
177.51 30.20 m
0 2.99 l
o
np
196.35 30.20 m
0 2.99 l
o
np
215.19 30.20 m
0 2.99 l
o
np
234.03 30.20 m
0 2.99 l
o
np
252.87 30.20 m
0 2.99 l
o
0.00 0.00 816.00 409.50 cl
0.00 0.00 816.00 409.50 cl
/Font1 findfont 10 s
0 0 0 srgb
177.51 20.63 (2) .5 0 t
196.35 20.63 (3) .5 0 t
215.19 20.63 (4) .5 0 t
234.03 20.63 (5) .5 0 t
252.87 20.63 (6) .5 0 t
0.00 0.00 816.00 409.50 cl
0.00 0.00 816.00 409.50 cl
0.00 0.00 816.00 409.50 cl
0.00 0.00 816.00 409.50 cl
0.00 0.00 816.00 409.50 cl
159.24 35.20 271.14 147.10 cl
/bg { 1 1 1 srgb } def
159.24 35.20 111.90 111.90 r p2
/bg { 0.9725 0.4627 0.4275 srgb } def
0.9725 0.4627 0.4275 srgb
0.71 setlinewidth
[] 0 setdash
1 setlinecap
1 setlinejoin
10.00 setmiterlimit
166.21 44.53 1.95 c p3
166.21 44.53 1.95 c p3
171.86 53.00 1.95 c p3
171.86 44.53 1.95 c p3
168.09 53.00 1.95 c p3
168.09 44.53 1.95 c p3
168.09 40.29 1.95 c p3
168.09 44.53 1.95 c p3
166.21 40.29 1.95 c p3
164.33 48.76 1.95 c p3
164.33 48.76 1.95 c p3
169.98 61.48 1.95 c p3
168.09 44.53 1.95 c p3
/bg { 0 0.7294 0.2196 srgb } def
0 0.7294 0.2196 srgb
228.38 95.39 1.95 c p3
218.96 99.63 1.95 c p3
215.19 78.43 1.95 c p3
222.72 95.39 1.95 c p3
224.61 99.63 1.95 c p3
217.07 78.43 1.95 c p3
232.14 99.63 1.95 c p3
220.84 91.15 1.95 c p3
230.26 95.39 1.95 c p3
234.03 108.11 1.95 c p3
205.77 78.43 1.95 c p3
224.61 103.87 1.95 c p3
222.72 91.15 1.95 c p3
226.49 95.39 1.95 c p3
202.00 78.43 1.95 c p3
218.96 86.91 1.95 c p3
220.84 91.15 1.95 c p3
217.07 91.15 1.95 c p3
/bg { 0.3804 0.6118 1 srgb } def
0.3804 0.6118 1 srgb
252.87 142.01 1.95 c p3
235.91 116.58 1.95 c p3
264.17 125.06 1.95 c p3
224.61 108.11 1.95 c p3
249.10 112.34 1.95 c p3
235.91 137.78 1.95 c p3
247.22 133.54 1.95 c p3
232.14 120.82 1.95 c p3
266.05 120.82 1.95 c p3
252.87 112.34 1.95 c p3
254.75 116.58 1.95 c p3
260.40 120.82 1.95 c p3
235.91 99.63 1.95 c p3
243.45 112.34 1.95 c p3
230.26 112.34 1.95 c p3
235.91 116.58 1.95 c p3
237.80 133.54 1.95 c p3
237.80 120.82 1.95 c p3
241.56 133.54 1.95 c p3
0.4980 0.4980 0.4980 srgb
1.07 setlinewidth
[] 0 setdash
159.24 35.20 111.90 111.90 r p1
0.00 0.00 816.00 409.50 cl
0.00 0.00 816.00 409.50 cl
0.00 0.00 816.00 409.50 cl
0.00 0.00 816.00 409.50 cl
0.00 0.00 816.00 409.50 cl
0.00 0.00 816.00 409.50 cl
0.00 0.00 816.00 409.50 cl
0.00 0.00 816.00 409.50 cl
0 0 0 srgb
1.07 setlinewidth
[] 0 setdash
0 setlinecap
1 setlinejoin
10.00 setmiterlimit
np
275.35 30.20 m
0 2.99 l
o
np
296.54 30.20 m
0 2.99 l
o
np
317.73 30.20 m
0 2.99 l
o
np
338.93 30.20 m
0 2.99 l
o
np
360.12 30.20 m
0 2.99 l
o
np
381.31 30.20 m
0 2.99 l
o
0.00 0.00 816.00 409.50 cl
0.00 0.00 816.00 409.50 cl
/Font1 findfont 10 s
0 0 0 srgb
275.35 20.63 (0.0) .5 0 t
296.54 20.63 (0.5) .5 0 t
317.73 20.63 (1.0) .5 0 t
338.93 20.63 (1.5) .5 0 t
360.12 20.63 (2.0) .5 0 t
381.31 20.63 (2.5) .5 0 t
0.00 0.00 816.00 409.50 cl
0.00 0.00 816.00 409.50 cl
0.00 0.00 816.00 409.50 cl
0.00 0.00 816.00 409.50 cl
0.00 0.00 816.00 409.50 cl
274.50 35.20 386.40 147.10 cl
/bg { 1 1 1 srgb } def
274.50 35.20 111.90 111.90 r p2
0.9725 0.4627 0.4275 srgb
1.07 setlinewidth
[] 0 setdash
0 setlinecap
1 setlinejoin
1.00 setmiterlimit
np
279.58 77.72 m
0.20 1.27 l
0.20 1.20 l
0.20 1.22 l
0.20 1.37 l
0.20 1.59 l
0.20 1.91 l
0.20 2.33 l
0.20 2.79 l
0.20 3.31 l
0.19 3.83 l
0.20 4.39 l
0.20 4.79 l
0.20 5.07 l
0.20 5.19 l
0.20 5.14 l
0.20 4.89 l
0.20 4.46 l
0.20 3.83 l
0.20 2.97 l
0.20 1.91 l
0.19 0.83 l
0.20 -0.26 l
0.20 -1.34 l
0.20 -2.36 l
0.20 -3.28 l
0.20 -4.05 l
0.20 -4.64 l
0.20 -5.06 l
0.20 -5.20 l
0.20 -5.15 l
0.20 -4.94 l
0.19 -4.59 l
0.20 -4.15 l
0.20 -3.65 l
0.20 -3.10 l
0.20 -2.55 l
0.20 -2.03 l
0.20 -1.64 l
0.20 -1.33 l
0.20 -1.10 l
0.20 -0.95 l
0.20 -0.89 l
0.19 -0.87 l
0.20 -0.90 l
0.20 -0.96 l
0.20 -1.00 l
0.20 -1.02 l
0.20 -1.00 l
0.20 -0.93 l
0.20 -0.81 l
0.20 -0.66 l
0.20 -0.46 l
0.19 -0.22 l
0.20 0.04 l
0.20 0.25 l
0.20 0.44 l
0.20 0.58 l
0.20 0.66 l
0.20 0.68 l
0.20 0.63 l
0.20 0.49 l
0.20 0.25 l
0.20 -0.02 l
0.19 -0.33 l
0.20 -0.65 l
0.20 -1.00 l
0.20 -1.33 l
0.20 -1.62 l
0.20 -1.89 l
0.20 -2.11 l
0.20 -2.25 l
0.20 -2.33 l
0.20 -2.34 l
0.20 -2.29 l
0.19 -2.21 l
0.20 -2.07 l
0.20 -1.91 l
0.20 -1.72 l
0.20 -1.49 l
0.20 -1.28 l
0.20 -1.07 l
0.20 -0.88 l
0.20 -0.69 l
0.20 -0.51 l
0.20 -0.33 l
0.19 -0.18 l
0.20 -0.01 l
0.20 0.13 l
0.20 0.27 l
0.20 0.41 l
0.20 0.54 l
0.20 0.65 l
0.20 0.78 l
0.20 0.89 l
0.20 0.98 l
0.20 1.07 l
0.19 1.13 l
0.20 1.15 l
0.20 1.15 l
299.49 52.69 lineto
0.20 1.04 l
0.20 0.94 l
0.20 0.80 l
0.20 0.62 l
0.20 0.41 l
0.20 0.21 l
0.20 -0.02 l
0.19 -0.23 l
0.20 -0.43 l
0.20 -0.63 l
0.20 -0.80 l
0.20 -0.95 l
0.20 -1.06 l
0.20 -1.12 l
0.20 -1.15 l
0.20 -1.16 l
0.20 -1.13 l
0.19 -1.07 l
0.20 -1.01 l
0.20 -0.93 l
0.20 -0.82 l
0.20 -0.71 l
0.20 -0.63 l
0.20 -0.53 l
0.20 -0.44 l
0.20 -0.37 l
0.20 -0.29 l
0.20 -0.24 l
0.19 -0.18 l
0.20 -0.14 l
0.20 -0.11 l
0.20 -0.08 l
0.20 -0.05 l
0.20 -0.05 l
0.20 -0.03 l
0.20 -0.02 l
0.20 -0.01 l
0.20 -0.01 l
0.20 -0.01 l
0.19 -0.01 l
0.20 0 l
0.20 0 l
0.20 0 l
0.20 0 l
0.20 0 l
0.20 0 l
0.20 0 l
0.20 0 l
0.20 0 l
0.20 0 l
0.19 0 l
0.20 0 l
0.20 0 l
0.20 0 l
0.20 0 l
0.20 0 l
0.20 0 l
0.20 0 l
0.20 0 l
0.20 0 l
0.20 0 l
0.19 0 l
0.20 0 l
0.20 0 l
0.20 0 l
0.20 0 l
0.20 0 l
0.20 0 l
0.20 0 l
0.20 0 l
0.20 0 l
0.20 0 l
0.19 0 l
0.20 0 l
0.20 0 l
0.20 0 l
0.20 0 l
0.20 0 l
0.20 0 l
0.20 0 l
0.20 0 l
0.20 0 l
0.19 0 l
0.20 0 l
0.20 0 l
0.20 0 l
0.20 0 l
0.20 0 l
0.20 0 l
0.20 0 l
0.20 0 l
0.20 0 l
0.20 0 l
0.19 0 l
0.20 0 l
0.20 0 l
0.20 0 l
0.20 0 l
0.20 0 l
319.40 40.29 lineto
0.20 0 l
0.20 0 l
0.20 0 l
0.20 0 l
0.19 0 l
0.20 0 l
0.20 0 l
0.20 0 l
0.20 0 l
0.20 0 l
0.20 0 l
0.20 0 l
0.20 0 l
0.20 0 l
0.20 0 l
0.19 0 l
0.20 0 l
0.20 0 l
0.20 0 l
0.20 0 l
0.20 0 l
0.20 0 l
0.20 0 l
0.20 0 l
0.20 0 l
0.20 0 l
0.19 0 l
0.20 0 l
0.20 0 l
0.20 0 l
0.20 0 l
0.20 0 l
0.20 0 l
0.20 0 l
0.20 0 l
0.20 0 l
0.20 0 l
0.19 0 l
0.20 0 l
0.20 0 l
0.20 0 l
0.20 0 l
0.20 0 l
0.20 0 l
0.20 0 l
0.20 0 l
0.20 0 l
0.19 0 l
0.20 0 l
0.20 0 l
0.20 0 l
0.20 0 l
0.20 0 l
0.20 0 l
0.20 0 l
0.20 0 l
0.20 0 l
0.20 0 l
0.19 0 l
0.20 0 l
0.20 0 l
0.20 0 l
0.20 0 l
0.20 0 l
0.20 0 l
0.20 0 l
0.20 0 l
0.20 0 l
0.20 0 l
0.19 0 l
0.20 0 l
0.20 0 l
0.20 0 l
0.20 0 l
0.20 0 l
0.20 0 l
0.20 0 l
0.20 0 l
0.20 0 l
0.20 0 l
0.19 0 l
0.20 0 l
0.20 0 l
0.20 0 l
0.20 0 l
0.20 0 l
0.20 0 l
0.20 0 l
0.20 0 l
0.20 0 l
0.20 0 l
0.19 0 l
0.20 0 l
0.20 0 l
0.20 0 l
0.20 0 l
0.20 0 l
0.20 0 l
0.20 0 l
339.31 40.29 lineto
0.20 0 l
0.20 0 l
0.19 0 l
0.20 0 l
0.20 0 l
0.20 0 l
0.20 0 l
0.20 0 l
0.20 0 l
0.20 0 l
0.20 0 l
0.20 0 l
0.20 0 l
0.19 0 l
0.20 0 l
0.20 0 l
0.20 0 l
0.20 0 l
0.20 0 l
0.20 0 l
0.20 0 l
0.20 0 l
0.20 0 l
0.19 0 l
0.20 0 l
0.20 0 l
0.20 0 l
0.20 0 l
0.20 0 l
0.20 0 l
0.20 0 l
0.20 0 l
0.20 0 l
0.20 0 l
0.19 0 l
0.20 0 l
0.20 0 l
0.20 0 l
0.20 0 l
0.20 0 l
0.20 0 l
0.20 0 l
0.20 0 l
0.20 0 l
0.20 0 l
0.19 0 l
0.20 0 l
0.20 0 l
0.20 0 l
0.20 0 l
0.20 0 l
0.20 0 l
0.20 0 l
0.20 0 l
0.20 0 l
0.20 0 l
0.19 0 l
0.20 0 l
0.20 0 l
0.20 0 l
0.20 0 l
0.20 0 l
0.20 0 l
0.20 0 l
0.20 0 l
0.20 0 l
0.20 0 l
0.19 0 l
0.20 0 l
0.20 0 l
0.20 0 l
0.20 0 l
0.20 0 l
0.20 0 l
0.20 0 l
0.20 0 l
0.20 0 l
0.20 0 l
0.19 0 l
0.20 0 l
0.20 0 l
0.20 0 l
0.20 0 l
0.20 0 l
0.20 0 l
0.20 0 l
0.20 0 l
0.20 0 l
0.19 0 l
0.20 0 l
0.20 0 l
0.20 0 l
0.20 0 l
0.20 0 l
0.20 0 l
0.20 0 l
0.20 0 l
0.20 0 l
0.20 0 l
359.21 40.29 lineto
0.20 0 l
0.20 0 l
0.20 0 l
0.20 0 l
0.20 0 l
0.20 0 l
0.20 0 l
0.20 0 l
0.20 0 l
0.20 0 l
0.19 0 l
0.20 0 l
0.20 0 l
0.20 0 l
0.20 0 l
0.20 0 l
0.20 0 l
0.20 0 l
0.20 0 l
0.20 0 l
0.20 0 l
0.19 0 l
0.20 0 l
0.20 0 l
0.20 0 l
0.20 0 l
0.20 0 l
0.20 0 l
0.20 0 l
0.20 0 l
0.20 0 l
0.20 0 l
0.19 0 l
0.20 0 l
0.20 0 l
0.20 0 l
0.20 0 l
0.20 0 l
0.20 0 l
0.20 0 l
0.20 0 l
0.20 0 l
0.20 0 l
0.19 0 l
0.20 0 l
0.20 0 l
0.20 0 l
0.20 0 l
0.20 0 l
0.20 0 l
0.20 0 l
0.20 0 l
0.20 0 l
0.19 0 l
0.20 0 l
0.20 0 l
0.20 0 l
0.20 0 l
0.20 0 l
0.20 0 l
0.20 0 l
0.20 0 l
0.20 0 l
0.20 0 l
0.19 0 l
0.20 0 l
0.20 0 l
0.20 0 l
0.20 0 l
0.20 0 l
0.20 0 l
0.20 0 l
0.20 0 l
0.20 0 l
0.20 0 l
0.19 0 l
0.20 0 l
0.20 0 l
0.20 0 l
0.20 0 l
0.20 0 l
0.20 0 l
0.20 0 l
0.20 0 l
0.20 0 l
0.20 0 l
0.19 0 l
0.20 0 l
0.20 0 l
0.20 0 l
0.20 0 l
0.20 0 l
0.20 0 l
0.20 0 l
0.20 0 l
0.20 0 l
0.20 0 l
0.19 0 l
0.20 0 l
379.12 40.29 lineto
0.20 0 l
0.20 0 l
0.20 0 l
0.20 0 l
0.20 0 l
0.20 0 l
0.20 0 l
0.20 0 l
0.19 0 l
0.20 0 l
0.20 0 l
o
0 0.7294 0.2196 srgb
np
279.58 40.29 m
0.20 0 l
0.20 0 l
0.20 0 l
0.20 0 l
0.20 0 l
0.20 0 l
0.20 0 l
0.20 0 l
0.20 0 l
0.19 0 l
0.20 0 l
0.20 0 l
0.20 0 l
0.20 0 l
0.20 0 l
0.20 0 l
0.20 0 l
0.20 0 l
0.20 0 l
0.20 0 l
0.19 0 l
0.20 0 l
0.20 0 l
0.20 0 l
0.20 0 l
0.20 0 l
0.20 0 l
0.20 0 l
0.20 0 l
0.20 0 l
0.20 0 l
0.19 0 l
0.20 0 l
0.20 0 l
0.20 0 l
0.20 0 l
0.20 0 l
0.20 0 l
0.20 0 l
0.20 0 l
0.20 0 l
0.20 0 l
0.19 0 l
0.20 0 l
0.20 0 l
0.20 0 l
0.20 0 l
0.20 0 l
0.20 0 l
0.20 0 l
0.20 0 l
0.20 0 l
0.19 0 l
0.20 0 l
0.20 0 l
0.20 0 l
0.20 0 l
0.20 0 l
0.20 0 l
0.20 0 l
0.20 0 l
0.20 0 l
0.20 0 l
0.19 0 l
0.20 0 l
0.20 0 l
0.20 0 l
0.20 0 l
0.20 0 l
0.20 0 l
0.20 0 l
0.20 0 l
0.20 0 l
0.20 0 l
0.19 0 l
0.20 0 l
0.20 0 l
0.20 0 l
0.20 0 l
0.20 0 l
0.20 0 l
0.20 0 l
0.20 0 l
0.20 0 l
0.20 0 l
0.19 0 l
0.20 0 l
0.20 0 l
0.20 0 l
0.20 0 l
0.20 0 l
0.20 0 l
0.20 0 l
0.20 0 l
0.20 0 l
0.20 0 l
0.19 0 l
0.20 0 l
0.20 0 l
299.49 40.29 lineto
0.20 0 l
0.20 0 l
0.20 0 l
0.20 0 l
0.20 0 l
0.20 0 l
0.20 0 l
0.19 0 l
0.20 0.01 l
0.20 0 l
0.20 0 l
0.20 0.01 l
0.20 0 l
0.20 0 l
0.20 0.01 l
0.20 0.01 l
0.20 0.01 l
0.19 0.01 l
0.20 0.01 l
0.20 0.01 l
0.20 0.02 l
0.20 0.02 l
0.20 0.02 l
0.20 0.03 l
0.20 0.03 l
0.20 0.03 l
0.20 0.04 l
0.20 0.05 l
0.19 0.06 l
0.20 0.06 l
0.20 0.07 l
0.20 0.09 l
0.20 0.09 l
0.20 0.11 l
0.20 0.12 l
0.20 0.14 l
0.20 0.16 l
0.20 0.17 l
0.20 0.20 l
0.19 0.22 l
0.20 0.24 l
0.20 0.27 l
0.20 0.30 l
0.20 0.34 l
0.20 0.37 l
0.20 0.40 l
0.20 0.43 l
0.20 0.49 l
0.20 0.53 l
0.20 0.57 l
0.19 0.61 l
0.20 0.67 l
0.20 0.72 l
0.20 0.77 l
0.20 0.81 l
0.20 0.88 l
0.20 0.93 l
0.20 0.99 l
0.20 1.03 l
0.20 1.10 l
0.20 1.15 l
0.19 1.19 l
0.20 1.24 l
0.20 1.29 l
0.20 1.34 l
0.20 1.38 l
0.20 1.40 l
0.20 1.44 l
0.20 1.47 l
0.20 1.48 l
0.20 1.49 l
0.20 1.51 l
0.19 1.50 l
0.20 1.49 l
0.20 1.48 l
0.20 1.45 l
0.20 1.42 l
0.20 1.38 l
0.20 1.34 l
0.20 1.29 l
0.20 1.21 l
0.20 1.14 l
0.19 1.08 l
0.20 1.00 l
0.20 0.90 l
0.20 0.80 l
0.20 0.72 l
0.20 0.62 l
0.20 0.52 l
0.20 0.39 l
0.20 0.31 l
0.20 0.21 l
0.20 0.10 l
0.19 -0.01 l
0.20 -0.10 l
0.20 -0.19 l
0.20 -0.27 l
0.20 -0.37 l
0.20 -0.44 l
319.40 89.40 lineto
0.20 -0.56 l
0.20 -0.62 l
0.20 -0.66 l
0.20 -0.69 l
0.19 -0.71 l
0.20 -0.73 l
0.20 -0.73 l
0.20 -0.72 l
0.20 -0.70 l
0.20 -0.68 l
0.20 -0.63 l
0.20 -0.59 l
0.20 -0.54 l
0.20 -0.48 l
0.20 -0.39 l
0.19 -0.32 l
0.20 -0.24 l
0.20 -0.16 l
0.20 -0.04 l
0.20 0.06 l
0.20 0.14 l
0.20 0.25 l
0.20 0.38 l
0.20 0.48 l
0.20 0.58 l
0.20 0.68 l
0.19 0.81 l
0.20 0.92 l
0.20 1.01 l
0.20 1.09 l
0.20 1.21 l
0.20 1.31 l
0.20 1.38 l
0.20 1.46 l
0.20 1.53 l
0.20 1.62 l
0.20 1.67 l
0.19 1.72 l
0.20 1.76 l
0.20 1.82 l
0.20 1.84 l
0.20 1.87 l
0.20 1.89 l
0.20 1.90 l
0.20 1.90 l
0.20 1.89 l
0.20 1.89 l
0.19 1.86 l
0.20 1.83 l
0.20 1.81 l
0.20 1.77 l
0.20 1.72 l
0.20 1.66 l
0.20 1.61 l
0.20 1.56 l
0.20 1.49 l
0.20 1.40 l
0.20 1.34 l
0.19 1.27 l
0.20 1.19 l
0.20 1.08 l
0.20 1.01 l
0.20 0.93 l
0.20 0.84 l
0.20 0.73 l
0.20 0.65 l
0.20 0.57 l
0.20 0.48 l
0.20 0.36 l
0.19 0.27 l
0.20 0.20 l
0.20 0.11 l
0.20 0 l
0.20 -0.08 l
0.20 -0.16 l
0.20 -0.24 l
0.20 -0.34 l
0.20 -0.42 l
0.20 -0.50 l
0.20 -0.57 l
0.19 -0.64 l
0.20 -0.73 l
0.20 -0.80 l
0.20 -0.85 l
0.20 -0.93 l
0.20 -1.00 l
0.20 -1.05 l
0.20 -1.11 l
0.20 -1.15 l
0.20 -1.23 l
0.20 -1.27 l
0.19 -1.31 l
0.20 -1.35 l
0.20 -1.40 l
0.20 -1.43 l
0.20 -1.46 l
0.20 -1.49 l
0.20 -1.52 l
0.20 -1.55 l
339.31 115.87 lineto
0.20 -1.58 l
0.20 -1.59 l
0.19 -1.60 l
0.20 -1.61 l
0.20 -1.61 l
0.20 -1.61 l
0.20 -1.60 l
0.20 -1.60 l
0.20 -1.59 l
0.20 -1.58 l
0.20 -1.55 l
0.20 -1.54 l
0.20 -1.53 l
0.19 -1.50 l
0.20 -1.48 l
0.20 -1.44 l
0.20 -1.43 l
0.20 -1.40 l
0.20 -1.36 l
0.20 -1.34 l
0.20 -1.30 l
0.20 -1.28 l
0.20 -1.24 l
0.19 -1.21 l
0.20 -1.18 l
0.20 -1.16 l
0.20 -1.12 l
0.20 -1.10 l
0.20 -1.06 l
0.20 -1.05 l
0.20 -1.02 l
0.20 -0.99 l
0.20 -0.97 l
0.20 -0.95 l
0.19 -0.93 l
0.20 -0.91 l
0.20 -0.89 l
0.20 -0.88 l
0.20 -0.87 l
0.20 -0.84 l
0.20 -0.84 l
0.20 -0.82 l
0.20 -0.81 l
0.20 -0.80 l
0.20 -0.79 l
0.19 -0.77 l
0.20 -0.77 l
0.20 -0.76 l
0.20 -0.74 l
0.20 -0.73 l
0.20 -0.73 l
0.20 -0.71 l
0.20 -0.69 l
0.20 -0.68 l
0.20 -0.68 l
0.20 -0.65 l
0.19 -0.64 l
0.20 -0.62 l
0.20 -0.61 l
0.20 -0.60 l
0.20 -0.57 l
0.20 -0.55 l
0.20 -0.54 l
0.20 -0.51 l
0.20 -0.50 l
0.20 -0.47 l
0.20 -0.46 l
0.19 -0.44 l
0.20 -0.41 l
0.20 -0.39 l
0.20 -0.37 l
0.20 -0.36 l
0.20 -0.33 l
0.20 -0.31 l
0.20 -0.30 l
0.20 -0.27 l
0.20 -0.26 l
0.20 -0.24 l
0.19 -0.22 l
0.20 -0.21 l
0.20 -0.19 l
0.20 -0.17 l
0.20 -0.16 l
0.20 -0.15 l
0.20 -0.13 l
0.20 -0.13 l
0.20 -0.11 l
0.20 -0.10 l
0.19 -0.09 l
0.20 -0.08 l
0.20 -0.08 l
0.20 -0.06 l
0.20 -0.06 l
0.20 -0.06 l
0.20 -0.05 l
0.20 -0.04 l
0.20 -0.04 l
0.20 -0.03 l
0.20 -0.03 l
359.21 40.45 lineto
0.20 -0.02 l
0.20 -0.02 l
0.20 -0.02 l
0.20 -0.02 l
0.20 -0.01 l
0.20 -0.01 l
0.20 -0.01 l
0.20 -0.01 l
0.20 -0.01 l
0.20 0 l
0.19 -0.01 l
0.20 0 l
0.20 0 l
0.20 -0.01 l
0.20 0 l
0.20 0 l
0.20 0 l
0.20 -0.01 l
0.20 0 l
0.20 0 l
0.20 0 l
0.19 0 l
0.20 0 l
0.20 0 l
0.20 0 l
0.20 0 l
0.20 0 l
0.20 0 l
0.20 0 l
0.20 0 l
0.20 0 l
0.20 0 l
0.19 0 l
0.20 0 l
0.20 0 l
0.20 0 l
0.20 0 l
0.20 0 l
0.20 0 l
0.20 0 l
0.20 0 l
0.20 0 l
0.20 0 l
0.19 0 l
0.20 0 l
0.20 0 l
0.20 0 l
0.20 0 l
0.20 0 l
0.20 0 l
0.20 0 l
0.20 0 l
0.20 0 l
0.19 0 l
0.20 0 l
0.20 0 l
0.20 0 l
0.20 0 l
0.20 0 l
0.20 0 l
0.20 0 l
0.20 0 l
0.20 0 l
0.20 0 l
0.19 0 l
0.20 0 l
0.20 0 l
0.20 0 l
0.20 0 l
0.20 0 l
0.20 0 l
0.20 0 l
0.20 0 l
0.20 0 l
0.20 0 l
0.19 0 l
0.20 0 l
0.20 0 l
0.20 0 l
0.20 0 l
0.20 0 l
0.20 0 l
0.20 0 l
0.20 0 l
0.20 0 l
0.20 0 l
0.19 0 l
0.20 0 l
0.20 0 l
0.20 0 l
0.20 0 l
0.20 0 l
0.20 0 l
0.20 0 l
0.20 0 l
0.20 0 l
0.20 0 l
0.19 0 l
0.20 0 l
379.12 40.29 lineto
0.20 0 l
0.20 0 l
0.20 0 l
0.20 0 l
0.20 0 l
0.20 0 l
0.20 0 l
0.20 0 l
0.19 0 l
0.20 0 l
0.20 0 l
o
0.3804 0.6118 1 srgb
np
279.58 40.29 m
0.20 0 l
0.20 0 l
0.20 0 l
0.20 0 l
0.20 0 l
0.20 0 l
0.20 0 l
0.20 0 l
0.20 0 l
0.19 0 l
0.20 0 l
0.20 0 l
0.20 0 l
0.20 0 l
0.20 0 l
0.20 0 l
0.20 0 l
0.20 0 l
0.20 0 l
0.20 0 l
0.19 0 l
0.20 0 l
0.20 0 l
0.20 0 l
0.20 0 l
0.20 0 l
0.20 0 l
0.20 0 l
0.20 0 l
0.20 0 l
0.20 0 l
0.19 0 l
0.20 0 l
0.20 0 l
0.20 0 l
0.20 0 l
0.20 0 l
0.20 0 l
0.20 0 l
0.20 0 l
0.20 0 l
0.20 0 l
0.19 0 l
0.20 0 l
0.20 0 l
0.20 0 l
0.20 0 l
0.20 0 l
0.20 0 l
0.20 0 l
0.20 0 l
0.20 0 l
0.19 0 l
0.20 0 l
0.20 0 l
0.20 0 l
0.20 0 l
0.20 0 l
0.20 0 l
0.20 0 l
0.20 0 l
0.20 0 l
0.20 0 l
0.19 0 l
0.20 0 l
0.20 0 l
0.20 0 l
0.20 0 l
0.20 0 l
0.20 0 l
0.20 0 l
0.20 0 l
0.20 0 l
0.20 0 l
0.19 0 l
0.20 0 l
0.20 0 l
0.20 0 l
0.20 0 l
0.20 0 l
0.20 0 l
0.20 0 l
0.20 0 l
0.20 0 l
0.20 0 l
0.19 0 l
0.20 0 l
0.20 0 l
0.20 0 l
0.20 0 l
0.20 0 l
0.20 0 l
0.20 0 l
0.20 0 l
0.20 0 l
0.20 0 l
0.19 0 l
0.20 0 l
0.20 0 l
299.49 40.29 lineto
0.20 0 l
0.20 0 l
0.20 0 l
0.20 0 l
0.20 0 l
0.20 0 l
0.20 0 l
0.19 0 l
0.20 0 l
0.20 0 l
0.20 0 l
0.20 0 l
0.20 0 l
0.20 0 l
0.20 0 l
0.20 0 l
0.20 0 l
0.19 0 l
0.20 0 l
0.20 0 l
0.20 0 l
0.20 0 l
0.20 0 l
0.20 0 l
0.20 0 l
0.20 0 l
0.20 0 l
0.20 0 l
0.19 0 l
0.20 0 l
0.20 0 l
0.20 0 l
0.20 0 l
0.20 0 l
0.20 0 l
0.20 0 l
0.20 0 l
0.20 0 l
0.20 0 l
0.19 0 l
0.20 0 l
0.20 0 l
0.20 0 l
0.20 0 l
0.20 0 l
0.20 0 l
0.20 0 l
0.20 0 l
0.20 0 l
0.20 0 l
0.19 0 l
0.20 0 l
0.20 0 l
0.20 0 l
0.20 0 l
0.20 0 l
0.20 0 l
0.20 0 l
0.20 0 l
0.20 0 l
0.20 0 l
0.19 0 l
0.20 0 l
0.20 0 l
0.20 0 l
0.20 0 l
0.20 0 l
0.20 0 l
0.20 0 l
0.20 0 l
0.20 0 l
0.20 0 l
0.19 0 l
0.20 0 l
0.20 0 l
0.20 0 l
0.20 0 l
0.20 0 l
0.20 0 l
0.20 0 l
0.20 0 l
0.20 0 l
0.19 0 l
0.20 0 l
0.20 0 l
0.20 0 l
0.20 0 l
0.20 0 l
0.20 0 l
0.20 0 l
0.20 0 l
0.20 0 l
0.20 0 l
0.19 0.01 l
0.20 0 l
0.20 0 l
0.20 0 l
0.20 0 l
0.20 0 l
319.40 40.31 lineto
0.20 0 l
0.20 0 l
0.20 0.01 l
0.20 0 l
0.19 0 l
0.20 0.01 l
0.20 0 l
0.20 0.01 l
0.20 0.01 l
0.20 0 l
0.20 0.01 l
0.20 0.01 l
0.20 0.01 l
0.20 0.01 l
0.20 0.02 l
0.19 0.01 l
0.20 0.01 l
0.20 0.02 l
0.20 0.02 l
0.20 0.02 l
0.20 0.02 l
0.20 0.02 l
0.20 0.03 l
0.20 0.03 l
0.20 0.03 l
0.20 0.03 l
0.19 0.03 l
0.20 0.04 l
0.20 0.04 l
0.20 0.05 l
0.20 0.05 l
0.20 0.05 l
0.20 0.06 l
0.20 0.06 l
0.20 0.06 l
0.20 0.07 l
0.20 0.07 l
0.19 0.08 l
0.20 0.08 l
0.20 0.09 l
0.20 0.10 l
0.20 0.10 l
0.20 0.10 l
0.20 0.12 l
0.20 0.11 l
0.20 0.13 l
0.20 0.13 l
0.19 0.14 l
0.20 0.14 l
0.20 0.15 l
0.20 0.16 l
0.20 0.17 l
0.20 0.17 l
0.20 0.18 l
0.20 0.19 l
0.20 0.19 l
0.20 0.20 l
0.20 0.21 l
0.19 0.22 l
0.20 0.22 l
0.20 0.23 l
0.20 0.24 l
0.20 0.25 l
0.20 0.25 l
0.20 0.25 l
0.20 0.27 l
0.20 0.27 l
0.20 0.28 l
0.20 0.28 l
0.19 0.29 l
0.20 0.29 l
0.20 0.30 l
0.20 0.31 l
0.20 0.31 l
0.20 0.31 l
0.20 0.32 l
0.20 0.32 l
0.20 0.33 l
0.20 0.33 l
0.20 0.34 l
0.19 0.34 l
0.20 0.35 l
0.20 0.35 l
0.20 0.35 l
0.20 0.36 l
0.20 0.37 l
0.20 0.37 l
0.20 0.37 l
0.20 0.38 l
0.20 0.39 l
0.20 0.39 l
0.19 0.40 l
0.20 0.41 l
0.20 0.41 l
0.20 0.42 l
0.20 0.44 l
0.20 0.45 l
0.20 0.45 l
0.20 0.47 l
339.31 58.33 lineto
0.20 0.50 l
0.20 0.51 l
0.19 0.53 l
0.20 0.54 l
0.20 0.56 l
0.20 0.58 l
0.20 0.61 l
0.20 0.62 l
0.20 0.64 l
0.20 0.68 l
0.20 0.69 l
0.20 0.72 l
0.20 0.75 l
0.19 0.77 l
0.20 0.80 l
0.20 0.84 l
0.20 0.86 l
0.20 0.89 l
0.20 0.92 l
0.20 0.96 l
0.20 0.98 l
0.20 1.02 l
0.20 1.05 l
0.19 1.08 l
0.20 1.11 l
0.20 1.15 l
0.20 1.17 l
0.20 1.20 l
0.20 1.24 l
0.20 1.27 l
0.20 1.29 l
0.20 1.31 l
0.20 1.35 l
0.20 1.37 l
0.19 1.39 l
0.20 1.41 l
0.20 1.43 l
0.20 1.45 l
0.20 1.47 l
0.20 1.48 l
0.20 1.49 l
0.20 1.50 l
0.20 1.51 l
0.20 1.51 l
0.20 1.51 l
0.19 1.52 l
0.20 1.51 l
0.20 1.51 l
0.20 1.49 l
0.20 1.49 l
0.20 1.48 l
0.20 1.46 l
0.20 1.44 l
0.20 1.43 l
0.20 1.40 l
0.20 1.38 l
0.19 1.35 l
0.20 1.32 l
0.20 1.28 l
0.20 1.26 l
0.20 1.22 l
0.20 1.17 l
0.20 1.14 l
0.20 1.10 l
0.20 1.05 l
0.20 1.00 l
0.20 0.97 l
0.19 0.92 l
0.20 0.85 l
0.20 0.80 l
0.20 0.77 l
0.20 0.70 l
0.20 0.64 l
0.20 0.60 l
0.20 0.53 l
0.20 0.48 l
0.20 0.42 l
0.20 0.37 l
0.19 0.29 l
0.20 0.25 l
0.20 0.19 l
0.20 0.12 l
0.20 0.06 l
0.20 0.01 l
0.20 -0.05 l
0.20 -0.12 l
0.20 -0.16 l
0.20 -0.22 l
0.19 -0.29 l
0.20 -0.34 l
0.20 -0.39 l
0.20 -0.46 l
0.20 -0.50 l
0.20 -0.55 l
0.20 -0.61 l
0.20 -0.66 l
0.20 -0.70 l
0.20 -0.75 l
0.20 -0.81 l
359.21 134.57 lineto
0.20 -0.87 l
0.20 -0.93 l
0.20 -0.96 l
0.20 -0.98 l
0.20 -1.03 l
0.20 -1.05 l
0.20 -1.08 l
0.20 -1.10 l
0.20 -1.13 l
0.20 -1.15 l
0.19 -1.15 l
0.20 -1.18 l
0.20 -1.19 l
0.20 -1.19 l
0.20 -1.20 l
0.20 -1.20 l
0.20 -1.20 l
0.20 -1.20 l
0.20 -1.19 l
0.20 -1.18 l
0.20 -1.17 l
0.19 -1.15 l
0.20 -1.14 l
0.20 -1.12 l
0.20 -1.09 l
0.20 -1.06 l
0.20 -1.05 l
0.20 -1.01 l
0.20 -0.97 l
0.20 -0.95 l
0.20 -0.92 l
0.20 -0.87 l
0.19 -0.84 l
0.20 -0.81 l
0.20 -0.75 l
0.20 -0.72 l
0.20 -0.69 l
0.20 -0.63 l
0.20 -0.60 l
0.20 -0.56 l
0.20 -0.52 l
0.20 -0.47 l
0.20 -0.44 l
0.19 -0.41 l
0.20 -0.35 l
0.20 -0.33 l
0.20 -0.29 l
0.20 -0.26 l
0.20 -0.22 l
0.20 -0.20 l
0.20 -0.17 l
0.20 -0.14 l
0.20 -0.13 l
0.19 -0.10 l
0.20 -0.08 l
0.20 -0.06 l
0.20 -0.05 l
0.20 -0.04 l
0.20 -0.03 l
0.20 -0.03 l
0.20 -0.01 l
0.20 -0.02 l
0.20 -0.02 l
0.20 -0.02 l
0.19 -0.02 l
0.20 -0.04 l
0.20 -0.04 l
0.20 -0.05 l
0.20 -0.07 l
0.20 -0.08 l
0.20 -0.09 l
0.20 -0.12 l
0.20 -0.13 l
0.20 -0.15 l
0.20 -0.18 l
0.19 -0.20 l
0.20 -0.22 l
0.20 -0.25 l
0.20 -0.27 l
0.20 -0.29 l
0.20 -0.32 l
0.20 -0.35 l
0.20 -0.37 l
0.20 -0.39 l
0.20 -0.43 l
0.20 -0.44 l
0.19 -0.47 l
0.20 -0.50 l
0.20 -0.51 l
0.20 -0.54 l
0.20 -0.56 l
0.20 -0.59 l
0.20 -0.60 l
0.20 -0.62 l
0.20 -0.64 l
0.20 -0.65 l
0.20 -0.67 l
0.19 -0.69 l
0.20 -0.70 l
379.12 76.97 lineto
0.20 -0.72 l
0.20 -0.74 l
0.20 -0.74 l
0.20 -0.75 l
0.20 -0.76 l
0.20 -0.76 l
0.20 -0.77 l
0.20 -0.77 l
0.19 -0.77 l
0.20 -0.77 l
0.20 -0.78 l
o
0.4980 0.4980 0.4980 srgb
1 setlinecap
10.00 setmiterlimit
274.50 35.20 111.90 111.90 r p1
0.00 0.00 816.00 409.50 cl
0.00 0.00 816.00 409.50 cl
0.00 0.00 816.00 409.50 cl
0.00 0.00 816.00 409.50 cl
0.00 0.00 816.00 409.50 cl
0.00 0.00 816.00 409.50 cl
0.00 0.00 816.00 409.50 cl
0.00 0.00 816.00 409.50 cl
0.00 0.00 816.00 409.50 cl
0.00 0.00 816.00 409.50 cl
0.00 0.00 816.00 409.50 cl
0.00 0.00 816.00 409.50 cl
0.00 0.00 816.00 409.50 cl
408.00 6.45 816.00 403.05 cl
/bg { 1 1 1 srgb } def
1 1 1 srgb
1.07 setlinewidth
[] 0 setdash
1 setlinecap
1 setlinejoin
10.00 setmiterlimit
408.00 6.45 408.00 396.60 r p3
0.00 0.00 816.00 409.50 cl
0.00 0.00 816.00 409.50 cl
0.00 0.00 816.00 409.50 cl
457.32 44.37 810.02 397.07 cl
/bg { 0 0 0 srgb } def
0 0 0 srgb
0.71 setlinewidth
[] 0 setdash
1 setlinecap
1 setlinejoin
10.00 setmiterlimit
473.35 94.99 1.95 c p3
479.89 60.41 1.95 c p3
486.43 76.86 1.95 c p3
492.98 68.16 1.95 c p3
499.52 92.41 1.95 c p3
506.07 60.40 1.95 c p3
512.61 134.56 1.95 c p3
519.15 88.72 1.95 c p3
525.70 92.38 1.95 c p3
532.24 97.52 1.95 c p3
538.78 84.16 1.95 c p3
545.33 75.11 1.95 c p3
551.87 76.24 1.95 c p3
558.42 225.55 1.95 c p3
564.96 226.27 1.95 c p3
571.50 208.45 1.95 c p3
578.05 231.78 1.95 c p3
584.59 209.26 1.95 c p3
591.13 232.53 1.95 c p3
597.68 208.00 1.95 c p3
604.22 195.93 1.95 c p3
610.76 178.82 1.95 c p3
617.31 200.91 1.95 c p3
623.85 234.93 1.95 c p3
630.40 203.41 1.95 c p3
636.94 215.61 1.95 c p3
643.48 231.55 1.95 c p3
650.03 175.14 1.95 c p3
656.57 215.69 1.95 c p3
663.11 195.06 1.95 c p3
669.66 193.24 1.95 c p3
676.20 330.51 1.95 c p3
682.75 362.28 1.95 c p3
689.29 336.39 1.95 c p3
695.83 341.29 1.95 c p3
702.38 346.44 1.95 c p3
708.92 282.31 1.95 c p3
715.46 349.62 1.95 c p3
722.01 340.47 1.95 c p3
728.55 324.01 1.95 c p3
735.09 320.39 1.95 c p3
741.64 331.93 1.95 c p3
748.18 381.04 1.95 c p3
754.73 314.17 1.95 c p3
761.27 352.50 1.95 c p3
767.81 354.34 1.95 c p3
774.36 354.62 1.95 c p3
780.90 352.07 1.95 c p3
787.44 317.91 1.95 c p3
793.99 322.82 1.95 c p3
/bg { 0.9725 0.4627 0.4275 srgb } def
0.9725 0.4627 0.4275 srgb
473.35 94.99 1.95 c p3
479.89 60.41 1.95 c p3
486.43 76.86 1.95 c p3
492.98 68.16 1.95 c p3
499.52 92.41 1.95 c p3
506.07 60.40 1.95 c p3
512.61 134.56 1.95 c p3
519.15 88.72 1.95 c p3
525.70 92.38 1.95 c p3
532.24 97.52 1.95 c p3
538.78 84.16 1.95 c p3
545.33 75.11 1.95 c p3
551.87 76.24 1.95 c p3
/bg { 0 0.7294 0.2196 srgb } def
0 0.7294 0.2196 srgb
558.42 225.55 1.95 c p3
564.96 226.27 1.95 c p3
571.50 208.45 1.95 c p3
578.05 231.78 1.95 c p3
584.59 209.26 1.95 c p3
591.13 232.53 1.95 c p3
597.68 208.00 1.95 c p3
604.22 195.93 1.95 c p3
610.76 178.82 1.95 c p3
617.31 200.91 1.95 c p3
623.85 234.93 1.95 c p3
630.40 203.41 1.95 c p3
636.94 215.61 1.95 c p3
643.48 231.55 1.95 c p3
650.03 175.14 1.95 c p3
656.57 215.69 1.95 c p3
663.11 195.06 1.95 c p3
669.66 193.24 1.95 c p3
/bg { 0.3804 0.6118 1 srgb } def
0.3804 0.6118 1 srgb
676.20 330.51 1.95 c p3
682.75 362.28 1.95 c p3
689.29 336.39 1.95 c p3
695.83 341.29 1.95 c p3
702.38 346.44 1.95 c p3
708.92 282.31 1.95 c p3
715.46 349.62 1.95 c p3
722.01 340.47 1.95 c p3
728.55 324.01 1.95 c p3
735.09 320.39 1.95 c p3
741.64 331.93 1.95 c p3
748.18 381.04 1.95 c p3
754.73 314.17 1.95 c p3
761.27 352.50 1.95 c p3
767.81 354.34 1.95 c p3
774.36 354.62 1.95 c p3
780.90 352.07 1.95 c p3
787.44 317.91 1.95 c p3
793.99 322.82 1.95 c p3
0.4980 0.4980 0.4980 srgb
1.07 setlinewidth
[] 0 setdash
457.32 44.37 352.70 352.70 r p1
0.00 0.00 816.00 409.50 cl
0.00 0.00 816.00 409.50 cl
0.00 0.00 816.00 409.50 cl
0 0 0 srgb
1.07 setlinewidth
[] 0 setdash
0 setlinecap
1 setlinejoin
10.00 setmiterlimit
np
457.32 44.37 m
0 352.70 l
o
0.00 0.00 816.00 409.50 cl
0.00 0.00 816.00 409.50 cl
0.00 0.00 816.00 409.50 cl
/Font1 findfont 12 s
0 0 0 srgb
451.94 79.43 (0) 1 0 t
451.94 181.69 (40) 1 0 t
451.94 283.95 (80) 1 0 t
451.94 386.21 (120) 1 0 t
0.00 0.00 816.00 409.50 cl
0.00 0.00 816.00 409.50 cl
0.00 0.00 816.00 409.50 cl
0 0 0 srgb
1.07 setlinewidth
[] 0 setdash
0 setlinecap
1 setlinejoin
10.00 setmiterlimit
np
454.33 83.74 m
2.99 0 l
o
np
454.33 186.00 m
2.99 0 l
o
np
454.33 288.26 m
2.99 0 l
o
np
454.33 390.52 m
2.99 0 l
o
0.00 0.00 816.00 409.50 cl
0.00 0.00 816.00 409.50 cl
0.00 0.00 816.00 409.50 cl
0.00 0.00 816.00 409.50 cl
0.00 0.00 816.00 409.50 cl
0.00 0.00 816.00 409.50 cl
0 0 0 srgb
1.07 setlinewidth
[] 0 setdash
0 setlinecap
1 setlinejoin
10.00 setmiterlimit
np
457.32 44.37 m
352.70 0 l
o
0.00 0.00 816.00 409.50 cl
0.00 0.00 816.00 409.50 cl
0.00 0.00 816.00 409.50 cl
0 0 0 srgb
1.07 setlinewidth
[] 0 setdash
0 setlinecap
1 setlinejoin
10.00 setmiterlimit
np
466.80 41.38 m
0 2.99 l
o
np
532.24 41.38 m
0 2.99 l
o
np
597.68 41.38 m
0 2.99 l
o
np
663.11 41.38 m
0 2.99 l
o
np
728.55 41.38 m
0 2.99 l
o
np
793.99 41.38 m
0 2.99 l
o
0.00 0.00 816.00 409.50 cl
0.00 0.00 816.00 409.50 cl
/Font1 findfont 12 s
0 0 0 srgb
466.80 30.37 (0) .5 0 t
532.24 30.37 (10) .5 0 t
597.68 30.37 (20) .5 0 t
663.11 30.37 (30) .5 0 t
728.55 30.37 (40) .5 0 t
793.99 30.37 (50) .5 0 t
0.00 0.00 816.00 409.50 cl
0.00 0.00 816.00 409.50 cl
0.00 0.00 816.00 409.50 cl
0.00 0.00 816.00 409.50 cl
0.00 0.00 816.00 409.50 cl
0.00 0.00 816.00 409.50 cl
/Font1 findfont 15 s
0 0 0 srgb
633.67 14.82 (users) .5 0 t
0.00 0.00 816.00 409.50 cl
0.00 0.00 816.00 409.50 cl
0.00 0.00 816.00 409.50 cl
/Font1 findfont 15 s
0 0 0 srgb
427.14 220.72 (b) .5 90 t
0.00 0.00 816.00 409.50 cl
0.00 0.00 816.00 409.50 cl
0.00 0.00 816.00 409.50 cl
0.00 0.00 816.00 409.50 cl
0.00 0.00 816.00 409.50 cl
0.00 0.00 816.00 409.50 cl
0.00 0.00 816.00 409.50 cl
0.00 0.00 816.00 409.50 cl
ep
%%Trailer
%%Pages: 1
%%EOF
