%!PS-Adobe-3.0 EPSF-3.0
%%DocumentNeededResources: font Helvetica
%%+ font Helvetica-Bold
%%+ font Helvetica-Oblique
%%+ font Helvetica-BoldOblique
%%+ font Symbol
%%Title: R Graphics Output
%%Creator: R Software
%%Pages: (atend)
%%BoundingBox: 0 0 829 431
%%EndComments
%%BeginProlog
/bp  { gs sRGB gs } def
% begin .ps.prolog
/gs  { gsave } bind def
/gr  { grestore } bind def
/ep  { showpage gr gr } bind def
/m   { moveto } bind def
/l  { rlineto } bind def
/np  { newpath } bind def
/cp  { closepath } bind def
/f   { fill } bind def
/o   { stroke } bind def
/c   { newpath 0 360 arc } bind def
/r   { 4 2 roll moveto 1 copy 3 -1 roll exch 0 exch rlineto 0 rlineto -1 mul 0 exch rlineto closepath } bind def
/p1  { stroke } bind def
/p2  { gsave bg fill grestore newpath } bind def
/p3  { gsave bg fill grestore stroke } bind def
/p6  { gsave bg eofill grestore newpath } bind def
/p7  { gsave bg eofill grestore stroke } bind def
/t   { 5 -2 roll moveto gsave rotate
       1 index stringwidth pop
       mul neg 0 rmoveto show grestore } bind def
/ta  { 4 -2 roll moveto gsave rotate show } bind def
/tb  { 2 -1 roll 0 rmoveto show } bind def
/cl  { grestore gsave newpath 3 index 3 index moveto 1 index
       4 -1 roll lineto  exch 1 index lineto lineto
       closepath clip newpath } bind def
/rgb { setrgbcolor } bind def
/s   { scalefont setfont } bind def
% end   .ps.prolog
/sRGB { [ /CIEBasedABC
          << /DecodeLMN
               [ { dup 0.03928 le
                        {12.92321 div}
                        {0.055 add 1.055 div 2.4 exp }
                     ifelse
                 } bind dup dup
               ]
             /MatrixLMN [0.412457 0.212673 0.019334
                         0.357576 0.715152 0.119192
                         0.180437 0.072175 0.950301]
             /WhitePoint [0.9505 1.0 1.0890]
           >>
         ] setcolorspace } bind def
/srgb { setcolor } bind def
%%IncludeResource: font Helvetica
/Helvetica findfont
dup length dict begin
  {1 index /FID ne {def} {pop pop} ifelse} forall
  /Encoding ISOLatin1Encoding def
  currentdict
  end
/Font1 exch definefont pop
%%IncludeResource: font Helvetica-Bold
/Helvetica-Bold findfont
dup length dict begin
  {1 index /FID ne {def} {pop pop} ifelse} forall
  /Encoding ISOLatin1Encoding def
  currentdict
  end
/Font2 exch definefont pop
%%IncludeResource: font Helvetica-Oblique
/Helvetica-Oblique findfont
dup length dict begin
  {1 index /FID ne {def} {pop pop} ifelse} forall
  /Encoding ISOLatin1Encoding def
  currentdict
  end
/Font3 exch definefont pop
%%IncludeResource: font Helvetica-BoldOblique
/Helvetica-BoldOblique findfont
dup length dict begin
  {1 index /FID ne {def} {pop pop} ifelse} forall
  /Encoding ISOLatin1Encoding def
  currentdict
  end
/Font4 exch definefont pop
%%IncludeResource: font Symbol
/Symbol findfont
dup length dict begin
  {1 index /FID ne {def} {pop pop} ifelse} forall
  currentdict
  end
/Font5 exch definefont pop
%%EndProlog
%%Page: 1 1
bp
0.00 0.00 829.50 430.50 cl
0.00 0.00 829.50 430.50 cl
0.00 0.00 829.50 430.50 cl
0.00 0.00 829.50 430.50 cl
0.00 0.00 829.50 430.50 cl
0.00 0.00 829.50 430.50 cl
0.00 0.00 829.50 430.50 cl
0.00 0.00 829.50 430.50 cl
0.00 0.00 829.50 430.50 cl
0.00 0.00 829.50 430.50 cl
0.00 0.00 829.50 430.50 cl
0.00 0.00 829.50 430.50 cl
0.00 0.00 829.50 430.50 cl
0.00 0.00 829.50 430.50 cl
0.00 0.00 829.50 430.50 cl
0.00 0.00 829.50 430.50 cl
0.00 0.00 829.50 430.50 cl
0.00 0.00 829.50 430.50 cl
0.00 0.00 829.50 430.50 cl
0.00 0.00 829.50 430.50 cl
0.00 0.00 829.50 430.50 cl
0.00 0.00 829.50 430.50 cl
0.00 0.00 829.50 430.50 cl
0.00 0.00 829.50 430.50 cl
0.00 0.00 829.50 430.50 cl
0.00 0.00 829.50 430.50 cl
0.00 0.00 829.50 430.50 cl
0.00 0.00 829.50 430.50 cl
0.00 0.00 829.50 430.50 cl
0.00 0.00 829.50 430.50 cl
0.00 0.00 829.50 430.50 cl
0.00 0.00 829.50 430.50 cl
0.00 0.00 829.50 430.50 cl
0.00 0.00 829.50 430.50 cl
0.00 0.00 829.50 430.50 cl
0.00 0.00 829.50 430.50 cl
0.00 0.00 829.50 430.50 cl
0.00 0.00 829.50 430.50 cl
0.00 0.00 829.50 430.50 cl
0.00 0.00 829.50 430.50 cl
0.00 0.00 829.50 430.50 cl
0.00 0.00 829.50 430.50 cl
0.00 0.00 829.50 430.50 cl
0.00 0.00 829.50 430.50 cl
0.00 0.00 829.50 430.50 cl
0.00 0.00 829.50 430.50 cl
0.00 0.00 829.50 430.50 cl
0.00 0.00 829.50 430.50 cl
0.00 0.00 829.50 430.50 cl
0.00 0.00 829.50 430.50 cl
0.00 0.00 829.50 430.50 cl
0.00 0.00 829.50 430.50 cl
0.00 0.00 829.50 430.50 cl
0.00 72.71 414.75 357.79 cl
0.00 0.00 829.50 430.50 cl
0.00 0.00 829.50 430.50 cl
0.00 0.00 829.50 430.50 cl
0.00 0.00 829.50 430.50 cl
0.00 0.00 829.50 430.50 cl
0.00 0.00 829.50 430.50 cl
0.00 0.00 829.50 430.50 cl
0.00 0.00 829.50 430.50 cl
0.00 0.00 829.50 430.50 cl
0.00 0.00 829.50 430.50 cl
0.00 0.00 829.50 430.50 cl
0.00 0.00 829.50 430.50 cl
0.00 0.00 829.50 430.50 cl
0.00 0.00 829.50 430.50 cl
0.00 0.00 829.50 430.50 cl
0.00 0.00 829.50 430.50 cl
0.00 0.00 829.50 430.50 cl
0.00 0.00 829.50 430.50 cl
0.00 0.00 829.50 430.50 cl
0.00 0.00 829.50 430.50 cl
0.00 0.00 829.50 430.50 cl
0.00 0.00 829.50 430.50 cl
0.00 0.00 829.50 430.50 cl
0.00 0.00 829.50 430.50 cl
0.00 0.00 829.50 430.50 cl
0.00 0.00 829.50 430.50 cl
0.00 0.00 829.50 430.50 cl
44.44 109.09 409.27 352.31 cl
0.00 0.00 829.50 430.50 cl
0.00 0.00 829.50 430.50 cl
0.00 0.00 829.50 430.50 cl
0.00 0.00 829.50 430.50 cl
0.00 0.00 829.50 430.50 cl
0.00 0.00 829.50 430.50 cl
0.00 0.00 829.50 430.50 cl
0.00 0.00 829.50 430.50 cl
0.00 72.71 414.75 357.79 cl
/bg { 1 1 1 srgb } def
1 1 1 srgb
1.07 setlinewidth
[] 0 setdash
1 setlinecap
1 setlinejoin
10.00 setmiterlimit
0.00 72.71 414.75 285.07 r p3
0.00 0.00 829.50 430.50 cl
0.00 0.00 829.50 430.50 cl
0.00 0.00 829.50 430.50 cl
44.44 109.09 409.27 352.31 cl
0.9725 0.4627 0.4275 srgb
1.07 setlinewidth
[] 0 setdash
0 setlinecap
1 setlinejoin
1.00 setmiterlimit
np
63.20 222.78 m
36.37 -28.83 l
36.37 -14.65 l
36.36 -9.89 l
36.37 -4.50 l
36.37 -2.87 l
36.36 -5.97 l
36.37 -5.79 l
36.37 -6.28 l
36.36 5.18 l
o
0 0.7294 0.2196 srgb
np
63.20 217.73 m
36.37 -36.42 l
36.37 -9.74 l
36.36 -12.66 l
36.37 -4.42 l
36.37 -1.61 l
36.36 -21.23 l
36.37 9.54 l
36.37 -5.40 l
36.36 -6.34 l
o
0.3804 0.6118 1 srgb
np
63.20 255.08 m
36.37 55.63 l
36.37 -44.46 l
36.36 -3.03 l
36.37 -8.61 l
36.37 -6.89 l
36.36 -32.10 l
36.37 25.18 l
36.37 -30.42 l
36.36 -0.99 l
o
/bg { 0.9725 0.4627 0.4275 srgb } def
0.9725 0.4627 0.4275 srgb
0.71 setlinewidth
[] 0 setdash
1 setlinecap
10.00 setmiterlimit
63.20 222.78 2.49 c p3
99.57 193.95 2.49 c p3
135.94 179.30 2.49 c p3
172.30 169.41 2.49 c p3
208.67 164.91 2.49 c p3
245.04 162.04 2.49 c p3
281.40 156.07 2.49 c p3
317.77 150.28 2.49 c p3
354.14 144.00 2.49 c p3
390.50 149.18 2.49 c p3
/bg { 0 0.7294 0.2196 srgb } def
0 0.7294 0.2196 srgb
63.20 217.73 2.49 c p3
99.57 181.31 2.49 c p3
135.94 171.57 2.49 c p3
172.30 158.91 2.49 c p3
208.67 154.49 2.49 c p3
245.04 152.88 2.49 c p3
281.40 131.65 2.49 c p3
317.77 141.19 2.49 c p3
354.14 135.79 2.49 c p3
390.50 129.45 2.49 c p3
/bg { 0.3804 0.6118 1 srgb } def
0.3804 0.6118 1 srgb
63.20 255.08 2.49 c p3
99.57 310.71 2.49 c p3
135.94 266.25 2.49 c p3
172.30 263.22 2.49 c p3
208.67 254.61 2.49 c p3
245.04 247.72 2.49 c p3
281.40 215.62 2.49 c p3
317.77 240.80 2.49 c p3
354.14 210.38 2.49 c p3
390.50 209.39 2.49 c p3
0.9725 0.4627 0.4275 srgb
1.07 setlinewidth
[] 0 setdash
0 setlinecap
1.00 setmiterlimit
np
61.02 243.69 m
4.36 0 l
o
np
63.20 243.69 m
0 -41.81 l
o
np
61.02 201.88 m
4.36 0 l
o
np
97.39 215.82 m
4.36 0 l
o
np
99.57 215.82 m
0 -43.74 l
o
np
97.39 172.08 m
4.36 0 l
o
np
133.75 186.63 m
4.37 0 l
o
np
135.94 186.63 m
0 -14.65 l
o
np
133.75 171.98 m
4.37 0 l
o
np
170.12 184.41 m
4.36 0 l
o
np
172.30 184.41 m
0 -30.00 l
o
np
170.12 154.41 m
4.36 0 l
o
np
206.49 177.37 m
4.36 0 l
o
np
208.67 177.37 m
0 -24.92 l
o
np
206.49 152.45 m
4.36 0 l
o
np
242.85 173.04 m
4.37 0 l
o
np
245.04 173.04 m
0 -21.99 l
o
np
242.85 151.05 m
4.37 0 l
o
np
279.22 170.79 m
4.37 0 l
o
np
281.40 170.79 m
0 -29.44 l
o
np
279.22 141.35 m
4.37 0 l
o
np
315.59 166.14 m
4.36 0 l
o
np
317.77 166.14 m
0 -31.71 l
o
np
315.59 134.43 m
4.36 0 l
o
np
351.96 156.10 m
4.36 0 l
o
np
354.14 156.10 m
0 -24.20 l
o
np
351.96 131.90 m
4.36 0 l
o
np
388.32 176.85 m
4.37 0 l
o
np
390.50 176.85 m
0 -55.34 l
o
np
388.32 121.51 m
4.37 0 l
o
0 0.7294 0.2196 srgb
np
61.02 233.84 m
4.36 0 l
o
np
63.20 233.84 m
0 -32.22 l
o
np
61.02 201.62 m
4.36 0 l
o
np
97.39 197.12 m
4.36 0 l
o
np
99.57 197.12 m
0 -31.62 l
o
np
97.39 165.50 m
4.36 0 l
o
np
133.75 193.52 m
4.37 0 l
o
np
135.94 193.52 m
0 -43.90 l
o
np
133.75 149.62 m
4.37 0 l
o
np
170.12 176.83 m
4.36 0 l
o
np
172.30 176.83 m
0 -35.85 l
o
np
170.12 140.98 m
4.36 0 l
o
np
206.49 168.57 m
4.36 0 l
o
np
208.67 168.57 m
0 -28.15 l
o
np
206.49 140.42 m
4.36 0 l
o
np
242.85 165.04 m
4.37 0 l
o
np
245.04 165.04 m
0 -24.32 l
o
np
242.85 140.72 m
4.37 0 l
o
np
279.22 138.84 m
4.37 0 l
o
np
281.40 138.84 m
0 -14.38 l
o
np
279.22 124.46 m
4.37 0 l
o
np
315.59 157.67 m
4.36 0 l
o
np
317.77 157.67 m
0 -32.96 l
o
np
315.59 124.71 m
4.36 0 l
o
np
351.96 148.13 m
4.36 0 l
o
np
354.14 148.13 m
0 -24.67 l
o
np
351.96 123.46 m
4.36 0 l
o
np
388.32 138.76 m
4.37 0 l
o
np
390.50 138.76 m
0 -18.62 l
o
np
388.32 120.14 m
4.37 0 l
o
0.3804 0.6118 1 srgb
np
61.02 259.84 m
4.36 0 l
o
np
63.20 259.84 m
0 -9.52 l
o
np
61.02 250.32 m
4.36 0 l
o
np
97.39 341.25 m
4.36 0 l
o
np
99.57 341.25 m
0 -61.08 l
o
np
97.39 280.17 m
4.36 0 l
o
np
133.75 283.06 m
4.37 0 l
o
np
135.94 283.06 m
0 -33.62 l
o
np
133.75 249.44 m
4.37 0 l
o
np
170.12 275.11 m
4.36 0 l
o
np
172.30 275.11 m
0 -23.78 l
o
np
170.12 251.33 m
4.36 0 l
o
np
206.49 269.05 m
4.36 0 l
o
np
208.67 269.05 m
0 -28.87 l
o
np
206.49 240.18 m
4.36 0 l
o
np
242.85 264.77 m
4.37 0 l
o
np
245.04 264.77 m
0 -34.10 l
o
np
242.85 230.67 m
4.37 0 l
o
np
279.22 225.04 m
4.37 0 l
o
np
281.40 225.04 m
0 -18.84 l
o
np
279.22 206.20 m
4.37 0 l
o
np
315.59 249.62 m
4.36 0 l
o
np
317.77 249.62 m
0 -17.63 l
o
np
315.59 231.99 m
4.36 0 l
o
np
351.96 219.05 m
4.36 0 l
o
np
354.14 219.05 m
0 -17.35 l
o
np
351.96 201.70 m
4.36 0 l
o
np
388.32 228.82 m
4.37 0 l
o
np
390.50 228.82 m
0 -38.85 l
o
np
388.32 189.97 m
4.37 0 l
o
0.00 0.00 829.50 430.50 cl
0.00 0.00 829.50 430.50 cl
0.00 0.00 829.50 430.50 cl
0 0 0 srgb
1.07 setlinewidth
[] 0 setdash
0 setlinecap
1 setlinejoin
10.00 setmiterlimit
np
44.44 109.09 m
0 243.22 l
o
0.00 0.00 829.50 430.50 cl
0.00 0.00 829.50 430.50 cl
0.00 0.00 829.50 430.50 cl
/Font1 findfont 12 s
0.3020 0.3020 0.3020 srgb
39.50 167.80 (3.0) 1 0 t
39.50 246.27 (3.5) 1 0 t
39.50 324.74 (4.0) 1 0 t
0.00 0.00 829.50 430.50 cl
0.00 0.00 829.50 430.50 cl
0.00 0.00 829.50 430.50 cl
0.2000 0.2000 0.2000 srgb
1.07 setlinewidth
[] 0 setdash
0 setlinecap
1 setlinejoin
10.00 setmiterlimit
np
41.70 172.11 m
2.74 0 l
o
np
41.70 250.58 m
2.74 0 l
o
np
41.70 329.05 m
2.74 0 l
o
0.00 0.00 829.50 430.50 cl
0.00 0.00 829.50 430.50 cl
0.00 0.00 829.50 430.50 cl
0.00 0.00 829.50 430.50 cl
0.00 0.00 829.50 430.50 cl
0.00 0.00 829.50 430.50 cl
0 0 0 srgb
1.07 setlinewidth
[] 0 setdash
0 setlinecap
1 setlinejoin
10.00 setmiterlimit
np
44.44 109.09 m
364.83 0 l
o
0.00 0.00 829.50 430.50 cl
0.00 0.00 829.50 430.50 cl
0.00 0.00 829.50 430.50 cl
0.2000 0.2000 0.2000 srgb
1.07 setlinewidth
[] 0 setdash
0 setlinecap
1 setlinejoin
10.00 setmiterlimit
np
63.20 106.35 m
0 2.74 l
o
np
99.57 106.35 m
0 2.74 l
o
np
135.94 106.35 m
0 2.74 l
o
np
172.30 106.35 m
0 2.74 l
o
np
208.67 106.35 m
0 2.74 l
o
np
245.04 106.35 m
0 2.74 l
o
np
281.40 106.35 m
0 2.74 l
o
np
317.77 106.35 m
0 2.74 l
o
np
354.14 106.35 m
0 2.74 l
o
np
390.50 106.35 m
0 2.74 l
o
np
63.20 106.35 m
0 2.74 l
o
np
99.57 106.35 m
0 2.74 l
o
np
135.94 106.35 m
0 2.74 l
o
np
172.30 106.35 m
0 2.74 l
o
np
208.67 106.35 m
0 2.74 l
o
np
245.04 106.35 m
0 2.74 l
o
np
281.40 106.35 m
0 2.74 l
o
np
317.77 106.35 m
0 2.74 l
o
np
354.14 106.35 m
0 2.74 l
o
np
390.50 106.35 m
0 2.74 l
o
np
63.20 106.35 m
0 2.74 l
o
np
99.57 106.35 m
0 2.74 l
o
np
135.94 106.35 m
0 2.74 l
o
np
172.30 106.35 m
0 2.74 l
o
np
208.67 106.35 m
0 2.74 l
o
np
245.04 106.35 m
0 2.74 l
o
np
281.40 106.35 m
0 2.74 l
o
np
317.77 106.35 m
0 2.74 l
o
np
354.14 106.35 m
0 2.74 l
o
np
390.50 106.35 m
0 2.74 l
o
0.00 0.00 829.50 430.50 cl
0.00 0.00 829.50 430.50 cl
/Font1 findfont 12 s
0.3020 0.3020 0.3020 srgb
63.20 95.54 (10) .5 0 t
99.57 95.54 (20) .5 0 t
135.94 95.54 (30) .5 0 t
172.30 95.54 (40) .5 0 t
208.67 95.54 (50) .5 0 t
245.04 95.54 (60) .5 0 t
281.40 95.54 (70) .5 0 t
317.77 95.54 (80) .5 0 t
354.14 95.54 (90) .5 0 t
390.50 95.54 (100) .5 0 t
63.20 95.54 (10) .5 0 t
99.57 95.54 (20) .5 0 t
135.94 95.54 (30) .5 0 t
172.30 95.54 (40) .5 0 t
208.67 95.54 (50) .5 0 t
245.04 95.54 (60) .5 0 t
281.40 95.54 (70) .5 0 t
317.77 95.54 (80) .5 0 t
354.14 95.54 (90) .5 0 t
390.50 95.54 (100) .5 0 t
63.20 95.54 (10) .5 0 t
99.57 95.54 (20) .5 0 t
135.94 95.54 (30) .5 0 t
172.30 95.54 (40) .5 0 t
208.67 95.54 (50) .5 0 t
245.04 95.54 (60) .5 0 t
281.40 95.54 (70) .5 0 t
317.77 95.54 (80) .5 0 t
354.14 95.54 (90) .5 0 t
390.50 95.54 (100) .5 0 t
0.00 0.00 829.50 430.50 cl
0.00 0.00 829.50 430.50 cl
0.00 0.00 829.50 430.50 cl
0.00 0.00 829.50 430.50 cl
0.00 0.00 829.50 430.50 cl
0.00 0.00 829.50 430.50 cl
/Font1 findfont 15 s
0 0 0 srgb
226.85 80.38 (Threads) .5 0 t
0.00 0.00 829.50 430.50 cl
0.00 0.00 829.50 430.50 cl
0.00 0.00 829.50 430.50 cl
/Font1 findfont 15 s
0 0 0 srgb
18.44 159.00 (negativ) 90 ta
-0.375 (e loglik) tb
-0.300 (elihood) tb gr
0.00 0.00 829.50 430.50 cl
0.00 0.00 829.50 430.50 cl
0.00 0.00 829.50 430.50 cl
0.00 0.00 829.50 430.50 cl
0.00 0.00 829.50 430.50 cl
0.00 0.00 829.50 430.50 cl
0.00 0.00 829.50 430.50 cl
/bg { 1 1 1 srgb } def
332.56 271.33 80.44 64.66 r p2
0.00 0.00 829.50 430.50 cl
0.00 0.00 829.50 430.50 cl
0.00 0.00 829.50 430.50 cl
0.00 0.00 829.50 430.50 cl
0.00 0.00 829.50 430.50 cl
0.00 0.00 829.50 430.50 cl
0.9725 0.4627 0.4275 srgb
1.07 setlinewidth
[] 0 setdash
0 setlinecap
1 setlinejoin
10.00 setmiterlimit
np
338.54 318.78 m
13.83 0 l
o
0.00 0.00 829.50 430.50 cl
0.00 0.00 829.50 430.50 cl
/bg { 0.9725 0.4627 0.4275 srgb } def
0.9725 0.4627 0.4275 srgb
0.71 setlinewidth
[] 0 setdash
1 setlinecap
1 setlinejoin
10.00 setmiterlimit
345.46 318.78 2.49 c p3
0.00 0.00 829.50 430.50 cl
0.00 0.00 829.50 430.50 cl
0.9725 0.4627 0.4275 srgb
1.07 setlinewidth
[] 0 setdash
0 setlinecap
1 setlinejoin
10.00 setmiterlimit
np
338.54 318.78 m
13.83 0 l
o
0.00 0.00 829.50 430.50 cl
0.00 0.00 829.50 430.50 cl
0.00 0.00 829.50 430.50 cl
0.00 0.00 829.50 430.50 cl
0 0.7294 0.2196 srgb
1.07 setlinewidth
[] 0 setdash
0 setlinecap
1 setlinejoin
10.00 setmiterlimit
np
338.54 301.50 m
13.83 0 l
o
0.00 0.00 829.50 430.50 cl
0.00 0.00 829.50 430.50 cl
/bg { 0 0.7294 0.2196 srgb } def
0 0.7294 0.2196 srgb
0.71 setlinewidth
[] 0 setdash
1 setlinecap
1 setlinejoin
10.00 setmiterlimit
345.46 301.50 2.49 c p3
0.00 0.00 829.50 430.50 cl
0.00 0.00 829.50 430.50 cl
0 0.7294 0.2196 srgb
1.07 setlinewidth
[] 0 setdash
0 setlinecap
1 setlinejoin
10.00 setmiterlimit
np
338.54 301.50 m
13.83 0 l
o
0.00 0.00 829.50 430.50 cl
0.00 0.00 829.50 430.50 cl
0.00 0.00 829.50 430.50 cl
0.00 0.00 829.50 430.50 cl
0.3804 0.6118 1 srgb
1.07 setlinewidth
[] 0 setdash
0 setlinecap
1 setlinejoin
10.00 setmiterlimit
np
338.54 284.22 m
13.83 0 l
o
0.00 0.00 829.50 430.50 cl
0.00 0.00 829.50 430.50 cl
/bg { 0.3804 0.6118 1 srgb } def
0.3804 0.6118 1 srgb
0.71 setlinewidth
[] 0 setdash
1 setlinecap
1 setlinejoin
10.00 setmiterlimit
345.46 284.22 2.49 c p3
0.00 0.00 829.50 430.50 cl
0.00 0.00 829.50 430.50 cl
0.3804 0.6118 1 srgb
1.07 setlinewidth
[] 0 setdash
0 setlinecap
1 setlinejoin
10.00 setmiterlimit
np
338.54 284.22 m
13.83 0 l
o
0.00 0.00 829.50 430.50 cl
0.00 0.00 829.50 430.50 cl
/Font1 findfont 12 s
0 0 0 srgb
356.26 314.48 (dual-DP) 0 0 t
0.00 0.00 829.50 430.50 cl
0.00 0.00 829.50 430.50 cl
/Font1 findfont 12 s
0 0 0 srgb
356.26 297.20 (dual-fix) 0 ta
-0.360 (ed) tb gr
0.00 0.00 829.50 430.50 cl
0.00 0.00 829.50 430.50 cl
/Font1 findfont 12 s
0 0 0 srgb
356.26 279.92 (single) 0 0 t
0.00 0.00 829.50 430.50 cl
0.00 0.00 829.50 430.50 cl
0.00 0.00 829.50 430.50 cl
0.00 0.00 829.50 430.50 cl
0.00 0.00 829.50 430.50 cl
0.00 0.00 829.50 430.50 cl
0.00 0.00 829.50 430.50 cl
0.00 0.00 829.50 430.50 cl
0.00 0.00 829.50 430.50 cl
0.00 0.00 829.50 430.50 cl
0.00 0.00 829.50 430.50 cl
0.00 0.00 829.50 430.50 cl
0.00 0.00 829.50 430.50 cl
0.00 0.00 829.50 430.50 cl
0.00 0.00 829.50 430.50 cl
0.00 0.00 829.50 430.50 cl
0.00 0.00 829.50 430.50 cl
0.00 0.00 829.50 430.50 cl
0.00 0.00 829.50 430.50 cl
0.00 0.00 829.50 430.50 cl
0.00 0.00 829.50 430.50 cl
0.00 0.00 829.50 430.50 cl
0.00 0.00 829.50 430.50 cl
0.00 0.00 829.50 430.50 cl
0.00 0.00 829.50 430.50 cl
0.00 0.00 829.50 430.50 cl
0.00 0.00 829.50 430.50 cl
0.00 0.00 829.50 430.50 cl
0.00 0.00 829.50 430.50 cl
0.00 0.00 829.50 430.50 cl
0.00 0.00 829.50 430.50 cl
0.00 0.00 829.50 430.50 cl
0.00 0.00 829.50 430.50 cl
0.00 0.00 829.50 430.50 cl
0.00 0.00 829.50 430.50 cl
0.00 0.00 829.50 430.50 cl
0.00 0.00 829.50 430.50 cl
0.00 0.00 829.50 430.50 cl
0.00 0.00 829.50 430.50 cl
0.00 0.00 829.50 430.50 cl
0.00 0.00 829.50 430.50 cl
0.00 0.00 829.50 430.50 cl
0.00 0.00 829.50 430.50 cl
0.00 0.00 829.50 430.50 cl
0.00 0.00 829.50 430.50 cl
0.00 0.00 829.50 430.50 cl
0.00 0.00 829.50 430.50 cl
0.00 0.00 829.50 430.50 cl
0.00 0.00 829.50 430.50 cl
0.00 0.00 829.50 430.50 cl
0.00 0.00 829.50 430.50 cl
0.00 0.00 829.50 430.50 cl
0.00 0.00 829.50 430.50 cl
0.00 0.00 829.50 430.50 cl
414.75 74.94 829.50 355.56 cl
0.00 0.00 829.50 430.50 cl
0.00 0.00 829.50 430.50 cl
0.00 0.00 829.50 430.50 cl
0.00 0.00 829.50 430.50 cl
0.00 0.00 829.50 430.50 cl
0.00 0.00 829.50 430.50 cl
0.00 0.00 829.50 430.50 cl
0.00 0.00 829.50 430.50 cl
0.00 0.00 829.50 430.50 cl
0.00 0.00 829.50 430.50 cl
0.00 0.00 829.50 430.50 cl
0.00 0.00 829.50 430.50 cl
0.00 0.00 829.50 430.50 cl
0.00 0.00 829.50 430.50 cl
0.00 0.00 829.50 430.50 cl
0.00 0.00 829.50 430.50 cl
0.00 0.00 829.50 430.50 cl
0.00 0.00 829.50 430.50 cl
0.00 0.00 829.50 430.50 cl
0.00 0.00 829.50 430.50 cl
0.00 0.00 829.50 430.50 cl
0.00 0.00 829.50 430.50 cl
0.00 0.00 829.50 430.50 cl
0.00 0.00 829.50 430.50 cl
0.00 0.00 829.50 430.50 cl
0.00 0.00 829.50 430.50 cl
0.00 0.00 829.50 430.50 cl
465.86 111.31 824.02 350.08 cl
0.00 0.00 829.50 430.50 cl
0.00 0.00 829.50 430.50 cl
0.00 0.00 829.50 430.50 cl
0.00 0.00 829.50 430.50 cl
0.00 0.00 829.50 430.50 cl
0.00 0.00 829.50 430.50 cl
0.00 0.00 829.50 430.50 cl
0.00 0.00 829.50 430.50 cl
0.00 0.00 829.50 430.50 cl
414.75 74.94 829.50 355.56 cl
/bg { 1 1 1 srgb } def
1 1 1 srgb
1.07 setlinewidth
[] 0 setdash
1 setlinecap
1 setlinejoin
10.00 setmiterlimit
414.75 74.94 414.75 280.63 r p3
0.00 0.00 829.50 430.50 cl
0.00 0.00 829.50 430.50 cl
0.00 0.00 829.50 430.50 cl
465.86 111.31 824.02 350.08 cl
0.9725 0.4627 0.4275 srgb
1.07 setlinewidth
[] 0 setdash
0 setlinecap
1 setlinejoin
1.00 setmiterlimit
np
484.28 244.41 m
35.70 -0.50 l
35.70 1.33 l
35.70 22.94 l
35.71 13.20 l
35.70 -7.04 l
35.70 8.10 l
35.70 14.68 l
35.70 9.48 l
35.71 -0.02 l
o
0 0.7490 0.7686 srgb
np
484.28 237.34 m
35.70 23.22 l
35.70 20.67 l
35.70 3.60 l
35.71 7.89 l
35.70 1.69 l
35.70 6.74 l
35.70 -10.55 l
35.70 7.25 l
35.71 7.57 l
o
/bg { 0.9725 0.4627 0.4275 srgb } def
0.9725 0.4627 0.4275 srgb
0.71 setlinewidth
[] 0 setdash
1 setlinecap
10.00 setmiterlimit
484.28 244.41 2.49 c p3
519.98 243.91 2.49 c p3
555.68 245.24 2.49 c p3
591.38 268.18 2.49 c p3
627.09 281.38 2.49 c p3
662.79 274.34 2.49 c p3
698.49 282.44 2.49 c p3
734.19 297.12 2.49 c p3
769.89 306.60 2.49 c p3
805.60 306.58 2.49 c p3
/bg { 0 0.7490 0.7686 srgb } def
0 0.7490 0.7686 srgb
484.28 237.34 2.49 c p3
519.98 260.56 2.49 c p3
555.68 281.23 2.49 c p3
591.38 284.83 2.49 c p3
627.09 292.72 2.49 c p3
662.79 294.41 2.49 c p3
698.49 301.15 2.49 c p3
734.19 290.60 2.49 c p3
769.89 297.85 2.49 c p3
805.60 305.42 2.49 c p3
0.9725 0.4627 0.4275 srgb
1.07 setlinewidth
[] 0 setdash
0 setlinecap
1.00 setmiterlimit
np
482.14 261.37 m
4.28 0 l
o
np
484.28 261.37 m
0 -33.92 l
o
np
482.14 227.45 m
4.28 0 l
o
np
517.84 262.16 m
4.28 0 l
o
np
519.98 262.16 m
0 -36.51 l
o
np
517.84 225.65 m
4.28 0 l
o
np
553.54 266.29 m
4.29 0 l
o
np
555.68 266.29 m
0 -42.09 l
o
np
553.54 224.20 m
4.29 0 l
o
np
589.24 284.55 m
4.29 0 l
o
np
591.38 284.55 m
0 -32.74 l
o
np
589.24 251.81 m
4.29 0 l
o
np
624.94 294.79 m
4.29 0 l
o
np
627.09 294.79 m
0 -26.82 l
o
np
624.94 267.97 m
4.29 0 l
o
np
660.65 291.63 m
4.28 0 l
o
np
662.79 291.63 m
0 -34.57 l
o
np
660.65 257.06 m
4.28 0 l
o
np
696.35 287.52 m
4.28 0 l
o
np
698.49 287.52 m
0 -10.17 l
o
np
696.35 277.35 m
4.28 0 l
o
np
732.05 309.46 m
4.28 0 l
o
np
734.19 309.46 m
0 -24.69 l
o
np
732.05 284.77 m
4.28 0 l
o
np
767.75 312.31 m
4.29 0 l
o
np
769.89 312.31 m
0 -11.43 l
o
np
767.75 300.88 m
4.29 0 l
o
np
803.45 311.79 m
4.29 0 l
o
np
805.60 311.79 m
0 -10.42 l
o
np
803.45 301.37 m
4.29 0 l
o
0 0.7490 0.7686 srgb
np
482.14 259.59 m
4.28 0 l
o
np
484.28 259.59 m
0 -44.50 l
o
np
482.14 215.09 m
4.28 0 l
o
np
517.84 276.11 m
4.28 0 l
o
np
519.98 276.11 m
0 -31.11 l
o
np
517.84 245.00 m
4.28 0 l
o
np
553.54 296.45 m
4.29 0 l
o
np
555.68 296.45 m
0 -30.44 l
o
np
553.54 266.01 m
4.29 0 l
o
np
589.24 297.04 m
4.29 0 l
o
np
591.38 297.04 m
0 -24.43 l
o
np
589.24 272.61 m
4.29 0 l
o
np
624.94 302.13 m
4.29 0 l
o
np
627.09 302.13 m
0 -18.81 l
o
np
624.94 283.32 m
4.29 0 l
o
np
660.65 301.54 m
4.28 0 l
o
np
662.79 301.54 m
0 -14.26 l
o
np
660.65 287.28 m
4.28 0 l
o
np
696.35 308.55 m
4.28 0 l
o
np
698.49 308.55 m
0 -14.81 l
o
np
696.35 293.74 m
4.28 0 l
o
np
732.05 308.45 m
4.28 0 l
o
np
734.19 308.45 m
0 -35.70 l
o
np
732.05 272.75 m
4.28 0 l
o
np
767.75 305.16 m
4.29 0 l
o
np
769.89 305.16 m
0 -14.61 l
o
np
767.75 290.55 m
4.29 0 l
o
np
803.45 310.60 m
4.29 0 l
o
np
805.60 310.60 m
0 -10.35 l
o
np
803.45 300.25 m
4.29 0 l
o
0.00 0.00 829.50 430.50 cl
0.00 0.00 829.50 430.50 cl
0.00 0.00 829.50 430.50 cl
0 0 0 srgb
1.07 setlinewidth
[] 0 setdash
0 setlinecap
1 setlinejoin
10.00 setmiterlimit
np
465.86 111.31 m
0 238.77 l
o
0.00 0.00 829.50 430.50 cl
0.00 0.00 829.50 430.50 cl
0.00 0.00 829.50 430.50 cl
/Font1 findfont 12 s
0.3020 0.3020 0.3020 srgb
460.93 117.85 (0.00) 1 0 t
460.93 167.19 (0.25) 1 0 t
460.93 216.52 (0.50) 1 0 t
460.93 265.86 (0.75) 1 0 t
460.93 315.19 (1.00) 1 0 t
0.00 0.00 829.50 430.50 cl
0.00 0.00 829.50 430.50 cl
0.00 0.00 829.50 430.50 cl
0.2000 0.2000 0.2000 srgb
1.07 setlinewidth
[] 0 setdash
0 setlinecap
1 setlinejoin
10.00 setmiterlimit
np
463.12 122.16 m
2.74 0 l
o
np
463.12 171.50 m
2.74 0 l
o
np
463.12 220.83 m
2.74 0 l
o
np
463.12 270.16 m
2.74 0 l
o
np
463.12 319.50 m
2.74 0 l
o
0.00 0.00 829.50 430.50 cl
0.00 0.00 829.50 430.50 cl
0.00 0.00 829.50 430.50 cl
0.00 0.00 829.50 430.50 cl
0.00 0.00 829.50 430.50 cl
0.00 0.00 829.50 430.50 cl
0 0 0 srgb
1.07 setlinewidth
[] 0 setdash
0 setlinecap
1 setlinejoin
10.00 setmiterlimit
np
465.86 111.31 m
358.16 0 l
o
0.00 0.00 829.50 430.50 cl
0.00 0.00 829.50 430.50 cl
0.00 0.00 829.50 430.50 cl
0.2000 0.2000 0.2000 srgb
1.07 setlinewidth
[] 0 setdash
0 setlinecap
1 setlinejoin
10.00 setmiterlimit
np
484.28 108.57 m
0 2.74 l
o
np
519.98 108.57 m
0 2.74 l
o
np
555.68 108.57 m
0 2.74 l
o
np
591.38 108.57 m
0 2.74 l
o
np
627.09 108.57 m
0 2.74 l
o
np
662.79 108.57 m
0 2.74 l
o
np
698.49 108.57 m
0 2.74 l
o
np
734.19 108.57 m
0 2.74 l
o
np
769.89 108.57 m
0 2.74 l
o
np
805.60 108.57 m
0 2.74 l
o
np
484.28 108.57 m
0 2.74 l
o
np
519.98 108.57 m
0 2.74 l
o
np
555.68 108.57 m
0 2.74 l
o
np
591.38 108.57 m
0 2.74 l
o
np
627.09 108.57 m
0 2.74 l
o
np
662.79 108.57 m
0 2.74 l
o
np
698.49 108.57 m
0 2.74 l
o
np
734.19 108.57 m
0 2.74 l
o
np
769.89 108.57 m
0 2.74 l
o
np
805.60 108.57 m
0 2.74 l
o
0.00 0.00 829.50 430.50 cl
0.00 0.00 829.50 430.50 cl
/Font1 findfont 12 s
0.3020 0.3020 0.3020 srgb
484.28 97.76 (10) .5 0 t
519.98 97.76 (20) .5 0 t
555.68 97.76 (30) .5 0 t
591.38 97.76 (40) .5 0 t
627.09 97.76 (50) .5 0 t
662.79 97.76 (60) .5 0 t
698.49 97.76 (70) .5 0 t
734.19 97.76 (80) .5 0 t
769.89 97.76 (90) .5 0 t
805.60 97.76 (100) .5 0 t
484.28 97.76 (10) .5 0 t
519.98 97.76 (20) .5 0 t
555.68 97.76 (30) .5 0 t
591.38 97.76 (40) .5 0 t
627.09 97.76 (50) .5 0 t
662.79 97.76 (60) .5 0 t
698.49 97.76 (70) .5 0 t
734.19 97.76 (80) .5 0 t
769.89 97.76 (90) .5 0 t
805.60 97.76 (100) .5 0 t
0.00 0.00 829.50 430.50 cl
0.00 0.00 829.50 430.50 cl
0.00 0.00 829.50 430.50 cl
0.00 0.00 829.50 430.50 cl
0.00 0.00 829.50 430.50 cl
0.00 0.00 829.50 430.50 cl
/Font1 findfont 15 s
0 0 0 srgb
644.94 82.61 (Threads) .5 0 t
0.00 0.00 829.50 430.50 cl
0.00 0.00 829.50 430.50 cl
0.00 0.00 829.50 430.50 cl
/Font1 findfont 15 s
0 0 0 srgb
433.19 161.07 (Adjusted Rand Inde) 90 ta
-0.450 (x) tb gr
0.00 0.00 829.50 430.50 cl
0.00 0.00 829.50 430.50 cl
0.00 0.00 829.50 430.50 cl
0.00 0.00 829.50 430.50 cl
0.00 0.00 829.50 430.50 cl
0.00 0.00 829.50 430.50 cl
0.00 0.00 829.50 430.50 cl
/bg { 1 1 1 srgb } def
747.98 135.37 80.44 47.38 r p2
0.00 0.00 829.50 430.50 cl
0.00 0.00 829.50 430.50 cl
0.00 0.00 829.50 430.50 cl
0.00 0.00 829.50 430.50 cl
0.00 0.00 829.50 430.50 cl
0.00 0.00 829.50 430.50 cl
0.9725 0.4627 0.4275 srgb
1.07 setlinewidth
[] 0 setdash
0 setlinecap
1 setlinejoin
10.00 setmiterlimit
np
753.96 165.54 m
13.82 0 l
o
0.00 0.00 829.50 430.50 cl
0.00 0.00 829.50 430.50 cl
/bg { 0.9725 0.4627 0.4275 srgb } def
0.9725 0.4627 0.4275 srgb
0.71 setlinewidth
[] 0 setdash
1 setlinecap
1 setlinejoin
10.00 setmiterlimit
760.87 165.54 2.49 c p3
0.00 0.00 829.50 430.50 cl
0.00 0.00 829.50 430.50 cl
0.9725 0.4627 0.4275 srgb
1.07 setlinewidth
[] 0 setdash
0 setlinecap
1 setlinejoin
10.00 setmiterlimit
np
753.96 165.54 m
13.82 0 l
o
0.00 0.00 829.50 430.50 cl
0.00 0.00 829.50 430.50 cl
0.00 0.00 829.50 430.50 cl
0.00 0.00 829.50 430.50 cl
0 0.7490 0.7686 srgb
1.07 setlinewidth
[] 0 setdash
0 setlinecap
1 setlinejoin
10.00 setmiterlimit
np
753.96 148.26 m
13.82 0 l
o
0.00 0.00 829.50 430.50 cl
0.00 0.00 829.50 430.50 cl
/bg { 0 0.7490 0.7686 srgb } def
0 0.7490 0.7686 srgb
0.71 setlinewidth
[] 0 setdash
1 setlinecap
1 setlinejoin
10.00 setmiterlimit
760.87 148.26 2.49 c p3
0.00 0.00 829.50 430.50 cl
0.00 0.00 829.50 430.50 cl
0 0.7490 0.7686 srgb
1.07 setlinewidth
[] 0 setdash
0 setlinecap
1 setlinejoin
10.00 setmiterlimit
np
753.96 148.26 m
13.82 0 l
o
0.00 0.00 829.50 430.50 cl
0.00 0.00 829.50 430.50 cl
/Font1 findfont 12 s
0 0 0 srgb
771.67 161.24 (dual-DP) 0 0 t
0.00 0.00 829.50 430.50 cl
0.00 0.00 829.50 430.50 cl
/Font1 findfont 12 s
0 0 0 srgb
771.67 143.96 (dual-fix) 0 ta
-0.360 (ed) tb gr
0.00 0.00 829.50 430.50 cl
0.00 0.00 829.50 430.50 cl
0.00 0.00 829.50 430.50 cl
0.00 0.00 829.50 430.50 cl
0.00 0.00 829.50 430.50 cl
0.00 0.00 829.50 430.50 cl
0.00 0.00 829.50 430.50 cl
0.00 0.00 829.50 430.50 cl
0.00 0.00 829.50 430.50 cl
0.00 0.00 829.50 430.50 cl
0.00 0.00 829.50 430.50 cl
0.00 0.00 829.50 430.50 cl
0.00 0.00 829.50 430.50 cl
0.00 0.00 829.50 430.50 cl
ep
%%Trailer
%%Pages: 1
%%EOF
