%!PS-Adobe-3.0 EPSF-3.0
%%DocumentNeededResources: font Helvetica
%%+ font Helvetica-Bold
%%+ font Helvetica-Oblique
%%+ font Helvetica-BoldOblique
%%+ font Symbol
%%Title: R Graphics Output
%%Creator: R Software
%%Pages: (atend)
%%BoundingBox: 0 0 493 198
%%EndComments
%%BeginProlog
/bp  { gs sRGB gs } def
% begin .ps.prolog
/gs  { gsave } bind def
/gr  { grestore } bind def
/ep  { showpage gr gr } bind def
/m   { moveto } bind def
/l  { rlineto } bind def
/np  { newpath } bind def
/cp  { closepath } bind def
/f   { fill } bind def
/o   { stroke } bind def
/c   { newpath 0 360 arc } bind def
/r   { 4 2 roll moveto 1 copy 3 -1 roll exch 0 exch rlineto 0 rlineto -1 mul 0 exch rlineto closepath } bind def
/p1  { stroke } bind def
/p2  { gsave bg fill grestore newpath } bind def
/p3  { gsave bg fill grestore stroke } bind def
/p6  { gsave bg eofill grestore newpath } bind def
/p7  { gsave bg eofill grestore stroke } bind def
/t   { 5 -2 roll moveto gsave rotate
       1 index stringwidth pop
       mul neg 0 rmoveto show grestore } bind def
/ta  { 4 -2 roll moveto gsave rotate show } bind def
/tb  { 2 -1 roll 0 rmoveto show } bind def
/cl  { grestore gsave newpath 3 index 3 index moveto 1 index
       4 -1 roll lineto  exch 1 index lineto lineto
       closepath clip newpath } bind def
/rgb { setrgbcolor } bind def
/s   { scalefont setfont } bind def
% end   .ps.prolog
/sRGB { [ /CIEBasedABC
          << /DecodeLMN
               [ { dup 0.03928 le
                        {12.92321 div}
                        {0.055 add 1.055 div 2.4 exp }
                     ifelse
                 } bind dup dup
               ]
             /MatrixLMN [0.412457 0.212673 0.019334
                         0.357576 0.715152 0.119192
                         0.180437 0.072175 0.950301]
             /WhitePoint [0.9505 1.0 1.0890]
           >>
         ] setcolorspace } bind def
/srgb { setcolor } bind def
%%IncludeResource: font Helvetica
/Helvetica findfont
dup length dict begin
  {1 index /FID ne {def} {pop pop} ifelse} forall
  /Encoding ISOLatin1Encoding def
  currentdict
  end
/Font1 exch definefont pop
%%IncludeResource: font Helvetica-Bold
/Helvetica-Bold findfont
dup length dict begin
  {1 index /FID ne {def} {pop pop} ifelse} forall
  /Encoding ISOLatin1Encoding def
  currentdict
  end
/Font2 exch definefont pop
%%IncludeResource: font Helvetica-Oblique
/Helvetica-Oblique findfont
dup length dict begin
  {1 index /FID ne {def} {pop pop} ifelse} forall
  /Encoding ISOLatin1Encoding def
  currentdict
  end
/Font3 exch definefont pop
%%IncludeResource: font Helvetica-BoldOblique
/Helvetica-BoldOblique findfont
dup length dict begin
  {1 index /FID ne {def} {pop pop} ifelse} forall
  /Encoding ISOLatin1Encoding def
  currentdict
  end
/Font4 exch definefont pop
%%IncludeResource: font Symbol
/Symbol findfont
dup length dict begin
  {1 index /FID ne {def} {pop pop} ifelse} forall
  currentdict
  end
/Font5 exch definefont pop
%%EndProlog
%%Page: 1 1
bp
0.00 0.00 493.23 198.43 cl
0.00 0.00 493.23 198.43 cl
0.00 0.00 493.23 198.43 cl
0.00 0.00 493.23 198.43 cl
0.00 0.00 493.23 198.43 cl
0.00 0.00 493.23 198.43 cl
0.00 0.00 493.23 198.43 cl
0.00 0.00 493.23 198.43 cl
0.00 0.00 493.23 198.43 cl
0.00 0.00 493.23 198.43 cl
0.00 0.00 493.23 198.43 cl
0.00 0.00 493.23 198.43 cl
0.00 0.00 493.23 198.43 cl
0.00 0.00 493.23 198.43 cl
0.00 0.00 493.23 198.43 cl
0.00 0.00 493.23 198.43 cl
0.00 14.03 246.61 184.39 cl
0.00 0.00 493.23 198.43 cl
0.00 0.00 493.23 198.43 cl
0.00 0.00 493.23 198.43 cl
55.10 54.39 239.64 177.42 cl
0 0 0 srgb
1.07 setlinewidth
[] 0 setdash
0 setlinecap
1 setlinejoin
1.00 setmiterlimit
np
64.59 111.90 m
18.40 -14.58 l
18.39 -7.41 l
18.40 -5.00 l
18.39 -2.28 l
18.40 -1.45 l
18.39 -3.02 l
18.40 -2.93 l
18.39 -3.17 l
18.40 2.61 l
o
1 0 0 srgb
1.07 setlinewidth
[ 4.27 4.27] 0 setdash
np
64.59 109.35 m
18.40 -18.42 l
18.39 -4.93 l
18.40 -6.40 l
18.39 -2.24 l
18.40 -0.81 l
18.39 -10.74 l
18.40 4.82 l
18.39 -2.73 l
18.40 -3.20 l
o
0 0 1 srgb
1.07 setlinewidth
[ 1.07 3.20] 0 setdash
np
64.59 128.24 m
18.40 28.14 l
18.39 -22.49 l
18.40 -1.53 l
18.39 -4.36 l
18.40 -3.48 l
18.39 -16.24 l
18.40 12.74 l
18.39 -15.39 l
18.40 -0.50 l
o
/bg { 0 0 0 srgb } def
0 0 0 srgb
0.71 setlinewidth
[] 0 setdash
1 setlinecap
10.00 setmiterlimit
64.59 111.90 2.49 c p3
82.99 97.32 2.49 c p3
101.38 89.91 2.49 c p3
119.78 84.91 2.49 c p3
138.17 82.63 2.49 c p3
156.57 81.18 2.49 c p3
174.96 78.16 2.49 c p3
193.36 75.23 2.49 c p3
211.75 72.06 2.49 c p3
230.15 74.67 2.49 c p3
/bg { 1 0 0 srgb } def
1 0 0 srgb
64.59 109.35 2.49 c p3
82.99 90.93 2.49 c p3
101.38 86.00 2.49 c p3
119.78 79.60 2.49 c p3
138.17 77.36 2.49 c p3
156.57 76.55 2.49 c p3
174.96 65.81 2.49 c p3
193.36 70.63 2.49 c p3
211.75 67.90 2.49 c p3
230.15 64.70 2.49 c p3
/bg { 0 0 1 srgb } def
0 0 1 srgb
64.59 128.24 2.49 c p3
82.99 156.38 2.49 c p3
101.38 133.89 2.49 c p3
119.78 132.36 2.49 c p3
138.17 128.00 2.49 c p3
156.57 124.52 2.49 c p3
174.96 108.28 2.49 c p3
193.36 121.02 2.49 c p3
211.75 105.63 2.49 c p3
230.15 105.13 2.49 c p3
0 0 0 srgb
1.07 setlinewidth
[] 0 setdash
0 setlinecap
1.00 setmiterlimit
np
63.49 122.48 m
2.21 0 l
o
np
64.59 122.48 m
0 -21.15 l
o
np
63.49 101.33 m
2.21 0 l
o
np
81.88 108.38 m
2.21 0 l
o
np
82.99 108.38 m
0 -22.12 l
o
np
81.88 86.26 m
2.21 0 l
o
np
100.28 93.62 m
2.21 0 l
o
np
101.38 93.62 m
0 -7.41 l
o
np
100.28 86.21 m
2.21 0 l
o
np
118.67 92.50 m
2.21 0 l
o
np
119.78 92.50 m
0 -15.18 l
o
np
118.67 77.32 m
2.21 0 l
o
np
137.07 88.94 m
2.21 0 l
o
np
138.17 88.94 m
0 -12.61 l
o
np
137.07 76.33 m
2.21 0 l
o
np
155.46 86.74 m
2.21 0 l
o
np
156.57 86.74 m
0 -11.12 l
o
np
155.46 75.62 m
2.21 0 l
o
np
173.86 85.61 m
2.21 0 l
o
np
174.96 85.61 m
0 -14.90 l
o
np
173.86 70.71 m
2.21 0 l
o
np
192.25 83.25 m
2.21 0 l
o
np
193.36 83.25 m
0 -16.04 l
o
np
192.25 67.21 m
2.21 0 l
o
np
210.65 78.18 m
2.21 0 l
o
np
211.75 78.18 m
0 -12.24 l
o
np
210.65 65.94 m
2.21 0 l
o
np
229.04 88.67 m
2.21 0 l
o
np
230.15 88.67 m
0 -27.99 l
o
np
229.04 60.68 m
2.21 0 l
o
1 0 0 srgb
np
63.49 117.50 m
2.21 0 l
o
np
64.59 117.50 m
0 -16.30 l
o
np
63.49 101.20 m
2.21 0 l
o
np
81.88 98.92 m
2.21 0 l
o
np
82.99 98.92 m
0 -15.99 l
o
np
81.88 82.93 m
2.21 0 l
o
np
100.28 97.11 m
2.21 0 l
o
np
101.38 97.11 m
0 -22.22 l
o
np
100.28 74.89 m
2.21 0 l
o
np
118.67 88.66 m
2.21 0 l
o
np
119.78 88.66 m
0 -18.13 l
o
np
118.67 70.53 m
2.21 0 l
o
np
137.07 84.48 m
2.21 0 l
o
np
138.17 84.48 m
0 -14.24 l
o
np
137.07 70.24 m
2.21 0 l
o
np
155.46 82.70 m
2.21 0 l
o
np
156.57 82.70 m
0 -12.31 l
o
np
155.46 70.39 m
2.21 0 l
o
np
173.86 69.45 m
2.21 0 l
o
np
174.96 69.45 m
0 -7.28 l
o
np
173.86 62.17 m
2.21 0 l
o
np
192.25 78.97 m
2.21 0 l
o
np
193.36 78.97 m
0 -16.67 l
o
np
192.25 62.30 m
2.21 0 l
o
np
210.65 74.14 m
2.21 0 l
o
np
211.75 74.14 m
0 -12.48 l
o
np
210.65 61.66 m
2.21 0 l
o
np
229.04 69.41 m
2.21 0 l
o
np
230.15 69.41 m
0 -9.42 l
o
np
229.04 59.99 m
2.21 0 l
o
0 0 1 srgb
np
63.49 130.65 m
2.21 0 l
o
np
64.59 130.65 m
0 -4.82 l
o
np
63.49 125.83 m
2.21 0 l
o
np
81.88 171.83 m
2.21 0 l
o
np
82.99 171.83 m
0 -30.90 l
o
np
81.88 140.93 m
2.21 0 l
o
np
100.28 142.39 m
2.21 0 l
o
np
101.38 142.39 m
0 -17.00 l
o
np
100.28 125.39 m
2.21 0 l
o
np
118.67 138.37 m
2.21 0 l
o
np
119.78 138.37 m
0 -12.02 l
o
np
118.67 126.35 m
2.21 0 l
o
np
137.07 135.31 m
2.21 0 l
o
np
138.17 135.31 m
0 -14.61 l
o
np
137.07 120.70 m
2.21 0 l
o
np
155.46 133.15 m
2.21 0 l
o
np
156.57 133.15 m
0 -17.25 l
o
np
155.46 115.90 m
2.21 0 l
o
np
173.86 113.05 m
2.21 0 l
o
np
174.96 113.05 m
0 -9.53 l
o
np
173.86 103.52 m
2.21 0 l
o
np
192.25 125.48 m
2.21 0 l
o
np
193.36 125.48 m
0 -8.92 l
o
np
192.25 116.56 m
2.21 0 l
o
np
210.65 110.02 m
2.21 0 l
o
np
211.75 110.02 m
0 -8.78 l
o
np
210.65 101.24 m
2.21 0 l
o
np
229.04 114.96 m
2.21 0 l
o
np
230.15 114.96 m
0 -19.65 l
o
np
229.04 95.31 m
2.21 0 l
o
0.00 0.00 493.23 198.43 cl
0.00 0.00 493.23 198.43 cl
0.00 0.00 493.23 198.43 cl
0 0 0 srgb
1.07 setlinewidth
[] 0 setdash
0 setlinecap
1 setlinejoin
10.00 setmiterlimit
np
55.10 54.39 m
0 123.03 l
o
0.00 0.00 493.23 198.43 cl
0.00 0.00 493.23 198.43 cl
0.00 0.00 493.23 198.43 cl
/Font1 findfont 12 s
0 0 0 srgb
48.62 81.97 (3.0) 1 0 t
48.62 121.66 (3.5) 1 0 t
48.62 161.35 (4.0) 1 0 t
0.00 0.00 493.23 198.43 cl
0.00 0.00 493.23 198.43 cl
0.00 0.00 493.23 198.43 cl
0 0 0 srgb
1.07 setlinewidth
[] 0 setdash
0 setlinecap
1 setlinejoin
10.00 setmiterlimit
np
51.61 86.27 m
3.49 0 l
o
np
51.61 125.97 m
3.49 0 l
o
np
51.61 165.66 m
3.49 0 l
o
0.00 0.00 493.23 198.43 cl
0.00 0.00 493.23 198.43 cl
0.00 0.00 493.23 198.43 cl
0.00 0.00 493.23 198.43 cl
0.00 0.00 493.23 198.43 cl
0.00 0.00 493.23 198.43 cl
0 0 0 srgb
1.07 setlinewidth
[] 0 setdash
0 setlinecap
1 setlinejoin
10.00 setmiterlimit
np
55.10 54.39 m
184.54 0 l
o
0.00 0.00 493.23 198.43 cl
0.00 0.00 493.23 198.43 cl
0.00 0.00 493.23 198.43 cl
0 0 0 srgb
1.07 setlinewidth
[] 0 setdash
0 setlinecap
1 setlinejoin
10.00 setmiterlimit
np
64.59 50.91 m
0 3.48 l
o
np
82.99 50.91 m
0 3.48 l
o
np
101.38 50.91 m
0 3.48 l
o
np
119.78 50.91 m
0 3.48 l
o
np
138.17 50.91 m
0 3.48 l
o
np
156.57 50.91 m
0 3.48 l
o
np
174.96 50.91 m
0 3.48 l
o
np
193.36 50.91 m
0 3.48 l
o
np
211.75 50.91 m
0 3.48 l
o
np
230.15 50.91 m
0 3.48 l
o
np
64.59 50.91 m
0 3.48 l
o
np
82.99 50.91 m
0 3.48 l
o
np
101.38 50.91 m
0 3.48 l
o
np
119.78 50.91 m
0 3.48 l
o
np
138.17 50.91 m
0 3.48 l
o
np
156.57 50.91 m
0 3.48 l
o
np
174.96 50.91 m
0 3.48 l
o
np
193.36 50.91 m
0 3.48 l
o
np
211.75 50.91 m
0 3.48 l
o
np
230.15 50.91 m
0 3.48 l
o
np
64.59 50.91 m
0 3.48 l
o
np
82.99 50.91 m
0 3.48 l
o
np
101.38 50.91 m
0 3.48 l
o
np
119.78 50.91 m
0 3.48 l
o
np
138.17 50.91 m
0 3.48 l
o
np
156.57 50.91 m
0 3.48 l
o
np
174.96 50.91 m
0 3.48 l
o
np
193.36 50.91 m
0 3.48 l
o
np
211.75 50.91 m
0 3.48 l
o
np
230.15 50.91 m
0 3.48 l
o
0.00 0.00 493.23 198.43 cl
0.00 0.00 493.23 198.43 cl
/Font1 findfont 12 s
0 0 0 srgb
64.59 39.30 (10) .5 0 t
82.99 39.30 (20) .5 0 t
101.38 39.30 (30) .5 0 t
119.78 39.30 (40) .5 0 t
138.17 39.30 (50) .5 0 t
156.57 39.30 (60) .5 0 t
174.96 39.30 (70) .5 0 t
193.36 39.30 (80) .5 0 t
211.75 39.30 (90) .5 0 t
230.15 39.30 (100) .5 0 t
64.59 39.30 (10) .5 0 t
82.99 39.30 (20) .5 0 t
101.38 39.30 (30) .5 0 t
119.78 39.30 (40) .5 0 t
138.17 39.30 (50) .5 0 t
156.57 39.30 (60) .5 0 t
174.96 39.30 (70) .5 0 t
193.36 39.30 (80) .5 0 t
211.75 39.30 (90) .5 0 t
230.15 39.30 (100) .5 0 t
64.59 39.30 (10) .5 0 t
82.99 39.30 (20) .5 0 t
101.38 39.30 (30) .5 0 t
119.78 39.30 (40) .5 0 t
138.17 39.30 (50) .5 0 t
156.57 39.30 (60) .5 0 t
174.96 39.30 (70) .5 0 t
193.36 39.30 (80) .5 0 t
211.75 39.30 (90) .5 0 t
230.15 39.30 (100) .5 0 t
0.00 0.00 493.23 198.43 cl
0.00 0.00 493.23 198.43 cl
0.00 0.00 493.23 198.43 cl
0.00 0.00 493.23 198.43 cl
0.00 0.00 493.23 198.43 cl
0.00 0.00 493.23 198.43 cl
/Font1 findfont 13 s
0 0 0 srgb
147.37 23.99 (threads) .5 0 t
0.00 0.00 493.23 198.43 cl
0.00 0.00 493.23 198.43 cl
0.00 0.00 493.23 198.43 cl
/Font1 findfont 13 s
0 0 0 srgb
19.30 53.77 (negativ) 90 ta
-0.325 (e loglik) tb
-0.260 (elihood) tb gr
0.00 0.00 493.23 198.43 cl
0.00 0.00 493.23 198.43 cl
0.00 0.00 493.23 198.43 cl
0.00 0.00 493.23 198.43 cl
0.00 0.00 493.23 198.43 cl
0.00 0.00 493.23 198.43 cl
0.00 0.00 493.23 198.43 cl
0.00 0.00 493.23 198.43 cl
0.00 0.00 493.23 198.43 cl
0.00 0.00 493.23 198.43 cl
0.00 0.00 493.23 198.43 cl
0.00 0.00 493.23 198.43 cl
0.00 0.00 493.23 198.43 cl
0 0 0 srgb
1.07 setlinewidth
[] 0 setdash
0 setlinecap
1 setlinejoin
10.00 setmiterlimit
np
172.64 165.06 m
11.52 0 l
o
0.00 0.00 493.23 198.43 cl
0.00 0.00 493.23 198.43 cl
0.00 0.00 493.23 198.43 cl
0.00 0.00 493.23 198.43 cl
0 0 0 srgb
1.07 setlinewidth
[] 0 setdash
0 setlinecap
1 setlinejoin
10.00 setmiterlimit
np
172.64 165.06 m
11.52 0 l
o
0.00 0.00 493.23 198.43 cl
0.00 0.00 493.23 198.43 cl
0.00 0.00 493.23 198.43 cl
0.00 0.00 493.23 198.43 cl
1 0 0 srgb
1.07 setlinewidth
[ 4.27 4.27] 0 setdash
0 setlinecap
1 setlinejoin
10.00 setmiterlimit
np
172.64 150.66 m
11.52 0 l
o
0.00 0.00 493.23 198.43 cl
0.00 0.00 493.23 198.43 cl
0.00 0.00 493.23 198.43 cl
0.00 0.00 493.23 198.43 cl
1 0 0 srgb
1.07 setlinewidth
[ 4.27 4.27] 0 setdash
0 setlinecap
1 setlinejoin
10.00 setmiterlimit
np
172.64 150.66 m
11.52 0 l
o
0.00 0.00 493.23 198.43 cl
0.00 0.00 493.23 198.43 cl
0.00 0.00 493.23 198.43 cl
0.00 0.00 493.23 198.43 cl
0 0 1 srgb
1.07 setlinewidth
[ 1.07 3.20] 0 setdash
0 setlinecap
1 setlinejoin
10.00 setmiterlimit
np
172.64 136.26 m
11.52 0 l
o
0.00 0.00 493.23 198.43 cl
0.00 0.00 493.23 198.43 cl
0.00 0.00 493.23 198.43 cl
0.00 0.00 493.23 198.43 cl
0 0 1 srgb
1.07 setlinewidth
[ 1.07 3.20] 0 setdash
0 setlinecap
1 setlinejoin
10.00 setmiterlimit
np
172.64 136.26 m
11.52 0 l
o
0.00 0.00 493.23 198.43 cl
0.00 0.00 493.23 198.43 cl
/Font1 findfont 11 s
0 0 0 srgb
187.76 161.11 (dual-DP) 0 0 t
0.00 0.00 493.23 198.43 cl
0.00 0.00 493.23 198.43 cl
/Font1 findfont 11 s
0 0 0 srgb
187.76 146.71 (dual-fix) 0 ta
-0.330 (ed) tb gr
0.00 0.00 493.23 198.43 cl
0.00 0.00 493.23 198.43 cl
/Font1 findfont 11 s
0 0 0 srgb
187.76 132.31 (single) 0 0 t
0.00 0.00 493.23 198.43 cl
0.00 0.00 493.23 198.43 cl
0.00 0.00 493.23 198.43 cl
0.00 0.00 493.23 198.43 cl
0.00 0.00 493.23 198.43 cl
0.00 0.00 493.23 198.43 cl
0.00 0.00 493.23 198.43 cl
0.00 0.00 493.23 198.43 cl
0.00 0.00 493.23 198.43 cl
0.00 0.00 493.23 198.43 cl
0.00 0.00 493.23 198.43 cl
0.00 0.00 493.23 198.43 cl
0.00 0.00 493.23 198.43 cl
0.00 0.00 493.23 198.43 cl
0.00 0.00 493.23 198.43 cl
0.00 0.00 493.23 198.43 cl
0.00 0.00 493.23 198.43 cl
0.00 0.00 493.23 198.43 cl
0.00 0.00 493.23 198.43 cl
0.00 0.00 493.23 198.43 cl
0.00 0.00 493.23 198.43 cl
0.00 0.00 493.23 198.43 cl
246.61 14.03 493.23 184.39 cl
0.00 0.00 493.23 198.43 cl
0.00 0.00 493.23 198.43 cl
0.00 0.00 493.23 198.43 cl
301.71 54.39 486.25 177.42 cl
0 0 0 srgb
1.07 setlinewidth
[] 0 setdash
0 setlinecap
1 setlinejoin
1.00 setmiterlimit
np
311.21 122.97 m
18.39 -0.26 l
18.40 0.69 l
18.39 11.82 l
18.40 6.80 l
18.39 -3.62 l
18.40 4.17 l
18.39 7.56 l
18.40 4.88 l
18.39 0 l
o
1 0 0 srgb
1.07 setlinewidth
[ 4.27 4.27] 0 setdash
np
311.21 119.33 m
18.39 11.96 l
18.40 10.66 l
18.39 1.85 l
18.40 4.07 l
18.39 0.87 l
18.40 3.47 l
18.39 -5.44 l
18.40 3.74 l
18.39 3.90 l
o
/bg { 0 0 0 srgb } def
0 0 0 srgb
0.71 setlinewidth
[] 0 setdash
1 setlinecap
10.00 setmiterlimit
311.21 122.97 2.49 c p3
329.60 122.71 2.49 c p3
348.00 123.40 2.49 c p3
366.39 135.22 2.49 c p3
384.79 142.02 2.49 c p3
403.18 138.40 2.49 c p3
421.58 142.57 2.49 c p3
439.97 150.13 2.49 c p3
458.37 155.01 2.49 c p3
476.76 155.01 2.49 c p3
/bg { 1 0 0 srgb } def
1 0 0 srgb
311.21 119.33 2.49 c p3
329.60 131.29 2.49 c p3
348.00 141.95 2.49 c p3
366.39 143.80 2.49 c p3
384.79 147.87 2.49 c p3
403.18 148.74 2.49 c p3
421.58 152.21 2.49 c p3
439.97 146.77 2.49 c p3
458.37 150.51 2.49 c p3
476.76 154.41 2.49 c p3
0 0 0 srgb
1.07 setlinewidth
[] 0 setdash
0 setlinecap
1.00 setmiterlimit
np
310.10 131.71 m
2.21 0 l
o
np
311.21 131.71 m
0 -17.48 l
o
np
310.10 114.23 m
2.21 0 l
o
np
328.50 132.12 m
2.20 0 l
o
np
329.60 132.12 m
0 -18.81 l
o
np
328.50 113.31 m
2.20 0 l
o
np
346.89 134.25 m
2.21 0 l
o
np
348.00 134.25 m
0 -21.69 l
o
np
346.89 112.56 m
2.21 0 l
o
np
365.29 143.65 m
2.21 0 l
o
np
366.39 143.65 m
0 -16.86 l
o
np
365.29 126.79 m
2.21 0 l
o
np
383.68 148.93 m
2.21 0 l
o
np
384.79 148.93 m
0 -13.82 l
o
np
383.68 135.11 m
2.21 0 l
o
np
402.08 147.30 m
2.21 0 l
o
np
403.18 147.30 m
0 -17.81 l
o
np
402.08 129.49 m
2.21 0 l
o
np
420.47 145.19 m
2.21 0 l
o
np
421.58 145.19 m
0 -5.24 l
o
np
420.47 139.95 m
2.21 0 l
o
np
438.87 156.49 m
2.21 0 l
o
np
439.97 156.49 m
0 -12.72 l
o
np
438.87 143.77 m
2.21 0 l
o
np
457.26 157.96 m
2.21 0 l
o
np
458.37 157.96 m
0 -5.89 l
o
np
457.26 152.07 m
2.21 0 l
o
np
475.66 157.69 m
2.21 0 l
o
np
476.76 157.69 m
0 -5.37 l
o
np
475.66 152.32 m
2.21 0 l
o
1 0 0 srgb
np
310.10 130.79 m
2.21 0 l
o
np
311.21 130.79 m
0 -22.92 l
o
np
310.10 107.87 m
2.21 0 l
o
np
328.50 139.31 m
2.20 0 l
o
np
329.60 139.31 m
0 -16.03 l
o
np
328.50 123.28 m
2.20 0 l
o
np
346.89 149.79 m
2.21 0 l
o
np
348.00 149.79 m
0 -15.69 l
o
np
346.89 134.10 m
2.21 0 l
o
np
365.29 150.09 m
2.21 0 l
o
np
366.39 150.09 m
0 -12.59 l
o
np
365.29 137.50 m
2.21 0 l
o
np
383.68 152.71 m
2.21 0 l
o
np
384.79 152.71 m
0 -9.69 l
o
np
383.68 143.02 m
2.21 0 l
o
np
402.08 152.41 m
2.21 0 l
o
np
403.18 152.41 m
0 -7.35 l
o
np
402.08 145.06 m
2.21 0 l
o
np
420.47 156.02 m
2.21 0 l
o
np
421.58 156.02 m
0 -7.63 l
o
np
420.47 148.39 m
2.21 0 l
o
np
438.87 155.97 m
2.21 0 l
o
np
439.97 155.97 m
0 -18.39 l
o
np
438.87 137.58 m
2.21 0 l
o
np
457.26 154.27 m
2.21 0 l
o
np
458.37 154.27 m
0 -7.52 l
o
np
457.26 146.75 m
2.21 0 l
o
np
475.66 157.08 m
2.21 0 l
o
np
476.76 157.08 m
0 -5.34 l
o
np
475.66 151.74 m
2.21 0 l
o
0.00 0.00 493.23 198.43 cl
0.00 0.00 493.23 198.43 cl
0.00 0.00 493.23 198.43 cl
0 0 0 srgb
1.07 setlinewidth
[] 0 setdash
0 setlinecap
1 setlinejoin
10.00 setmiterlimit
np
301.71 54.39 m
0 123.03 l
o
0.00 0.00 493.23 198.43 cl
0.00 0.00 493.23 198.43 cl
0.00 0.00 493.23 198.43 cl
/Font1 findfont 12 s
0 0 0 srgb
295.24 55.68 (0.00) 1 0 t
295.24 81.10 (0.25) 1 0 t
295.24 106.52 (0.50) 1 0 t
295.24 131.93 (0.75) 1 0 t
295.24 157.35 (1.00) 1 0 t
0.00 0.00 493.23 198.43 cl
0.00 0.00 493.23 198.43 cl
0.00 0.00 493.23 198.43 cl
0 0 0 srgb
1.07 setlinewidth
[] 0 setdash
0 setlinecap
1 setlinejoin
10.00 setmiterlimit
np
298.23 59.99 m
3.48 0 l
o
np
298.23 85.41 m
3.48 0 l
o
np
298.23 110.82 m
3.48 0 l
o
np
298.23 136.24 m
3.48 0 l
o
np
298.23 161.66 m
3.48 0 l
o
0.00 0.00 493.23 198.43 cl
0.00 0.00 493.23 198.43 cl
0.00 0.00 493.23 198.43 cl
0.00 0.00 493.23 198.43 cl
0.00 0.00 493.23 198.43 cl
0.00 0.00 493.23 198.43 cl
0 0 0 srgb
1.07 setlinewidth
[] 0 setdash
0 setlinecap
1 setlinejoin
10.00 setmiterlimit
np
301.71 54.39 m
184.54 0 l
o
0.00 0.00 493.23 198.43 cl
0.00 0.00 493.23 198.43 cl
0.00 0.00 493.23 198.43 cl
0 0 0 srgb
1.07 setlinewidth
[] 0 setdash
0 setlinecap
1 setlinejoin
10.00 setmiterlimit
np
311.21 50.91 m
0 3.48 l
o
np
329.60 50.91 m
0 3.48 l
o
np
348.00 50.91 m
0 3.48 l
o
np
366.39 50.91 m
0 3.48 l
o
np
384.79 50.91 m
0 3.48 l
o
np
403.18 50.91 m
0 3.48 l
o
np
421.58 50.91 m
0 3.48 l
o
np
439.97 50.91 m
0 3.48 l
o
np
458.37 50.91 m
0 3.48 l
o
np
476.76 50.91 m
0 3.48 l
o
np
311.21 50.91 m
0 3.48 l
o
np
329.60 50.91 m
0 3.48 l
o
np
348.00 50.91 m
0 3.48 l
o
np
366.39 50.91 m
0 3.48 l
o
np
384.79 50.91 m
0 3.48 l
o
np
403.18 50.91 m
0 3.48 l
o
np
421.58 50.91 m
0 3.48 l
o
np
439.97 50.91 m
0 3.48 l
o
np
458.37 50.91 m
0 3.48 l
o
np
476.76 50.91 m
0 3.48 l
o
0.00 0.00 493.23 198.43 cl
0.00 0.00 493.23 198.43 cl
/Font1 findfont 12 s
0 0 0 srgb
311.21 39.30 (10) .5 0 t
329.60 39.30 (20) .5 0 t
348.00 39.30 (30) .5 0 t
366.39 39.30 (40) .5 0 t
384.79 39.30 (50) .5 0 t
403.18 39.30 (60) .5 0 t
421.58 39.30 (70) .5 0 t
439.97 39.30 (80) .5 0 t
458.37 39.30 (90) .5 0 t
476.76 39.30 (100) .5 0 t
311.21 39.30 (10) .5 0 t
329.60 39.30 (20) .5 0 t
348.00 39.30 (30) .5 0 t
366.39 39.30 (40) .5 0 t
384.79 39.30 (50) .5 0 t
403.18 39.30 (60) .5 0 t
421.58 39.30 (70) .5 0 t
439.97 39.30 (80) .5 0 t
458.37 39.30 (90) .5 0 t
476.76 39.30 (100) .5 0 t
0.00 0.00 493.23 198.43 cl
0.00 0.00 493.23 198.43 cl
0.00 0.00 493.23 198.43 cl
0.00 0.00 493.23 198.43 cl
0.00 0.00 493.23 198.43 cl
0.00 0.00 493.23 198.43 cl
/Font1 findfont 13 s
0 0 0 srgb
393.98 23.99 (threads) .5 0 t
0.00 0.00 493.23 198.43 cl
0.00 0.00 493.23 198.43 cl
0.00 0.00 493.23 198.43 cl
/Font1 findfont 13 s
0 0 0 srgb
265.91 55.57 (Adjusted Rand Inde) 90 ta
-0.390 (x) tb gr
0.00 0.00 493.23 198.43 cl
0.00 0.00 493.23 198.43 cl
0.00 0.00 493.23 198.43 cl
0.00 0.00 493.23 198.43 cl
0.00 0.00 493.23 198.43 cl
0.00 0.00 493.23 198.43 cl
0.00 0.00 493.23 198.43 cl
0.00 0.00 493.23 198.43 cl
0.00 0.00 493.23 198.43 cl
0.00 0.00 493.23 198.43 cl
0.00 0.00 493.23 198.43 cl
0.00 0.00 493.23 198.43 cl
0.00 0.00 493.23 198.43 cl
0 0 0 srgb
1.07 setlinewidth
[] 0 setdash
0 setlinecap
1 setlinejoin
10.00 setmiterlimit
np
419.26 84.04 m
11.52 0 l
o
0.00 0.00 493.23 198.43 cl
0.00 0.00 493.23 198.43 cl
0.00 0.00 493.23 198.43 cl
0.00 0.00 493.23 198.43 cl
0 0 0 srgb
1.07 setlinewidth
[] 0 setdash
0 setlinecap
1 setlinejoin
10.00 setmiterlimit
np
419.26 84.04 m
11.52 0 l
o
0.00 0.00 493.23 198.43 cl
0.00 0.00 493.23 198.43 cl
0.00 0.00 493.23 198.43 cl
0.00 0.00 493.23 198.43 cl
1 0 0 srgb
1.07 setlinewidth
[ 4.27 4.27] 0 setdash
0 setlinecap
1 setlinejoin
10.00 setmiterlimit
np
419.26 69.64 m
11.52 0 l
o
0.00 0.00 493.23 198.43 cl
0.00 0.00 493.23 198.43 cl
0.00 0.00 493.23 198.43 cl
0.00 0.00 493.23 198.43 cl
1 0 0 srgb
1.07 setlinewidth
[ 4.27 4.27] 0 setdash
0 setlinecap
1 setlinejoin
10.00 setmiterlimit
np
419.26 69.64 m
11.52 0 l
o
0.00 0.00 493.23 198.43 cl
0.00 0.00 493.23 198.43 cl
/Font1 findfont 11 s
0 0 0 srgb
434.38 80.09 (dual-DP) 0 0 t
0.00 0.00 493.23 198.43 cl
0.00 0.00 493.23 198.43 cl
/Font1 findfont 11 s
0 0 0 srgb
434.38 65.69 (dual-fix) 0 ta
-0.330 (ed) tb gr
0.00 0.00 493.23 198.43 cl
0.00 0.00 493.23 198.43 cl
0.00 0.00 493.23 198.43 cl
0.00 0.00 493.23 198.43 cl
0.00 0.00 493.23 198.43 cl
0.00 0.00 493.23 198.43 cl
0.00 0.00 493.23 198.43 cl
0.00 0.00 493.23 198.43 cl
0.00 0.00 493.23 198.43 cl
0.00 0.00 493.23 198.43 cl
0.00 0.00 493.23 198.43 cl
0.00 0.00 493.23 198.43 cl
0.00 0.00 493.23 198.43 cl
0.00 0.00 493.23 198.43 cl
0.00 0.00 493.23 198.43 cl
0.00 0.00 493.23 198.43 cl
0.00 0.00 493.23 198.43 cl
0.00 0.00 493.23 198.43 cl
0.00 0.00 493.23 198.43 cl
0.00 0.00 493.23 198.43 cl
0.00 0.00 493.23 198.43 cl
0.00 0.00 493.23 198.43 cl
0.00 0.00 493.23 198.43 cl
0.00 0.00 493.23 198.43 cl
0.00 0.00 493.23 198.43 cl
0.00 0.00 493.23 198.43 cl
0.00 0.00 493.23 198.43 cl
0.00 0.00 493.23 198.43 cl
0.00 0.00 493.23 198.43 cl
0.00 0.00 493.23 198.43 cl
0.00 0.00 493.23 198.43 cl
0.00 0.00 493.23 198.43 cl
0.00 0.00 493.23 198.43 cl
0.00 0.00 493.23 198.43 cl
0.00 0.00 493.23 198.43 cl
0.00 0.00 493.23 198.43 cl
0.00 0.00 493.23 198.43 cl
ep
%%Trailer
%%Pages: 1
%%EOF
