\relax 
\providecommand*{\memsetcounter}[2]{}
\providecommand\hyper@newdestlabel[2]{}
\providecommand\HyperFirstAtBeginDocument{\AtBeginDocument}
\HyperFirstAtBeginDocument{\ifx\hyper@anchor\@undefined
\global\let\oldcontentsline\contentsline
\gdef\contentsline#1#2#3#4{\oldcontentsline{#1}{#2}{#3}}
\global\let\oldnewlabel\newlabel
\gdef\newlabel#1#2{\newlabelxx{#1}#2}
\gdef\newlabelxx#1#2#3#4#5#6{\oldnewlabel{#1}{{#2}{#3}}}
\AtEndDocument{\ifx\hyper@anchor\@undefined
\let\contentsline\oldcontentsline
\let\newlabel\oldnewlabel
\fi}
\fi}
\global\let\hyper@last\relax 
\gdef\HyperFirstAtBeginDocument#1{#1}
\providecommand\HyField@AuxAddToFields[1]{}
\providecommand\HyField@AuxAddToCoFields[2]{}
\@writefile{lof}{\addvspace {10pt}}
\@writefile{lot}{\addvspace {10pt}}
\@writefile{toc}{\contentsline {chapter}{\chapternumberline {1}Non-parametric clustering over user features and latent behavioral functions with dual-view mixture models}{1}{chapter.1}}
\@writefile{loa}{\addvspace {10\p@ }}
\@writefile{toc}{\contentsline {section}{\numberline {1.1}Introduction}{1}{section.1.1}}
\newlabel{sec:introduction}{{\M@TitleReference {1.1}{Introduction}}{1}{Introduction}{section.1.1}{}}
\citation{SteffenandTobiasScheffer}
\citation{Kumar2011}
\citation{Mitchell1998}
\citation{Greene2009a}
\citation{Niu2012}
\citation{Eisen1998}
\citation{Brown2000}
\citation{Pavlidis2002}
\citation{Pellegrini1999a}
\citation{Cheng2014}
\citation{Bonilla2010}
\citation{Abbasnejad2013a}
\citation{Abbasnejad2013a}
\@writefile{toc}{\contentsline {section}{\numberline {1.2}Model description}{3}{section.1.2}}
\newlabel{sec:modeldescription}{{\M@TitleReference {1.2}{Model description}}{3}{Model description}{section.1.2}{}}
\@writefile{toc}{\contentsline {subsection}{Mixture models}{3}{section*.1}}
\newlabel{sec:mixturemodels}{{\M@TitleReference {1.2}{Mixture models}}{3}{Mixture models}{section*.1}{}}
\citation{Bonilla2010,Abbasnejad2013a}
\citation{Cheung2004}
\@writefile{toc}{\contentsline {subsection}{Dual-view mixture model}{4}{section*.2}}
\newlabel{sec:dual-view}{{\M@TitleReference {1.2}{Dual-view mixture model}}{4}{Dual-view mixture model}{section*.2}{}}
\@writefile{lof}{\contentsline {figure}{\numberline {1.1}{\ignorespaces Graphical model of the generative process for $U$ users and $K$ clusters. Shaded circles represent observations and white circles represent latent variables. Views are connected through the latent assignments $\mathbf  {z}$. A user $u$ draws a feature vector $\mathbf  {a}_u$ and a behavior $\mathbf  {f}_u$ from the cluster indicated by $z_u$ (the $u$-th element of $\mathbf  {z}$).\relax }}{5}{figure.caption.3}}
\providecommand*\caption@xref[2]{\@setref\relax\@undefined{#1}}
\newlabel{fig:general}{{\M@TitleReference {1.1}{Graphical model of the generative process for $U$ users and $K$ clusters. Shaded circles represent observations and white circles represent latent variables. Views are connected through the latent assignments $\mathbf  {z}$. A user $u$ draws a feature vector $\mathbf  {a}_u$ and a behavior $\mathbf  {f}_u$ from the cluster indicated by $z_u$ (the $u$-th element of $\mathbf  {z}$).\relax }}{5}{Graphical model of the generative process for $U$ users and $K$ clusters. Shaded circles represent observations and white circles represent latent variables. Views are connected through the latent assignments $\mathbf {z}$. A user $u$ draws a feature vector $\mathbf {a}_u$ and a behavior $\mathbf {f}_u$ from the cluster indicated by $z_u$ (the $u$-th element of $\mathbf {z}$).\relax }{figure.caption.3}{}}
\newlabel{eq:z_posterior}{{1.4}{6}{Dual-view mixture model}{equation.1.2.4}{}}
\newlabel{eq:z_posterior_ratio}{{1.5}{6}{Dual-view mixture model}{equation.1.2.5}{}}
\@writefile{toc}{\contentsline {subsection}{Infinite number of clusters}{6}{section*.4}}
\newlabel{sec:CRP}{{\M@TitleReference {1.2}{Infinite number of clusters}}{6}{Infinite number of clusters}{section*.4}{}}
\@writefile{toc}{\contentsline {section}{\numberline {1.3}Application to role detection in online forums}{7}{section.1.3}}
\newlabel{sec:forums}{{\M@TitleReference {1.3}{Application to role detection in online forums}}{7}{Application to role detection in online forums}{section.1.3}{}}
\citation{Rasmussen2000a}
\citation{Gorur2010}
\citation{Gorur2010}
\@writefile{toc}{\contentsline {subsection}{Feature view}{8}{section*.5}}
\newlabel{sec:forums_features}{{\M@TitleReference {1.3}{Feature view}}{8}{Feature view}{section*.5}{}}
\newlabel{eq:wishart_sar}{{1.10}{8}{Feature view}{equation.1.3.10}{}}
\newlabel{eq:gamma_ba0}{{1.14}{8}{Feature view}{equation.1.3.14}{}}
\@writefile{toc}{\contentsline {subsection}{Behavior view}{9}{section*.6}}
\newlabel{sec:forums_behaviors}{{\M@TitleReference {1.3}{Behavior view}}{9}{Behavior view}{section*.6}{}}
\citation{Gilks1992}
\@writefile{toc}{\contentsline {subsection}{Shared parameters}{10}{section*.7}}
\newlabel{sec:sharedparams}{{\M@TitleReference {1.3}{Shared parameters}}{10}{Shared parameters}{section*.7}{}}
\newlabel{eq:prior_z_CRP}{{1.24}{10}{Shared parameters}{equation.1.3.24}{}}
\@writefile{toc}{\contentsline {section}{\numberline {1.4}Inference}{10}{section.1.4}}
\newlabel{sec:inference}{{\M@TitleReference {1.4}{Inference}}{10}{Inference}{section.1.4}{}}
\citation{Neal2000}
\citation{Neal2000}
\@writefile{toc}{\contentsline {subsection}{Predictive distribution}{11}{section*.8}}
\newlabel{eq:predictive_posterior_approx}{{1.28}{11}{Predictive distribution}{equation.1.4.28}{}}
\@writefile{toc}{\contentsline {section}{\numberline {1.5}Experiments}{11}{section.1.5}}
\newlabel{sec:experiments}{{\M@TitleReference {1.5}{Experiments}}{11}{Experiments}{section.1.5}{}}
\citation{coda}
\@writefile{toc}{\contentsline {subsection}{Compared models}{12}{section*.9}}
\citation{Dahl2006}
\@writefile{lot}{\contentsline {table}{\numberline {1.1}{\ignorespaces Compared and related models. Both single models are the same since if the number of clusters is fixed to one they cannot use the feature view. The row marked as $-$ corresponds to a model that has no interest in this context since it simply finds the Gaussian distribution that best fits the observed features and makes neither clustering nor predictions.\relax }}{13}{table.caption.10}}
\newlabel{tab:models}{{\M@TitleReference {1.1}{Compared and related models. Both single models are the same since if the number of clusters is fixed to one they cannot use the feature view. The row marked as $-$ corresponds to a model that has no interest in this context since it simply finds the Gaussian distribution that best fits the observed features and makes neither clustering nor predictions.\relax }}{13}{Compared and related models. Both single models are the same since if the number of clusters is fixed to one they cannot use the feature view. The row marked as $-$ corresponds to a model that has no interest in this context since it simply finds the Gaussian distribution that best fits the observed features and makes neither clustering nor predictions.\relax }{table.caption.10}{}}
\@writefile{toc}{\contentsline {subsection}{Metrics}{13}{section*.11}}
\@writefile{toc}{\contentsline {paragraph}{Metric for clustering:}{13}{section*.12}}
\@writefile{toc}{\contentsline {paragraph}{Metric for predictions:}{14}{section*.13}}
\@writefile{toc}{\contentsline {subsection}{Agreement between views}{14}{section*.14}}
\@writefile{lof}{\contentsline {figure}{\numberline {1.2}{\ignorespaces Dataset for agreement between the views. User features (left) and user coefficients (right). Every group (shape) of users has a well differentiated set of features and coefficients.\relax }}{15}{figure.caption.15}}
\newlabel{fig:data_agreement}{{\M@TitleReference {1.2}{Dataset for agreement between the views. User features (left) and user coefficients (right). Every group (shape) of users has a well differentiated set of features and coefficients.\relax }}{15}{Dataset for agreement between the views. User features (left) and user coefficients (right). Every group (shape) of users has a well differentiated set of features and coefficients.\relax }{figure.caption.15}{}}
\@writefile{lof}{\contentsline {figure}{\numberline {1.3}{\ignorespaces Results for agreement between the views. Comparison of models under different threads/users ratios (50 users and variable number of threads). Means and standard errors over 5 runs.\relax }}{15}{figure.caption.16}}
\newlabel{fig:results_agreement}{{\M@TitleReference {1.3}{Results for agreement between the views. Comparison of models under different threads/users ratios (50 users and variable number of threads). Means and standard errors over 5 runs.\relax }}{15}{Results for agreement between the views. Comparison of models under different threads/users ratios (50 users and variable number of threads). Means and standard errors over 5 runs.\relax }{figure.caption.16}{}}
\@writefile{lof}{\contentsline {figure}{\numberline {1.4}{\ignorespaces Dataset for disagreement between the views. User features (left) and user coefficients (right). Two of the groups (shapes) of users have similar features but different coefficients.\relax }}{16}{figure.caption.18}}
\newlabel{fig:data_disagreement}{{\M@TitleReference {1.4}{Dataset for disagreement between the views. User features (left) and user coefficients (right). Two of the groups (shapes) of users have similar features but different coefficients.\relax }}{16}{Dataset for disagreement between the views. User features (left) and user coefficients (right). Two of the groups (shapes) of users have similar features but different coefficients.\relax }{figure.caption.18}{}}
\@writefile{toc}{\contentsline {subsection}{Disagreement between views}{16}{section*.17}}
\@writefile{lof}{\contentsline {figure}{\numberline {1.5}{\ignorespaces Posteriors for DP-dual when the two views see a different number of clusters. (a) 10 users and 100 threads. (b) 25 users and 25 threads. (c) 100 users and 10 threads. Figures on the left: examples of posterior distributions of thread length predictions over 100 test threads with 50\% and 95\% credible intervals in test set with 50 users and 10, 50 and 100 threads. x-axis correspond to threads sorted by their (true) length while y-axis correspond to predicted thread lengths. True lengths are plotted in red (smoothest lines). Figures on the right: examples of posterior pairwise clustering matrices $\mathaccentV {hat}05E{\pi }$. x-axes and y-axes correspond to the users. A dark point means a high probability of being in the same cluster. The worst case is (c), which makes a similar clustering to (b) but worse predictions, because the feature view receives misguiding information from the behavior view and the number of threads is not high enough to compensate for it.\relax }}{17}{figure.caption.19}}
\newlabel{fig:confused}{{\M@TitleReference {1.5}{Posteriors for DP-dual when the two views see a different number of clusters. (a) 10 users and 100 threads. (b) 25 users and 25 threads. (c) 100 users and 10 threads. Figures on the left: examples of posterior distributions of thread length predictions over 100 test threads with 50\% and 95\% credible intervals in test set with 50 users and 10, 50 and 100 threads. x-axis correspond to threads sorted by their (true) length while y-axis correspond to predicted thread lengths. True lengths are plotted in red (smoothest lines). Figures on the right: examples of posterior pairwise clustering matrices $\mathaccentV {hat}05E{\pi }$. x-axes and y-axes correspond to the users. A dark point means a high probability of being in the same cluster. The worst case is (c), which makes a similar clustering to (b) but worse predictions, because the feature view receives misguiding information from the behavior view and the number of threads is not high enough to compensate for it.\relax }}{17}{Posteriors for DP-dual when the two views see a different number of clusters. (a) 10 users and 100 threads. (b) 25 users and 25 threads. (c) 100 users and 10 threads. Figures on the left: examples of posterior distributions of thread length predictions over 100 test threads with 50\% and 95\% credible intervals in test set with 50 users and 10, 50 and 100 threads. x-axis correspond to threads sorted by their (true) length while y-axis correspond to predicted thread lengths. True lengths are plotted in red (smoothest lines). Figures on the right: examples of posterior pairwise clustering matrices $\hat {\pi }$. x-axes and y-axes correspond to the users. A dark point means a high probability of being in the same cluster. The worst case is (c), which makes a similar clustering to (b) but worse predictions, because the feature view receives misguiding information from the behavior view and the number of threads is not high enough to compensate for it.\relax }{figure.caption.19}{}}
\@writefile{lof}{\contentsline {subfigure}{\numberline{(a)}{\ignorespaces {}}}{17}{subfigure.5.1}}
\@writefile{lof}{\contentsline {subfigure}{\numberline{(b)}{\ignorespaces {}}}{17}{subfigure.5.2}}
\@writefile{lof}{\contentsline {subfigure}{\numberline{(c)}{\ignorespaces {}}}{17}{subfigure.5.3}}
\@writefile{lof}{\contentsline {figure}{\numberline {1.6}{\ignorespaces Results for disagreement between the views. Comparison of models under different threads/users ratios (50 users and variable number of threads) when the two views see a different number of clusters. Means and standard errors over 5 runs.\relax }}{17}{figure.caption.20}}
\newlabel{fig:results_disagreement}{{\M@TitleReference {1.6}{Results for disagreement between the views. Comparison of models under different threads/users ratios (50 users and variable number of threads) when the two views see a different number of clusters. Means and standard errors over 5 runs.\relax }}{17}{Results for disagreement between the views. Comparison of models under different threads/users ratios (50 users and variable number of threads) when the two views see a different number of clusters. Means and standard errors over 5 runs.\relax }{figure.caption.20}{}}
\citation{IrisData1935}
\citation{mclust}
\@writefile{toc}{\contentsline {paragraph}{(a) Lack of information in feature view:}{18}{section*.21}}
\@writefile{toc}{\contentsline {paragraph}{(b) Lack of information in both views:}{18}{section*.22}}
\@writefile{toc}{\contentsline {paragraph}{(c) Lack of information in behavior view:}{18}{section*.23}}
\@writefile{toc}{\contentsline {subsection}{Iris dataset}{18}{section*.24}}
\@writefile{lof}{\contentsline {figure}{\numberline {1.7}{\ignorespaces Iris dataset. User features (left) and synthetic user coefficients (right)\relax }}{19}{figure.caption.25}}
\newlabel{fig:iris_data}{{\M@TitleReference {1.7}{Iris dataset. User features (left) and synthetic user coefficients (right)\relax }}{19}{Iris dataset. User features (left) and synthetic user coefficients (right)\relax }{figure.caption.25}{}}
\@writefile{lof}{\contentsline {figure}{\numberline {1.8}{\ignorespaces Results for the iris dataset. Comparison of models under different threads/users ratios (50 users and variable number of threads). Means and standard errors over 5 runs.\relax }}{19}{figure.caption.26}}
\newlabel{fig:iris_results}{{\M@TitleReference {1.8}{Results for the iris dataset. Comparison of models under different threads/users ratios (50 users and variable number of threads). Means and standard errors over 5 runs.\relax }}{19}{Results for the iris dataset. Comparison of models under different threads/users ratios (50 users and variable number of threads). Means and standard errors over 5 runs.\relax }{figure.caption.26}{}}
\@writefile{lof}{\contentsline {figure}{\numberline {1.9}{\ignorespaces Predictive posteriors given by the \texttt  {DP-dual} model over thread lengths and pairwise clustering matrices with 50 users and a training set of 10 threads (left) and 100 threads (right). Shadowed areas indicate 95\% and 50\% credible intervals. True lengths are plotted in red (smoothest lines). As the number of thread increases, the model starts to see the three cluster structure as well as to make better predictions.\relax }}{20}{figure.caption.27}}
\newlabel{fig:iris_posteriors}{{\M@TitleReference {1.9}{Predictive posteriors given by the \texttt  {DP-dual} model over thread lengths and pairwise clustering matrices with 50 users and a training set of 10 threads (left) and 100 threads (right). Shadowed areas indicate 95\% and 50\% credible intervals. True lengths are plotted in red (smoothest lines). As the number of thread increases, the model starts to see the three cluster structure as well as to make better predictions.\relax }}{20}{Predictive posteriors given by the \texttt {DP-dual} model over thread lengths and pairwise clustering matrices with 50 users and a training set of 10 threads (left) and 100 threads (right). Shadowed areas indicate 95\% and 50\% credible intervals. True lengths are plotted in red (smoothest lines). As the number of thread increases, the model starts to see the three cluster structure as well as to make better predictions.\relax }{figure.caption.27}{}}
\@writefile{toc}{\contentsline {subsection}{Computational cost}{20}{section*.29}}
\newlabel{sec:cost}{{\M@TitleReference {1.5}{Computational cost}}{20}{Computational cost}{section*.29}{}}
\@writefile{lof}{\contentsline {figure}{\numberline {1.10}{\ignorespaces Left: histogram of the number of active clusters estimated by the \texttt  {DP-model} in the \textit  {iris} scenario with 50 threads. Right: mean and standard deviations of the number of users assigned to each cluster during the chain. Most users are assigned to the three major clusters and a small group of users is assigned to a fourth cluster.\relax }}{21}{figure.caption.28}}
\newlabel{fig:nclusters}{{\M@TitleReference {1.10}{Left: histogram of the number of active clusters estimated by the \texttt  {DP-model} in the \textit  {iris} scenario with 50 threads. Right: mean and standard deviations of the number of users assigned to each cluster during the chain. Most users are assigned to the three major clusters and a small group of users is assigned to a fourth cluster.\relax }}{21}{Left: histogram of the number of active clusters estimated by the \texttt {DP-model} in the \textit {iris} scenario with 50 threads. Right: mean and standard deviations of the number of users assigned to each cluster during the chain. Most users are assigned to the three major clusters and a small group of users is assigned to a fourth cluster.\relax }{figure.caption.28}{}}
\citation{Abbasnejad2013a}
\@writefile{toc}{\contentsline {subsection}{Summary of the experiments}{22}{section*.30}}
\@writefile{toc}{\contentsline {section}{\numberline {1.6}Conclusions}{22}{section.1.6}}
\newlabel{sec:conclusions}{{\M@TitleReference {1.6}{Conclusions}}{22}{Conclusions}{section.1.6}{}}
\@writefile{toc}{\contentsline {section}{\numberline {.1}Chinese Restaurant Process}{24}{section.Alph0.1}}
\newlabel{eq:p_z}{{35}{24}{Chinese Restaurant Process}{equation.Alph0.1.35}{}}
\newlabel{eq:z_cond}{{36}{25}{Chinese Restaurant Process}{equation.Alph0.1.36}{}}
\newlabel{eq:p_z_minus}{{37}{25}{Chinese Restaurant Process}{equation.Alph0.1.37}{}}
\@writefile{toc}{\contentsline {section}{\numberline {.2}Conditionals for the feature view}{25}{section.Alph0.2}}
\@writefile{toc}{\contentsline {subsection}{Component parameters}{26}{section*.31}}
\@writefile{toc}{\contentsline {subsection}{Shared hyper-parameters}{26}{section*.34}}
\@writefile{toc}{\contentsline {section}{\numberline {.3}Conditionals for the behavior view}{28}{section.Alph0.3}}
\@writefile{toc}{\contentsline {subsection}{Users parameters}{28}{section*.39}}
\@writefile{toc}{\contentsline {subsection}{Component parameters}{29}{section*.41}}
\@writefile{toc}{\contentsline {subsection}{Shared hyper-parameters}{29}{section*.44}}
\@writefile{toc}{\contentsline {subsection}{Regression noise}{31}{section*.49}}
\@writefile{toc}{\contentsline {section}{\numberline {.4}Sampling $\beta _{0}^\text  {(a)}$}{31}{section.Alph0.4}}
\@writefile{toc}{\contentsline {section}{\numberline {.5}Sampling $\beta _{0}^\text  {(f)}$}{32}{section.Alph0.5}}
\@writefile{toc}{\contentsline {section}{\numberline {.6}Sampling $\alpha $}{33}{section.Alph0.6}}
\bibstyle{spbasic}
\bibdata{library}
\bibcite{Abbasnejad2013a}{{1}{2013}{{Abbasnejad et~al}}{{Abbasnejad, Sanner, Bonilla, and Poupart}}}
\bibcite{IrisData1935}{{2}{1935}{{Anderson}}{{}}}
\bibcite{SteffenandTobiasScheffer}{{3}{2004}{{Bickel and Scheffer}}{{}}}
\bibcite{Mitchell1998}{{4}{1998}{{Blum and Mitchell}}{{}}}
\bibcite{Bonilla2010}{{5}{2010}{{Bonilla et~al}}{{Bonilla, Guo, and Sanner}}}
\bibcite{Brown2000}{{6}{2000}{{Brown et~al}}{{Brown, Grundy, Lin, Cristianini, Sugnet, Furey, Ares, and Haussler}}}
\bibcite{Cheng2014}{{7}{2014}{{Cheng et~al}}{{Cheng, Agrawal, Choudhary, Liu, and Zhang}}}
\bibcite{Cheung2004}{{8}{2004}{{Cheung et~al}}{{Cheung, Tsui, and Liu}}}
\bibcite{Dahl2006}{{9}{2006}{{Dahl}}{{}}}
\bibcite{Eisen1998}{{10}{1998}{{Eisen et~al}}{{Eisen, Spellman, Brown, and Botstein}}}
\@writefile{toc}{\contentsline {chapter}{Bibliography}{35}{section*.51}}
\bibcite{mclust}{{11}{2012}{{Fraley et~al}}{{Fraley, Raftery, Murphy, and Scrucca}}}
\bibcite{Gilks1992}{{12}{1992}{{Gilks and Wild}}{{}}}
\bibcite{Gorur2010}{{13}{2010}{{G\"{o}r\"{u}r and Rasmussen}}{{}}}
\bibcite{Greene2009a}{{14}{2009}{{Greene and P\'{a}draig}}{{}}}
\bibcite{Kumar2011}{{15}{2011}{{Kumar et~al}}{{Kumar, Rai, and Daume}}}
\bibcite{Neal2000}{{16}{2000}{{Neal}}{{}}}
\bibcite{Niu2012}{{17}{2012}{{Niu et~al}}{{Niu, Dy, and Ghahramani}}}
\bibcite{Pavlidis2002}{{18}{2002}{{Pavlidis et~al}}{{Pavlidis, Weston, Cai, and Noble}}}
\bibcite{Pellegrini1999a}{{19}{1999}{{Pellegrini et~al}}{{Pellegrini, Marcotte, Thompson, Eisenberg, and Yeates}}}
\bibcite{coda}{{20}{2006}{{Plummer et~al}}{{Plummer, Best, Cowles, and Vines}}}
\bibcite{Rasmussen2000a}{{21}{2000}{{Rasmussen}}{{}}}
\memsetcounter{lastsheet}{36}
\memsetcounter{lastpage}{36}
