\relax 
\providecommand*{\memsetcounter}[2]{}
\providecommand\hyper@newdestlabel[2]{}
\providecommand\HyperFirstAtBeginDocument{\AtBeginDocument}
\HyperFirstAtBeginDocument{\ifx\hyper@anchor\@undefined
\global\let\oldcontentsline\contentsline
\gdef\contentsline#1#2#3#4{\oldcontentsline{#1}{#2}{#3}}
\global\let\oldnewlabel\newlabel
\gdef\newlabel#1#2{\newlabelxx{#1}#2}
\gdef\newlabelxx#1#2#3#4#5#6{\oldnewlabel{#1}{{#2}{#3}}}
\AtEndDocument{\ifx\hyper@anchor\@undefined
\let\contentsline\oldcontentsline
\let\newlabel\oldnewlabel
\fi}
\fi}
\global\let\hyper@last\relax 
\gdef\HyperFirstAtBeginDocument#1{#1}
\providecommand\HyField@AuxAddToFields[1]{}
\providecommand\HyField@AuxAddToCoFields[2]{}
\citation{Wasserman1994}
\citation{Moreno1934}
\citation{Moreno1934}
\citation{Wasserman1994}
\@writefile{lof}{\addvspace {10pt}}
\@writefile{lot}{\addvspace {10pt}}
\@writefile{toc}{\contentsline {chapter}{\chapternumberline {1}Role analysis (deprecated)}{1}{chapter.1}}
\@writefile{loa}{\addvspace {10\p@ }}
\@writefile{toc}{\contentsline {section}{\numberline {1.1}Roles in graphs}{1}{section.1.1}}
\citation{Fisher2006}
\citation{Maia2008}
\citation{Goyal2008}
\citation{Himelboim2009}
\citation{Glea2009}
\citation{Chan2010}
\citation{Angeletou2011a}
\citation{Welser2011}
\citation{Furtado2013}
\citation{Welser2007}
\citation{Forestier2012a}
\citation{Golder2003}
\@writefile{toc}{\contentsline {section}{\numberline {1.2}Structural-based roles}{2}{section.1.2}}
\citation{Nonnecke2000,Nonnecke2004,Nonnecke2006}
\citation{Kriplean2008}
\citation{Golder2004}
\citation{Airoldi2008}
\citation{Glea2009}
\citation{Adamic2008}
\citation{Nolker2005}
\citation{Anderson2014}
\citation{Backstrom2013}
\citation{Cong2008}
\citation{Ni2012}
\citation{Crain2012a}
\citation{Wang2012e}
\citation{Adal2012}
\citation{Brandes2009}
\citation{Dahlin2012}
\citation{Wang2010}
\@writefile{toc}{\contentsline {section}{\numberline {1.3}Roles in online forums}{3}{section.1.3}}
\@writefile{toc}{\contentsline {section}{\numberline {1.4}Bottom-up and top-down}{3}{section.1.4}}
\@writefile{toc}{\contentsline {section}{\numberline {1.5}Forum analysis}{3}{section.1.5}}
\citation{Bhatt2012}
\citation{Kan2012}
\@writefile{toc}{\contentsline {section}{\numberline {1.6}Forum dynamics}{4}{section.1.6}}
\memsetcounter{lastsheet}{4}
\memsetcounter{lastpage}{4}
