\relax 
\providecommand*{\memsetcounter}[2]{}
\providecommand\hyper@newdestlabel[2]{}
\providecommand\HyperFirstAtBeginDocument{\AtBeginDocument}
\HyperFirstAtBeginDocument{\ifx\hyper@anchor\@undefined
\global\let\oldcontentsline\contentsline
\gdef\contentsline#1#2#3#4{\oldcontentsline{#1}{#2}{#3}}
\global\let\oldnewlabel\newlabel
\gdef\newlabel#1#2{\newlabelxx{#1}#2}
\gdef\newlabelxx#1#2#3#4#5#6{\oldnewlabel{#1}{{#2}{#3}}}
\AtEndDocument{\ifx\hyper@anchor\@undefined
\let\contentsline\oldcontentsline
\let\newlabel\oldnewlabel
\fi}
\fi}
\global\let\hyper@last\relax 
\gdef\HyperFirstAtBeginDocument#1{#1}
\providecommand\HyField@AuxAddToFields[1]{}
\providecommand\HyField@AuxAddToCoFields[2]{}
\citation{Zighed2012}
\citation{Goffman1959}
\citation{Biddle1986}
\citation{Goffman1959}
\citation{Glea2009}
\@writefile{lof}{\addvspace {10pt}}
\@writefile{lot}{\addvspace {10pt}}
\@writefile{toc}{\contentsline {chapter}{\chapternumberline {1}Role analysis}{1}{chapter.1}}
\@writefile{loa}{\addvspace {10\p@ }}
\@writefile{toc}{\contentsline {section}{\numberline {1.1}Role theory}{1}{section.1.1}}
\citation{Wasserman1994}
\citation{Moreno1934}
\citation{Moreno1934}
\citation{Wasserman1994}
\citation{White1976}
\@writefile{toc}{\contentsline {section}{\numberline {1.2}Roles in graphs}{2}{section.1.2}}
\citation{White1976,Boorman1976}
\citation{Lorrain1971a}
\citation{Borgatti1992}
\citation{White1976,Holland1970,Holland1983,Wasserman1987,Anderson1992,Nowicki2001}
\citation{Airoldi2008}
\citation{Fu2009}
\citation{Rossi2013}
\citation{Golder2004}
\@writefile{toc}{\contentsline {subsection}{Roles based in structural position}{3}{section*.1}}
\citation{Fisher2006}
\citation{Maia2008}
\citation{Goyal2008}
\citation{Himelboim2009}
\citation{Glea2009}
\citation{Chan2010}
\citation{Angeletou2011a}
\citation{Welser2011}
\citation{Furtado2013}
\@writefile{toc}{\contentsline {subsection}{Roles based in structural dynamics}{4}{section*.2}}
\@writefile{toc}{\contentsline {section}{\numberline {1.3}Ethnology-based roles}{4}{section.1.3}}
\@writefile{toc}{\contentsline {section}{\numberline {1.4}Structural-based roles}{4}{section.1.4}}
\citation{Welser2007}
\citation{Forestier2012a}
\citation{Fisher2006}
\citation{McCallum2007}
\citation{Golder2003}
\citation{Nonnecke2000,Nonnecke2004,Nonnecke2006}
\citation{Kriplean2008}
\citation{Golder2004}
\citation{Airoldi2008}
\citation{Glea2009}
\@writefile{toc}{\contentsline {section}{\numberline {1.5}Language-based roles}{5}{section.1.5}}
\@writefile{toc}{\contentsline {section}{\numberline {1.6}Roles in online forums}{5}{section.1.6}}
\@writefile{toc}{\contentsline {section}{\numberline {1.7}Bottom-up and top-down}{5}{section.1.7}}
\citation{Adamic2008}
\citation{Nolker2005}
\citation{Anderson2014}
\citation{Backstrom2013}
\citation{Cong2008}
\citation{Ni2012}
\citation{Crain2012a}
\citation{Wang2012e}
\citation{Adal2012}
\citation{Brandes2009}
\citation{Dahlin2012}
\citation{Wang2010}
\citation{Kumar2010}
\citation{Gomez2008}
\citation{Gomez2010}
\citation{Gomez2012a}
\citation{Bhatt2012}
\citation{Kan2012}
\citation{Lumbreras2013}
\@writefile{toc}{\contentsline {section}{\numberline {1.8}Forum analysis}{6}{section.1.8}}
\@writefile{toc}{\contentsline {section}{\numberline {1.9}Others}{6}{section.1.9}}
\@writefile{toc}{\contentsline {section}{\numberline {1.10}Forum dynamics}{6}{section.1.10}}
\bibstyle{../spbasic}
\bibdata{../../bibtex/library}
\@writefile{toc}{\contentsline {section}{\numberline {1.11}Limitations of current models}{7}{section.1.11}}
\bibcite{Adal2012}{{1}{2012}{{Adal\IeC {\i } and Golbeck}}{{}}}
\bibcite{Adamic2008}{{2}{2008}{{Adamic et~al}}{{Adamic, Zhang, Bakshy, and Ackerman}}}
\bibcite{Airoldi2008}{{3}{2008}{{Airoldi et~al}}{{Airoldi, Blei, Fienberg, and Xing}}}
\bibcite{Anderson2014}{{4}{2014}{{Anderson et~al}}{{Anderson, Huttenlocher, Kleinberg, and Leskovec}}}
\bibcite{Anderson1992}{{5}{1992}{{Anderson et~al}}{{Anderson, Wasserman, and Faust}}}
\bibcite{Angeletou2011a}{{6}{2011}{{Angeletou et~al}}{{Angeletou, Rowe, and Alani}}}
\bibcite{Backstrom2013}{{7}{2013}{{Backstrom et~al}}{{Backstrom, Kleinberg, Lee, and Danescu-Niculescu-Mizil}}}
\bibcite{Bhatt2012}{{8}{2012}{{Bhatt and Barman}}{{}}}
\bibcite{Biddle1986}{{9}{1986}{{Biddle}}{{}}}
\bibcite{Boorman1976}{{10}{1976}{{Boorman and White}}{{}}}
\bibcite{Borgatti1992}{{11}{1992}{{Borgatti and Everett}}{{}}}
\bibcite{Brandes2009}{{12}{2009}{{Brandes et~al}}{{Brandes, Lerner, and a.B. Snijders}}}
\@writefile{toc}{\contentsline {chapter}{Bibliography}{9}{section*.4}}
\bibcite{Chan2010}{{13}{2010}{{Chan et~al}}{{Chan, Hayes, and Daly}}}
\bibcite{Cong2008}{{14}{2008}{{Cong et~al}}{{Cong, Wang, Lin, Song, and Sun}}}
\bibcite{Crain2012a}{{15}{2012}{{Crain et~al}}{{Crain, Yang, and Zha}}}
\bibcite{Dahlin2012}{{16}{2012}{{Dahlin et~al}}{{Dahlin, Johansson, Kaati, and Christian}}}
\bibcite{Fisher2006}{{17}{2006}{{Fisher et~al}}{{Fisher, Smith, and Welser}}}
\bibcite{Zighed2012}{{18}{2012{a}}{{Forestier et~al}}{{Forestier, {A. Stavrianou}, Velcin, and {D.A. Zighed}}}}
\bibcite{Forestier2012a}{{19}{2012{b}}{{Forestier et~al}}{{Forestier, Velcin, and Zighed}}}
\bibcite{Fu2009}{{20}{2009}{{Fu et~al}}{{Fu, Song, and Xing}}}
\bibcite{Furtado2013}{{21}{2013}{{Furtado et~al}}{{Furtado, Andrade, Oliveira, and Brasileiro}}}
\bibcite{Glea2009}{{22}{2009}{{Gleave et~al}}{{Gleave, Welser, Lento, and Smith}}}
\bibcite{Goffman1959}{{23}{1959}{{Goffman}}{{}}}
\bibcite{Golder2004}{{24}{2004}{{Golder and Donath}}{{}}}
\bibcite{Golder2003}{{25}{2003}{{Golder}}{{}}}
\bibcite{Gomez2008}{{26}{2008}{{G{\'{o}}mez et~al}}{{G{\'{o}}mez, Kaltenbrunner, and L{\'{o}}pez}}}
\bibcite{Gomez2010}{{27}{2010}{{G{\'{o}}mez et~al}}{{G{\'{o}}mez, Kappen, and Kaltenbrunner}}}
\bibcite{Gomez2012a}{{28}{2012}{{G{\'{o}}mez et~al}}{{G{\'{o}}mez, Kappen, Litvak, and Kaltenbrunner}}}
\bibcite{Goyal2008}{{29}{2008}{{Goyal et~al}}{{Goyal, Bonchi, and Lakshmanan}}}
\bibcite{Himelboim2009}{{30}{2009}{{Himelboim et~al}}{{Himelboim, Gleave, and Smith}}}
\bibcite{Holland1983}{{31}{1983}{{Holland et~al}}{{Holland, Laskey, and Leinhardt}}}
\bibcite{Kan2012}{{32}{2012}{{Kan et~al}}{{Kan, Chan, Hayes, Hogan, Bailey, and Leckie}}}
\bibcite{Kriplean2008}{{33}{2008}{{Kriplean et~al}}{{Kriplean, Beschastnikh, and McDonald}}}
\bibcite{Kumar2010}{{34}{2010}{{Kumar et~al}}{{Kumar, Mahdian, and McGlohon}}}
\bibcite{Lorrain1971a}{{35}{1971}{{Lorrain and White}}{{}}}
\bibcite{Lumbreras2013}{{36}{2013}{{Lumbreras et~al}}{{Lumbreras, Lanagan, Velcin, and Jouve}}}
\bibcite{Maia2008}{{37}{2008}{{Maia et~al}}{{Maia, Almeida, and Almeida}}}
\bibcite{McCallum2007}{{38}{2007}{{McCallum et~al}}{{McCallum, Wang, and Corrada-Emmanuel}}}
\bibcite{Moreno1934}{{39}{1934}{{Moreno}}{{}}}
\bibcite{Ni2012}{{40}{2012}{{Ni}}{{}}}
\bibcite{Nolker2005}{{41}{2005}{{Nolker and Zhou}}{{}}}
\bibcite{Nonnecke2000}{{42}{2000}{{Nonnecke and Preece}}{{}}}
\bibcite{Nonnecke2004}{{43}{2004}{{Nonnecke et~al}}{{Nonnecke, Preece, and Andrews}}}
\bibcite{Nonnecke2006}{{44}{2006}{{Nonnecke et~al}}{{Nonnecke, Andrews, and Preece}}}
\bibcite{Nowicki2001}{{45}{2001}{{Nowicki and Snijders}}{{}}}
\bibcite{Rossi2013}{{46}{2013}{{Rossi et~al}}{{Rossi, Gallagher, Neville, and Henderson}}}
\bibcite{Wang2012e}{{47}{2012}{{Wang et~al}}{{Wang, Ye, and Huberman}}}
\bibcite{Wang2010}{{48}{2010}{{Wang et~al}}{{Wang, Kraut, Butler, Joyce, and Burke}}}
\bibcite{Wasserman1987}{{49}{1987}{{Wasserman and Anderson}}{{}}}
\bibcite{Wasserman1994}{{50}{1994}{{Wasserman and Faust}}{{}}}
\bibcite{Welser2007}{{51}{2007}{{Welser et~al}}{{Welser, Gleave, Fisher, and Smith}}}
\bibcite{Welser2011}{{52}{2011}{{Welser et~al}}{{Welser, Cosley, Kossinets, Lin, Dokshin, Gay, and Smith}}}
\bibcite{White1976}{{53}{1976}{{White et~al}}{{White, Boorman, and Breiger}}}
\memsetcounter{lastsheet}{12}
\memsetcounter{lastpage}{12}
