\BOOKMARK [1][]{section.1}{Introduction}{}% 1
\BOOKMARK [1][]{section.2}{Network Growth models}{}% 2
\BOOKMARK [2][]{subsection.2.1}{Kumar model}{section.2}% 3
\BOOKMARK [2][]{subsection.2.2}{Gomez model \(2010\)}{section.2}% 4
\BOOKMARK [2][]{subsection.2.3}{Gomez model \(2012\)}{section.2}% 5
\BOOKMARK [2][]{subsection.2.4}{Wang model}{section.2}% 6
\BOOKMARK [2][]{subsection.2.5}{Limitations of current models}{section.2}% 7
\BOOKMARK [1][]{section.3}{A mixture-based model}{}% 8
\BOOKMARK [2][]{subsection.3.1}{Expectation-Maximization}{section.3}% 9
\BOOKMARK [2][]{subsection.3.2}{EM for the random threads model}{section.3}% 10
\BOOKMARK [2][]{subsection.3.3}{Number of clusters}{section.3}% 11
\BOOKMARK [1][]{section.4}{Experiments}{}% 12
\BOOKMARK [2][]{subsection.4.1}{Reproduction of structural properties}{section.4}% 13
\BOOKMARK [2][]{subsection.4.2}{Recommendation of posts}{section.4}% 14
\BOOKMARK [1][]{appendix.A}{Expectation-Maximization}{}% 15
