This is BibTeX, Version 0.99d (TeX Live 2013/Debian)
Capacity: max_strings=35307, hash_size=35307, hash_prime=30011
The top-level auxiliary file: threads.aux
The style file: spbasic.bst
Database file #1: ../bibliography.bib
Reallocated wiz_functions (elt_size=4) to 6000 items from 3000.
You've used 7 entries,
            3270 wiz_defined-function locations,
            718 strings with 6234 characters,
and the built_in function-call counts, 8845 in all, are:
= -- 892
> -- 214
< -- 9
+ -- 87
- -- 66
* -- 693
:= -- 1092
add.period$ -- 7
call.type$ -- 7
change.case$ -- 63
chr.to.int$ -- 16
cite$ -- 7
duplicate$ -- 858
empty$ -- 741
format.name$ -- 87
if$ -- 1881
int.to.chr$ -- 1
int.to.str$ -- 1
missing$ -- 72
newline$ -- 31
num.names$ -- 28
pop$ -- 227
preamble$ -- 1
purify$ -- 50
quote$ -- 0
skip$ -- 280
stack$ -- 0
substring$ -- 889
swap$ -- 337
text.length$ -- 4
text.prefix$ -- 0
top$ -- 0
type$ -- 57
warning$ -- 0
while$ -- 58
width$ -- 0
write$ -- 89
