\relax 
\providecommand*{\memsetcounter}[2]{}
\providecommand\hyper@newdestlabel[2]{}
\providecommand\HyperFirstAtBeginDocument{\AtBeginDocument}
\HyperFirstAtBeginDocument{\ifx\hyper@anchor\@undefined
\global\let\oldcontentsline\contentsline
\gdef\contentsline#1#2#3#4{\oldcontentsline{#1}{#2}{#3}}
\global\let\oldnewlabel\newlabel
\gdef\newlabel#1#2{\newlabelxx{#1}#2}
\gdef\newlabelxx#1#2#3#4#5#6{\oldnewlabel{#1}{{#2}{#3}}}
\AtEndDocument{\ifx\hyper@anchor\@undefined
\let\contentsline\oldcontentsline
\let\newlabel\oldnewlabel
\fi}
\fi}
\global\let\hyper@last\relax 
\gdef\HyperFirstAtBeginDocument#1{#1}
\providecommand\HyField@AuxAddToFields[1]{}
\providecommand\HyField@AuxAddToCoFields[2]{}
\citation{Kolaczyk2009}
\@writefile{lof}{\addvspace {10pt}}
\@writefile{lot}{\addvspace {10pt}}
\@writefile{toc}{\contentsline {chapter}{\chapternumberline {1}Detection of user roles with thread growth models}{1}{chapter.1}}
\@writefile{loa}{\addvspace {10\p@ }}
\@writefile{toc}{\contentsline {section}{\numberline {1.1}Introduction}{1}{section.1.1}}
\citation{Barabasi1999}
\citation{Barabasi1999}
\citation{Gomez2010}
\citation{Kumar2010}
\citation{Gomez2012}
\citation{Kumar2010}
\@writefile{toc}{\contentsline {section}{\numberline {1.2}Network Growth models}{2}{section.1.2}}
\newlabel{sec:related-work}{{\M@TitleReference {1.2}{Network Growth models}}{2}{Network Growth models}{section.1.2}{}}
\@writefile{toc}{\contentsline {subsection}{Barabasi-Albert (1999)}{2}{section*.1}}
\newlabel{eq:growth_model}{{1.1}{2}{Barabasi-Albert (1999)}{equation.1.2.1}{}}
\@writefile{lof}{\contentsline {figure}{\numberline {1.1}{\ignorespaces Barabasi-Albert graphs with one edge created at every step.\relax }}{3}{figure.caption.2}}
\providecommand*\caption@xref[2]{\@setref\relax\@undefined{#1}}
\newlabel{fig:Barabasi-Albert}{{\M@TitleReference {1.1}{Barabasi-Albert graphs with one edge created at every step.\relax }}{3}{Barabasi-Albert graphs with one edge created at every step.\relax }{figure.caption.2}{}}
\@writefile{lof}{\contentsline {subfigure}{\numberline{(a)}{\ignorespaces {$\alpha =0$}}}{3}{subfigure.1.1}}
\@writefile{lof}{\contentsline {subfigure}{\numberline{(b)}{\ignorespaces {$\alpha =1$}}}{3}{subfigure.1.2}}
\@writefile{lof}{\contentsline {subfigure}{\numberline{(c)}{\ignorespaces {$\alpha =1.8$}}}{3}{subfigure.1.3}}
\newlabel{tab:growth_models}{{\M@TitleReference {\caption@xref {tab:growth_models}{ on input line 117}}{Barabasi-Albert (1999)}}{3}{Barabasi-Albert (1999)}{table.caption.3}{}}
\@writefile{lot}{\contentsline {table}{\numberline {1.1}{\ignorespaces Growth models for online discussions\relax }}{3}{table.caption.3}}
\@writefile{toc}{\contentsline {subsection}{Kumar (2010)}{3}{section*.4}}
\citation{Gomez2010}
\citation{Gomez2012}
\citation{Gomez2010}
\@writefile{lof}{\contentsline {figure}{\numberline {1.2}{\ignorespaces Random grahs for discussion threads. G\IeC {\'o}mez-Kappen-Kaltenbrunner\relax }}{4}{figure.caption.6}}
\newlabel{fig:Gomez}{{\M@TitleReference {1.2}{Random grahs for discussion threads. G\IeC {\'o}mez-Kappen-Kaltenbrunner\relax }}{4}{Random grahs for discussion threads. Gómez-Kappen-Kaltenbrunner\relax }{figure.caption.6}{}}
\@writefile{lof}{\contentsline {subfigure}{\numberline{(a)}{\ignorespaces {real}}}{4}{subfigure.2.1}}
\@writefile{lof}{\contentsline {subfigure}{\numberline{(b)}{\ignorespaces {synthetic}}}{4}{subfigure.2.2}}
\@writefile{toc}{\contentsline {subsection}{Gomez (2010)}{4}{section*.5}}
\citation{Gomez2010}
\citation{Wang2012e}
\citation{Barabasi1999}
\citation{Kumar2010}
\citation{Gomez2010}
\citation{Gomez2012}
\@writefile{toc}{\contentsline {subsection}{Gomez (2012)}{5}{section*.7}}
\@writefile{toc}{\contentsline {subsection}{Wang model}{5}{section*.8}}
\@writefile{toc}{\contentsline {subsection}{Parameter estimation}{5}{section*.9}}
\citation{Gomez2012}
\@writefile{lof}{\contentsline {figure}{\numberline {1.3}{\ignorespaces Probability distributions\relax }}{6}{figure.caption.11}}
\@writefile{toc}{\contentsline {section}{\numberline {1.3}Patters of reply}{6}{section.1.3}}
\@writefile{toc}{\contentsline {subsection}{Patterns of reply}{6}{section*.10}}
\@writefile{lof}{\contentsline {figure}{\numberline {1.4}{\ignorespaces Cumulative distributions\relax }}{7}{figure.caption.12}}
\@writefile{toc}{\contentsline {section}{\numberline {1.4}A role-based network growth model}{8}{section.1.4}}
\@writefile{toc}{\contentsline {subsection}{Formalization}{8}{section*.13}}
\@writefile{toc}{\contentsline {subsection}{Expectation-Maximization}{8}{section*.14}}
\@writefile{toc}{\contentsline {subsection}{EM for the random threads model}{9}{section*.15}}
\newlabel{eq:m-step}{{1.12}{9}{EM for the random threads model}{equation.1.4.12}{}}
\citation{BDA}
\citation{Gomez2012}
\citation{Gomez2012}
\newlabel{eq:e-step}{{1.14}{10}{EM for the random threads model}{equation.1.4.14}{}}
\@writefile{toc}{\contentsline {subsection}{Number of clusters}{10}{section*.16}}
\@writefile{toc}{\contentsline {section}{\numberline {1.5}Experiments}{10}{section.1.5}}
\@writefile{toc}{\contentsline {subsection}{Reproduction of structural properties}{10}{section*.17}}
\@writefile{lof}{\contentsline {figure}{\numberline {1.5}{\ignorespaces Synthetic trees vs real trees in Game of Thrones\relax }}{11}{figure.caption.18}}
\@writefile{lof}{\contentsline {figure}{\numberline {1.6}{\ignorespaces Synthetic trees vs real trees in Podemos\relax }}{11}{figure.caption.19}}
\citation{Wang2012e}
\citation{Gomez2012}
\@writefile{lof}{\contentsline {figure}{\numberline {1.7}{\ignorespaces Evluation of models for post recommendation (Podemos)\relax }}{12}{figure.caption.21}}
\newlabel{fig:post_rankings}{{\M@TitleReference {1.7}{Evluation of models for post recommendation (Podemos)\relax }}{12}{Evluation of models for post recommendation (Podemos)\relax }{figure.caption.21}{}}
\@writefile{toc}{\contentsline {subsection}{Recommendation of posts}{12}{section*.20}}
\@writefile{toc}{\contentsline {section}{\numberline {1.6}Open questions}{12}{section.1.6}}
\newlabel{eq:em_general}{{1.19}{14}{Expectation-Maximization}{equation.1.6.19}{}}
\memsetcounter{lastsheet}{14}
\memsetcounter{lastpage}{14}
