%!PS-Adobe-3.0 EPSF-3.0
%%DocumentNeededResources: font Helvetica
%%+ font Helvetica-Bold
%%+ font Helvetica-Oblique
%%+ font Helvetica-BoldOblique
%%+ font Symbol
%%Title: R Graphics Output
%%Creator: R Software
%%Pages: (atend)
%%BoundingBox: 0 0 300 300
%%EndComments
%%BeginProlog
/bp  { gs sRGB gs } def
% begin .ps.prolog
/gs  { gsave } bind def
/gr  { grestore } bind def
/ep  { showpage gr gr } bind def
/m   { moveto } bind def
/l  { rlineto } bind def
/np  { newpath } bind def
/cp  { closepath } bind def
/f   { fill } bind def
/o   { stroke } bind def
/c   { newpath 0 360 arc } bind def
/r   { 4 2 roll moveto 1 copy 3 -1 roll exch 0 exch rlineto 0 rlineto -1 mul 0 exch rlineto closepath } bind def
/p1  { stroke } bind def
/p2  { gsave bg fill grestore newpath } bind def
/p3  { gsave bg fill grestore stroke } bind def
/p6  { gsave bg eofill grestore newpath } bind def
/p7  { gsave bg eofill grestore stroke } bind def
/t   { 5 -2 roll moveto gsave rotate
       1 index stringwidth pop
       mul neg 0 rmoveto show grestore } bind def
/ta  { 4 -2 roll moveto gsave rotate show } bind def
/tb  { 2 -1 roll 0 rmoveto show } bind def
/cl  { grestore gsave newpath 3 index 3 index moveto 1 index
       4 -1 roll lineto  exch 1 index lineto lineto
       closepath clip newpath } bind def
/rgb { setrgbcolor } bind def
/s   { scalefont setfont } bind def
% end   .ps.prolog
/sRGB { [ /CIEBasedABC
          << /DecodeLMN
               [ { dup 0.03928 le
                        {12.92321 div}
                        {0.055 add 1.055 div 2.4 exp }
                     ifelse
                 } bind dup dup
               ]
             /MatrixLMN [0.412457 0.212673 0.019334
                         0.357576 0.715152 0.119192
                         0.180437 0.072175 0.950301]
             /WhitePoint [0.9505 1.0 1.0890]
           >>
         ] setcolorspace } bind def
/srgb { setcolor } bind def
% begin encoding
/WinAnsiEncoding [
 /.notdef /.notdef /.notdef /.notdef /.notdef /.notdef /.notdef /.notdef
 /.notdef /.notdef /.notdef /.notdef /.notdef /.notdef /.notdef /.notdef
 /.notdef /.notdef /.notdef /.notdef /.notdef /.notdef /.notdef /.notdef
 /.notdef /.notdef /.notdef /.notdef /.notdef /.notdef /.notdef /.notdef
 /space /exclam /quotedbl /numbersign /dollar /percent /ampersand /quoteright
 /parenleft /parenright /asterisk /plus /comma /minus /period /slash
 /zero /one /two /three /four /five /six /seven
 /eight /nine /colon /semicolon /less /equal /greater /question
 /at /A /B /C /D /E /F /G
 /H /I /J /K /L /M /N /O
 /P /Q /R /S /T /U /V /W
 /X /Y /Z /bracketleft /backslash /bracketright /asciicircum /underscore
 /grave /a /b /c /d /e /f /g
 /h /i /j /k /l /m /n /o
 /p /q /r /s /t /u /v /w
 /x /y /z /braceleft /bar /braceright /asciitilde /.notdef
 /Euro /.notdef /quotesinglbase /florin /quotedblbase /ellipsis /dagger /daggerdbl
 /circumflex /perthousand /Scaron /guilsinglleft /OE /.notdef /Zcaron /.notdef
 /.notdef /quoteleft /quoteright /quotedblleft /quotedblright /bullet /endash /emdash
 /tilde /trademark /scaron /guilsinglright /oe /.notdef /zcaron /Ydieresis
 /space /exclamdown /cent /sterling /currency /yen /brokenbar /section
 /dieresis /copyright /ordfeminine /guillemotleft /logicalnot /hyphen /registered /macron
 /degree /plusminus /twosuperior /threesuperior /acute /mu /paragraph /periodcentered
 /cedilla /onesuperior /ordmasculine /guillemotright /onequarter /onehalf /threequarters /questiondown
 /Agrave /Aacute /Acircumflex /Atilde /Adieresis /Aring /AE /Ccedilla
 /Egrave /Eacute /Ecircumflex /Edieresis /Igrave /Iacute /Icircumflex /Idieresis
 /Eth /Ntilde /Ograve /Oacute /Ocircumflex /Otilde /Odieresis /multiply
 /Oslash /Ugrave /Uacute /Ucircumflex /Udieresis /Yacute /Thorn /germandbls
 /agrave /aacute /acircumflex /atilde /adieresis /aring /ae /ccedilla
 /egrave /eacute /ecircumflex /edieresis /igrave /iacute /icircumflex /idieresis
 /eth /ntilde /ograve /oacute /ocircumflex /otilde /odieresis /divide
 /oslash /ugrave /uacute /ucircumflex /udieresis /yacute /thorn /ydieresis
]
 def
% end encoding
%%IncludeResource: font Helvetica
/Helvetica findfont
dup length dict begin
  {1 index /FID ne {def} {pop pop} ifelse} forall
  /Encoding WinAnsiEncoding def
  currentdict
  end
/Font1 exch definefont pop
%%IncludeResource: font Helvetica-Bold
/Helvetica-Bold findfont
dup length dict begin
  {1 index /FID ne {def} {pop pop} ifelse} forall
  /Encoding WinAnsiEncoding def
  currentdict
  end
/Font2 exch definefont pop
%%IncludeResource: font Helvetica-Oblique
/Helvetica-Oblique findfont
dup length dict begin
  {1 index /FID ne {def} {pop pop} ifelse} forall
  /Encoding WinAnsiEncoding def
  currentdict
  end
/Font3 exch definefont pop
%%IncludeResource: font Helvetica-BoldOblique
/Helvetica-BoldOblique findfont
dup length dict begin
  {1 index /FID ne {def} {pop pop} ifelse} forall
  /Encoding WinAnsiEncoding def
  currentdict
  end
/Font4 exch definefont pop
%%IncludeResource: font Symbol
/Symbol findfont
dup length dict begin
  {1 index /FID ne {def} {pop pop} ifelse} forall
  currentdict
  end
/Font5 exch definefont pop
%%EndProlog
%%Page: 1 1
bp
0.00 0.00 300.00 300.00 cl
0.00 0.00 300.00 300.00 cl
/bg { 1 1 1 srgb } def
1 1 1 srgb
1.06 setlinewidth
[] 0 setdash
1 setlinecap
1 setlinejoin
10.00 setmiterlimit
-0.00 0.00 300.00 300.00 r p3
0.00 0.00 300.00 300.00 cl
0.00 0.00 300.00 300.00 cl
0.00 0.00 300.00 300.00 cl
55.94 40.87 285.60 285.60 cl
/bg { 0 0 0 srgb } def
175.93 272.22 2.13 c p2
185.24 267.86 2.13 c p2
182.80 266.44 2.13 c p2
192.95 267.90 2.13 c p2
195.14 249.04 2.13 c p2
187.44 265.63 2.13 c p2
185.06 266.02 2.13 c p2
198.37 262.54 2.13 c p2
193.73 271.29 2.13 c p2
177.58 274.48 2.13 c p2
85.93 206.75 2.13 c p2
93.44 236.03 2.13 c p2
76.92 216.14 2.13 c p2
76.31 225.03 2.13 c p2
80.63 234.41 2.13 c p2
78.38 226.55 2.13 c p2
97.07 222.19 2.13 c p2
79.67 226.50 2.13 c p2
77.85 222.67 2.13 c p2
66.38 224.65 2.13 c p2
80.41 124.81 2.13 c p2
91.42 108.52 2.13 c p2
82.93 103.37 2.13 c p2
93.66 109.48 2.13 c p2
69.75 105.23 2.13 c p2
77.97 110.10 2.13 c p2
93.27 102.82 2.13 c p2
68.41 99.48 2.13 c p2
77.46 98.20 2.13 c p2
94.56 96.10 2.13 c p2
188.84 74.56 2.13 c p2
191.22 54.99 2.13 c p2
172.04 52.32 2.13 c p2
182.10 52.00 2.13 c p2
173.27 80.59 2.13 c p2
197.09 52.34 2.13 c p2
176.51 60.39 2.13 c p2
190.83 66.89 2.13 c p2
197.16 82.25 2.13 c p2
180.11 68.83 2.13 c p2
246.84 147.30 2.13 c p2
275.16 161.70 2.13 c p2
257.90 166.23 2.13 c p2
249.03 165.03 2.13 c p2
265.75 163.24 2.13 c p2
267.16 161.06 2.13 c p2
240.45 156.43 2.13 c p2
259.35 156.79 2.13 c p2
254.32 159.14 2.13 c p2
240.13 164.96 2.13 c p2
0.00 0.00 300.00 300.00 cl
0.00 0.00 300.00 300.00 cl
0 0 0 srgb
1.06 setlinewidth
[] 0 setdash
0 setlinecap
1 setlinejoin
10.00 setmiterlimit
np
55.94 40.87 m
0 244.73 l
o
0.00 0.00 300.00 300.00 cl
/Font1 findfont 12 s
0.4980 0.4980 0.4980 srgb
48.86 56.48 (-1.0) 1 0 t
48.86 108.37 (-0.5) 1 0 t
48.86 160.26 (0.0) 1 0 t
48.86 212.14 (0.5) 1 0 t
48.86 264.03 (1.0) 1 0 t
0.00 0.00 300.00 300.00 cl
0.00 0.00 300.00 300.00 cl
0.4980 0.4980 0.4980 srgb
1.06 setlinewidth
[] 0 setdash
0 setlinecap
1 setlinejoin
10.00 setmiterlimit
np
51.69 60.79 m
4.25 0 l
o
np
51.69 112.68 m
4.25 0 l
o
np
51.69 164.56 m
4.25 0 l
o
np
51.69 216.45 m
4.25 0 l
o
np
51.69 268.34 m
4.25 0 l
o
0.00 0.00 300.00 300.00 cl
0.00 0.00 300.00 300.00 cl
0.00 0.00 300.00 300.00 cl
0.00 0.00 300.00 300.00 cl
0.00 0.00 300.00 300.00 cl
0 0 0 srgb
1.06 setlinewidth
[] 0 setdash
0 setlinecap
1 setlinejoin
10.00 setmiterlimit
np
55.94 40.87 m
229.66 0 l
o
0.00 0.00 300.00 300.00 cl
0.4980 0.4980 0.4980 srgb
1.06 setlinewidth
[] 0 setdash
0 setlinecap
1 setlinejoin
10.00 setmiterlimit
np
61.18 36.62 m
0 4.25 l
o
np
109.94 36.62 m
0 4.25 l
o
np
158.70 36.62 m
0 4.25 l
o
np
207.46 36.62 m
0 4.25 l
o
np
256.22 36.62 m
0 4.25 l
o
0.00 0.00 300.00 300.00 cl
0.00 0.00 300.00 300.00 cl
/Font1 findfont 12 s
0.4980 0.4980 0.4980 srgb
61.18 25.17 (-1.0) .5 0 t
109.94 25.17 (-0.5) .5 0 t
158.70 25.17 (0.0) .5 0 t
207.46 25.17 (0.5) .5 0 t
256.22 25.17 (1.0) .5 0 t
0.00 0.00 300.00 300.00 cl
0.00 0.00 300.00 300.00 cl
0.00 0.00 300.00 300.00 cl
0.00 0.00 300.00 300.00 cl
0.00 0.00 300.00 300.00 cl
/Font1 findfont 15 s
0 0 0 srgb
141.17 10.80 (f) 0 ta
-0.450 (eature 1) tb gr
0.00 0.00 300.00 300.00 cl
0.00 0.00 300.00 300.00 cl
/Font1 findfont 15 s
0 0 0 srgb
21.57 133.63 (f) 90 ta
-0.450 (eature 2) tb gr
0.00 0.00 300.00 300.00 cl
0.00 0.00 300.00 300.00 cl
0.00 0.00 300.00 300.00 cl
0.00 0.00 300.00 300.00 cl
ep
%%Trailer
%%Pages: 1
%%EOF
