%!PS-Adobe-3.0 EPSF-3.0
%%DocumentNeededResources: font Helvetica
%%+ font Helvetica-Bold
%%+ font Helvetica-Oblique
%%+ font Helvetica-BoldOblique
%%+ font Symbol
%%Title: R Graphics Output
%%Creator: R Software
%%Pages: (atend)
%%BoundingBox: 0 0 300 300
%%EndComments
%%BeginProlog
/bp  { gs sRGB gs } def
% begin .ps.prolog
/gs  { gsave } bind def
/gr  { grestore } bind def
/ep  { showpage gr gr } bind def
/m   { moveto } bind def
/l  { rlineto } bind def
/np  { newpath } bind def
/cp  { closepath } bind def
/f   { fill } bind def
/o   { stroke } bind def
/c   { newpath 0 360 arc } bind def
/r   { 4 2 roll moveto 1 copy 3 -1 roll exch 0 exch rlineto 0 rlineto -1 mul 0 exch rlineto closepath } bind def
/p1  { stroke } bind def
/p2  { gsave bg fill grestore newpath } bind def
/p3  { gsave bg fill grestore stroke } bind def
/p6  { gsave bg eofill grestore newpath } bind def
/p7  { gsave bg eofill grestore stroke } bind def
/t   { 5 -2 roll moveto gsave rotate
       1 index stringwidth pop
       mul neg 0 rmoveto show grestore } bind def
/ta  { 4 -2 roll moveto gsave rotate show } bind def
/tb  { 2 -1 roll 0 rmoveto show } bind def
/cl  { grestore gsave newpath 3 index 3 index moveto 1 index
       4 -1 roll lineto  exch 1 index lineto lineto
       closepath clip newpath } bind def
/rgb { setrgbcolor } bind def
/s   { scalefont setfont } bind def
% end   .ps.prolog
/sRGB { [ /CIEBasedABC
          << /DecodeLMN
               [ { dup 0.03928 le
                        {12.92321 div}
                        {0.055 add 1.055 div 2.4 exp }
                     ifelse
                 } bind dup dup
               ]
             /MatrixLMN [0.412457 0.212673 0.019334
                         0.357576 0.715152 0.119192
                         0.180437 0.072175 0.950301]
             /WhitePoint [0.9505 1.0 1.0890]
           >>
         ] setcolorspace } bind def
/srgb { setcolor } bind def
% begin encoding
/WinAnsiEncoding [
 /.notdef /.notdef /.notdef /.notdef /.notdef /.notdef /.notdef /.notdef
 /.notdef /.notdef /.notdef /.notdef /.notdef /.notdef /.notdef /.notdef
 /.notdef /.notdef /.notdef /.notdef /.notdef /.notdef /.notdef /.notdef
 /.notdef /.notdef /.notdef /.notdef /.notdef /.notdef /.notdef /.notdef
 /space /exclam /quotedbl /numbersign /dollar /percent /ampersand /quoteright
 /parenleft /parenright /asterisk /plus /comma /minus /period /slash
 /zero /one /two /three /four /five /six /seven
 /eight /nine /colon /semicolon /less /equal /greater /question
 /at /A /B /C /D /E /F /G
 /H /I /J /K /L /M /N /O
 /P /Q /R /S /T /U /V /W
 /X /Y /Z /bracketleft /backslash /bracketright /asciicircum /underscore
 /grave /a /b /c /d /e /f /g
 /h /i /j /k /l /m /n /o
 /p /q /r /s /t /u /v /w
 /x /y /z /braceleft /bar /braceright /asciitilde /.notdef
 /Euro /.notdef /quotesinglbase /florin /quotedblbase /ellipsis /dagger /daggerdbl
 /circumflex /perthousand /Scaron /guilsinglleft /OE /.notdef /Zcaron /.notdef
 /.notdef /quoteleft /quoteright /quotedblleft /quotedblright /bullet /endash /emdash
 /tilde /trademark /scaron /guilsinglright /oe /.notdef /zcaron /Ydieresis
 /space /exclamdown /cent /sterling /currency /yen /brokenbar /section
 /dieresis /copyright /ordfeminine /guillemotleft /logicalnot /hyphen /registered /macron
 /degree /plusminus /twosuperior /threesuperior /acute /mu /paragraph /periodcentered
 /cedilla /onesuperior /ordmasculine /guillemotright /onequarter /onehalf /threequarters /questiondown
 /Agrave /Aacute /Acircumflex /Atilde /Adieresis /Aring /AE /Ccedilla
 /Egrave /Eacute /Ecircumflex /Edieresis /Igrave /Iacute /Icircumflex /Idieresis
 /Eth /Ntilde /Ograve /Oacute /Ocircumflex /Otilde /Odieresis /multiply
 /Oslash /Ugrave /Uacute /Ucircumflex /Udieresis /Yacute /Thorn /germandbls
 /agrave /aacute /acircumflex /atilde /adieresis /aring /ae /ccedilla
 /egrave /eacute /ecircumflex /edieresis /igrave /iacute /icircumflex /idieresis
 /eth /ntilde /ograve /oacute /ocircumflex /otilde /odieresis /divide
 /oslash /ugrave /uacute /ucircumflex /udieresis /yacute /thorn /ydieresis
]
 def
% end encoding
%%IncludeResource: font Helvetica
/Helvetica findfont
dup length dict begin
  {1 index /FID ne {def} {pop pop} ifelse} forall
  /Encoding WinAnsiEncoding def
  currentdict
  end
/Font1 exch definefont pop
%%IncludeResource: font Helvetica-Bold
/Helvetica-Bold findfont
dup length dict begin
  {1 index /FID ne {def} {pop pop} ifelse} forall
  /Encoding WinAnsiEncoding def
  currentdict
  end
/Font2 exch definefont pop
%%IncludeResource: font Helvetica-Oblique
/Helvetica-Oblique findfont
dup length dict begin
  {1 index /FID ne {def} {pop pop} ifelse} forall
  /Encoding WinAnsiEncoding def
  currentdict
  end
/Font3 exch definefont pop
%%IncludeResource: font Helvetica-BoldOblique
/Helvetica-BoldOblique findfont
dup length dict begin
  {1 index /FID ne {def} {pop pop} ifelse} forall
  /Encoding WinAnsiEncoding def
  currentdict
  end
/Font4 exch definefont pop
%%IncludeResource: font Symbol
/Symbol findfont
dup length dict begin
  {1 index /FID ne {def} {pop pop} ifelse} forall
  currentdict
  end
/Font5 exch definefont pop
%%EndProlog
%%Page: 1 1
bp
0.00 0.00 300.00 300.00 cl
0.00 0.00 300.00 300.00 cl
/bg { 1 1 1 srgb } def
1 1 1 srgb
1.06 setlinewidth
[] 0 setdash
1 setlinecap
1 setlinejoin
10.00 setmiterlimit
0.00 0.00 300.00 300.00 r p3
0.00 0.00 300.00 300.00 cl
0.00 0.00 300.00 300.00 cl
0.00 0.00 300.00 300.00 cl
59.28 40.87 285.60 285.60 cl
/bg { 0 0 0 srgb } def
69.57 52.68 2.13 c p2
73.77 52.47 2.13 c p2
77.97 52.24 2.13 c p2
82.16 52.96 2.13 c p2
86.36 52.00 2.13 c p2
90.56 53.36 2.13 c p2
94.76 53.08 2.13 c p2
98.96 52.22 2.13 c p2
103.16 53.47 2.13 c p2
107.36 52.96 2.13 c p2
111.56 107.71 2.13 c p2
115.76 107.76 2.13 c p2
119.95 107.35 2.13 c p2
124.15 108.30 2.13 c p2
128.35 108.46 2.13 c p2
132.55 107.58 2.13 c p2
136.75 107.89 2.13 c p2
140.95 107.84 2.13 c p2
145.15 108.14 2.13 c p2
149.35 107.82 2.13 c p2
153.55 163.61 2.13 c p2
157.74 162.62 2.13 c p2
161.94 162.92 2.13 c p2
166.14 162.88 2.13 c p2
170.34 163.99 2.13 c p2
174.54 163.79 2.13 c p2
178.74 163.96 2.13 c p2
182.94 163.03 2.13 c p2
187.14 164.24 2.13 c p2
191.34 163.01 2.13 c p2
195.53 219.08 2.13 c p2
199.73 218.11 2.13 c p2
203.93 219.28 2.13 c p2
208.13 218.04 2.13 c p2
212.33 218.44 2.13 c p2
216.53 218.35 2.13 c p2
220.73 219.69 2.13 c p2
224.93 219.06 2.13 c p2
229.13 217.51 2.13 c p2
233.32 218.15 2.13 c p2
237.52 274.18 2.13 c p2
241.72 274.42 2.13 c p2
245.92 274.13 2.13 c p2
250.12 274.48 2.13 c p2
254.32 274.37 2.13 c p2
258.52 273.50 2.13 c p2
262.72 274.20 2.13 c p2
266.92 274.27 2.13 c p2
271.11 274.18 2.13 c p2
275.31 274.16 2.13 c p2
0.00 0.00 300.00 300.00 cl
0.00 0.00 300.00 300.00 cl
0 0 0 srgb
1.06 setlinewidth
[] 0 setdash
0 setlinecap
1 setlinejoin
10.00 setmiterlimit
np
59.28 40.87 m
0 244.73 l
o
0.00 0.00 300.00 300.00 cl
/Font1 findfont 12 s
0.4980 0.4980 0.4980 srgb
52.19 48.43 (-200) 1 0 t
52.19 103.75 (-100) 1 0 t
52.19 159.06 (0) 1 0 t
52.19 214.38 (100) 1 0 t
52.19 269.69 (200) 1 0 t
0.00 0.00 300.00 300.00 cl
0.00 0.00 300.00 300.00 cl
0.4980 0.4980 0.4980 srgb
1.06 setlinewidth
[] 0 setdash
0 setlinecap
1 setlinejoin
10.00 setmiterlimit
np
55.03 52.74 m
4.25 0 l
o
np
55.03 108.06 m
4.25 0 l
o
np
55.03 163.37 m
4.25 0 l
o
np
55.03 218.69 m
4.25 0 l
o
np
55.03 274.00 m
4.25 0 l
o
0.00 0.00 300.00 300.00 cl
0.00 0.00 300.00 300.00 cl
0.00 0.00 300.00 300.00 cl
0.00 0.00 300.00 300.00 cl
0.00 0.00 300.00 300.00 cl
0 0 0 srgb
1.06 setlinewidth
[] 0 setdash
0 setlinecap
1 setlinejoin
10.00 setmiterlimit
np
59.28 40.87 m
226.32 0 l
o
0.00 0.00 300.00 300.00 cl
0.4980 0.4980 0.4980 srgb
1.06 setlinewidth
[] 0 setdash
0 setlinecap
1 setlinejoin
10.00 setmiterlimit
np
65.37 36.62 m
0 4.25 l
o
np
107.36 36.62 m
0 4.25 l
o
np
149.35 36.62 m
0 4.25 l
o
np
191.34 36.62 m
0 4.25 l
o
np
233.32 36.62 m
0 4.25 l
o
np
275.31 36.62 m
0 4.25 l
o
0.00 0.00 300.00 300.00 cl
0.00 0.00 300.00 300.00 cl
/Font1 findfont 12 s
0.4980 0.4980 0.4980 srgb
65.37 25.17 (0) .5 0 t
107.36 25.17 (10) .5 0 t
149.35 25.17 (20) .5 0 t
191.34 25.17 (30) .5 0 t
233.32 25.17 (40) .5 0 t
275.31 25.17 (50) .5 0 t
0.00 0.00 300.00 300.00 cl
0.00 0.00 300.00 300.00 cl
0.00 0.00 300.00 300.00 cl
0.00 0.00 300.00 300.00 cl
0.00 0.00 300.00 300.00 cl
/Font1 findfont 15 s
0 0 0 srgb
172.44 10.80 (users) .5 0 t
0.00 0.00 300.00 300.00 cl
0.00 0.00 300.00 300.00 cl
/Font1 findfont 15 s
0 0 0 srgb
21.57 163.24 (b) .5 90 t
0.00 0.00 300.00 300.00 cl
0.00 0.00 300.00 300.00 cl
0.00 0.00 300.00 300.00 cl
0.00 0.00 300.00 300.00 cl
ep
%%Trailer
%%Pages: 1
%%EOF
