%!PS-Adobe-3.0 EPSF-3.0
%%DocumentNeededResources: font Helvetica
%%+ font Helvetica-Bold
%%+ font Helvetica-Oblique
%%+ font Helvetica-BoldOblique
%%+ font Symbol
%%Title: R Graphics Output
%%Creator: R Software
%%Pages: (atend)
%%BoundingBox: 0 0 375 375
%%EndComments
%%BeginProlog
/bp  { gs sRGB gs } def
% begin .ps.prolog
/gs  { gsave } bind def
/gr  { grestore } bind def
/ep  { showpage gr gr } bind def
/m   { moveto } bind def
/l  { rlineto } bind def
/np  { newpath } bind def
/cp  { closepath } bind def
/f   { fill } bind def
/o   { stroke } bind def
/c   { newpath 0 360 arc } bind def
/r   { 4 2 roll moveto 1 copy 3 -1 roll exch 0 exch rlineto 0 rlineto -1 mul 0 exch rlineto closepath } bind def
/p1  { stroke } bind def
/p2  { gsave bg fill grestore newpath } bind def
/p3  { gsave bg fill grestore stroke } bind def
/p6  { gsave bg eofill grestore newpath } bind def
/p7  { gsave bg eofill grestore stroke } bind def
/t   { 5 -2 roll moveto gsave rotate
       1 index stringwidth pop
       mul neg 0 rmoveto show grestore } bind def
/ta  { 4 -2 roll moveto gsave rotate show } bind def
/tb  { 2 -1 roll 0 rmoveto show } bind def
/cl  { grestore gsave newpath 3 index 3 index moveto 1 index
       4 -1 roll lineto  exch 1 index lineto lineto
       closepath clip newpath } bind def
/rgb { setrgbcolor } bind def
/s   { scalefont setfont } bind def
% end   .ps.prolog
/sRGB { [ /CIEBasedABC
          << /DecodeLMN
               [ { dup 0.03928 le
                        {12.92321 div}
                        {0.055 add 1.055 div 2.4 exp }
                     ifelse
                 } bind dup dup
               ]
             /MatrixLMN [0.412457 0.212673 0.019334
                         0.357576 0.715152 0.119192
                         0.180437 0.072175 0.950301]
             /WhitePoint [0.9505 1.0 1.0890]
           >>
         ] setcolorspace } bind def
/srgb { setcolor } bind def
% begin encoding
/WinAnsiEncoding [
 /.notdef /.notdef /.notdef /.notdef /.notdef /.notdef /.notdef /.notdef
 /.notdef /.notdef /.notdef /.notdef /.notdef /.notdef /.notdef /.notdef
 /.notdef /.notdef /.notdef /.notdef /.notdef /.notdef /.notdef /.notdef
 /.notdef /.notdef /.notdef /.notdef /.notdef /.notdef /.notdef /.notdef
 /space /exclam /quotedbl /numbersign /dollar /percent /ampersand /quoteright
 /parenleft /parenright /asterisk /plus /comma /minus /period /slash
 /zero /one /two /three /four /five /six /seven
 /eight /nine /colon /semicolon /less /equal /greater /question
 /at /A /B /C /D /E /F /G
 /H /I /J /K /L /M /N /O
 /P /Q /R /S /T /U /V /W
 /X /Y /Z /bracketleft /backslash /bracketright /asciicircum /underscore
 /grave /a /b /c /d /e /f /g
 /h /i /j /k /l /m /n /o
 /p /q /r /s /t /u /v /w
 /x /y /z /braceleft /bar /braceright /asciitilde /.notdef
 /Euro /.notdef /quotesinglbase /florin /quotedblbase /ellipsis /dagger /daggerdbl
 /circumflex /perthousand /Scaron /guilsinglleft /OE /.notdef /Zcaron /.notdef
 /.notdef /quoteleft /quoteright /quotedblleft /quotedblright /bullet /endash /emdash
 /tilde /trademark /scaron /guilsinglright /oe /.notdef /zcaron /Ydieresis
 /space /exclamdown /cent /sterling /currency /yen /brokenbar /section
 /dieresis /copyright /ordfeminine /guillemotleft /logicalnot /hyphen /registered /macron
 /degree /plusminus /twosuperior /threesuperior /acute /mu /paragraph /periodcentered
 /cedilla /onesuperior /ordmasculine /guillemotright /onequarter /onehalf /threequarters /questiondown
 /Agrave /Aacute /Acircumflex /Atilde /Adieresis /Aring /AE /Ccedilla
 /Egrave /Eacute /Ecircumflex /Edieresis /Igrave /Iacute /Icircumflex /Idieresis
 /Eth /Ntilde /Ograve /Oacute /Ocircumflex /Otilde /Odieresis /multiply
 /Oslash /Ugrave /Uacute /Ucircumflex /Udieresis /Yacute /Thorn /germandbls
 /agrave /aacute /acircumflex /atilde /adieresis /aring /ae /ccedilla
 /egrave /eacute /ecircumflex /edieresis /igrave /iacute /icircumflex /idieresis
 /eth /ntilde /ograve /oacute /ocircumflex /otilde /odieresis /divide
 /oslash /ugrave /uacute /ucircumflex /udieresis /yacute /thorn /ydieresis
]
 def
% end encoding
%%IncludeResource: font Helvetica
/Helvetica findfont
dup length dict begin
  {1 index /FID ne {def} {pop pop} ifelse} forall
  /Encoding WinAnsiEncoding def
  currentdict
  end
/Font1 exch definefont pop
%%IncludeResource: font Helvetica-Bold
/Helvetica-Bold findfont
dup length dict begin
  {1 index /FID ne {def} {pop pop} ifelse} forall
  /Encoding WinAnsiEncoding def
  currentdict
  end
/Font2 exch definefont pop
%%IncludeResource: font Helvetica-Oblique
/Helvetica-Oblique findfont
dup length dict begin
  {1 index /FID ne {def} {pop pop} ifelse} forall
  /Encoding WinAnsiEncoding def
  currentdict
  end
/Font3 exch definefont pop
%%IncludeResource: font Helvetica-BoldOblique
/Helvetica-BoldOblique findfont
dup length dict begin
  {1 index /FID ne {def} {pop pop} ifelse} forall
  /Encoding WinAnsiEncoding def
  currentdict
  end
/Font4 exch definefont pop
%%IncludeResource: font Symbol
/Symbol findfont
dup length dict begin
  {1 index /FID ne {def} {pop pop} ifelse} forall
  currentdict
  end
/Font5 exch definefont pop
%%EndProlog
%%Page: 1 1
bp
0.00 0.00 375.00 375.00 cl
0.00 0.00 375.00 375.00 cl
/bg { 1 1 1 srgb } def
1 1 1 srgb
1.06 setlinewidth
[] 0 setdash
1 setlinecap
1 setlinejoin
10.00 setmiterlimit
0.00 0.00 375.00 375.00 r p3
0.00 0.00 375.00 375.00 cl
0.00 0.00 375.00 375.00 cl
0.00 0.00 375.00 375.00 cl
55.61 40.87 360.60 360.60 cl
0.9725 0.4627 0.4275 srgb
1.06 setlinewidth
[] 0 setdash
0 setlinecap
1 setlinejoin
1.00 setmiterlimit
np
71.30 222.80 m
30.40 18.69 l
30.40 8.30 l
30.40 14.46 l
30.40 17.03 l
30.41 35.50 l
30.40 -7.96 l
30.40 9.51 l
30.40 0.58 l
30.40 -11.43 l
o
0 0.7490 0.7686 srgb
np
71.30 255.13 m
30.40 -1.52 l
30.40 9.79 l
30.40 33.99 l
30.40 8.99 l
30.41 13.26 l
30.40 0 l
30.40 0 l
30.40 -1.51 l
30.40 1.51 l
o
/bg { 0.9725 0.4627 0.4275 srgb } def
71.30 222.80 2.13 c p2
101.70 241.49 2.13 c p2
132.10 249.79 2.13 c p2
162.50 264.25 2.13 c p2
192.90 281.28 2.13 c p2
223.31 316.78 2.13 c p2
253.71 308.82 2.13 c p2
284.11 318.33 2.13 c p2
314.51 318.91 2.13 c p2
344.91 307.48 2.13 c p2
/bg { 0 0.7490 0.7686 srgb } def
71.30 255.13 2.13 c p2
101.70 253.61 2.13 c p2
132.10 263.40 2.13 c p2
162.50 297.39 2.13 c p2
192.90 306.38 2.13 c p2
223.31 319.64 2.13 c p2
253.71 319.64 2.13 c p2
284.11 319.64 2.13 c p2
314.51 318.13 2.13 c p2
344.91 319.64 2.13 c p2
0.9725 0.4627 0.4275 srgb
np
69.47 240.87 m
3.65 0 l
o
np
71.30 240.87 m
0 -36.14 l
o
np
69.47 204.73 m
3.65 0 l
o
np
99.87 254.37 m
3.65 0 l
o
np
101.70 254.37 m
0 -25.76 l
o
np
99.87 228.61 m
3.65 0 l
o
np
130.28 255.63 m
3.64 0 l
o
np
132.10 255.63 m
0 -11.68 l
o
np
130.28 243.95 m
3.64 0 l
o
np
160.68 279.06 m
3.65 0 l
o
np
162.50 279.06 m
0 -29.62 l
o
np
160.68 249.44 m
3.65 0 l
o
np
191.08 313.56 m
3.65 0 l
o
np
192.90 313.56 m
0 -64.56 l
o
np
191.08 249.00 m
3.65 0 l
o
np
221.48 319.10 m
3.65 0 l
o
np
223.31 319.10 m
0 -4.63 l
o
np
221.48 314.47 m
3.65 0 l
o
np
251.88 319.07 m
3.65 0 l
o
np
253.71 319.07 m
0 -20.50 l
o
np
251.88 298.57 m
3.65 0 l
o
np
282.28 320.30 m
3.65 0 l
o
np
284.11 320.30 m
0 -3.94 l
o
np
282.28 316.36 m
3.65 0 l
o
np
312.69 320.01 m
3.64 0 l
o
np
314.51 320.01 m
0 -2.19 l
o
np
312.69 317.82 m
3.64 0 l
o
np
343.09 321.52 m
3.65 0 l
o
np
344.91 321.52 m
0 -28.08 l
o
np
343.09 293.44 m
3.65 0 l
o
0 0.7490 0.7686 srgb
np
69.47 256.95 m
3.65 0 l
o
np
71.30 256.95 m
0 -3.64 l
o
np
69.47 253.31 m
3.65 0 l
o
np
99.87 261.08 m
3.65 0 l
o
np
101.70 261.08 m
0 -14.94 l
o
np
99.87 246.14 m
3.65 0 l
o
np
130.28 274.14 m
3.64 0 l
o
np
132.10 274.14 m
0 -21.47 l
o
np
130.28 252.67 m
3.64 0 l
o
np
160.68 309.86 m
3.65 0 l
o
np
162.50 309.86 m
0 -24.94 l
o
np
160.68 284.92 m
3.65 0 l
o
np
191.08 318.03 m
3.65 0 l
o
np
192.90 318.03 m
0 -23.30 l
o
np
191.08 294.73 m
3.65 0 l
o
np
221.48 319.64 m
3.65 0 l
o
np
223.31 319.64 m
0 0 l
o
np
221.48 319.64 m
3.65 0 l
o
np
251.88 319.64 m
3.65 0 l
o
np
253.71 319.64 m
0 0 l
o
np
251.88 319.64 m
3.65 0 l
o
np
282.28 319.64 m
3.65 0 l
o
np
284.11 319.64 m
0 0 l
o
np
282.28 319.64 m
3.65 0 l
o
np
312.69 320.40 m
3.64 0 l
o
np
314.51 320.40 m
0 -4.55 l
o
np
312.69 315.85 m
3.64 0 l
o
np
343.09 319.64 m
3.65 0 l
o
np
344.91 319.64 m
0 0 l
o
np
343.09 319.64 m
3.65 0 l
o
0.00 0.00 375.00 375.00 cl
0.00 0.00 375.00 375.00 cl
0 0 0 srgb
1.06 setlinewidth
[] 0 setdash
0 setlinecap
1 setlinejoin
10.00 setmiterlimit
np
55.61 40.87 m
0 319.73 l
o
0.00 0.00 375.00 375.00 cl
/Font1 findfont 12 s
0.4980 0.4980 0.4980 srgb
48.52 51.10 (0.00) 1 0 t
48.52 117.16 (0.25) 1 0 t
48.52 183.22 (0.50) 1 0 t
48.52 249.28 (0.75) 1 0 t
48.52 315.33 (1.00) 1 0 t
0.00 0.00 375.00 375.00 cl
0.00 0.00 375.00 375.00 cl
0.4980 0.4980 0.4980 srgb
1.06 setlinewidth
[] 0 setdash
0 setlinecap
1 setlinejoin
10.00 setmiterlimit
np
51.36 55.41 m
4.25 0 l
o
np
51.36 121.46 m
4.25 0 l
o
np
51.36 187.52 m
4.25 0 l
o
np
51.36 253.58 m
4.25 0 l
o
np
51.36 319.64 m
4.25 0 l
o
0.00 0.00 375.00 375.00 cl
0.00 0.00 375.00 375.00 cl
0.00 0.00 375.00 375.00 cl
0.00 0.00 375.00 375.00 cl
0.00 0.00 375.00 375.00 cl
0 0 0 srgb
1.06 setlinewidth
[] 0 setdash
0 setlinecap
1 setlinejoin
10.00 setmiterlimit
np
55.61 40.87 m
304.99 0 l
o
0.00 0.00 375.00 375.00 cl
0.4980 0.4980 0.4980 srgb
1.06 setlinewidth
[] 0 setdash
0 setlinecap
1 setlinejoin
10.00 setmiterlimit
np
71.30 36.62 m
0 4.25 l
o
np
101.70 36.62 m
0 4.25 l
o
np
132.10 36.62 m
0 4.25 l
o
np
162.50 36.62 m
0 4.25 l
o
np
192.90 36.62 m
0 4.25 l
o
np
223.31 36.62 m
0 4.25 l
o
np
253.71 36.62 m
0 4.25 l
o
np
284.11 36.62 m
0 4.25 l
o
np
314.51 36.62 m
0 4.25 l
o
np
344.91 36.62 m
0 4.25 l
o
np
71.30 36.62 m
0 4.25 l
o
np
101.70 36.62 m
0 4.25 l
o
np
132.10 36.62 m
0 4.25 l
o
np
162.50 36.62 m
0 4.25 l
o
np
192.90 36.62 m
0 4.25 l
o
np
223.31 36.62 m
0 4.25 l
o
np
253.71 36.62 m
0 4.25 l
o
np
284.11 36.62 m
0 4.25 l
o
np
314.51 36.62 m
0 4.25 l
o
np
344.91 36.62 m
0 4.25 l
o
0.00 0.00 375.00 375.00 cl
0.00 0.00 375.00 375.00 cl
/Font1 findfont 12 s
0.4980 0.4980 0.4980 srgb
71.30 25.17 (10) .5 0 t
101.70 25.17 (20) .5 0 t
132.10 25.17 (30) .5 0 t
162.50 25.17 (40) .5 0 t
192.90 25.17 (50) .5 0 t
223.31 25.17 (60) .5 0 t
253.71 25.17 (70) .5 0 t
284.11 25.17 (80) .5 0 t
314.51 25.17 (90) .5 0 t
344.91 25.17 (100) .5 0 t
71.30 25.17 (10) .5 0 t
101.70 25.17 (20) .5 0 t
132.10 25.17 (30) .5 0 t
162.50 25.17 (40) .5 0 t
192.90 25.17 (50) .5 0 t
223.31 25.17 (60) .5 0 t
253.71 25.17 (70) .5 0 t
284.11 25.17 (80) .5 0 t
314.51 25.17 (90) .5 0 t
344.91 25.17 (100) .5 0 t
0.00 0.00 375.00 375.00 cl
0.00 0.00 375.00 375.00 cl
0.00 0.00 375.00 375.00 cl
0.00 0.00 375.00 375.00 cl
0.00 0.00 375.00 375.00 cl
/Font1 findfont 15 s
0 0 0 srgb
208.10 10.80 (Threads) .5 0 t
0.00 0.00 375.00 375.00 cl
0.00 0.00 375.00 375.00 cl
/Font1 findfont 15 s
0 0 0 srgb
21.57 131.11 (Adjusted Rand Inde) 90 ta
-0.450 (x) tb gr
0.00 0.00 375.00 375.00 cl
0.00 0.00 375.00 375.00 cl
0.00 0.00 375.00 375.00 cl
0.00 0.00 375.00 375.00 cl
0.00 0.00 375.00 375.00 cl
0.00 0.00 375.00 375.00 cl
/bg { 1 1 1 srgb } def
286.39 74.65 87.42 60.34 r p2
0.00 0.00 375.00 375.00 cl
0.00 0.00 375.00 375.00 cl
0.00 0.00 375.00 375.00 cl
0.00 0.00 375.00 375.00 cl
/bg { 1 1 1 srgb } def
1 1 1 srgb
1.06 setlinewidth
[] 0 setdash
1 setlinecap
1 setlinejoin
10.00 setmiterlimit
290.64 101.94 23.04 23.04 r p3
0.00 0.00 375.00 375.00 cl
0.00 0.00 375.00 375.00 cl
0.9725 0.4627 0.4275 srgb
1.06 setlinewidth
[] 0 setdash
0 setlinecap
1 setlinejoin
10.00 setmiterlimit
np
292.94 113.46 m
18.44 0 l
o
0.00 0.00 375.00 375.00 cl
0.00 0.00 375.00 375.00 cl
/bg { 0.9725 0.4627 0.4275 srgb } def
302.16 113.46 2.13 c p2
0.00 0.00 375.00 375.00 cl
0.00 0.00 375.00 375.00 cl
0.9725 0.4627 0.4275 srgb
1.06 setlinewidth
[] 0 setdash
0 setlinecap
1 setlinejoin
10.00 setmiterlimit
np
292.94 113.46 m
18.44 0 l
o
0.00 0.00 375.00 375.00 cl
0.00 0.00 375.00 375.00 cl
/bg { 1 1 1 srgb } def
1 1 1 srgb
1.06 setlinewidth
[] 0 setdash
1 setlinecap
1 setlinejoin
10.00 setmiterlimit
290.64 78.90 23.04 23.04 r p3
0.00 0.00 375.00 375.00 cl
0.00 0.00 375.00 375.00 cl
0 0.7490 0.7686 srgb
1.06 setlinewidth
[] 0 setdash
0 setlinecap
1 setlinejoin
10.00 setmiterlimit
np
292.94 90.42 m
18.44 0 l
o
0.00 0.00 375.00 375.00 cl
0.00 0.00 375.00 375.00 cl
/bg { 0 0.7490 0.7686 srgb } def
302.16 90.42 2.13 c p2
0.00 0.00 375.00 375.00 cl
0.00 0.00 375.00 375.00 cl
0 0.7490 0.7686 srgb
1.06 setlinewidth
[] 0 setdash
0 setlinecap
1 setlinejoin
10.00 setmiterlimit
np
292.94 90.42 m
18.44 0 l
o
0.00 0.00 375.00 375.00 cl
0.00 0.00 375.00 375.00 cl
/Font1 findfont 12 s
0 0 0 srgb
316.56 109.15 (dual-DP) 0 0 t
0.00 0.00 375.00 375.00 cl
0.00 0.00 375.00 375.00 cl
/Font1 findfont 12 s
0 0 0 srgb
316.56 86.11 (dual-fix) 0 ta
-0.360 (ed) tb gr
0.00 0.00 375.00 375.00 cl
0.00 0.00 375.00 375.00 cl
0.00 0.00 375.00 375.00 cl
0.00 0.00 375.00 375.00 cl
0.00 0.00 375.00 375.00 cl
0.00 0.00 375.00 375.00 cl
0.00 0.00 375.00 375.00 cl
0.00 0.00 375.00 375.00 cl
0.00 0.00 375.00 375.00 cl
0.00 0.00 375.00 375.00 cl
0.00 0.00 375.00 375.00 cl
0.00 0.00 375.00 375.00 cl
ep
%%Trailer
%%Pages: 1
%%EOF
