%!PS-Adobe-3.0 EPSF-3.0
%%DocumentNeededResources: font Helvetica
%%+ font Helvetica-Bold
%%+ font Helvetica-Oblique
%%+ font Helvetica-BoldOblique
%%+ font Symbol
%%Title: R Graphics Output
%%Creator: R Software
%%Pages: (atend)
%%BoundingBox: 0 0 375 375
%%EndComments
%%BeginProlog
/bp  { gs sRGB gs } def
% begin .ps.prolog
/gs  { gsave } bind def
/gr  { grestore } bind def
/ep  { showpage gr gr } bind def
/m   { moveto } bind def
/l  { rlineto } bind def
/np  { newpath } bind def
/cp  { closepath } bind def
/f   { fill } bind def
/o   { stroke } bind def
/c   { newpath 0 360 arc } bind def
/r   { 4 2 roll moveto 1 copy 3 -1 roll exch 0 exch rlineto 0 rlineto -1 mul 0 exch rlineto closepath } bind def
/p1  { stroke } bind def
/p2  { gsave bg fill grestore newpath } bind def
/p3  { gsave bg fill grestore stroke } bind def
/p6  { gsave bg eofill grestore newpath } bind def
/p7  { gsave bg eofill grestore stroke } bind def
/t   { 5 -2 roll moveto gsave rotate
       1 index stringwidth pop
       mul neg 0 rmoveto show grestore } bind def
/ta  { 4 -2 roll moveto gsave rotate show } bind def
/tb  { 2 -1 roll 0 rmoveto show } bind def
/cl  { grestore gsave newpath 3 index 3 index moveto 1 index
       4 -1 roll lineto  exch 1 index lineto lineto
       closepath clip newpath } bind def
/rgb { setrgbcolor } bind def
/s   { scalefont setfont } bind def
% end   .ps.prolog
/sRGB { [ /CIEBasedABC
          << /DecodeLMN
               [ { dup 0.03928 le
                        {12.92321 div}
                        {0.055 add 1.055 div 2.4 exp }
                     ifelse
                 } bind dup dup
               ]
             /MatrixLMN [0.412457 0.212673 0.019334
                         0.357576 0.715152 0.119192
                         0.180437 0.072175 0.950301]
             /WhitePoint [0.9505 1.0 1.0890]
           >>
         ] setcolorspace } bind def
/srgb { setcolor } bind def
% begin encoding
/WinAnsiEncoding [
 /.notdef /.notdef /.notdef /.notdef /.notdef /.notdef /.notdef /.notdef
 /.notdef /.notdef /.notdef /.notdef /.notdef /.notdef /.notdef /.notdef
 /.notdef /.notdef /.notdef /.notdef /.notdef /.notdef /.notdef /.notdef
 /.notdef /.notdef /.notdef /.notdef /.notdef /.notdef /.notdef /.notdef
 /space /exclam /quotedbl /numbersign /dollar /percent /ampersand /quoteright
 /parenleft /parenright /asterisk /plus /comma /minus /period /slash
 /zero /one /two /three /four /five /six /seven
 /eight /nine /colon /semicolon /less /equal /greater /question
 /at /A /B /C /D /E /F /G
 /H /I /J /K /L /M /N /O
 /P /Q /R /S /T /U /V /W
 /X /Y /Z /bracketleft /backslash /bracketright /asciicircum /underscore
 /grave /a /b /c /d /e /f /g
 /h /i /j /k /l /m /n /o
 /p /q /r /s /t /u /v /w
 /x /y /z /braceleft /bar /braceright /asciitilde /.notdef
 /Euro /.notdef /quotesinglbase /florin /quotedblbase /ellipsis /dagger /daggerdbl
 /circumflex /perthousand /Scaron /guilsinglleft /OE /.notdef /Zcaron /.notdef
 /.notdef /quoteleft /quoteright /quotedblleft /quotedblright /bullet /endash /emdash
 /tilde /trademark /scaron /guilsinglright /oe /.notdef /zcaron /Ydieresis
 /space /exclamdown /cent /sterling /currency /yen /brokenbar /section
 /dieresis /copyright /ordfeminine /guillemotleft /logicalnot /hyphen /registered /macron
 /degree /plusminus /twosuperior /threesuperior /acute /mu /paragraph /periodcentered
 /cedilla /onesuperior /ordmasculine /guillemotright /onequarter /onehalf /threequarters /questiondown
 /Agrave /Aacute /Acircumflex /Atilde /Adieresis /Aring /AE /Ccedilla
 /Egrave /Eacute /Ecircumflex /Edieresis /Igrave /Iacute /Icircumflex /Idieresis
 /Eth /Ntilde /Ograve /Oacute /Ocircumflex /Otilde /Odieresis /multiply
 /Oslash /Ugrave /Uacute /Ucircumflex /Udieresis /Yacute /Thorn /germandbls
 /agrave /aacute /acircumflex /atilde /adieresis /aring /ae /ccedilla
 /egrave /eacute /ecircumflex /edieresis /igrave /iacute /icircumflex /idieresis
 /eth /ntilde /ograve /oacute /ocircumflex /otilde /odieresis /divide
 /oslash /ugrave /uacute /ucircumflex /udieresis /yacute /thorn /ydieresis
]
 def
% end encoding
%%IncludeResource: font Helvetica
/Helvetica findfont
dup length dict begin
  {1 index /FID ne {def} {pop pop} ifelse} forall
  /Encoding WinAnsiEncoding def
  currentdict
  end
/Font1 exch definefont pop
%%IncludeResource: font Helvetica-Bold
/Helvetica-Bold findfont
dup length dict begin
  {1 index /FID ne {def} {pop pop} ifelse} forall
  /Encoding WinAnsiEncoding def
  currentdict
  end
/Font2 exch definefont pop
%%IncludeResource: font Helvetica-Oblique
/Helvetica-Oblique findfont
dup length dict begin
  {1 index /FID ne {def} {pop pop} ifelse} forall
  /Encoding WinAnsiEncoding def
  currentdict
  end
/Font3 exch definefont pop
%%IncludeResource: font Helvetica-BoldOblique
/Helvetica-BoldOblique findfont
dup length dict begin
  {1 index /FID ne {def} {pop pop} ifelse} forall
  /Encoding WinAnsiEncoding def
  currentdict
  end
/Font4 exch definefont pop
%%IncludeResource: font Symbol
/Symbol findfont
dup length dict begin
  {1 index /FID ne {def} {pop pop} ifelse} forall
  currentdict
  end
/Font5 exch definefont pop
%%EndProlog
%%Page: 1 1
bp
0.00 0.00 375.00 375.00 cl
0.00 0.00 375.00 375.00 cl
/bg { 1 1 1 srgb } def
1 1 1 srgb
1.06 setlinewidth
[] 0 setdash
1 setlinecap
1 setlinejoin
10.00 setmiterlimit
0.00 0.00 375.00 375.00 r p3
0.00 0.00 375.00 375.00 cl
0.00 0.00 375.00 375.00 cl
0.00 0.00 375.00 375.00 cl
38.93 40.87 360.60 360.60 cl
0.9725 0.4627 0.4275 srgb
1.06 setlinewidth
[] 0 setdash
0 setlinecap
1 setlinejoin
1.00 setmiterlimit
np
55.47 279.14 m
32.07 -127.83 l
32.06 -18.93 l
32.07 -38.90 l
32.06 -8.43 l
32.07 -14.54 l
32.06 18.42 l
32.07 -23.66 l
32.06 -2.35 l
32.06 11.25 l
o
0 0.7294 0.2196 srgb
np
55.47 219.17 m
32.07 -96.46 l
32.06 -12.38 l
32.07 -19.55 l
32.06 -10.25 l
32.07 -11.74 l
32.06 -3.09 l
32.07 -5.20 l
32.06 -1.78 l
32.06 -0.45 l
o
0.3804 0.6118 1 srgb
np
55.47 265.26 m
32.07 -0.39 l
32.06 3.36 l
32.07 4.95 l
32.06 0.06 l
32.07 -21.96 l
32.06 -47.96 l
32.07 -16.18 l
32.06 -35.97 l
32.06 -15.09 l
o
/bg { 0.9725 0.4627 0.4275 srgb } def
55.47 279.14 2.13 c p2
87.54 151.31 2.13 c p2
119.60 132.38 2.13 c p2
151.67 93.48 2.13 c p2
183.73 85.05 2.13 c p2
215.80 70.51 2.13 c p2
247.86 88.93 2.13 c p2
279.93 65.27 2.13 c p2
311.99 62.92 2.13 c p2
344.05 74.17 2.13 c p2
/bg { 0 0.7294 0.2196 srgb } def
55.47 219.17 2.13 c p2
87.54 122.71 2.13 c p2
119.60 110.33 2.13 c p2
151.67 90.78 2.13 c p2
183.73 80.53 2.13 c p2
215.80 68.79 2.13 c p2
247.86 65.70 2.13 c p2
279.93 60.50 2.13 c p2
311.99 58.72 2.13 c p2
344.05 58.27 2.13 c p2
/bg { 0.3804 0.6118 1 srgb } def
55.47 265.26 2.13 c p2
87.54 264.87 2.13 c p2
119.60 268.23 2.13 c p2
151.67 273.18 2.13 c p2
183.73 273.24 2.13 c p2
215.80 251.28 2.13 c p2
247.86 203.32 2.13 c p2
279.93 187.14 2.13 c p2
311.99 151.17 2.13 c p2
344.05 136.08 2.13 c p2
0.9725 0.4627 0.4275 srgb
np
53.55 346.07 m
3.85 0 l
o
np
55.47 346.07 m
0 -133.86 l
o
np
53.55 212.21 m
3.85 0 l
o
np
85.61 185.99 m
3.85 0 l
o
np
87.54 185.99 m
0 -69.36 l
o
np
85.61 116.63 m
3.85 0 l
o
np
117.68 156.79 m
3.85 0 l
o
np
119.60 156.79 m
0 -48.81 l
o
np
117.68 107.98 m
3.85 0 l
o
np
149.74 103.71 m
3.85 0 l
o
np
151.67 103.71 m
0 -20.46 l
o
np
149.74 83.25 m
3.85 0 l
o
np
181.81 95.23 m
3.85 0 l
o
np
183.73 95.23 m
0 -20.37 l
o
np
181.81 74.86 m
3.85 0 l
o
np
213.87 75.52 m
3.85 0 l
o
np
215.80 75.52 m
0 -10.01 l
o
np
213.87 65.51 m
3.85 0 l
o
np
245.94 105.02 m
3.84 0 l
o
np
247.86 105.02 m
0 -32.18 l
o
np
245.94 72.84 m
3.84 0 l
o
np
278.00 71.24 m
3.85 0 l
o
np
279.93 71.24 m
0 -11.95 l
o
np
278.00 59.29 m
3.85 0 l
o
np
310.07 66.15 m
3.84 0 l
o
np
311.99 66.15 m
0 -6.45 l
o
np
310.07 59.70 m
3.84 0 l
o
np
342.13 91.14 m
3.85 0 l
o
np
344.05 91.14 m
0 -33.94 l
o
np
342.13 57.20 m
3.85 0 l
o
0 0.7294 0.2196 srgb
np
53.55 245.01 m
3.85 0 l
o
np
55.47 245.01 m
0 -51.68 l
o
np
53.55 193.33 m
3.85 0 l
o
np
85.61 135.65 m
3.85 0 l
o
np
87.54 135.65 m
0 -25.89 l
o
np
85.61 109.76 m
3.85 0 l
o
np
117.68 127.77 m
3.85 0 l
o
np
119.60 127.77 m
0 -34.87 l
o
np
117.68 92.90 m
3.85 0 l
o
np
149.74 95.78 m
3.85 0 l
o
np
151.67 95.78 m
0 -10.00 l
o
np
149.74 85.78 m
3.85 0 l
o
np
181.81 89.94 m
3.85 0 l
o
np
183.73 89.94 m
0 -18.82 l
o
np
181.81 71.12 m
3.85 0 l
o
np
213.87 71.89 m
3.85 0 l
o
np
215.80 71.89 m
0 -6.20 l
o
np
213.87 65.69 m
3.85 0 l
o
np
245.94 68.46 m
3.84 0 l
o
np
247.86 68.46 m
0 -5.52 l
o
np
245.94 62.94 m
3.84 0 l
o
np
278.00 63.62 m
3.85 0 l
o
np
279.93 63.62 m
0 -6.23 l
o
np
278.00 57.39 m
3.85 0 l
o
np
310.07 61.81 m
3.84 0 l
o
np
311.99 61.81 m
0 -6.18 l
o
np
310.07 55.63 m
3.84 0 l
o
np
342.13 61.13 m
3.85 0 l
o
np
344.05 61.13 m
0 -5.72 l
o
np
342.13 55.41 m
3.85 0 l
o
0.3804 0.6118 1 srgb
np
53.55 276.03 m
3.85 0 l
o
np
55.47 276.03 m
0 -21.53 l
o
np
53.55 254.50 m
3.85 0 l
o
np
85.61 274.12 m
3.85 0 l
o
np
87.54 274.12 m
0 -18.50 l
o
np
85.61 255.62 m
3.85 0 l
o
np
117.68 281.59 m
3.85 0 l
o
np
119.60 281.59 m
0 -26.72 l
o
np
117.68 254.87 m
3.85 0 l
o
np
149.74 290.60 m
3.85 0 l
o
np
151.67 290.60 m
0 -34.84 l
o
np
149.74 255.76 m
3.85 0 l
o
np
181.81 287.76 m
3.85 0 l
o
np
183.73 287.76 m
0 -29.04 l
o
np
181.81 258.72 m
3.85 0 l
o
np
213.87 261.67 m
3.85 0 l
o
np
215.80 261.67 m
0 -20.77 l
o
np
213.87 240.90 m
3.85 0 l
o
np
245.94 216.07 m
3.84 0 l
o
np
247.86 216.07 m
0 -25.50 l
o
np
245.94 190.57 m
3.84 0 l
o
np
278.00 205.71 m
3.85 0 l
o
np
279.93 205.71 m
0 -37.14 l
o
np
278.00 168.57 m
3.85 0 l
o
np
310.07 166.81 m
3.84 0 l
o
np
311.99 166.81 m
0 -31.28 l
o
np
310.07 135.53 m
3.84 0 l
o
np
342.13 149.35 m
3.85 0 l
o
np
344.05 149.35 m
0 -26.54 l
o
np
342.13 122.81 m
3.85 0 l
o
0.00 0.00 375.00 375.00 cl
0.00 0.00 375.00 375.00 cl
0 0 0 srgb
1.06 setlinewidth
[] 0 setdash
0 setlinecap
1 setlinejoin
10.00 setmiterlimit
np
38.93 40.87 m
0 319.73 l
o
0.00 0.00 375.00 375.00 cl
/Font1 findfont 12 s
0.4980 0.4980 0.4980 srgb
31.84 112.59 (3) 1 0 t
31.84 199.13 (4) 1 0 t
31.84 285.66 (5) 1 0 t
0.00 0.00 375.00 375.00 cl
0.00 0.00 375.00 375.00 cl
0.4980 0.4980 0.4980 srgb
1.06 setlinewidth
[] 0 setdash
0 setlinecap
1 setlinejoin
10.00 setmiterlimit
np
34.68 116.89 m
4.25 0 l
o
np
34.68 203.43 m
4.25 0 l
o
np
34.68 289.97 m
4.25 0 l
o
0.00 0.00 375.00 375.00 cl
0.00 0.00 375.00 375.00 cl
0.00 0.00 375.00 375.00 cl
0.00 0.00 375.00 375.00 cl
0.00 0.00 375.00 375.00 cl
0 0 0 srgb
1.06 setlinewidth
[] 0 setdash
0 setlinecap
1 setlinejoin
10.00 setmiterlimit
np
38.93 40.87 m
321.67 0 l
o
0.00 0.00 375.00 375.00 cl
0.4980 0.4980 0.4980 srgb
1.06 setlinewidth
[] 0 setdash
0 setlinecap
1 setlinejoin
10.00 setmiterlimit
np
55.47 36.62 m
0 4.25 l
o
np
87.54 36.62 m
0 4.25 l
o
np
119.60 36.62 m
0 4.25 l
o
np
151.67 36.62 m
0 4.25 l
o
np
183.73 36.62 m
0 4.25 l
o
np
215.80 36.62 m
0 4.25 l
o
np
247.86 36.62 m
0 4.25 l
o
np
279.93 36.62 m
0 4.25 l
o
np
311.99 36.62 m
0 4.25 l
o
np
344.05 36.62 m
0 4.25 l
o
np
55.47 36.62 m
0 4.25 l
o
np
87.54 36.62 m
0 4.25 l
o
np
119.60 36.62 m
0 4.25 l
o
np
151.67 36.62 m
0 4.25 l
o
np
183.73 36.62 m
0 4.25 l
o
np
215.80 36.62 m
0 4.25 l
o
np
247.86 36.62 m
0 4.25 l
o
np
279.93 36.62 m
0 4.25 l
o
np
311.99 36.62 m
0 4.25 l
o
np
344.05 36.62 m
0 4.25 l
o
np
55.47 36.62 m
0 4.25 l
o
np
87.54 36.62 m
0 4.25 l
o
np
119.60 36.62 m
0 4.25 l
o
np
151.67 36.62 m
0 4.25 l
o
np
183.73 36.62 m
0 4.25 l
o
np
215.80 36.62 m
0 4.25 l
o
np
247.86 36.62 m
0 4.25 l
o
np
279.93 36.62 m
0 4.25 l
o
np
311.99 36.62 m
0 4.25 l
o
np
344.05 36.62 m
0 4.25 l
o
0.00 0.00 375.00 375.00 cl
0.00 0.00 375.00 375.00 cl
/Font1 findfont 12 s
0.4980 0.4980 0.4980 srgb
55.47 25.17 (10) .5 0 t
87.54 25.17 (20) .5 0 t
119.60 25.17 (30) .5 0 t
151.67 25.17 (40) .5 0 t
183.73 25.17 (50) .5 0 t
215.80 25.17 (60) .5 0 t
247.86 25.17 (70) .5 0 t
279.93 25.17 (80) .5 0 t
311.99 25.17 (90) .5 0 t
344.05 25.17 (100) .5 0 t
55.47 25.17 (10) .5 0 t
87.54 25.17 (20) .5 0 t
119.60 25.17 (30) .5 0 t
151.67 25.17 (40) .5 0 t
183.73 25.17 (50) .5 0 t
215.80 25.17 (60) .5 0 t
247.86 25.17 (70) .5 0 t
279.93 25.17 (80) .5 0 t
311.99 25.17 (90) .5 0 t
344.05 25.17 (100) .5 0 t
55.47 25.17 (10) .5 0 t
87.54 25.17 (20) .5 0 t
119.60 25.17 (30) .5 0 t
151.67 25.17 (40) .5 0 t
183.73 25.17 (50) .5 0 t
215.80 25.17 (60) .5 0 t
247.86 25.17 (70) .5 0 t
279.93 25.17 (80) .5 0 t
311.99 25.17 (90) .5 0 t
344.05 25.17 (100) .5 0 t
0.00 0.00 375.00 375.00 cl
0.00 0.00 375.00 375.00 cl
0.00 0.00 375.00 375.00 cl
0.00 0.00 375.00 375.00 cl
0.00 0.00 375.00 375.00 cl
/Font1 findfont 15 s
0 0 0 srgb
199.76 10.80 (Threads) .5 0 t
0.00 0.00 375.00 375.00 cl
0.00 0.00 375.00 375.00 cl
/Font1 findfont 15 s
0 0 0 srgb
21.57 129.04 (negativ) 90 ta
-0.375 (e loglik) tb
-0.300 (elihood) tb gr
0.00 0.00 375.00 375.00 cl
0.00 0.00 375.00 375.00 cl
0.00 0.00 375.00 375.00 cl
0.00 0.00 375.00 375.00 cl
0.00 0.00 375.00 375.00 cl
0.00 0.00 375.00 375.00 cl
/bg { 1 1 1 srgb } def
284.72 254.96 87.42 83.38 r p2
0.00 0.00 375.00 375.00 cl
0.00 0.00 375.00 375.00 cl
0.00 0.00 375.00 375.00 cl
0.00 0.00 375.00 375.00 cl
/bg { 1 1 1 srgb } def
1 1 1 srgb
1.06 setlinewidth
[] 0 setdash
1 setlinecap
1 setlinejoin
10.00 setmiterlimit
288.97 305.29 23.04 23.04 r p3
0.00 0.00 375.00 375.00 cl
0.00 0.00 375.00 375.00 cl
0.9725 0.4627 0.4275 srgb
1.06 setlinewidth
[] 0 setdash
0 setlinecap
1 setlinejoin
10.00 setmiterlimit
np
291.28 316.81 m
18.43 0 l
o
0.00 0.00 375.00 375.00 cl
0.00 0.00 375.00 375.00 cl
/bg { 0.9725 0.4627 0.4275 srgb } def
300.49 316.81 2.13 c p2
0.00 0.00 375.00 375.00 cl
0.00 0.00 375.00 375.00 cl
0.9725 0.4627 0.4275 srgb
1.06 setlinewidth
[] 0 setdash
0 setlinecap
1 setlinejoin
10.00 setmiterlimit
np
291.28 316.81 m
18.43 0 l
o
0.00 0.00 375.00 375.00 cl
0.00 0.00 375.00 375.00 cl
/bg { 1 1 1 srgb } def
1 1 1 srgb
1.06 setlinewidth
[] 0 setdash
1 setlinecap
1 setlinejoin
10.00 setmiterlimit
288.97 282.25 23.04 23.04 r p3
0.00 0.00 375.00 375.00 cl
0.00 0.00 375.00 375.00 cl
0 0.7294 0.2196 srgb
1.06 setlinewidth
[] 0 setdash
0 setlinecap
1 setlinejoin
10.00 setmiterlimit
np
291.28 293.77 m
18.43 0 l
o
0.00 0.00 375.00 375.00 cl
0.00 0.00 375.00 375.00 cl
/bg { 0 0.7294 0.2196 srgb } def
300.49 293.77 2.13 c p2
0.00 0.00 375.00 375.00 cl
0.00 0.00 375.00 375.00 cl
0 0.7294 0.2196 srgb
1.06 setlinewidth
[] 0 setdash
0 setlinecap
1 setlinejoin
10.00 setmiterlimit
np
291.28 293.77 m
18.43 0 l
o
0.00 0.00 375.00 375.00 cl
0.00 0.00 375.00 375.00 cl
/bg { 1 1 1 srgb } def
1 1 1 srgb
1.06 setlinewidth
[] 0 setdash
1 setlinecap
1 setlinejoin
10.00 setmiterlimit
288.97 259.21 23.04 23.04 r p3
0.00 0.00 375.00 375.00 cl
0.00 0.00 375.00 375.00 cl
0.3804 0.6118 1 srgb
1.06 setlinewidth
[] 0 setdash
0 setlinecap
1 setlinejoin
10.00 setmiterlimit
np
291.28 270.73 m
18.43 0 l
o
0.00 0.00 375.00 375.00 cl
0.00 0.00 375.00 375.00 cl
/bg { 0.3804 0.6118 1 srgb } def
300.49 270.73 2.13 c p2
0.00 0.00 375.00 375.00 cl
0.00 0.00 375.00 375.00 cl
0.3804 0.6118 1 srgb
1.06 setlinewidth
[] 0 setdash
0 setlinecap
1 setlinejoin
10.00 setmiterlimit
np
291.28 270.73 m
18.43 0 l
o
0.00 0.00 375.00 375.00 cl
0.00 0.00 375.00 375.00 cl
/Font1 findfont 12 s
0 0 0 srgb
314.89 312.51 (dual-DP) 0 0 t
0.00 0.00 375.00 375.00 cl
0.00 0.00 375.00 375.00 cl
/Font1 findfont 12 s
0 0 0 srgb
314.89 289.47 (dual-fix) 0 ta
-0.360 (ed) tb gr
0.00 0.00 375.00 375.00 cl
0.00 0.00 375.00 375.00 cl
/Font1 findfont 12 s
0 0 0 srgb
314.89 266.43 (single) 0 0 t
0.00 0.00 375.00 375.00 cl
0.00 0.00 375.00 375.00 cl
0.00 0.00 375.00 375.00 cl
0.00 0.00 375.00 375.00 cl
0.00 0.00 375.00 375.00 cl
0.00 0.00 375.00 375.00 cl
0.00 0.00 375.00 375.00 cl
0.00 0.00 375.00 375.00 cl
0.00 0.00 375.00 375.00 cl
0.00 0.00 375.00 375.00 cl
0.00 0.00 375.00 375.00 cl
0.00 0.00 375.00 375.00 cl
ep
%%Trailer
%%Pages: 1
%%EOF
