\relax 
\@writefile{toc}{\contentsline {section}{\numberline {1}Introduction}{1}}
\@writefile{toc}{\contentsline {section}{\numberline {2}Notation}{1}}
\@writefile{toc}{\contentsline {section}{\numberline {3}Supervised user clustering}{1}}
\@writefile{toc}{\contentsline {section}{\numberline {4}Inference}{1}}
\@writefile{lof}{\contentsline {figure}{\numberline {1}{\ignorespaces Graphical model of our complete model}}{2}}
