\relax 
\providecommand \oddpage@label [2]{}
\@writefile{toc}{\contentsline {section}{\numberline {1}Clustering based on users behaviors shifts}{1}}
\@writefile{toc}{\contentsline {subsection}{\numberline {1.1}Model specification}{1}}
\@writefile{lof}{\contentsline {figure}{\numberline {1}{\ignorespaces Graphical model}}{2}}
\newlabel{fig:general}{{1}{2}}
\@writefile{toc}{\contentsline {subsection}{\numberline {1.2}Variational distribution}{2}}
\@writefile{toc}{\contentsline {section}{\numberline {2}Dual-view clustering}{6}}
\@writefile{toc}{\contentsline {subsection}{\numberline {2.1}Model}{6}}
\@writefile{lof}{\contentsline {figure}{\numberline {2}{\ignorespaces Graphical model of the generative process. Views are connected through the latent assignments $\mathbf  {z}$.}}{7}}
\newlabel{fig:general}{{2}{7}}
\@writefile{toc}{\contentsline {subsection}{\numberline {2.2}Variational distribution}{8}}
