\relax 
\@writefile{toc}{\contentsline {section}{\numberline {1}Introduction}{1}}
\@writefile{toc}{\contentsline {section}{\numberline {2}Notation}{1}}
\@writefile{toc}{\contentsline {section}{\numberline {3}Linear model}{1}}
\@writefile{lof}{\contentsline {figure}{\numberline {1}{\ignorespaces Graphical model of our linear model}}{2}}
\@writefile{toc}{\contentsline {section}{\numberline {4}Bayesian linear model}{2}}
\@writefile{toc}{\contentsline {section}{\numberline {5}Bayesian linear model with roles}{3}}
\@writefile{lof}{\contentsline {figure}{\numberline {2}{\ignorespaces Graphical model of our bayesian linear model}}{4}}
\@writefile{toc}{\contentsline {section}{\numberline {6}Another bayesian model with roles}{4}}
\@writefile{lof}{\contentsline {figure}{\numberline {3}{\ignorespaces Graphical model of our complete model}}{5}}
\@writefile{toc}{\contentsline {section}{\numberline {7}Experiments}{5}}
\@writefile{toc}{\contentsline {subsection}{\numberline {7.1}Synthetic dataset}{6}}
\@writefile{toc}{\contentsline {subsection}{\numberline {7.2}IMDb dataset}{6}}
\@writefile{lof}{\contentsline {figure}{\numberline {4}{\ignorespaces Predictions in synthetic dataset. Up: participation matrix. Middle: Census matrix. Bottom: Length predictions}}{7}}
\newlabel{synthetic_benchmark_predictions_U9_T50_R3_sy25_power0}{{4}{7}}
\@writefile{lof}{\contentsline {figure}{\numberline {5}{\ignorespaces Performance of a estimators against number of threads in the sample. The more threads, the less ambiguity in users coefficients and therefore the estimators get better. Up: $R^2$ evaluation. Bottom: Mean Squares Error evaluation.}}{8}}
\newlabel{MLE_MAPvsInstances_U15_T30_R3_sy10_power0}{{5}{8}}
\@writefile{lof}{\contentsline {figure}{\numberline {6}{\ignorespaces Traces of Gibbs sampling on the synthetic dataset.}}{9}}
\newlabel{synthetic_gibbs_U15_T30_R3_sy10_power0}{{6}{9}}
\@writefile{lof}{\contentsline {figure}{\numberline {7}{\ignorespaces Distribution of participations by user}}{9}}
\@writefile{lof}{\contentsline {figure}{\numberline {8}{\ignorespaces Predictions in IMDb dataset}}{10}}
\@writefile{lof}{\contentsline {figure}{\numberline {9}{\ignorespaces Traces of Gibbs sampling on the IMDb dataset.}}{11}}
\@writefile{lof}{\contentsline {figure}{\numberline {10}{\ignorespaces Left: Participation matrix of The Godfather threads. Right: Lines indicate users that have been assigned to the role with more catalytic power. Points indicate the threads in which those users participate}}{12}}
\@writefile{lof}{\contentsline {figure}{\numberline {11}{\ignorespaces Leave one out validation}}{13}}
\@writefile{toc}{\contentsline {section}{\numberline {A}Ordinary Least Squares of $\mathbf  {b}$}{13}}
\@writefile{toc}{\contentsline {section}{\numberline {B}Maximum Likelihood Estimation of $\mathbf  {b}$}{14}}
