\relax 
\providecommand\hyper@newdestlabel[2]{}
\providecommand\HyperFirstAtBeginDocument{\AtBeginDocument}
\HyperFirstAtBeginDocument{\ifx\hyper@anchor\@undefined
\global\let\oldcontentsline\contentsline
\gdef\contentsline#1#2#3#4{\oldcontentsline{#1}{#2}{#3}}
\global\let\oldnewlabel\newlabel
\gdef\newlabel#1#2{\newlabelxx{#1}#2}
\gdef\newlabelxx#1#2#3#4#5#6{\oldnewlabel{#1}{{#2}{#3}}}
\AtEndDocument{\ifx\hyper@anchor\@undefined
\let\contentsline\oldcontentsline
\let\newlabel\oldnewlabel
\fi}
\fi}
\global\let\hyper@last\relax 
\gdef\HyperFirstAtBeginDocument#1{#1}
\providecommand\HyField@AuxAddToFields[1]{}
\providecommand\HyField@AuxAddToCoFields[2]{}
\pgfsyspdfmark {pgfid2}{0}{17900937}
\providecommand \oddpage@label [2]{}
\@writefile{toc}{\beamer@endinputifotherversion {3.36pt}}
\@writefile{nav}{\beamer@endinputifotherversion {3.36pt}}
\pgfsyspdfmark {pgfid1}{1864679}{10452204}
\@writefile{nav}{\headcommand {\slideentry {0}{0}{1}{1/1}{}{0}}}
\@writefile{nav}{\headcommand {\beamer@framepages {1}{1}}}
\pgfsyspdfmark {pgfid3}{0}{17900937}
\@writefile{nav}{\headcommand {\slideentry {0}{0}{2}{2/2}{}{0}}}
\@writefile{nav}{\headcommand {\beamer@framepages {2}{2}}}
\pgfsyspdfmark {pgfid4}{0}{17900937}
\@writefile{nav}{\headcommand {\slideentry {0}{0}{3}{3/3}{}{0}}}
\@writefile{nav}{\headcommand {\beamer@framepages {3}{3}}}
\pgfsyspdfmark {pgfid5}{0}{17900937}
\@writefile{nav}{\headcommand {\slideentry {0}{0}{4}{4/4}{}{0}}}
\@writefile{nav}{\headcommand {\beamer@framepages {4}{4}}}
\pgfsyspdfmark {pgfid6}{0}{17900937}
\@writefile{nav}{\headcommand {\slideentry {0}{0}{5}{5/5}{}{0}}}
\@writefile{nav}{\headcommand {\beamer@framepages {5}{5}}}
\pgfsyspdfmark {pgfid7}{0}{17900937}
\@writefile{nav}{\headcommand {\slideentry {0}{0}{6}{6/6}{}{0}}}
\@writefile{nav}{\headcommand {\beamer@framepages {6}{6}}}
\pgfsyspdfmark {pgfid8}{0}{17900937}
\@writefile{toc}{\beamer@sectionintoc {1}{Part I: Role detection in social networks}{7}{0}{1}}
\@writefile{nav}{\headcommand {\sectionentry {1}{Part I: Role detection in social networks}{7}{Part I: Role detection in social networks}{0}}}
\@writefile{nav}{\headcommand {\beamer@sectionpages {1}{6}}}
\@writefile{nav}{\headcommand {\beamer@subsectionpages {1}{6}}}
\@writefile{nav}{\headcommand {\slideentry {1}{0}{1}{7/7}{}{0}}}
\@writefile{nav}{\headcommand {\beamer@framepages {7}{7}}}
\pgfsyspdfmark {pgfid9}{0}{17900937}
\@writefile{toc}{\beamer@subsectionintoc {1}{1}{Position-based (blockmodeling)}{8}{0}{1}}
\@writefile{nav}{\headcommand {\beamer@subsectionentry {0}{1}{1}{8}{Position-based (blockmodeling)}}\headcommand {\beamer@subsectionpages {7}{7}}}
\@writefile{nav}{\headcommand {\slideentry {1}{1}{1}{8/8}{Position-based (blockmodeling)}{0}}}
\@writefile{nav}{\headcommand {\beamer@framepages {8}{8}}}
\pgfsyspdfmark {pgfid10}{0}{17900937}
\@writefile{nav}{\headcommand {\slideentry {1}{1}{2}{9/9}{Position-based (blockmodeling)}{0}}}
\@writefile{nav}{\headcommand {\beamer@framepages {9}{9}}}
\pgfsyspdfmark {pgfid11}{0}{17900937}
\@writefile{nav}{\headcommand {\slideentry {1}{1}{3}{10/10}{Position-based (blockmodeling)}{0}}}
\@writefile{nav}{\headcommand {\beamer@framepages {10}{10}}}
\pgfsyspdfmark {pgfid12}{0}{17900937}
\@writefile{toc}{\beamer@subsectionintoc {1}{2}{Feature-based}{11}{0}{1}}
\@writefile{nav}{\headcommand {\beamer@subsectionentry {0}{1}{2}{11}{Feature-based}}\headcommand {\beamer@subsectionpages {8}{10}}}
\@writefile{nav}{\headcommand {\slideentry {1}{2}{1}{11/11}{Feature-based}{0}}}
\@writefile{nav}{\headcommand {\beamer@framepages {11}{11}}}
\citation{Chan2010}
\pgfsyspdfmark {pgfid13}{0}{17900937}
\@writefile{nav}{\headcommand {\slideentry {1}{2}{2}{12/12}{Feature-based}{0}}}
\@writefile{nav}{\headcommand {\beamer@framepages {12}{12}}}
\pgfsyspdfmark {pgfid14}{0}{17900937}
\@writefile{toc}{\beamer@subsectionintoc {1}{3}{Discussion}{13}{0}{1}}
\@writefile{nav}{\headcommand {\beamer@subsectionentry {0}{1}{3}{13}{Discussion}}\headcommand {\beamer@subsectionpages {11}{12}}}
\@writefile{nav}{\headcommand {\slideentry {1}{3}{1}{13/13}{Discussion}{0}}}
\@writefile{nav}{\headcommand {\beamer@framepages {13}{13}}}
\pgfsyspdfmark {pgfid15}{0}{17900937}
\@writefile{nav}{\headcommand {\slideentry {1}{3}{2}{14/14}{Discussion}{0}}}
\@writefile{nav}{\headcommand {\beamer@framepages {14}{14}}}
\pgfsyspdfmark {pgfid16}{0}{17900937}
\@writefile{toc}{\beamer@sectionintoc {2}{Part II: Role detection in discussion trees}{15}{0}{2}}
\@writefile{nav}{\headcommand {\sectionentry {2}{Part II: Role detection in discussion trees}{15}{Part II: Role detection in discussion trees}{0}}}
\@writefile{nav}{\headcommand {\beamer@sectionpages {7}{14}}}
\@writefile{nav}{\headcommand {\beamer@subsectionpages {13}{14}}}
\@writefile{nav}{\headcommand {\slideentry {2}{0}{1}{15/15}{}{0}}}
\@writefile{nav}{\headcommand {\beamer@framepages {15}{15}}}
\pgfsyspdfmark {pgfid17}{0}{17900937}
\@writefile{toc}{\beamer@subsectionintoc {2}{1}{Discussion trees}{16}{0}{2}}
\@writefile{nav}{\headcommand {\beamer@subsectionentry {0}{2}{1}{16}{Discussion trees}}\headcommand {\beamer@subsectionpages {15}{15}}}
\@writefile{nav}{\headcommand {\slideentry {2}{1}{1}{16/16}{Discussion trees}{0}}}
\@writefile{nav}{\headcommand {\beamer@framepages {16}{16}}}
\pgfsyspdfmark {pgfid18}{0}{17900937}
\@writefile{nav}{\headcommand {\slideentry {2}{1}{2}{17/17}{Discussion trees}{0}}}
\@writefile{nav}{\headcommand {\beamer@framepages {17}{17}}}
\pgfsyspdfmark {pgfid19}{0}{17900937}
\@writefile{nav}{\headcommand {\slideentry {2}{1}{3}{18/18}{Discussion trees}{0}}}
\@writefile{nav}{\headcommand {\beamer@framepages {18}{18}}}
\pgfsyspdfmark {pgfid20}{0}{17900937}
\@writefile{nav}{\headcommand {\slideentry {2}{1}{4}{19/19}{Discussion trees}{0}}}
\@writefile{nav}{\headcommand {\beamer@framepages {19}{19}}}
\citation{Lumbreras2013}
\pgfsyspdfmark {pgfid21}{0}{17900937}
\@writefile{nav}{\headcommand {\slideentry {2}{1}{5}{20/20}{Discussion trees}{0}}}
\@writefile{nav}{\headcommand {\beamer@framepages {20}{20}}}
\pgfsyspdfmark {pgfid22}{0}{17900937}
\@writefile{toc}{\beamer@subsectionintoc {2}{2}{Feature-based analysis of roles}{21}{0}{2}}
\@writefile{nav}{\headcommand {\beamer@subsectionentry {0}{2}{2}{21}{Feature-based analysis of roles}}\headcommand {\beamer@subsectionpages {16}{20}}}
\@writefile{nav}{\headcommand {\slideentry {2}{2}{1}{21/21}{Feature-based analysis of roles}{0}}}
\@writefile{nav}{\headcommand {\beamer@framepages {21}{21}}}
\pgfsyspdfmark {pgfid23}{0}{17900937}
\@writefile{nav}{\headcommand {\slideentry {2}{2}{2}{22/22}{Feature-based analysis of roles}{0}}}
\@writefile{nav}{\headcommand {\beamer@framepages {22}{22}}}
\pgfsyspdfmark {pgfid24}{0}{17900937}
\@writefile{nav}{\headcommand {\slideentry {2}{2}{3}{23/23}{Feature-based analysis of roles}{0}}}
\@writefile{nav}{\headcommand {\beamer@framepages {23}{23}}}
\pgfsyspdfmark {pgfid25}{0}{17900937}
\@writefile{toc}{\beamer@subsectionintoc {2}{3}{Prediction-based}{24}{0}{2}}
\@writefile{nav}{\headcommand {\beamer@subsectionentry {0}{2}{3}{24}{Prediction-based}}\headcommand {\beamer@subsectionpages {21}{23}}}
\@writefile{nav}{\headcommand {\slideentry {2}{3}{1}{24/24}{Prediction-based}{0}}}
\@writefile{nav}{\headcommand {\beamer@framepages {24}{24}}}
\pgfsyspdfmark {pgfid26}{0}{17900937}
\@writefile{nav}{\headcommand {\slideentry {2}{3}{2}{25/25}{Prediction-based}{0}}}
\@writefile{nav}{\headcommand {\beamer@framepages {25}{25}}}
\pgfsyspdfmark {pgfid27}{0}{17900937}
\@writefile{nav}{\headcommand {\slideentry {2}{3}{3}{26/26}{Prediction-based}{0}}}
\@writefile{nav}{\headcommand {\beamer@framepages {26}{26}}}
\pgfsyspdfmark {pgfid28}{0}{17900937}
\@writefile{nav}{\headcommand {\slideentry {2}{3}{4}{27/27}{Prediction-based}{0}}}
\@writefile{nav}{\headcommand {\beamer@framepages {27}{27}}}
\pgfsyspdfmark {pgfid30}{0}{17900937}
\newlabel{fig:general}{{27}{28}{Prediction-based}{Doc-Start}{}}
\@writefile{snm}{\beamer@slide {fig:general}{28}}
\@writefile{nav}{\headcommand {\slideentry {2}{3}{5}{28/28}{Prediction-based}{0}}}
\@writefile{nav}{\headcommand {\beamer@framepages {28}{28}}}
\pgfsyspdfmark {pgfid31}{0}{17900937}
\@writefile{nav}{\headcommand {\slideentry {2}{3}{6}{29/29}{Prediction-based}{0}}}
\@writefile{nav}{\headcommand {\beamer@framepages {29}{29}}}
\pgfsyspdfmark {pgfid32}{0}{17900937}
\@writefile{nav}{\headcommand {\slideentry {2}{3}{7}{30/30}{Prediction-based}{0}}}
\@writefile{nav}{\headcommand {\beamer@framepages {30}{30}}}
\pgfsyspdfmark {pgfid33}{0}{17900937}
\@writefile{nav}{\headcommand {\slideentry {2}{3}{8}{31/31}{Prediction-based}{0}}}
\@writefile{nav}{\headcommand {\beamer@framepages {31}{31}}}
\citation{Rasmussen2000a,Gorur2010}
\pgfsyspdfmark {pgfid34}{0}{17900937}
\@writefile{nav}{\headcommand {\slideentry {2}{3}{9}{32/32}{Prediction-based}{0}}}
\@writefile{nav}{\headcommand {\beamer@framepages {32}{32}}}
\pgfsyspdfmark {pgfid35}{0}{17900937}
\@writefile{nav}{\headcommand {\slideentry {2}{3}{10}{33/33}{Prediction-based}{0}}}
\@writefile{nav}{\headcommand {\beamer@framepages {33}{33}}}
\pgfsyspdfmark {pgfid36}{0}{17900937}
\newlabel{fig:benchmark_bars}{{6}{34}{Prediction-based}{Doc-Start}{}}
\@writefile{snm}{\beamer@slide {fig:benchmark_bars}{34}}
\@writefile{nav}{\headcommand {\slideentry {2}{3}{11}{34/34}{Prediction-based}{0}}}
\@writefile{nav}{\headcommand {\beamer@framepages {34}{34}}}
\pgfsyspdfmark {pgfid37}{0}{17900937}
\newlabel{fig:benchmark_bars_ari}{{7}{35}{Prediction-based}{Doc-Start}{}}
\@writefile{snm}{\beamer@slide {fig:benchmark_bars_ari}{35}}
\@writefile{nav}{\headcommand {\slideentry {2}{3}{12}{35/35}{Prediction-based}{0}}}
\@writefile{nav}{\headcommand {\beamer@framepages {35}{35}}}
\pgfsyspdfmark {pgfid38}{0}{17900937}
\@writefile{nav}{\headcommand {\slideentry {2}{3}{13}{36/36}{Prediction-based}{0}}}
\@writefile{nav}{\headcommand {\beamer@framepages {36}{36}}}
\pgfsyspdfmark {pgfid39}{0}{17900937}
\@writefile{toc}{\beamer@subsectionintoc {2}{4}{Generative model for threads}{37}{0}{2}}
\@writefile{nav}{\headcommand {\beamer@subsectionentry {0}{2}{4}{37}{Generative model for threads}}\headcommand {\beamer@subsectionpages {24}{36}}}
\@writefile{nav}{\headcommand {\slideentry {2}{4}{1}{37/37}{Generative model for threads}{0}}}
\@writefile{nav}{\headcommand {\beamer@framepages {37}{37}}}
\citation{Gomez2012a}
\pgfsyspdfmark {pgfid40}{0}{17900937}
\@writefile{nav}{\headcommand {\slideentry {2}{4}{2}{38/38}{Generative model for threads}{0}}}
\@writefile{nav}{\headcommand {\beamer@framepages {38}{38}}}
\pgfsyspdfmark {pgfid41}{0}{17900937}
\@writefile{toc}{\beamer@subsectionintoc {2}{5}{Discussion}{39}{0}{2}}
\@writefile{nav}{\headcommand {\beamer@subsectionentry {0}{2}{5}{39}{Discussion}}\headcommand {\beamer@subsectionpages {37}{38}}}
\@writefile{nav}{\headcommand {\slideentry {2}{5}{1}{39/39}{Discussion}{0}}}
\@writefile{nav}{\headcommand {\beamer@framepages {39}{39}}}
\pgfsyspdfmark {pgfid42}{0}{17900937}
\@writefile{toc}{\beamer@sectionintoc {3}{Future work}{40}{0}{3}}
\@writefile{nav}{\headcommand {\sectionentry {3}{Future work}{40}{Future work}{0}}}
\@writefile{nav}{\headcommand {\beamer@sectionpages {15}{39}}}
\@writefile{nav}{\headcommand {\beamer@subsectionpages {39}{39}}}
\@writefile{nav}{\headcommand {\slideentry {3}{0}{1}{40/40}{}{0}}}
\@writefile{nav}{\headcommand {\beamer@framepages {40}{40}}}
\pgfsyspdfmark {pgfid43}{0}{17900937}
\@writefile{nav}{\headcommand {\slideentry {3}{0}{2}{41/41}{}{0}}}
\@writefile{nav}{\headcommand {\beamer@framepages {41}{41}}}
\pgfsyspdfmark {pgfid44}{0}{17900937}
\@writefile{nav}{\headcommand {\slideentry {3}{0}{3}{42/42}{}{0}}}
\@writefile{nav}{\headcommand {\beamer@framepages {42}{42}}}
\bibstyle{chicago}
\bibdata{./bibtex/library}
\bibcite{Adamic2008}{{1}{2008}{{Adamic et~al.}}{{Adamic, Zhang, Bakshy, and Ackerman}}}
\bibcite{Chan2010}{{2}{2010}{{Chan et~al.}}{{Chan, Hayes, and Daly}}}
\bibcite{KatherineFaust}{{3}{2002}{{Faust and Skvoretz}}{{Faust and Skvoretz}}}
\bibcite{Gomez2012a}{{4}{2012}{{G\'{o}mez et~al.}}{{G\'{o}mez, Kappen, Litvak, and Kaltenbrunner}}}
\bibcite{Gorur2010}{{5}{2010}{{G\"{o}r\"{u}r and Rasmussen}}{{G\"{o}r\"{u}r and Rasmussen}}}
\bibcite{Lumbreras2013}{{6}{2013}{{Lumbreras et~al.}}{{Lumbreras, Lanagan, Velcin, Jouve, Eric, Lyon, and France}}}
\bibcite{Rasmussen2000a}{{7}{2000}{{Rasmussen}}{{Rasmussen}}}
\pgfsyspdfmark {pgfid45}{0}{17900937}
\@writefile{nav}{\headcommand {\sectionentry {4}{\translate  {References}}{43}{\translate  {References}}{0}}}
\@writefile{nav}{\headcommand {\beamer@sectionpages {40}{42}}}
\@writefile{nav}{\headcommand {\beamer@subsectionpages {40}{42}}}
\@writefile{nav}{\headcommand {\slideentry {4}{0}{0}{43/43}{}{0}}}
\@writefile{nav}{\headcommand {\beamer@framepages {43}{43}}}
\@writefile{nav}{\headcommand {\beamer@partpages {1}{43}}}
\@writefile{nav}{\headcommand {\beamer@subsectionpages {40}{43}}}
\@writefile{nav}{\headcommand {\beamer@sectionpages {40}{43}}}
\@writefile{nav}{\headcommand {\beamer@documentpages {43}}}
\@writefile{nav}{\headcommand {\def \inserttotalframenumber {42}}}
