\relax 
\providecommand*{\memsetcounter}[2]{}
\global\mtcsecondpartfalse
\@writefile{lof}{\addvspace {10pt}}
\@writefile{lot}{\addvspace {10pt}}
\@writefile{toc}{\contentsline {chapter}{\chapternumberline {1}Introduction}{1}}
\memsetcounter{lastsheet}{1}
\memsetcounter{lastpage}{1}
