\relax 
\providecommand*{\memsetcounter}[2]{}
\providecommand\hyper@newdestlabel[2]{}
\providecommand\HyperFirstAtBeginDocument{\AtBeginDocument}
\HyperFirstAtBeginDocument{\ifx\hyper@anchor\@undefined
\global\let\oldcontentsline\contentsline
\gdef\contentsline#1#2#3#4{\oldcontentsline{#1}{#2}{#3}}
\global\let\oldnewlabel\newlabel
\gdef\newlabel#1#2{\newlabelxx{#1}#2}
\gdef\newlabelxx#1#2#3#4#5#6{\oldnewlabel{#1}{{#2}{#3}}}
\AtEndDocument{\ifx\hyper@anchor\@undefined
\let\contentsline\oldcontentsline
\let\newlabel\oldnewlabel
\fi}
\fi}
\global\let\hyper@last\relax 
\gdef\HyperFirstAtBeginDocument#1{#1}
\providecommand\HyField@AuxAddToFields[1]{}
\providecommand\HyField@AuxAddToCoFields[2]{}
\citation{Nash1975}
\@writefile{lof}{\addvspace {10pt}}
\@writefile{lot}{\addvspace {10pt}}
\@writefile{toc}{\contentsline {chapter}{\chapternumberline {1}Introduction}{1}{chapter.1}}
\@writefile{loa}{\addvspace {10\p@ }}
\citation{Goffman1959}
\citation{Biddle1986}
\citation{Goffman1959}
\citation{Glea2009}
\@writefile{toc}{\contentsline {section}{\numberline {1.1}Context}{2}{section.1.1}}
\@writefile{toc}{\contentsline {subsection}{(Offline) roles}{2}{section*.1}}
\citation{Golder2004}
\citation{Airoldi2008}
\citation{Glea2009}
\citation{Moreno1934}
\citation{White1976}
\@writefile{toc}{\contentsline {subsection}{Roles in online communities}{3}{section*.2}}
\@writefile{toc}{\contentsline {subsubsection}{Bottom-up and top-down: detecting roles vs search roles}{3}{section*.3}}
\newmarginnote{note.2.1}{{3}{4699040sp}}
\@writefile{toc}{\contentsline {subsubsection}{(Positional analysis)}{3}{section*.4}}
\@writefile{lof}{\contentsline {figure}{\numberline {1.1}{\ignorespaces Matrix of interactions\relax }}{4}{figure.caption.6}}
\providecommand*\caption@xref[2]{\@setref\relax\@undefined{#1}}
\newlabel{fig:trees}{{\M@TitleReference {1.1}{Matrix of interactions\relax }}{4}{Matrix of interactions\relax }{figure.caption.6}{}}
\@writefile{toc}{\contentsline {section}{\numberline {1.2}Graph representations}{4}{section.1.2}}
\@writefile{toc}{\contentsline {subsection}{Interaction graphs}{4}{section*.5}}
\@writefile{toc}{\contentsline {subsection}{Coparticipation graphs}{4}{section*.7}}
\@writefile{toc}{\contentsline {subsection}{Discussion tree graphs}{4}{section*.9}}
\citation{Zighed2012}
\citation{Golder2004}
\@writefile{lof}{\contentsline {figure}{\numberline {1.2}{\ignorespaces Matrix of interactions\relax }}{5}{figure.caption.8}}
\newlabel{fig:trees}{{\M@TitleReference {1.2}{Matrix of interactions\relax }}{5}{Matrix of interactions\relax }{figure.caption.8}{}}
\@writefile{lof}{\contentsline {figure}{\numberline {1.3}{\ignorespaces Tree representation of three conversation threads in Reddit.\relax }}{5}{figure.caption.10}}
\newlabel{fig:trees}{{\M@TitleReference {1.3}{Tree representation of three conversation threads in Reddit.\relax }}{5}{Tree representation of three conversation threads in Reddit.\relax }{figure.caption.10}{}}
\@writefile{toc}{\contentsline {section}{\numberline {1.3}Online role detection}{5}{section.1.3}}
\@writefile{toc}{\contentsline {subsection}{Ethnology}{5}{section*.11}}
\citation{Himelboim2009}
\citation{Glea2009}
\citation{Chan2010}
\citation{Angeletou2011a}
\citation{Furtado2013}
\@writefile{toc}{\contentsline {subsection}{Clustering}{6}{section*.12}}
\@writefile{toc}{\contentsline {subsection}{Blockmodeling}{6}{section*.13}}
\citation{Lorrain1971a}
\citation{White1983}
\citation{Fienberg1981,Holland1983}
\citation{Nowicki2001}
\citation{Daudin2008,Latouche2012}
\citation{Wasserman1994}
\citation{Milo2002}
\citation{Adamic2008,Kamaliha2008}
\citation{Wernicke2006}
\citation{Birmele2010a}
\@writefile{toc}{\contentsline {subsection}{Triads ans motifs}{7}{section*.15}}
\@writefile{lof}{\contentsline {figure}{\numberline {1.4}{\ignorespaces Blockmodeling over the co-participation matrix of the 1000 most active users\relax }}{8}{figure.caption.14}}
\newlabel{fig:blockmodels}{{\M@TitleReference {1.4}{Blockmodeling over the co-participation matrix of the 1000 most active users\relax }}{8}{Blockmodeling over the co-participation matrix of the 1000 most active users\relax }{figure.caption.14}{}}
\@writefile{lof}{\contentsline {figure}{\numberline {1.5}{\ignorespaces List of all possible triads and their commonly given ids\relax }}{8}{figure.caption.16}}
\newlabel{fig:triads}{{\M@TitleReference {1.5}{List of all possible triads and their commonly given ids\relax }}{8}{List of all possible triads and their commonly given ids\relax }{figure.caption.16}{}}
\citation{Dorat2007}
\citation{Rossi2013}
\citation{Fisher2006}
\citation{McCallum2007}
\citation{Zhang2007}
\@writefile{toc}{\contentsline {subsection}{Matrix Factorization}{9}{section*.17}}
\@writefile{toc}{\contentsline {subsubsection}{Language-based roles}{9}{section*.18}}
\@writefile{toc}{\contentsline {subsection}{Others}{9}{section*.19}}
\@writefile{toc}{\contentsline {section}{\numberline {1.4}Drawbacks of current methods}{9}{section.1.4}}
\@writefile{toc}{\contentsline {section}{\numberline {1.5}Summary and contributions}{9}{section.1.5}}
\memsetcounter{lastsheet}{10}
\memsetcounter{lastpage}{10}
