\relax 
\@writefile{toc}{\contentsline {section}{\numberline {1}Introduction}{1}}
\@writefile{toc}{\contentsline {section}{\numberline {2}Thread metrics}{1}}
\@writefile{toc}{\contentsline {section}{\numberline {3}User participation metrics}{1}}
\@writefile{toc}{\contentsline {subsection}{\numberline {3.1}..}{1}}
