\relax 
\@writefile{toc}{\contentsline {section}{\numberline {1}Introduction}{1}}
\@writefile{toc}{\contentsline {section}{\numberline {2}Notation}{1}}
\@writefile{toc}{\contentsline {section}{\numberline {3}Generative model}{2}}
\@writefile{toc}{\contentsline {section}{\numberline {4}Expectation Maximization}{3}}
\@writefile{toc}{\contentsline {subsection}{\numberline {4.1}E-step}{3}}
\newlabel{posterior}{{15}{4}}
\@writefile{toc}{\contentsline {subsection}{\numberline {4.2}M-step}{4}}
\@writefile{toc}{\contentsline {section}{\numberline {5}Why EM can't (easily) deal with this model?}{4}}
