\relax 
\@writefile{toc}{\contentsline {section}{\numberline {1}Introduction}{1}}
\@writefile{toc}{\contentsline {section}{\numberline {2}Linear regression}{1}}
\@writefile{toc}{\contentsline {subsection}{\numberline {2.1}Ordinary Least Squares}{1}}
\@writefile{toc}{\contentsline {subsection}{\numberline {2.2}Maximum Likelihood Estimation}{2}}
\@writefile{toc}{\contentsline {subsection}{\numberline {2.3}Bayesian estimation}{2}}
\@writefile{toc}{\contentsline {section}{\numberline {3}Role-based regression}{3}}
\@writefile{toc}{\contentsline {subsection}{\numberline {3.1}Notation}{3}}
\@writefile{toc}{\contentsline {subsection}{\numberline {3.2}Model}{4}}
\@writefile{toc}{\contentsline {subsection}{\numberline {3.3}MLE estimation}{4}}
\@writefile{toc}{\contentsline {subsection}{\numberline {3.4}Bayesian estimation}{5}}
\@writefile{toc}{\contentsline {subsubsection}{\numberline {3.4.1}Personalities drawn from roles}{5}}
\@writefile{toc}{\contentsline {subsubsection}{\numberline {3.4.2}No personality. Everyone plays a role}{6}}
\@writefile{toc}{\contentsline {subsubsection}{\numberline {3.4.3}Expectation Maximization}{7}}
\@writefile{toc}{\contentsline {subsubsection}{\numberline {3.4.4}Experiments}{7}}
\@writefile{toc}{\contentsline {section}{\numberline {A}Appendix}{8}}
\@writefile{toc}{\contentsline {section}{\numberline {B}Old stuff}{9}}
\@writefile{toc}{\contentsline {subsubsection}{\numberline {B.0.5}Conditional $p(z_u | \mathbf  {z_{-u}, m, a})$}{9}}
\newlabel{posterior_z}{{22}{10}}
\newlabel{posterior_z}{{23}{10}}
\@writefile{toc}{\contentsline {subsubsection}{\numberline {B.0.6}Conditional $p(m_r |\mathbf  {m_{-r}, z})$}{10}}
\newlabel{posterior_w}{{27}{11}}
\@writefile{toc}{\contentsline {subsubsection}{\numberline {B.0.7}Gibbs sampler}{12}}
