\relax 
\@writefile{toc}{\contentsline {section}{\numberline {1}Introduction}{1}}
\@writefile{toc}{\contentsline {section}{\numberline {2}Notation}{1}}
\@writefile{toc}{\contentsline {section}{\numberline {3}Generative model}{2}}
\newlabel{full_joint}{{9}{2}}
\@writefile{toc}{\contentsline {section}{\numberline {4}Gibbs sampler}{3}}
\@writefile{toc}{\contentsline {subsection}{\numberline {4.1}Roles assignments $p(z_u | \mathbf  {z_{-u}, w, y})$}{3}}
\@writefile{toc}{\contentsline {subsection}{\numberline {4.2}Role coefficients $p(\mathbf  {w} | \mathbf  {z, y})$}{4}}
\newlabel{posterior_wr1}{{20}{4}}
\newlabel{posterior_template}{{22}{4}}
\@writefile{toc}{\contentsline {section}{\numberline {5}Another generative process}{5}}
\newlabel{full_joint}{{35}{5}}
\@writefile{toc}{\contentsline {subsection}{\numberline {5.1}Roles assignments $p(z_u | \mathbf  {z_{-u}, a, w, y})$}{5}}
\@writefile{toc}{\contentsline {subsection}{\numberline {5.2}Role coefficients $p(\mathbf  {w} | \mathbf  {z, a, y})$}{6}}
\@writefile{toc}{\contentsline {subsection}{\numberline {5.3}Personal coefficients $p(a_u | \mathbf  {z_{u}, a_{-u}, w, y})$}{6}}
\@writefile{toc}{\contentsline {section}{\numberline {6}MCMC with Tempered Transitions}{7}}
\newlabel{full_joint}{{51}{7}}
\@writefile{toc}{\contentsline {section}{\numberline {A}Marginalization of mixture probabilities $\pi $}{7}}
\newlabel{appendix_pi}{{A}{7}}
\@writefile{toc}{\contentsline {section}{\numberline {B}Conditional $p(z_u | \mathbf  {z_{-u}}, \alpha )$}{9}}
