\relax 
\@writefile{toc}{\contentsline {section}{\numberline {1}Introduction}{1}}
\@writefile{toc}{\contentsline {section}{\numberline {2}Notation}{1}}
\@writefile{toc}{\contentsline {section}{\numberline {3}Generative model}{2}}
\newlabel{full_joint}{{9}{2}}
\@writefile{toc}{\contentsline {section}{\numberline {4}Mean fields variational inference}{3}}
\@writefile{toc}{\contentsline {subsection}{\numberline {4.1}Roles assignments $p(z_u | \mathbf  {z_{-u}, w, y})$}{3}}
\@writefile{toc}{\contentsline {subsection}{\numberline {4.2}Role coefficients $p(\mathbf  {w} | \mathbf  {z, y})$}{4}}
\newlabel{posterior_wr1}{{20}{4}}
\newlabel{posterior_template}{{22}{4}}
\@writefile{toc}{\contentsline {section}{\numberline {5}MCMC with Tempered Transitions}{5}}
\newlabel{full_joint}{{30}{6}}
\@writefile{toc}{\contentsline {section}{\numberline {6}References}{6}}
