\beamer@endinputifotherversion {3.36pt}
\beamer@sectionintoc {1}{Discussion Forums}{3}{0}{1}
\beamer@sectionintoc {2}{Generative models}{10}{0}{2}
\beamer@sectionintoc {3}{Some dynamics of discussion trees}{15}{0}{3}
\beamer@sectionintoc {4}{Summary}{18}{0}{4}
