\relax 
\providecommand*{\memsetcounter}[2]{}
\providecommand\hyper@newdestlabel[2]{}
\providecommand\HyperFirstAtBeginDocument{\AtBeginDocument}
\HyperFirstAtBeginDocument{\ifx\hyper@anchor\@undefined
\global\let\oldcontentsline\contentsline
\gdef\contentsline#1#2#3#4{\oldcontentsline{#1}{#2}{#3}}
\global\let\oldnewlabel\newlabel
\gdef\newlabel#1#2{\newlabelxx{#1}#2}
\gdef\newlabelxx#1#2#3#4#5#6{\oldnewlabel{#1}{{#2}{#3}}}
\AtEndDocument{\ifx\hyper@anchor\@undefined
\let\contentsline\oldcontentsline
\let\newlabel\oldnewlabel
\fi}
\fi}
\global\let\hyper@last\relax 
\gdef\HyperFirstAtBeginDocument#1{#1}
\providecommand\HyField@AuxAddToFields[1]{}
\providecommand\HyField@AuxAddToCoFields[2]{}
\citation{belbin2012team}
\@writefile{lof}{\addvspace {10pt}}
\@writefile{lot}{\addvspace {10pt}}
\@writefile{toc}{\contentsline {chapter}{\chapternumberline {1}Datasets}{1}{chapter.1}}
\@writefile{loa}{\addvspace {10\p@ }}
\citation{Lumbreras2013}
\citation{Kan2012,Angeletou2011a,Chan2010,Chan2010}
\citation{Gomez2008,Kaltenbrunner2007,Gomez2010,Gomez2012a,Gomez2012}
\@writefile{toc}{\contentsline {section}{\numberline {1.1}Datasets overview}{2}{section.1.1}}
\@writefile{toc}{\contentsline {section}{\numberline {1.2}Forum dynamics}{2}{section.1.2}}
\providecommand*\caption@xref[2]{\@setref\relax\@undefined{#1}}
\newlabel{tab:growth_models}{{\M@TitleReference {\caption@xref {tab:growth_models}{ on input line 97}}{Datasets overview}}{3}{Datasets overview}{table.caption.1}{}}
\@writefile{lot}{\contentsline {table}{\numberline {1.1}{\ignorespaces Datasets\relax }}{3}{table.caption.1}}
\@writefile{toc}{\contentsline {subsection}{Posting activity}{3}{section*.2}}
\@writefile{lof}{\contentsline {figure}{\numberline {1.1}{\ignorespaces Posts per day in our datasets\relax }}{4}{figure.caption.3}}
\newlabel{fig:posts_by_day}{{\M@TitleReference {1.1}{Posts per day in our datasets\relax }}{4}{Posts per day in our datasets\relax }{figure.caption.3}{}}
\@writefile{lof}{\contentsline {figure}{\numberline {1.2}{\ignorespaces Posts per day in our datasets\relax }}{5}{figure.caption.4}}
\newlabel{fig:lengths_by_day}{{\M@TitleReference {1.2}{Posts per day in our datasets\relax }}{5}{Posts per day in our datasets\relax }{figure.caption.4}{}}
\@writefile{toc}{\contentsline {subsection}{Births, lives and deaths}{6}{section*.5}}
\@writefile{toc}{\contentsline {subsection}{New users and old users}{6}{section*.6}}
\@writefile{lof}{\contentsline {figure}{\numberline {1.3}{\ignorespaces First and last time users in our datasets\relax }}{7}{figure.caption.7}}
\newlabel{fig:births_retentions}{{\M@TitleReference {1.3}{First and last time users in our datasets\relax }}{7}{First and last time users in our datasets\relax }{figure.caption.7}{}}
\citation{Gomez2012a}
\citation{Adamic2008}
\@writefile{toc}{\contentsline {section}{\numberline {1.3}Conversation dynamics}{8}{section.1.3}}
\@writefile{toc}{\contentsline {subsection}{Length of conversations}{8}{section*.10}}
\@writefile{toc}{\contentsline {subsection}{Speed of conversations}{8}{section*.12}}
\@writefile{toc}{\contentsline {subsection}{(forum analysis)Structure of conversations (triad census)}{8}{section*.14}}
\@writefile{lof}{\contentsline {figure}{\numberline {1.4}{\ignorespaces Forums by new and old members\relax }}{9}{figure.caption.8}}
\newlabel{fig:forum_posts_new_vs_old_members}{{\M@TitleReference {1.4}{Forums by new and old members\relax }}{9}{Forums by new and old members\relax }{figure.caption.8}{}}
\@writefile{lof}{\contentsline {figure}{\numberline {1.5}{\ignorespaces Distribution of user age by month\relax }}{10}{figure.caption.9}}
\newlabel{fig:forum_users_age_by_month}{{\M@TitleReference {1.5}{Distribution of user age by month\relax }}{10}{Distribution of user age by month\relax }{figure.caption.9}{}}
\@writefile{lof}{\contentsline {figure}{\numberline {1.6}{\ignorespaces Threads length\relax }}{11}{figure.caption.11}}
\newlabel{fig:distribution_threadlengths}{{\M@TitleReference {1.6}{Threads length\relax }}{11}{Threads length\relax }{figure.caption.11}{}}
\@writefile{lof}{\contentsline {figure}{\numberline {1.7}{\ignorespaces Thread speed\relax }}{11}{figure.caption.13}}
\newlabel{fig:thread_speed}{{\M@TitleReference {1.7}{Thread speed\relax }}{11}{Thread speed\relax }{figure.caption.13}{}}
\@writefile{lof}{\contentsline {figure}{\numberline {1.8}{\ignorespaces Evolution of triad census over time\relax }}{12}{figure.caption.15}}
\newlabel{fig:triad_census_evol}{{\M@TitleReference {1.8}{Evolution of triad census over time\relax }}{12}{Evolution of triad census over time\relax }{figure.caption.15}{}}
\@writefile{lof}{\contentsline {figure}{\numberline {1.9}{\ignorespaces Time from posts to root\relax }}{13}{figure.caption.16}}
\@writefile{toc}{\contentsline {section}{\numberline {1.4}User dynamics}{13}{section.1.4}}
\@writefile{toc}{\contentsline {subsection}{Posting}{13}{section*.17}}
\newmarginnote{note.13.1}{{13}{4699040sp}}
\@writefile{toc}{\contentsline {subsection}{Lifespans}{13}{section*.19}}
\citation{Weng2014}
\citation{Blondel2008}
\@writefile{lof}{\contentsline {figure}{\numberline {1.10}{\ignorespaces Users activity\relax }}{14}{figure.caption.18}}
\newlabel{fig:distribution_activity}{{\M@TitleReference {1.10}{Users activity\relax }}{14}{Users activity\relax }{figure.caption.18}{}}
\@writefile{toc}{\contentsline {subsection}{Communities}{14}{section*.21}}
\@writefile{lof}{\contentsline {figure}{\numberline {1.11}{\ignorespaces Lifespan of users\relax }}{15}{figure.caption.20}}
\newlabel{fig:users_distribution_life}{{\M@TitleReference {1.11}{Lifespan of users\relax }}{15}{Lifespan of users\relax }{figure.caption.20}{}}
\@writefile{toc}{\contentsline {section}{\numberline {1.5}Summary}{15}{section.1.5}}
\@writefile{lof}{\contentsline {figure}{\numberline {1.12}{\ignorespaces Communities in the interaction graph\relax }}{16}{figure.caption.22}}
\newlabel{fig:communities_interaction}{{\M@TitleReference {1.12}{Communities in the interaction graph\relax }}{16}{Communities in the interaction graph\relax }{figure.caption.22}{}}
\@writefile{lof}{\contentsline {figure}{\numberline {1.13}{\ignorespaces Communities in the coparticipation graph\relax }}{17}{figure.caption.23}}
\newlabel{fig:communities_coparticipation}{{\M@TitleReference {1.13}{Communities in the coparticipation graph\relax }}{17}{Communities in the coparticipation graph\relax }{figure.caption.23}{}}
\memsetcounter{lastsheet}{18}
\memsetcounter{lastpage}{18}
