\relax 
\providecommand\hyper@newdestlabel[2]{}
\providecommand\HyperFirstAtBeginDocument{\AtBeginDocument}
\HyperFirstAtBeginDocument{\ifx\hyper@anchor\@undefined
\global\let\oldcontentsline\contentsline
\gdef\contentsline#1#2#3#4{\oldcontentsline{#1}{#2}{#3}}
\global\let\oldnewlabel\newlabel
\gdef\newlabel#1#2{\newlabelxx{#1}#2}
\gdef\newlabelxx#1#2#3#4#5#6{\oldnewlabel{#1}{{#2}{#3}}}
\AtEndDocument{\ifx\hyper@anchor\@undefined
\let\contentsline\oldcontentsline
\let\newlabel\oldnewlabel
\fi}
\fi}
\global\let\hyper@last\relax 
\gdef\HyperFirstAtBeginDocument#1{#1}
\providecommand\HyField@AuxAddToFields[1]{}
\providecommand\HyField@AuxAddToCoFields[2]{}
\citation{Abbasnejad2013a}
\citation{Rasmussen2000a}
\bibstyle{unsrt}
\bibdata{./bibtex/library}
\bibcite{Abbasnejad2013a}{{1}{}{{}}{{}}}
\bibcite{Rasmussen2000a}{{2}{}{{}}{{}}}
\@writefile{toc}{\beamer@endinputifotherversion {3.36pt}}
\@writefile{nav}{\beamer@endinputifotherversion {3.36pt}}
\pgfsyspdfmark {pgfid13}{5456674}{84258331}
\pgfsyspdfmark {pgfid14}{5456674}{44061814}
\pgfsyspdfmark {pgfid15}{60928813}{137120895}
\newlabel{fig:general}{{1}{1}{}{Doc-Start}{}}
\@writefile{snm}{\beamer@slide {fig:general}{1}}
\pgfsyspdfmark {pgfid17}{60928813}{76806171}
\pgfsyspdfmark {pgfid18}{60928813}{33929131}
\pgfsyspdfmark {pgfid19}{116400952}{137120895}
\pgfsyspdfmark {pgfid20}{116400952}{74109621}
\pgfsyspdfmark {pgfid21}{116400952}{49525658}
\pgfsyspdfmark {pgfid22}{171873091}{137285887}
\pgfsyspdfmark {pgfid23}{171873091}{56196110}
\pgfsyspdfmark {pgfid24}{171873091}{27041759}
\@writefile{nav}{\headcommand {\sectionentry {1}{\translate  {References}}{1}{\translate  {References}}{0}}}
\@writefile{nav}{\headcommand {\beamer@sectionpages {1}{0}}}
\@writefile{nav}{\headcommand {\beamer@subsectionpages {1}{0}}}
\@writefile{nav}{\headcommand {\slideentry {1}{0}{1}{1/1}{}{0}}}
\@writefile{nav}{\headcommand {\beamer@framepages {1}{1}}}
\@writefile{nav}{\headcommand {\beamer@partpages {1}{1}}}
\@writefile{nav}{\headcommand {\beamer@subsectionpages {1}{1}}}
\@writefile{nav}{\headcommand {\beamer@sectionpages {1}{1}}}
\@writefile{nav}{\headcommand {\beamer@documentpages {1}}}
\@writefile{nav}{\headcommand {\def \inserttotalframenumber {1}}}
\providecommand\NAT@force@numbers{}\NAT@force@numbers
