\relax 
\providecommand\hyper@newdestlabel[2]{}
\providecommand\HyperFirstAtBeginDocument{\AtBeginDocument}
\HyperFirstAtBeginDocument{\ifx\hyper@anchor\@undefined
\global\let\oldcontentsline\contentsline
\gdef\contentsline#1#2#3#4{\oldcontentsline{#1}{#2}{#3}}
\global\let\oldnewlabel\newlabel
\gdef\newlabel#1#2{\newlabelxx{#1}#2}
\gdef\newlabelxx#1#2#3#4#5#6{\oldnewlabel{#1}{{#2}{#3}}}
\AtEndDocument{\ifx\hyper@anchor\@undefined
\let\contentsline\oldcontentsline
\let\newlabel\oldnewlabel
\fi}
\fi}
\global\let\hyper@last\relax 
\gdef\HyperFirstAtBeginDocument#1{#1}
\providecommand\HyField@AuxAddToFields[1]{}
\providecommand\HyField@AuxAddToCoFields[2]{}
\providecommand \oddpage@label [2]{}
\@writefile{toc}{\contentsline {section}{\numberline {1}Introduction}{1}{section.1}}
\newlabel{sec:introduction}{{1}{1}{Introduction}{section.1}{}}
\citation{SteffenandTobiasScheffer}
\citation{Kumar2011}
\citation{Mitchell1998}
\citation{Greene2009a}
\citation{Niu2012}
\citation{Eisen1998}
\citation{Brown2000}
\citation{Pavlidis2002}
\citation{Pellegrini1999a}
\citation{Cheng2014}
\citation{Bonilla2010}
\citation{Abbasnejad2013a}
\citation{Abbasnejad2013a}
\citation{Bonilla2010,Abbasnejad2013a}
\citation{Cheung2004}
\@writefile{toc}{\contentsline {section}{\numberline {2}Mixture models}{3}{section.2}}
\newlabel{sec:mixturemodels}{{2}{3}{Mixture models}{section.2}{}}
\@writefile{toc}{\contentsline {section}{\numberline {3}Dual-view mixture models}{3}{section.3}}
\newlabel{sec:dual-view}{{3}{3}{Dual-view mixture models}{section.3}{}}
\@writefile{lof}{\contentsline {figure}{\numberline {1}{\ignorespaces Graphical model of the generative process. Views are connected through the latent assignments $\mathbf  {z}$.\relax }}{4}{figure.caption.1}}
\providecommand*\caption@xref[2]{\@setref\relax\@undefined{#1}}
\newlabel{fig:general}{{1}{4}{Graphical model of the generative process. Views are connected through the latent assignments $\mathbf {z}$.\relax }{figure.caption.1}{}}
\newlabel{eq:z_posterior}{{4}{5}{Dual-view mixture models}{equation.3.4}{}}
\newlabel{eq:z_posterior_ratio}{{5}{5}{Dual-view mixture models}{equation.3.5}{}}
\@writefile{toc}{\contentsline {section}{\numberline {4}Infinite number of clusters}{5}{section.4}}
\newlabel{sec:CRP}{{4}{5}{Infinite number of clusters}{section.4}{}}
\citation{Rasmussen2000a}
\citation{Gorur2010}
\@writefile{toc}{\contentsline {section}{\numberline {5}Application to role detection in online forums}{6}{section.5}}
\newlabel{sec:forums}{{5}{6}{Application to role detection in online forums}{section.5}{}}
\@writefile{toc}{\contentsline {subsection}{\numberline {5.1}Features view}{6}{subsection.5.1}}
\newlabel{sec:forums_features}{{5.1}{6}{Features view}{subsection.5.1}{}}
\newlabel{eq:wishart_sar}{{10}{7}{Features view}{equation.5.10}{}}
\newlabel{eq:gamma_ba0}{{14}{7}{Features view}{equation.5.14}{}}
\@writefile{toc}{\contentsline {subsection}{\numberline {5.2}Behaviors view}{7}{subsection.5.2}}
\newlabel{sec:forums_behaviors}{{5.2}{7}{Behaviors view}{subsection.5.2}{}}
\@writefile{toc}{\contentsline {subsection}{\numberline {5.3}Shared parameters}{8}{subsection.5.3}}
\newlabel{sec:sharedparams}{{5.3}{8}{Shared parameters}{subsection.5.3}{}}
\newlabel{eq:prior_z_CRP}{{24}{8}{Shared parameters}{equation.5.24}{}}
\@writefile{toc}{\contentsline {section}{\numberline {6}Inference}{8}{section.6}}
\newlabel{sec:inference}{{6}{8}{Inference}{section.6}{}}
\citation{Gilks1992}
\citation{Neal2000}
\@writefile{toc}{\contentsline {subsection}{\numberline {6.1}Predictive distribution}{9}{subsection.6.1}}
\newlabel{eq:predictive_posterior_approx}{{29}{9}{Predictive distribution}{equation.6.29}{}}
\@writefile{lof}{\contentsline {figure}{\numberline {2}{\ignorespaces Synthetic data. (a) user features. (b) user coefficients. Every group of users has a well differentiated set of features and coefficients.\relax }}{10}{figure.caption.2}}
\newlabel{fig:syntheticdata}{{2}{10}{Synthetic data. (a) user features. (b) user coefficients. Every group of users has a well differentiated set of features and coefficients.\relax }{figure.caption.2}{}}
\@writefile{lof}{\contentsline {subfigure}{\numberline{(a)}{\ignorespaces {}}}{10}{subfigure.2.1}}
\@writefile{lof}{\contentsline {subfigure}{\numberline{(b)}{\ignorespaces {}}}{10}{subfigure.2.2}}
\@writefile{toc}{\contentsline {section}{\numberline {7}Experiments on synthetic data}{10}{section.7}}
\newlabel{sec:experiments}{{7}{10}{Experiments on synthetic data}{section.7}{}}
\@writefile{toc}{\contentsline {subsection}{\numberline {7.1}Compared models}{10}{subsection.7.1}}
\citation{Dahl2006}
\@writefile{lot}{\contentsline {table}{\numberline {1}{\ignorespaces Compared and related models. Both single models are the same since if the number of clusters is fixed to one they cannot use the features view. The row marked as $-$ corresponds to a model that cannot exist.\relax }}{11}{table.caption.3}}
\newlabel{tab:models}{{1}{11}{Compared and related models. Both single models are the same since if the number of clusters is fixed to one they cannot use the features view. The row marked as $-$ corresponds to a model that cannot exist.\relax }{table.caption.3}{}}
\@writefile{toc}{\contentsline {subsection}{\numberline {7.2}Metrics}{11}{subsection.7.2}}
\@writefile{toc}{\contentsline {paragraph}{Metric for clustering:}{11}{section*.4}}
\@writefile{lof}{\contentsline {figure}{\numberline {3}{\ignorespaces Comparison of models under different threads/users ratios (50 users and variable number of threads). Means and standard errors over 10 runs.\relax }}{12}{figure.caption.6}}
\newlabel{fig:benchmarks_lines}{{3}{12}{Comparison of models under different threads/users ratios (50 users and variable number of threads). Means and standard errors over 10 runs.\relax }{figure.caption.6}{}}
\@writefile{toc}{\contentsline {paragraph}{Metric for predictions:}{12}{section*.5}}
\@writefile{toc}{\contentsline {subsection}{\numberline {7.3}Agreement between views}{12}{subsection.7.3}}
\@writefile{lof}{\contentsline {figure}{\numberline {4}{\ignorespaces Sample of posterior distributions of predictions with 50\% and 95\% credible intervals in test set (left) and pairwise clustering matrix $\mathaccentV {hat}05E{\pi }$ under different threads/users ratios (right) (50 users and variable number of threads). y-axis of the posteriors corresponds to thread length; x-axis corresponds to threads sorted by their true length. True lengths are plotted in red.\relax }}{13}{figure.caption.7}}
\newlabel{fig:benchmarks_posteriors}{{4}{13}{Sample of posterior distributions of predictions with 50\% and 95\% credible intervals in test set (left) and pairwise clustering matrix $\hat {\pi }$ under different threads/users ratios (right) (50 users and variable number of threads). y-axis of the posteriors corresponds to thread length; x-axis corresponds to threads sorted by their true length. True lengths are plotted in red.\relax }{figure.caption.7}{}}
\@writefile{lof}{\contentsline {subfigure}{\numberline{(a)}{\ignorespaces {T=10}}}{13}{subfigure.4.1}}
\@writefile{lof}{\contentsline {subfigure}{\numberline{(b)}{\ignorespaces {T=50}}}{13}{subfigure.4.2}}
\@writefile{lof}{\contentsline {subfigure}{\numberline{(c)}{\ignorespaces {T = 100}}}{13}{subfigure.4.3}}
\@writefile{toc}{\contentsline {subsection}{\numberline {7.4}Disagreement between views}{13}{subsection.7.4}}
\@writefile{lof}{\contentsline {figure}{\numberline {5}{\ignorespaces Posteriors for DP-dual when two groups of features are overlapped. (a) 10 users and 100 threads. (b) 25 users and 25 threads. (c) 100 users and 10 threads. y-axis of the posteriors corresponds to thread length; x-axis corresponds to threads sorted by their true length. True lengths are plotted in red.\relax }}{14}{figure.caption.8}}
\newlabel{fig:confused}{{5}{14}{Posteriors for DP-dual when two groups of features are overlapped. (a) 10 users and 100 threads. (b) 25 users and 25 threads. (c) 100 users and 10 threads. y-axis of the posteriors corresponds to thread length; x-axis corresponds to threads sorted by their true length. True lengths are plotted in red.\relax }{figure.caption.8}{}}
\@writefile{lof}{\contentsline {subfigure}{\numberline{(a)}{\ignorespaces {}}}{14}{subfigure.5.1}}
\@writefile{lof}{\contentsline {subfigure}{\numberline{(b)}{\ignorespaces {}}}{14}{subfigure.5.2}}
\@writefile{lof}{\contentsline {subfigure}{\numberline{(c)}{\ignorespaces {}}}{14}{subfigure.5.3}}
\@writefile{toc}{\contentsline {paragraph}{(a) Lack of information in features view:}{14}{section*.9}}
\@writefile{toc}{\contentsline {paragraph}{(b) Lack of information in both views:}{14}{section*.10}}
\@writefile{toc}{\contentsline {paragraph}{(c) Lack of information in behaviors view:}{14}{section*.11}}
\citation{Abbasnejad2013a}
\@writefile{lof}{\contentsline {figure}{\numberline {6}{\ignorespaces Comparison of models under different threads/users ratios (50 users and variable number of threads) when the features of two groups are overlapped. Means and standard errors over 10 runs.\relax }}{15}{figure.caption.12}}
\newlabel{fig:benchmark_lines_confused}{{6}{15}{Comparison of models under different threads/users ratios (50 users and variable number of threads) when the features of two groups are overlapped. Means and standard errors over 10 runs.\relax }{figure.caption.12}{}}
\@writefile{toc}{\contentsline {section}{\numberline {8}Conclusions}{15}{section.8}}
\newlabel{sec:conclusions}{{8}{15}{Conclusions}{section.8}{}}
\@writefile{toc}{\contentsline {section}{\numberline {A}Chinese Restaurant Process}{17}{appendix.A}}
\newlabel{eq:p_z}{{36}{17}{Chinese Restaurant Process}{equation.A.36}{}}
\newlabel{eq:z_cond}{{37}{17}{Chinese Restaurant Process}{equation.A.37}{}}
\newlabel{eq:p_z_minus}{{38}{17}{Chinese Restaurant Process}{equation.A.38}{}}
\@writefile{toc}{\contentsline {section}{\numberline {B}Conditionals for the features view}{18}{appendix.B}}
\@writefile{toc}{\contentsline {subsection}{\numberline {B.1}Component parameters}{18}{subsection.B.1}}
\@writefile{toc}{\contentsline {subsection}{\numberline {B.2}Shared hyper-parameters}{19}{subsection.B.2}}
\@writefile{toc}{\contentsline {section}{\numberline {C}Conditionals for the behaviors view}{20}{appendix.C}}
\@writefile{toc}{\contentsline {subsection}{\numberline {C.1}Users parameters}{20}{subsection.C.1}}
\@writefile{toc}{\contentsline {subsection}{\numberline {C.2}Component parameters}{20}{subsection.C.2}}
\@writefile{toc}{\contentsline {subsection}{\numberline {C.3}Shared hyper-parameters}{21}{subsection.C.3}}
\@writefile{toc}{\contentsline {subsection}{\numberline {C.4}Regression noise}{22}{subsection.C.4}}
\@writefile{toc}{\contentsline {section}{\numberline {D}Sampling $\beta _{0}^\text  {(a)}$}{22}{appendix.D}}
\bibstyle{spbasic}
\bibdata{library}
\bibcite{Abbasnejad2013a}{{1}{2013}{{Abbasnejad et~al}}{{Abbasnejad, Sanner, Bonilla, and Poupart}}}
\bibcite{Backstrom2013}{{2}{2013}{{Backstrom et~al}}{{Backstrom, Kleinberg, Lee, and Danescu-Niculescu-Mizil}}}
\bibcite{SteffenandTobiasScheffer}{{3}{2004}{{Bickel and Scheffer}}{{}}}
\bibcite{Bonilla2010}{{4}{2010}{{Bonilla et~al}}{{Bonilla, Guo, and Sanner}}}
\bibcite{Brown2000}{{5}{2000}{{Brown et~al}}{{Brown, Grundy, Lin, Cristianini, Sugnet, Furey, Ares, and Haussler}}}
\bibcite{Cheng2014}{{6}{2014}{{Cheng et~al}}{{Cheng, Agrawal, Choudhary, Liu, and Zhang}}}
\bibcite{Cheung2004}{{7}{2004}{{Cheung et~al}}{{Cheung, Tsui, and Liu}}}
\bibcite{Dahl2006}{{8}{2006}{{Dahl}}{{}}}
\bibcite{Eisen1998}{{9}{1998}{{Eisen et~al}}{{Eisen, Spellman, Brown, and Botstein}}}
\bibcite{Gilks1992}{{10}{1992}{{Gilks and Wild}}{{}}}
\bibcite{Gorur2010}{{11}{2010}{{G\"{o}r\"{u}r and Rasmussen}}{{}}}
\bibcite{Greene2009a}{{12}{2009}{{Greene and P\'{a}draig}}{{}}}
\bibcite{Kumar2011}{{13}{2011}{{Kumar et~al}}{{Kumar, Rai, and Daume}}}
\bibcite{Mitchell1998}{{14}{1998}{{Mitchell and Blum}}{{}}}
\bibcite{Neal2000}{{15}{2000}{{Neal}}{{}}}
\@writefile{toc}{\contentsline {section}{\numberline {E}Sampling $\beta _{0}^\text  {(f)}$}{24}{appendix.E}}
\bibcite{Niu2012}{{16}{2012}{{Niu et~al}}{{Niu, Dy, and Ghahramani}}}
\bibcite{Pavlidis2002}{{17}{2002}{{Pavlidis et~al}}{{Pavlidis, Weston, Cai, and Noble}}}
\bibcite{Pellegrini1999a}{{18}{1999}{{Pellegrini et~al}}{{Pellegrini, Marcotte, Thompson, Eisenberg, and Yeates}}}
\bibcite{Rasmussen2000a}{{19}{2000}{{Rasmussen}}{{}}}
