\relax 
\catcode`:\active
\catcode`;\active
\catcode`!\active
\catcode`?\active
\citation{ritschard:2005rnti}
\select@language{french}
\@writefile{toc}{\select@language{french}}
\@writefile{lof}{\select@language{french}}
\@writefile{lot}{\select@language{french}}
\select@language{french}
\@writefile{toc}{\select@language{french}}
\@writefile{lof}{\select@language{french}}
\@writefile{lot}{\select@language{french}}
\@writefile{toc}{\contentsline {section}{\numberline {1}Introduction}{1}}
\@writefile{toc}{\contentsline {section}{\numberline {2}Consignes pour le texte}{1}}
\@writefile{toc}{\contentsline {subsection}{\numberline {2.1}Section de niveau 2}{2}}
\@writefile{toc}{\contentsline {subsubsection}{\numberline {2.1.1}Section de niveau 3}{2}}
\@writefile{toc}{\contentsline {paragraph}{Titre du paragraphe.}{2}}
\@writefile{toc}{\contentsline {subsection}{\numberline {2.2}Liste d'\'el\'ements}{2}}
\@writefile{toc}{\contentsline {subsection}{\numberline {2.3}Tables, Figures}{2}}
\@writefile{lot}{\contentsline {table}{\numberline {1}{\ignorespaces Exemple de tableau avec sa l\'egende.}}{2}}
\newlabel{tab_exemple}{{1}{2}}
\@writefile{lof}{\contentsline {figure}{\numberline {1}{\ignorespaces Exemple de figure avec sa l\'egende. La l\'egende est centr\'ee, sauf si, comme ici, elle fait plus d'une ligne, auquel cas elle est justifi\'ee.}}{3}}
\newlabel{fig_exemple}{{1}{3}}
\@writefile{toc}{\contentsline {subsection}{\numberline {2.4}Notes de bas de pages}{3}}
\@writefile{toc}{\contentsline {subsection}{\numberline {2.5}Noms des auteurs et titre court dans l'ent\^ete}{3}}
\@writefile{toc}{\contentsline {subsection}{\numberline {2.6}Pas de pagination, page A4 et article final au format PDF}{3}}
\citation{ritschard:2005rnti}
\citation{thSau00}
\citation{HolWil90}
\citation{lioni01}
\citation{thSau00}
\citation{brei:frie:olsh:ston:1984}
\citation{quin:1986ID3,quin:1993}
\bibstyle{rnti}
\bibdata{biblio_exemple}
\bibcite{brei:frie:olsh:ston:1984}{{1}{1984}{{Breiman et~al.}}{{Breiman, Friedman, Olshen, et{} Stone}}}
\bibcite{HolWil90}{{2}{1990}{{H{\"o}lldobler et{} Wilson}}{{H{\"o}lldobler et{} Wilson}}}
\bibcite{lioni01}{{3}{2001}{{Lioni et~al.}}{{Lioni, Sauwens, Theraulaz, et{} Deneubourg}}}
\bibcite{quin:1986ID3}{{4}{1986}{{Quinlan}}{{Quinlan}}}
\bibcite{quin:1993}{{5}{1993}{{Quinlan}}{{Quinlan}}}
\bibcite{ritschard:2005rnti}{{6}{2005}{{Ritschard}}{{Ritschard}}}
\bibcite{thSau00}{{7}{2000}{{Sauwens}}{{Sauwens}}}
\@writefile{toc}{\contentsline {section}{\numberline {3}Consignes pour les r\'ef\'erences}{4}}
\select@language{english}
\@writefile{toc}{\select@language{english}}
\@writefile{lof}{\select@language{english}}
\@writefile{lot}{\select@language{english}}
\select@language{english}
\@writefile{toc}{\select@language{english}}
\@writefile{lof}{\select@language{english}}
\@writefile{lot}{\select@language{english}}
\select@language{english}
\@writefile{toc}{\select@language{english}}
\@writefile{lof}{\select@language{english}}
\@writefile{lot}{\select@language{english}}
\select@language{english}
\@writefile{toc}{\select@language{english}}
\@writefile{lof}{\select@language{english}}
\@writefile{lot}{\select@language{english}}
\select@language{english}
\@writefile{toc}{\select@language{english}}
\@writefile{lof}{\select@language{english}}
\@writefile{lot}{\select@language{english}}
\select@language{french}
\@writefile{toc}{\select@language{french}}
\@writefile{lof}{\select@language{french}}
\@writefile{lot}{\select@language{french}}
\select@language{french}
\@writefile{toc}{\select@language{french}}
\@writefile{lof}{\select@language{french}}
\@writefile{lot}{\select@language{french}}
\select@language{french}
\@writefile{toc}{\select@language{french}}
\@writefile{lof}{\select@language{french}}
\@writefile{lot}{\select@language{french}}
\select@language{english}
\@writefile{toc}{\select@language{english}}
\@writefile{lof}{\select@language{english}}
\@writefile{lot}{\select@language{english}}
\select@language{english}
\@writefile{toc}{\select@language{english}}
\@writefile{lof}{\select@language{english}}
\@writefile{lot}{\select@language{english}}
\select@language{english}
\@writefile{toc}{\select@language{english}}
\@writefile{lof}{\select@language{english}}
\@writefile{lot}{\select@language{english}}
\select@language{english}
\@writefile{toc}{\select@language{english}}
\@writefile{lof}{\select@language{english}}
\@writefile{lot}{\select@language{english}}
\select@language{english}
\@writefile{toc}{\select@language{english}}
\@writefile{lof}{\select@language{english}}
\@writefile{lot}{\select@language{english}}
\select@language{french}
\@writefile{toc}{\select@language{french}}
\@writefile{lof}{\select@language{french}}
\@writefile{lot}{\select@language{french}}
\select@language{french}
\@writefile{toc}{\select@language{french}}
\@writefile{lof}{\select@language{french}}
\@writefile{lot}{\select@language{french}}
