This is BibTeX, Version 0.99dThe top-level auxiliary file: Report Mar 14.aux
The style file: chicago.bst
Database file #1: ./bibtex/Papers-Report_feb_2014.bib
Warning--no journal in CharlesKemp
Warning--no number and no volume in CharlesKemp
Warning--page numbers missing in CharlesKemp
Warning--no journal in Moreno1934
Warning--no number and no volume in Moreno1934
Warning--page numbers missing in Moreno1934
Warning--no number and no volume in White1976
Warning--page numbers missing in White1976
(There were 8 warnings)
