\begin{thebibliography}{}

\bibitem[\protect\citeauthoryear{DuBois, Butts, and Smyth}{DuBois
  et~al.}{2013}]{DuBois2013}
DuBois, C., C.~Butts, and P.~Smyth (2013).
\newblock {Stochastic blockmodeling of relational event dynamics}.
\newblock In {\em Proceedings of the 16th International Conference on Arti cial
  Intelligence and Statistics}, Volume~31, pp.\  238--246.

\bibitem[\protect\citeauthoryear{Kemp, Griffiths, and Tenenbaum}{Kemp
  et~al.}{2004}]{CharlesKemp}
Kemp, C., T.~Griffiths, and J.~Tenenbaum (2004).
\newblock {Discovering latent classes in relational data}.

\bibitem[\protect\citeauthoryear{Moreno}{Moreno}{1934}]{Moreno1934}
Moreno, J. (1934).
\newblock {Who shall survive?}

\bibitem[\protect\citeauthoryear{Nowicki and Snijders}{Nowicki and
  Snijders}{2001}]{Nowicki2001}
Nowicki, K. and T.~A.~B. Snijders (2001).
\newblock {Estimation and prediction for stochastic blockstructures}.
\newblock {\em Journal of the American Statistical Association\/}~{\em
  96\/}(455), 1077--1087.

\bibitem[\protect\citeauthoryear{White, Boorman, and Breiger}{White
  et~al.}{1976}]{White1976}
White, H., S.~Boorman, and R.~Breiger (1976).
\newblock {Social structure from multiple networks. I. Blockmodels of roles and
  positions}.
\newblock {\em American journal of sociology\/}.

\end{thebibliography}
