\relax 
\select@language{english}
\@writefile{toc}{\select@language{english}}
\@writefile{lof}{\select@language{english}}
\@writefile{lot}{\select@language{english}}
\select@language{french}
\@writefile{toc}{\select@language{french}}
\@writefile{lof}{\select@language{french}}
\@writefile{lot}{\select@language{french}}
\@writefile{toc}{\contentsline {section}{\numberline {1}Introduction}{1}}
\citation{ritschard:2005rnti}
\@writefile{lof}{\contentsline {figure}{\numberline {1}{\ignorespaces Two thread conversation may have a similar representation of their social networks}}{2}}
\newlabel{fig:general}{{1}{2}}
\@writefile{toc}{\contentsline {section}{\numberline {2}Classic representations}{2}}
\@writefile{toc}{\contentsline {section}{\numberline {3}Definition of contexts and reactions}{2}}
\@writefile{toc}{\contentsline {section}{\numberline {4}Tree prunning}{2}}
\@writefile{toc}{\contentsline {section}{\numberline {5}Motifs isomorphisms}{2}}
\@writefile{toc}{\contentsline {section}{\numberline {6}Motifs}{2}}
\citation{thSau00}
\citation{HolWil90}
\citation{lioni01}
\citation{thSau00}
\citation{brei:frie:olsh:ston:1984}
\citation{quin:1986ID3,quin:1993}
\bibstyle{rnti}
\bibdata{biblio_exemple}
\bibcite{brei:frie:olsh:ston:1984}{{1}{1984}{{Breiman et~al.}}{{Breiman, Friedman, Olshen, et{} Stone}}}
\bibcite{HolWil90}{{2}{1990}{{H{\"o}lldobler et{} Wilson}}{{H{\"o}lldobler et{} Wilson}}}
\bibcite{lioni01}{{3}{2001}{{Lioni et~al.}}{{Lioni, Sauwens, Theraulaz, et{} Deneubourg}}}
\bibcite{quin:1986ID3}{{4}{1986}{{Quinlan}}{{Quinlan}}}
\bibcite{quin:1993}{{5}{1993}{{Quinlan}}{{Quinlan}}}
\bibcite{ritschard:2005rnti}{{6}{2005}{{Ritschard}}{{Ritschard}}}
\bibcite{thSau00}{{7}{2000}{{Sauwens}}{{Sauwens}}}
\@writefile{lof}{\contentsline {figure}{\numberline {2}{\ignorespaces Example of prunning}}{3}}
\newlabel{fig:prunning}{{2}{3}}
\@writefile{toc}{\contentsline {section}{\numberline {7}Types of threads}{3}}
\@writefile{toc}{\contentsline {section}{\numberline {8}Consignes pour les r\IeC {\'e}f\IeC {\'e}rences}{3}}
\select@language{english}
\@writefile{toc}{\select@language{english}}
\@writefile{lof}{\select@language{english}}
\@writefile{lot}{\select@language{english}}
\select@language{english}
\@writefile{toc}{\select@language{english}}
\@writefile{lof}{\select@language{english}}
\@writefile{lot}{\select@language{english}}
\select@language{english}
\@writefile{toc}{\select@language{english}}
\@writefile{lof}{\select@language{english}}
\@writefile{lot}{\select@language{english}}
\select@language{english}
\@writefile{toc}{\select@language{english}}
\@writefile{lof}{\select@language{english}}
\@writefile{lot}{\select@language{english}}
\select@language{english}
\@writefile{toc}{\select@language{english}}
\@writefile{lof}{\select@language{english}}
\@writefile{lot}{\select@language{english}}
\select@language{french}
\@writefile{toc}{\select@language{french}}
\@writefile{lof}{\select@language{french}}
\@writefile{lot}{\select@language{french}}
\select@language{french}
\@writefile{toc}{\select@language{french}}
\@writefile{lof}{\select@language{french}}
\@writefile{lot}{\select@language{french}}
\select@language{french}
\@writefile{toc}{\select@language{french}}
\@writefile{lof}{\select@language{french}}
\@writefile{lot}{\select@language{french}}
\select@language{english}
\@writefile{toc}{\select@language{english}}
\@writefile{lof}{\select@language{english}}
\@writefile{lot}{\select@language{english}}
\select@language{english}
\@writefile{toc}{\select@language{english}}
\@writefile{lof}{\select@language{english}}
\@writefile{lot}{\select@language{english}}
\select@language{english}
\@writefile{toc}{\select@language{english}}
\@writefile{lof}{\select@language{english}}
\@writefile{lot}{\select@language{english}}
\select@language{english}
\@writefile{toc}{\select@language{english}}
\@writefile{lof}{\select@language{english}}
\@writefile{lot}{\select@language{english}}
\select@language{english}
\@writefile{toc}{\select@language{english}}
\@writefile{lof}{\select@language{english}}
\@writefile{lot}{\select@language{english}}
\select@language{french}
\@writefile{toc}{\select@language{french}}
\@writefile{lof}{\select@language{french}}
\@writefile{lot}{\select@language{french}}
\select@language{french}
\@writefile{toc}{\select@language{french}}
\@writefile{lof}{\select@language{french}}
\@writefile{lot}{\select@language{french}}
\@writefile{lof}{\contentsline {figure}{\numberline {3}{\ignorespaces Exemple de figure avec sa l\IeC {\'e}gende. La l\IeC {\'e}gende est centr\IeC {\'e}e, sauf si, comme ici, elle fait plus d'une ligne, auquel cas elle est justifi\IeC {\'e}e.}}{4}}
\newlabel{fig_exemple}{{3}{4}}
