\relax 
\providecommand\hyper@newdestlabel[2]{}
\providecommand*{\memsetcounter}[2]{}
\providecommand\HyperFirstAtBeginDocument{\AtBeginDocument}
\HyperFirstAtBeginDocument{\ifx\hyper@anchor\@undefined
\global\let\oldcontentsline\contentsline
\gdef\contentsline#1#2#3#4{\oldcontentsline{#1}{#2}{#3}}
\global\let\oldnewlabel\newlabel
\gdef\newlabel#1#2{\newlabelxx{#1}#2}
\gdef\newlabelxx#1#2#3#4#5#6{\oldnewlabel{#1}{{#2}{#3}}}
\AtEndDocument{\ifx\hyper@anchor\@undefined
\let\contentsline\oldcontentsline
\let\newlabel\oldnewlabel
\fi}
\fi}
\global\let\hyper@last\relax 
\gdef\HyperFirstAtBeginDocument#1{#1}
\providecommand\HyField@AuxAddToFields[1]{}
\providecommand\HyField@AuxAddToCoFields[2]{}
\@writefile{toc}{\contentsline {chapter}{Contents}{1}{section*.1}}
\citation{Nash1975}
\@writefile{lof}{\addvspace {10pt}}
\@writefile{lot}{\addvspace {10pt}}
\@writefile{toc}{\contentsline {chapter}{\chapternumberline {1}Introduction}{3}{chapter.1}}
\@writefile{loa}{\addvspace {10\p@ }}
\citation{Goffman1959}
\citation{Biddle1986}
\citation{Goffman1959}
\citation{Glea2009}
\@writefile{toc}{\contentsline {section}{\numberline {1.1}Context}{4}{section.1.1}}
\@writefile{toc}{\contentsline {subsection}{(Offline) roles}{4}{section*.2}}
\citation{Golder2004}
\citation{Airoldi2008}
\citation{Glea2009}
\citation{Moreno1934}
\citation{White1976}
\@writefile{toc}{\contentsline {subsection}{Roles in online communities}{5}{section*.3}}
\@writefile{toc}{\contentsline {subsubsection}{Bottom-up and top-down: detecting roles vs search roles}{5}{section*.4}}
\newmarginnote{note.4.1}{{5}{4699040sp}}
\@writefile{toc}{\contentsline {subsubsection}{(Positional analysis)}{5}{section*.5}}
\@writefile{lof}{\contentsline {figure}{\numberline {1.1}{\ignorespaces Matrix of interactions\relax }}{6}{figure.caption.7}}
\providecommand*\caption@xref[2]{\@setref\relax\@undefined{#1}}
\newlabel{fig:trees}{{\M@TitleReference {1.1}{Matrix of interactions\relax }}{6}{Matrix of interactions\relax }{figure.caption.7}{}}
\@writefile{toc}{\contentsline {section}{\numberline {1.2}Graph representations}{6}{section.1.2}}
\@writefile{toc}{\contentsline {subsection}{Interaction graphs}{6}{section*.6}}
\@writefile{toc}{\contentsline {subsection}{Coparticipation graphs}{6}{section*.8}}
\@writefile{toc}{\contentsline {subsection}{Discussion tree graphs}{6}{section*.10}}
\citation{Zighed2012}
\citation{Golder2004}
\@writefile{lof}{\contentsline {figure}{\numberline {1.2}{\ignorespaces Matrix of interactions\relax }}{7}{figure.caption.9}}
\newlabel{fig:trees}{{\M@TitleReference {1.2}{Matrix of interactions\relax }}{7}{Matrix of interactions\relax }{figure.caption.9}{}}
\@writefile{lof}{\contentsline {figure}{\numberline {1.3}{\ignorespaces Tree representation of three conversation threads in Reddit.\relax }}{7}{figure.caption.11}}
\newlabel{fig:trees}{{\M@TitleReference {1.3}{Tree representation of three conversation threads in Reddit.\relax }}{7}{Tree representation of three conversation threads in Reddit.\relax }{figure.caption.11}{}}
\@writefile{toc}{\contentsline {section}{\numberline {1.3}Online role detection}{7}{section.1.3}}
\@writefile{toc}{\contentsline {subsection}{Ethnology}{7}{section*.12}}
\citation{Himelboim2009}
\citation{Glea2009}
\citation{Chan2010}
\citation{Angeletou2011a}
\citation{Furtado2013}
\@writefile{toc}{\contentsline {subsection}{Clustering}{8}{section*.13}}
\@writefile{toc}{\contentsline {subsection}{Blockmodeling}{8}{section*.14}}
\citation{Lorrain1971a}
\citation{White1983}
\citation{Fienberg1981,Holland1983}
\citation{Nowicki2001}
\citation{Daudin2008,Latouche2012}
\citation{Wasserman1994}
\citation{Milo2002}
\citation{Adamic2008,Kamaliha2008}
\citation{Wernicke2006}
\citation{Birmele2010a}
\@writefile{toc}{\contentsline {subsection}{Triads ans motifs}{9}{section*.16}}
\@writefile{lof}{\contentsline {figure}{\numberline {1.4}{\ignorespaces Blockmodeling over the co-participation matrix of the 1000 most active users\relax }}{10}{figure.caption.15}}
\newlabel{fig:blockmodels}{{\M@TitleReference {1.4}{Blockmodeling over the co-participation matrix of the 1000 most active users\relax }}{10}{Blockmodeling over the co-participation matrix of the 1000 most active users\relax }{figure.caption.15}{}}
\@writefile{lof}{\contentsline {figure}{\numberline {1.5}{\ignorespaces List of all possible triads and their commonly given ids\relax }}{10}{figure.caption.17}}
\newlabel{fig:triads}{{\M@TitleReference {1.5}{List of all possible triads and their commonly given ids\relax }}{10}{List of all possible triads and their commonly given ids\relax }{figure.caption.17}{}}
\citation{Dorat2007}
\citation{Rossi2013}
\citation{Fisher2006}
\citation{McCallum2007}
\citation{Zhang2007}
\@writefile{toc}{\contentsline {subsection}{Matrix Factorization}{11}{section*.18}}
\@writefile{toc}{\contentsline {subsubsection}{Language-based roles}{11}{section*.19}}
\@writefile{toc}{\contentsline {subsection}{Others}{11}{section*.20}}
\@writefile{toc}{\contentsline {section}{\numberline {1.4}Drawbacks of current methods}{11}{section.1.4}}
\@writefile{toc}{\contentsline {section}{\numberline {1.5}Summary and contributions}{12}{section.1.5}}
\citation{Wasserman1994}
\citation{Moreno1934}
\citation{Moreno1934}
\citation{Wasserman1994}
\@writefile{lof}{\addvspace {10pt}}
\@writefile{lot}{\addvspace {10pt}}
\@writefile{toc}{\contentsline {chapter}{\chapternumberline {2}Role analysis (deprecated)}{13}{chapter.2}}
\@writefile{loa}{\addvspace {10\p@ }}
\@writefile{toc}{\contentsline {section}{\numberline {2.1}Roles in graphs}{13}{section.2.1}}
\citation{Fisher2006}
\citation{Maia2008}
\citation{Goyal2008}
\citation{Welser2011}
\citation{Welser2007}
\citation{Forestier2012a}
\citation{Golder2003}
\citation{Nonnecke2000,Nonnecke2004,Nonnecke2006}
\citation{Kriplean2008}
\citation{Nolker2005}
\citation{Anderson2014}
\citation{Cong2008}
\citation{Ni2012}
\@writefile{toc}{\contentsline {section}{\numberline {2.2}Structural-based roles}{14}{section.2.2}}
\@writefile{toc}{\contentsline {section}{\numberline {2.3}Roles in online forums}{14}{section.2.3}}
\@writefile{toc}{\contentsline {section}{\numberline {2.4}Forum analysis}{14}{section.2.4}}
\citation{Crain2012a}
\citation{Wang2012e}
\citation{Adal2012}
\citation{Brandes2009}
\citation{Dahlin2012}
\citation{Wang2010}
\citation{Bhatt2012}
\citation{Kan2012}
\@writefile{toc}{\contentsline {section}{\numberline {2.5}Forum dynamics}{15}{section.2.5}}
\citation{belbin2012team}
\@writefile{lof}{\addvspace {10pt}}
\@writefile{lot}{\addvspace {10pt}}
\@writefile{toc}{\contentsline {chapter}{\chapternumberline {3}Datasets}{17}{chapter.3}}
\@writefile{loa}{\addvspace {10\p@ }}
\citation{Lumbreras2013}
\citation{Kan2012,Angeletou2011a,Chan2010,Chan2010}
\citation{Gomez2008,Kaltenbrunner2007,Gomez2010,Gomez2012a,Gomez2012}
\@writefile{toc}{\contentsline {section}{\numberline {3.1}Datasets overview}{18}{section.3.1}}
\newlabel{tab:growth_models}{{\M@TitleReference {\caption@xref {tab:growth_models}{ on input line 97}}{Datasets overview}}{19}{Datasets overview}{table.caption.21}{}}
\@writefile{lot}{\contentsline {table}{\numberline {3.1}{\ignorespaces Datasets\relax }}{19}{table.caption.21}}
\@writefile{toc}{\contentsline {section}{\numberline {3.2}Forum dynamics}{19}{section.3.2}}
\@writefile{toc}{\contentsline {subsection}{Posting activity}{19}{section*.22}}
\@writefile{lof}{\contentsline {figure}{\numberline {3.1}{\ignorespaces Posts per day in our datasets\relax }}{20}{figure.caption.23}}
\newlabel{fig:posts_by_day}{{\M@TitleReference {3.1}{Posts per day in our datasets\relax }}{20}{Posts per day in our datasets\relax }{figure.caption.23}{}}
\@writefile{lof}{\contentsline {figure}{\numberline {3.2}{\ignorespaces Posts per day in our datasets\relax }}{21}{figure.caption.24}}
\newlabel{fig:lengths_by_day}{{\M@TitleReference {3.2}{Posts per day in our datasets\relax }}{21}{Posts per day in our datasets\relax }{figure.caption.24}{}}
\@writefile{toc}{\contentsline {subsection}{Births, lives and deaths}{22}{section*.25}}
\@writefile{toc}{\contentsline {subsection}{New users and old users}{22}{section*.26}}
\citation{Gomez2012a}
\citation{Adamic2008}
\@writefile{toc}{\contentsline {section}{\numberline {3.3}Conversation dynamics}{23}{section.3.3}}
\@writefile{toc}{\contentsline {subsection}{Length of conversations}{23}{section*.30}}
\@writefile{toc}{\contentsline {subsection}{Speed of conversations}{23}{section*.32}}
\@writefile{toc}{\contentsline {subsection}{(forum analysis)Structure of conversations (triad census)}{23}{section*.34}}
\@writefile{lof}{\contentsline {figure}{\numberline {3.3}{\ignorespaces First and last time users in our datasets\relax }}{24}{figure.caption.27}}
\newlabel{fig:births_retentions}{{\M@TitleReference {3.3}{First and last time users in our datasets\relax }}{24}{First and last time users in our datasets\relax }{figure.caption.27}{}}
\@writefile{lof}{\contentsline {figure}{\numberline {3.4}{\ignorespaces Forums by new and old members\relax }}{25}{figure.caption.28}}
\newlabel{fig:forum_posts_new_vs_old_members}{{\M@TitleReference {3.4}{Forums by new and old members\relax }}{25}{Forums by new and old members\relax }{figure.caption.28}{}}
\@writefile{lof}{\contentsline {figure}{\numberline {3.5}{\ignorespaces Distribution of user age by month\relax }}{26}{figure.caption.29}}
\newlabel{fig:forum_users_age_by_month}{{\M@TitleReference {3.5}{Distribution of user age by month\relax }}{26}{Distribution of user age by month\relax }{figure.caption.29}{}}
\@writefile{lof}{\contentsline {figure}{\numberline {3.6}{\ignorespaces Threads length\relax }}{27}{figure.caption.31}}
\newlabel{fig:distribution_threadlengths}{{\M@TitleReference {3.6}{Threads length\relax }}{27}{Threads length\relax }{figure.caption.31}{}}
\@writefile{lof}{\contentsline {figure}{\numberline {3.7}{\ignorespaces Thread speed\relax }}{27}{figure.caption.33}}
\newlabel{fig:thread_speed}{{\M@TitleReference {3.7}{Thread speed\relax }}{27}{Thread speed\relax }{figure.caption.33}{}}
\citation{Weng2014}
\@writefile{toc}{\contentsline {section}{\numberline {3.4}User dynamics}{28}{section.3.4}}
\@writefile{toc}{\contentsline {subsection}{Posting}{28}{section*.37}}
\newmarginnote{note.28.1}{{28}{7048563sp}}
\@writefile{toc}{\contentsline {subsection}{Lifespans}{28}{section*.39}}
\@writefile{toc}{\contentsline {subsection}{Communities}{28}{section*.41}}
\citation{Blondel2008}
\@writefile{lof}{\contentsline {figure}{\numberline {3.8}{\ignorespaces Evolution of triad census over time\relax }}{29}{figure.caption.35}}
\newlabel{fig:triad_census_evol}{{\M@TitleReference {3.8}{Evolution of triad census over time\relax }}{29}{Evolution of triad census over time\relax }{figure.caption.35}{}}
\@writefile{lof}{\contentsline {figure}{\numberline {3.9}{\ignorespaces Time from posts to root\relax }}{30}{figure.caption.36}}
\@writefile{toc}{\contentsline {section}{\numberline {3.5}Summary}{30}{section.3.5}}
\@writefile{lof}{\contentsline {figure}{\numberline {3.10}{\ignorespaces Users activity\relax }}{31}{figure.caption.38}}
\newlabel{fig:distribution_activity}{{\M@TitleReference {3.10}{Users activity\relax }}{31}{Users activity\relax }{figure.caption.38}{}}
\@writefile{lof}{\contentsline {figure}{\numberline {3.11}{\ignorespaces Lifespan of users\relax }}{32}{figure.caption.40}}
\newlabel{fig:users_distribution_life}{{\M@TitleReference {3.11}{Lifespan of users\relax }}{32}{Lifespan of users\relax }{figure.caption.40}{}}
\@writefile{lof}{\contentsline {figure}{\numberline {3.12}{\ignorespaces Communities in the interaction graph\relax }}{33}{figure.caption.42}}
\newlabel{fig:communities_interaction}{{\M@TitleReference {3.12}{Communities in the interaction graph\relax }}{33}{Communities in the interaction graph\relax }{figure.caption.42}{}}
\@writefile{lof}{\contentsline {figure}{\numberline {3.13}{\ignorespaces Communities in the coparticipation graph\relax }}{34}{figure.caption.43}}
\newlabel{fig:communities_coparticipation}{{\M@TitleReference {3.13}{Communities in the coparticipation graph\relax }}{34}{Communities in the coparticipation graph\relax }{figure.caption.43}{}}
\citation{McCallum2007a}
\citation{Bhatt2012,Gaumont2016,Dorat2007}
\@writefile{lof}{\addvspace {10pt}}
\@writefile{lot}{\addvspace {10pt}}
\@writefile{toc}{\contentsline {chapter}{\chapternumberline {4}Structural-temporal neighbourhoods to characterise users}{35}{chapter.4}}
\@writefile{loa}{\addvspace {10\p@ }}
\@writefile{toc}{\contentsline {section}{\numberline {4.1}Introduction}{35}{section.4.1}}
\@writefile{toc}{\contentsline {section}{\numberline {4.2}Discussion trees}{36}{section.4.2}}
\@writefile{toc}{\contentsline {section}{\numberline {4.3}Structural neighbourhoods}{36}{section.4.3}}
\newlabel{sec:structural}{{\M@TitleReference {4.3}{Structural neighbourhoods}}{36}{Structural neighbourhoods}{section.4.3}{}}
\@writefile{lof}{\contentsline {figure}{\numberline {4.1}{\ignorespaces Illustration of order-based (top) and time-based (bottom) neighbourhoods. Grey nodes represent the ego post. Nodes with circles are those in the neighbourhood. Numbers indicate the order of the post. The order-based neighbourhood has parameters $r=3$, $n=6$. The time-based neighbourhood has parameter $r=3$. In the time-based neighbourhood, horizontal changepoints (yellow) and vertical changepoints (orange) represent posts that are temporally far from their predecessors (siblings or parents) and therefore set the limits of the neighbourhood.\relax }}{37}{figure.caption.44}}
\newlabel{fig:cutpoints}{{\M@TitleReference {4.1}{Illustration of order-based (top) and time-based (bottom) neighbourhoods. Grey nodes represent the ego post. Nodes with circles are those in the neighbourhood. Numbers indicate the order of the post. The order-based neighbourhood has parameters $r=3$, $n=6$. The time-based neighbourhood has parameter $r=3$. In the time-based neighbourhood, horizontal changepoints (yellow) and vertical changepoints (orange) represent posts that are temporally far from their predecessors (siblings or parents) and therefore set the limits of the neighbourhood.\relax }}{37}{Illustration of order-based (top) and time-based (bottom) neighbourhoods. Grey nodes represent the ego post. Nodes with circles are those in the neighbourhood. Numbers indicate the order of the post. The order-based neighbourhood has parameters $r=3$, $n=6$. The time-based neighbourhood has parameter $r=3$. In the time-based neighbourhood, horizontal changepoints (yellow) and vertical changepoints (orange) represent posts that are temporally far from their predecessors (siblings or parents) and therefore set the limits of the neighbourhood.\relax }{figure.caption.44}{}}
\@writefile{toc}{\contentsline {section}{\numberline {4.4}Structural-temporal neighbourhoods}{37}{section.4.4}}
\newlabel{sec:temporal}{{\M@TitleReference {4.4}{Structural-temporal neighbourhoods}}{37}{Structural-temporal neighbourhoods}{section.4.4}{}}
\@writefile{toc}{\contentsline {subsection}{Order-based}{37}{section*.45}}
\citation{Killick2012}
\@writefile{toc}{\contentsline {subsection}{Time-based}{38}{section*.46}}
\citation{Backstrom2013}
\citation{Himelboim2009,Lumbreras2013}
\citation{Gomez2010,Gomez2012}
\@writefile{loa}{\contentsline {algocf}{\numberline {1}{\ignorespaces Extraction of time-based neighbourhood\relax }}{40}{algocf.1}}
\newlabel{alg:temporal_neighbourhood}{{\M@TitleReference {1}{Time-based}}{40}{Time-based}{algocf.1}{}}
\@writefile{toc}{\contentsline {section}{\numberline {4.5}Neighbourhood colouring and pruning}{40}{section.4.5}}
\newlabel{sec:colouring_pruning}{{\M@TitleReference {4.5}{Neighbourhood colouring and pruning}}{40}{Neighbourhood colouring and pruning}{section.4.5}{}}
\@writefile{toc}{\contentsline {subsection}{Colouring}{40}{section*.47}}
\@writefile{toc}{\contentsline {subsection}{Pruning}{41}{section*.48}}
\@writefile{toc}{\contentsline {section}{\numberline {4.6}Experiments}{41}{section.4.6}}
\@writefile{toc}{\contentsline {subsection}{Neighbourhood extraction}{42}{section*.49}}
\newlabel{sec:extraction}{{\M@TitleReference {4.6}{Neighbourhood extraction}}{42}{Neighbourhood extraction}{section*.49}{}}
\@writefile{toc}{\contentsline {subsection}{Comparing neighbourhood methods}{42}{section*.50}}
\@writefile{toc}{\contentsline {subsubsection}{Size and frequency distribution}{42}{section*.51}}
\@writefile{lof}{\contentsline {figure}{\numberline {4.2}{\ignorespaces Comparison of census distributions with order-based and time-based neighbourhoods.\relax }}{43}{figure.caption.52}}
\newlabel{fig:census_distributions}{{\M@TitleReference {4.2}{Comparison of census distributions with order-based and time-based neighbourhoods.\relax }}{43}{Comparison of census distributions with order-based and time-based neighbourhoods.\relax }{figure.caption.52}{}}
\@writefile{toc}{\contentsline {subsubsection}{Discrepancies}{43}{section*.54}}
\newlabel{tab:table}{{\M@TitleReference {\caption@xref {tab:table}{ on input line 194}}{Size and frequency distribution}}{44}{Size and frequency distribution}{table.caption.53}{}}
\@writefile{lot}{\contentsline {table}{\numberline {4.1}{\ignorespaces Most frequent neighbourhoods (and cummulative frequence) for the three methods if Podemos (POD) and Game of Thrones (GOT) forums.\relax }}{44}{table.caption.53}}
\@writefile{lof}{\contentsline {figure}{\numberline {4.3}{\ignorespaces Neighbourhood of posts from the point of view of order-based and time-based. Neighbourhoods with the same label in the order-based and the time-based axes are isomorphic. The points in the diagonal correspond to posts to whom the two methods assign exactly the same neighbourhood. Horizontal rows of points correspond to posts that are assigned many different time-based neighbourhoods but the same single order-based neighbourhood.\relax }}{45}{figure.caption.55}}
\newlabel{fig:confusion}{{\M@TitleReference {4.3}{Neighbourhood of posts from the point of view of order-based and time-based. Neighbourhoods with the same label in the order-based and the time-based axes are isomorphic. The points in the diagonal correspond to posts to whom the two methods assign exactly the same neighbourhood. Horizontal rows of points correspond to posts that are assigned many different time-based neighbourhoods but the same single order-based neighbourhood.\relax }}{45}{Neighbourhood of posts from the point of view of order-based and time-based. Neighbourhoods with the same label in the order-based and the time-based axes are isomorphic. The points in the diagonal correspond to posts to whom the two methods assign exactly the same neighbourhood. Horizontal rows of points correspond to posts that are assigned many different time-based neighbourhoods but the same single order-based neighbourhood.\relax }{figure.caption.55}{}}
\@writefile{toc}{\contentsline {subsection}{Conversation-based clustering of users}{45}{section*.56}}
\@writefile{lof}{\contentsline {figure}{\numberline {4.4}{\ignorespaces Whiskers plots in the most relevant features (time-based)\relax }}{46}{figure.caption.57}}
\newlabel{fig:whiskers}{{\M@TitleReference {4.4}{Whiskers plots in the most relevant features (time-based)\relax }}{46}{Whiskers plots in the most relevant features (time-based)\relax }{figure.caption.57}{}}
\citation{Gomez2012}
\citation{Gomez2012,Kumar2010}
\@writefile{toc}{\contentsline {section}{\numberline {4.7}Conclusions}{47}{section.4.7}}
\@writefile{lof}{\contentsline {figure}{\numberline {4.5}{\ignorespaces Neighbourhoods reference list\relax }}{48}{figure.caption.58}}
\newlabel{fig:dictionary}{{\M@TitleReference {4.5}{Neighbourhoods reference list\relax }}{48}{Neighbourhoods reference list\relax }{figure.caption.58}{}}
\citation{Kolaczyk2009}
\@writefile{lof}{\addvspace {10pt}}
\@writefile{lot}{\addvspace {10pt}}
\@writefile{toc}{\contentsline {chapter}{\chapternumberline {5}Detection of user roles with thread growth models}{49}{chapter.5}}
\@writefile{loa}{\addvspace {10\p@ }}
\@writefile{toc}{\contentsline {section}{\numberline {5.1}Introduction}{49}{section.5.1}}
\citation{Barabasi1999}
\citation{Barabasi1999}
\citation{Gomez2010}
\citation{Kumar2010}
\citation{Gomez2012}
\citation{Kumar2010}
\@writefile{toc}{\contentsline {section}{\numberline {5.2}Network Growth models}{50}{section.5.2}}
\newlabel{sec:related-work}{{\M@TitleReference {5.2}{Network Growth models}}{50}{Network Growth models}{section.5.2}{}}
\@writefile{toc}{\contentsline {subsection}{Barabasi-Albert (1999)}{50}{section*.59}}
\newlabel{eq:growth_model}{{5.1}{50}{Barabasi-Albert (1999)}{equation.5.2.1}{}}
\@writefile{lof}{\contentsline {figure}{\numberline {5.1}{\ignorespaces Barabasi-Albert graphs with one edge created at every step.\relax }}{51}{figure.caption.60}}
\newlabel{fig:Barabasi-Albert}{{\M@TitleReference {5.1}{Barabasi-Albert graphs with one edge created at every step.\relax }}{51}{Barabasi-Albert graphs with one edge created at every step.\relax }{figure.caption.60}{}}
\@writefile{lof}{\contentsline {subfigure}{\numberline{(a)}{\ignorespaces {$\alpha =0$}}}{51}{subfigure.1.1}}
\@writefile{lof}{\contentsline {subfigure}{\numberline{(b)}{\ignorespaces {$\alpha =1$}}}{51}{subfigure.1.2}}
\@writefile{lof}{\contentsline {subfigure}{\numberline{(c)}{\ignorespaces {$\alpha =1.8$}}}{51}{subfigure.1.3}}
\newlabel{tab:growth_models}{{\M@TitleReference {\caption@xref {tab:growth_models}{ on input line 117}}{Barabasi-Albert (1999)}}{51}{Barabasi-Albert (1999)}{table.caption.61}{}}
\@writefile{lot}{\contentsline {table}{\numberline {5.1}{\ignorespaces Growth models for online discussions\relax }}{51}{table.caption.61}}
\@writefile{toc}{\contentsline {subsection}{Kumar (2010)}{51}{section*.62}}
\citation{Gomez2010}
\citation{Gomez2012}
\citation{Gomez2010}
\@writefile{lof}{\contentsline {figure}{\numberline {5.2}{\ignorespaces Random grahs for discussion threads. G\IeC {\'o}mez-Kappen-Kaltenbrunner\relax }}{52}{figure.caption.64}}
\newlabel{fig:Gomez}{{\M@TitleReference {5.2}{Random grahs for discussion threads. G\IeC {\'o}mez-Kappen-Kaltenbrunner\relax }}{52}{Random grahs for discussion threads. Gómez-Kappen-Kaltenbrunner\relax }{figure.caption.64}{}}
\@writefile{lof}{\contentsline {subfigure}{\numberline{(a)}{\ignorespaces {real}}}{52}{subfigure.2.1}}
\@writefile{lof}{\contentsline {subfigure}{\numberline{(b)}{\ignorespaces {synthetic}}}{52}{subfigure.2.2}}
\@writefile{toc}{\contentsline {subsection}{Gomez (2010)}{52}{section*.63}}
\citation{Gomez2010}
\citation{Wang2012e}
\citation{Barabasi1999}
\citation{Kumar2010}
\citation{Gomez2010}
\citation{Gomez2012}
\@writefile{toc}{\contentsline {subsection}{Gomez (2012)}{53}{section*.65}}
\@writefile{toc}{\contentsline {subsection}{Wang model}{53}{section*.66}}
\@writefile{toc}{\contentsline {subsection}{Parameter estimation}{53}{section*.67}}
\citation{Gomez2012}
\@writefile{lof}{\contentsline {figure}{\numberline {5.3}{\ignorespaces Probability distributions\relax }}{54}{figure.caption.69}}
\@writefile{toc}{\contentsline {section}{\numberline {5.3}Patters of reply}{54}{section.5.3}}
\@writefile{toc}{\contentsline {subsection}{Patterns of reply}{54}{section*.68}}
\@writefile{lof}{\contentsline {figure}{\numberline {5.4}{\ignorespaces Cumulative distributions\relax }}{55}{figure.caption.70}}
\@writefile{toc}{\contentsline {section}{\numberline {5.4}A role-based network growth model}{56}{section.5.4}}
\@writefile{toc}{\contentsline {subsection}{Formalization}{56}{section*.71}}
\@writefile{toc}{\contentsline {subsection}{Expectation-Maximization}{56}{section*.72}}
\@writefile{toc}{\contentsline {subsection}{EM for the random threads model}{57}{section*.73}}
\newlabel{eq:m-step}{{5.12}{57}{EM for the random threads model}{equation.5.4.12}{}}
\citation{BDA}
\citation{Gomez2012}
\citation{Gomez2012}
\newlabel{eq:e-step}{{5.14}{58}{EM for the random threads model}{equation.5.4.14}{}}
\@writefile{toc}{\contentsline {subsection}{Number of clusters}{58}{section*.74}}
\@writefile{toc}{\contentsline {section}{\numberline {5.5}Experiments}{58}{section.5.5}}
\@writefile{toc}{\contentsline {subsection}{Reproduction of structural properties}{58}{section*.75}}
\@writefile{lof}{\contentsline {figure}{\numberline {5.5}{\ignorespaces Synthetic trees vs real trees in Game of Thrones\relax }}{59}{figure.caption.76}}
\@writefile{lof}{\contentsline {figure}{\numberline {5.6}{\ignorespaces Synthetic trees vs real trees in Podemos\relax }}{59}{figure.caption.77}}
\citation{Wang2012e}
\citation{Gomez2012}
\@writefile{lof}{\contentsline {figure}{\numberline {5.7}{\ignorespaces Evluation of models for post recommendation (Podemos)\relax }}{60}{figure.caption.79}}
\newlabel{fig:post_rankings}{{\M@TitleReference {5.7}{Evluation of models for post recommendation (Podemos)\relax }}{60}{Evluation of models for post recommendation (Podemos)\relax }{figure.caption.79}{}}
\@writefile{toc}{\contentsline {subsection}{Recommendation of posts}{60}{section*.78}}
\@writefile{toc}{\contentsline {section}{\numberline {5.6}Open questions}{60}{section.5.6}}
\newlabel{eq:em_general}{{5.19}{62}{Expectation-Maximization}{equation.5.6.19}{}}
\@writefile{lof}{\addvspace {10pt}}
\@writefile{lot}{\addvspace {10pt}}
\@writefile{toc}{\contentsline {chapter}{\chapternumberline {6}Non-parametric clustering over user features and latent behavioral functions with dual-view mixture models}{63}{chapter.6}}
\@writefile{loa}{\addvspace {10\p@ }}
\@writefile{toc}{\contentsline {section}{\numberline {6.1}Introduction}{63}{section.6.1}}
\newlabel{sec:introduction}{{\M@TitleReference {6.1}{Introduction}}{63}{Introduction}{section.6.1}{}}
\citation{SteffenandTobiasScheffer}
\citation{Kumar2011}
\citation{Mitchell1998}
\citation{Greene2009a}
\citation{Niu2012}
\citation{Eisen1998}
\citation{Brown2000}
\citation{Pavlidis2002}
\citation{Pellegrini1999a}
\citation{Cheng2014}
\citation{Bonilla2010}
\citation{Abbasnejad2013a}
\citation{Abbasnejad2013a}
\@writefile{toc}{\contentsline {section}{\numberline {6.2}Model description}{65}{section.6.2}}
\newlabel{sec:modeldescription}{{\M@TitleReference {6.2}{Model description}}{65}{Model description}{section.6.2}{}}
\@writefile{toc}{\contentsline {subsection}{Mixture models}{65}{section*.82}}
\newlabel{sec:mixturemodels}{{\M@TitleReference {6.2}{Mixture models}}{65}{Mixture models}{section*.82}{}}
\citation{Bonilla2010,Abbasnejad2013a}
\citation{Cheung2004}
\@writefile{toc}{\contentsline {subsection}{Dual-view mixture model}{66}{section*.83}}
\newlabel{sec:dual-view}{{\M@TitleReference {6.2}{Dual-view mixture model}}{66}{Dual-view mixture model}{section*.83}{}}
\@writefile{lof}{\contentsline {figure}{\numberline {6.1}{\ignorespaces Graphical model of the generative process for $U$ users and $K$ clusters. Shaded circles represent observations and white circles represent latent variables. Views are connected through the latent assignments $\mathbf  {z}$. A user $u$ draws a feature vector $\mathbf  {a}_u$ and a behavior $\mathbf  {f}_u$ from the cluster indicated by $z_u$ (the $u$-th element of $\mathbf  {z}$).\relax }}{67}{figure.caption.84}}
\newlabel{fig:general}{{\M@TitleReference {6.1}{Graphical model of the generative process for $U$ users and $K$ clusters. Shaded circles represent observations and white circles represent latent variables. Views are connected through the latent assignments $\mathbf  {z}$. A user $u$ draws a feature vector $\mathbf  {a}_u$ and a behavior $\mathbf  {f}_u$ from the cluster indicated by $z_u$ (the $u$-th element of $\mathbf  {z}$).\relax }}{67}{Graphical model of the generative process for $U$ users and $K$ clusters. Shaded circles represent observations and white circles represent latent variables. Views are connected through the latent assignments $\mathbf {z}$. A user $u$ draws a feature vector $\mathbf {a}_u$ and a behavior $\mathbf {f}_u$ from the cluster indicated by $z_u$ (the $u$-th element of $\mathbf {z}$).\relax }{figure.caption.84}{}}
\newlabel{eq:z_posterior}{{6.4}{68}{Dual-view mixture model}{equation.6.2.4}{}}
\newlabel{eq:z_posterior_ratio}{{6.5}{68}{Dual-view mixture model}{equation.6.2.5}{}}
\@writefile{toc}{\contentsline {subsection}{Infinite number of clusters}{68}{section*.85}}
\newlabel{sec:CRP}{{\M@TitleReference {6.2}{Infinite number of clusters}}{68}{Infinite number of clusters}{section*.85}{}}
\@writefile{toc}{\contentsline {section}{\numberline {6.3}Application to role detection in online forums}{69}{section.6.3}}
\newlabel{sec:forums}{{\M@TitleReference {6.3}{Application to role detection in online forums}}{69}{Application to role detection in online forums}{section.6.3}{}}
\citation{Rasmussen2000a}
\citation{Gorur2010}
\citation{Gorur2010}
\@writefile{toc}{\contentsline {subsection}{Feature view}{70}{section*.86}}
\newlabel{sec:forums_features}{{\M@TitleReference {6.3}{Feature view}}{70}{Feature view}{section*.86}{}}
\newlabel{eq:wishart_sar}{{6.10}{70}{Feature view}{equation.6.3.10}{}}
\newlabel{eq:gamma_ba0}{{6.14}{70}{Feature view}{equation.6.3.14}{}}
\@writefile{toc}{\contentsline {subsection}{Behavior view}{71}{section*.87}}
\newlabel{sec:forums_behaviors}{{\M@TitleReference {6.3}{Behavior view}}{71}{Behavior view}{section*.87}{}}
\citation{Gilks1992}
\@writefile{toc}{\contentsline {subsection}{Shared parameters}{72}{section*.88}}
\newlabel{sec:sharedparams}{{\M@TitleReference {6.3}{Shared parameters}}{72}{Shared parameters}{section*.88}{}}
\newlabel{eq:prior_z_CRP}{{6.24}{72}{Shared parameters}{equation.6.3.24}{}}
\@writefile{toc}{\contentsline {section}{\numberline {6.4}Inference}{72}{section.6.4}}
\newlabel{sec:inference}{{\M@TitleReference {6.4}{Inference}}{72}{Inference}{section.6.4}{}}
\citation{Neal2000}
\citation{Neal2000}
\@writefile{toc}{\contentsline {subsection}{Predictive distribution}{73}{section*.89}}
\newlabel{eq:predictive_posterior_approx}{{6.28}{73}{Predictive distribution}{equation.6.4.28}{}}
\@writefile{toc}{\contentsline {section}{\numberline {6.5}Experiments}{73}{section.6.5}}
\newlabel{sec:experiments}{{\M@TitleReference {6.5}{Experiments}}{73}{Experiments}{section.6.5}{}}
\citation{coda}
\@writefile{toc}{\contentsline {subsection}{Compared models}{74}{section*.90}}
\citation{Dahl2006}
\@writefile{lot}{\contentsline {table}{\numberline {6.1}{\ignorespaces Compared and related models. Both single models are the same since if the number of clusters is fixed to one they cannot use the feature view. The row marked as $-$ corresponds to a model that has no interest in this context since it simply finds the Gaussian distribution that best fits the observed features and makes neither clustering nor predictions.\relax }}{75}{table.caption.91}}
\newlabel{tab:models}{{\M@TitleReference {6.1}{Compared and related models. Both single models are the same since if the number of clusters is fixed to one they cannot use the feature view. The row marked as $-$ corresponds to a model that has no interest in this context since it simply finds the Gaussian distribution that best fits the observed features and makes neither clustering nor predictions.\relax }}{75}{Compared and related models. Both single models are the same since if the number of clusters is fixed to one they cannot use the feature view. The row marked as $-$ corresponds to a model that has no interest in this context since it simply finds the Gaussian distribution that best fits the observed features and makes neither clustering nor predictions.\relax }{table.caption.91}{}}
\@writefile{toc}{\contentsline {subsection}{Metrics}{75}{section*.92}}
\@writefile{toc}{\contentsline {paragraph}{Metric for clustering:}{75}{section*.93}}
\@writefile{toc}{\contentsline {paragraph}{Metric for predictions:}{76}{section*.94}}
\@writefile{toc}{\contentsline {subsection}{Agreement between views}{76}{section*.95}}
\@writefile{lof}{\contentsline {figure}{\numberline {6.2}{\ignorespaces Dataset for agreement between the views. User features (left) and user coefficients (right). Every group (shape) of users has a well differentiated set of features and coefficients.\relax }}{77}{figure.caption.96}}
\newlabel{fig:data_agreement}{{\M@TitleReference {6.2}{Dataset for agreement between the views. User features (left) and user coefficients (right). Every group (shape) of users has a well differentiated set of features and coefficients.\relax }}{77}{Dataset for agreement between the views. User features (left) and user coefficients (right). Every group (shape) of users has a well differentiated set of features and coefficients.\relax }{figure.caption.96}{}}
\@writefile{lof}{\contentsline {figure}{\numberline {6.3}{\ignorespaces Results for agreement between the views. Comparison of models under different threads/users ratios (50 users and variable number of threads). Means and standard errors over 5 runs.\relax }}{77}{figure.caption.97}}
\newlabel{fig:results_agreement}{{\M@TitleReference {6.3}{Results for agreement between the views. Comparison of models under different threads/users ratios (50 users and variable number of threads). Means and standard errors over 5 runs.\relax }}{77}{Results for agreement between the views. Comparison of models under different threads/users ratios (50 users and variable number of threads). Means and standard errors over 5 runs.\relax }{figure.caption.97}{}}
\@writefile{lof}{\contentsline {figure}{\numberline {6.4}{\ignorespaces Dataset for disagreement between the views. User features (left) and user coefficients (right). Two of the groups (shapes) of users have similar features but different coefficients.\relax }}{78}{figure.caption.99}}
\newlabel{fig:data_disagreement}{{\M@TitleReference {6.4}{Dataset for disagreement between the views. User features (left) and user coefficients (right). Two of the groups (shapes) of users have similar features but different coefficients.\relax }}{78}{Dataset for disagreement between the views. User features (left) and user coefficients (right). Two of the groups (shapes) of users have similar features but different coefficients.\relax }{figure.caption.99}{}}
\@writefile{toc}{\contentsline {subsection}{Disagreement between views}{78}{section*.98}}
\@writefile{lof}{\contentsline {figure}{\numberline {6.5}{\ignorespaces Posteriors for DP-dual when the two views see a different number of clusters. (a) 10 users and 100 threads. (b) 25 users and 25 threads. (c) 100 users and 10 threads. Figures on the left: examples of posterior distributions of thread length predictions over 100 test threads with 50\% and 95\% credible intervals in test set with 50 users and 10, 50 and 100 threads. x-axis correspond to threads sorted by their (true) length while y-axis correspond to predicted thread lengths. True lengths are plotted in red (smoothest lines). Figures on the right: examples of posterior pairwise clustering matrices $\mathaccentV {hat}05E{\pi }$. x-axes and y-axes correspond to the users. A dark point means a high probability of being in the same cluster. The worst case is (c), which makes a similar clustering to (b) but worse predictions, because the feature view receives misguiding information from the behavior view and the number of threads is not high enough to compensate for it.\relax }}{79}{figure.caption.100}}
\newlabel{fig:confused}{{\M@TitleReference {6.5}{Posteriors for DP-dual when the two views see a different number of clusters. (a) 10 users and 100 threads. (b) 25 users and 25 threads. (c) 100 users and 10 threads. Figures on the left: examples of posterior distributions of thread length predictions over 100 test threads with 50\% and 95\% credible intervals in test set with 50 users and 10, 50 and 100 threads. x-axis correspond to threads sorted by their (true) length while y-axis correspond to predicted thread lengths. True lengths are plotted in red (smoothest lines). Figures on the right: examples of posterior pairwise clustering matrices $\mathaccentV {hat}05E{\pi }$. x-axes and y-axes correspond to the users. A dark point means a high probability of being in the same cluster. The worst case is (c), which makes a similar clustering to (b) but worse predictions, because the feature view receives misguiding information from the behavior view and the number of threads is not high enough to compensate for it.\relax }}{79}{Posteriors for DP-dual when the two views see a different number of clusters. (a) 10 users and 100 threads. (b) 25 users and 25 threads. (c) 100 users and 10 threads. Figures on the left: examples of posterior distributions of thread length predictions over 100 test threads with 50\% and 95\% credible intervals in test set with 50 users and 10, 50 and 100 threads. x-axis correspond to threads sorted by their (true) length while y-axis correspond to predicted thread lengths. True lengths are plotted in red (smoothest lines). Figures on the right: examples of posterior pairwise clustering matrices $\hat {\pi }$. x-axes and y-axes correspond to the users. A dark point means a high probability of being in the same cluster. The worst case is (c), which makes a similar clustering to (b) but worse predictions, because the feature view receives misguiding information from the behavior view and the number of threads is not high enough to compensate for it.\relax }{figure.caption.100}{}}
\@writefile{lof}{\contentsline {subfigure}{\numberline{(a)}{\ignorespaces {}}}{79}{subfigure.5.1}}
\@writefile{lof}{\contentsline {subfigure}{\numberline{(b)}{\ignorespaces {}}}{79}{subfigure.5.2}}
\@writefile{lof}{\contentsline {subfigure}{\numberline{(c)}{\ignorespaces {}}}{79}{subfigure.5.3}}
\@writefile{lof}{\contentsline {figure}{\numberline {6.6}{\ignorespaces Results for disagreement between the views. Comparison of models under different threads/users ratios (50 users and variable number of threads) when the two views see a different number of clusters. Means and standard errors over 5 runs.\relax }}{79}{figure.caption.101}}
\newlabel{fig:results_disagreement}{{\M@TitleReference {6.6}{Results for disagreement between the views. Comparison of models under different threads/users ratios (50 users and variable number of threads) when the two views see a different number of clusters. Means and standard errors over 5 runs.\relax }}{79}{Results for disagreement between the views. Comparison of models under different threads/users ratios (50 users and variable number of threads) when the two views see a different number of clusters. Means and standard errors over 5 runs.\relax }{figure.caption.101}{}}
\citation{IrisData1935}
\citation{mclust}
\@writefile{toc}{\contentsline {paragraph}{(a) Lack of information in feature view:}{80}{section*.102}}
\@writefile{toc}{\contentsline {paragraph}{(b) Lack of information in both views:}{80}{section*.103}}
\@writefile{toc}{\contentsline {paragraph}{(c) Lack of information in behavior view:}{80}{section*.104}}
\@writefile{toc}{\contentsline {subsection}{Iris dataset}{80}{section*.105}}
\@writefile{lof}{\contentsline {figure}{\numberline {6.7}{\ignorespaces Iris dataset. User features (left) and synthetic user coefficients (right)\relax }}{81}{figure.caption.106}}
\newlabel{fig:iris_data}{{\M@TitleReference {6.7}{Iris dataset. User features (left) and synthetic user coefficients (right)\relax }}{81}{Iris dataset. User features (left) and synthetic user coefficients (right)\relax }{figure.caption.106}{}}
\@writefile{lof}{\contentsline {figure}{\numberline {6.8}{\ignorespaces Results for the iris dataset. Comparison of models under different threads/users ratios (50 users and variable number of threads). Means and standard errors over 5 runs.\relax }}{81}{figure.caption.107}}
\newlabel{fig:iris_results}{{\M@TitleReference {6.8}{Results for the iris dataset. Comparison of models under different threads/users ratios (50 users and variable number of threads). Means and standard errors over 5 runs.\relax }}{81}{Results for the iris dataset. Comparison of models under different threads/users ratios (50 users and variable number of threads). Means and standard errors over 5 runs.\relax }{figure.caption.107}{}}
\@writefile{lof}{\contentsline {figure}{\numberline {6.9}{\ignorespaces Predictive posteriors given by the \texttt  {DP-dual} model over thread lengths and pairwise clustering matrices with 50 users and a training set of 10 threads (left) and 100 threads (right). Shadowed areas indicate 95\% and 50\% credible intervals. True lengths are plotted in red (smoothest lines). As the number of thread increases, the model starts to see the three cluster structure as well as to make better predictions.\relax }}{82}{figure.caption.108}}
\newlabel{fig:iris_posteriors}{{\M@TitleReference {6.9}{Predictive posteriors given by the \texttt  {DP-dual} model over thread lengths and pairwise clustering matrices with 50 users and a training set of 10 threads (left) and 100 threads (right). Shadowed areas indicate 95\% and 50\% credible intervals. True lengths are plotted in red (smoothest lines). As the number of thread increases, the model starts to see the three cluster structure as well as to make better predictions.\relax }}{82}{Predictive posteriors given by the \texttt {DP-dual} model over thread lengths and pairwise clustering matrices with 50 users and a training set of 10 threads (left) and 100 threads (right). Shadowed areas indicate 95\% and 50\% credible intervals. True lengths are plotted in red (smoothest lines). As the number of thread increases, the model starts to see the three cluster structure as well as to make better predictions.\relax }{figure.caption.108}{}}
\@writefile{toc}{\contentsline {subsection}{Computational cost}{82}{section*.110}}
\newlabel{sec:cost}{{\M@TitleReference {6.5}{Computational cost}}{82}{Computational cost}{section*.110}{}}
\@writefile{lof}{\contentsline {figure}{\numberline {6.10}{\ignorespaces Left: histogram of the number of active clusters estimated by the \texttt  {DP-model} in the \textit  {iris} scenario with 50 threads. Right: mean and standard deviations of the number of users assigned to each cluster during the chain. Most users are assigned to the three major clusters and a small group of users is assigned to a fourth cluster.\relax }}{83}{figure.caption.109}}
\newlabel{fig:nclusters}{{\M@TitleReference {6.10}{Left: histogram of the number of active clusters estimated by the \texttt  {DP-model} in the \textit  {iris} scenario with 50 threads. Right: mean and standard deviations of the number of users assigned to each cluster during the chain. Most users are assigned to the three major clusters and a small group of users is assigned to a fourth cluster.\relax }}{83}{Left: histogram of the number of active clusters estimated by the \texttt {DP-model} in the \textit {iris} scenario with 50 threads. Right: mean and standard deviations of the number of users assigned to each cluster during the chain. Most users are assigned to the three major clusters and a small group of users is assigned to a fourth cluster.\relax }{figure.caption.109}{}}
\citation{Abbasnejad2013a}
\@writefile{toc}{\contentsline {subsection}{Summary of the experiments}{84}{section*.111}}
\@writefile{toc}{\contentsline {section}{\numberline {6.6}Conclusions}{84}{section.6.6}}
\newlabel{sec:conclusions}{{\M@TitleReference {6.6}{Conclusions}}{84}{Conclusions}{section.6.6}{}}
\@writefile{toc}{\contentsline {section}{\numberline {.1}Chinese Restaurant Process}{86}{section.Alph0.1}}
\newlabel{eq:p_z}{{35}{86}{Chinese Restaurant Process}{equation.Alph0.1.35}{}}
\newlabel{eq:z_cond}{{36}{87}{Chinese Restaurant Process}{equation.Alph0.1.36}{}}
\newlabel{eq:p_z_minus}{{37}{87}{Chinese Restaurant Process}{equation.Alph0.1.37}{}}
\@writefile{toc}{\contentsline {section}{\numberline {.2}Conditionals for the feature view}{87}{section.Alph0.2}}
\@writefile{toc}{\contentsline {subsection}{Component parameters}{88}{section*.112}}
\@writefile{toc}{\contentsline {subsection}{Shared hyper-parameters}{88}{section*.115}}
\@writefile{toc}{\contentsline {section}{\numberline {.3}Conditionals for the behavior view}{90}{section.Alph0.3}}
\@writefile{toc}{\contentsline {subsection}{Users parameters}{90}{section*.120}}
\@writefile{toc}{\contentsline {subsection}{Component parameters}{91}{section*.122}}
\@writefile{toc}{\contentsline {subsection}{Shared hyper-parameters}{91}{section*.125}}
\@writefile{toc}{\contentsline {subsection}{Regression noise}{93}{section*.130}}
\@writefile{toc}{\contentsline {section}{\numberline {.4}Sampling $\beta _{0}^\text  {(a)}$}{93}{section.Alph0.4}}
\@writefile{toc}{\contentsline {section}{\numberline {.5}Sampling $\beta _{0}^\text  {(f)}$}{94}{section.Alph0.5}}
\@writefile{toc}{\contentsline {section}{\numberline {.6}Sampling $\alpha $}{95}{section.Alph0.6}}
\bibstyle{chicago}
\bibdata{../bibliography}
\bibcite{Abbasnejad2013a}{{1}{2013}{{Abbasnejad et~al.}}{{Abbasnejad, Sanner, Bonilla, and Poupart}}}
\bibcite{Adal2012}{{2}{2012}{{Adal\IeC {\i } and Golbeck}}{{Adal\IeC {\i } and Golbeck}}}
\bibcite{Adamic2008}{{3}{2008}{{Adamic et~al.}}{{Adamic, Zhang, Bakshy, and Ackerman}}}
\bibcite{Airoldi2008}{{4}{2008}{{Airoldi et~al.}}{{Airoldi, Blei, Fienberg, and Xing}}}
\bibcite{Anderson2014}{{5}{2014}{{Anderson et~al.}}{{Anderson, Huttenlocher, Kleinberg, and Leskovec}}}
\bibcite{IrisData1935}{{6}{1935}{{Anderson}}{{Anderson}}}
\bibcite{Angeletou2011a}{{7}{2011}{{Angeletou et~al.}}{{Angeletou, Rowe, and Alani}}}
\bibcite{Backstrom2013}{{8}{2013}{{Backstrom et~al.}}{{Backstrom, Kleinberg, Lee, and Danescu-Niculescu-Mizil}}}
\bibcite{Barabasi1999}{{9}{1999}{{Barab{\'{a}}si and Albert}}{{Barab{\'{a}}si and Albert}}}
\bibcite{belbin2012team}{{10}{2012}{{Belbin}}{{Belbin}}}
\bibcite{Bhatt2012}{{11}{2012}{{Bhatt and Barman}}{{Bhatt and Barman}}}
\bibcite{SteffenandTobiasScheffer}{{12}{2004}{{Bickel and Scheffer}}{{Bickel and Scheffer}}}
\@writefile{toc}{\contentsline {chapter}{Bibliography}{97}{section*.132}}
\bibcite{Biddle1986}{{13}{1986}{{Biddle}}{{Biddle}}}
\bibcite{Birmele2010a}{{14}{2012}{{Birmel{\'{e}}}}{{Birmel{\'{e}}}}}
\bibcite{Blondel2008}{{15}{2008}{{Blondel et~al.}}{{Blondel, Guillaume, Lambiotte, and Lefebvre}}}
\bibcite{Mitchell1998}{{16}{1998}{{Blum and Mitchell}}{{Blum and Mitchell}}}
\bibcite{Bonilla2010}{{17}{2010}{{Bonilla et~al.}}{{Bonilla, Guo, and Sanner}}}
\bibcite{Brandes2009}{{18}{2009}{{Brandes et~al.}}{{Brandes, Lerner, and a.B. Snijders}}}
\bibcite{Brown2000}{{19}{2000}{{Brown et~al.}}{{Brown, Grundy, Lin, Cristianini, Sugnet, Furey, Ares, and Haussler}}}
\bibcite{Chan2010}{{20}{2010}{{Chan et~al.}}{{Chan, Hayes, and Daly}}}
\bibcite{Cheng2014}{{21}{2014}{{Cheng et~al.}}{{Cheng, Agrawal, Choudhary, Liu, and Zhang}}}
\bibcite{Cheung2004}{{22}{2004}{{Cheung et~al.}}{{Cheung, Tsui, and Liu}}}
\bibcite{Cong2008}{{23}{2008}{{Cong et~al.}}{{Cong, Wang, Lin, Song, and Sun}}}
\bibcite{Crain2012a}{{24}{2012}{{Crain et~al.}}{{Crain, Yang, and Zha}}}
\bibcite{Dahl2006}{{25}{2006}{{Dahl}}{{Dahl}}}
\bibcite{Dahlin2012}{{26}{2012}{{Dahlin et~al.}}{{Dahlin, Johansson, Kaati, and Christian}}}
\bibcite{Daudin2008}{{27}{2008}{{Daudin et~al.}}{{Daudin, Picard, and Robin}}}
\bibcite{Dorat2007}{{28}{2007}{{Dorat et~al.}}{{Dorat, Latapy, Conein, and Auray}}}
\bibcite{Eisen1998}{{29}{1998}{{Eisen et~al.}}{{Eisen, Spellman, Brown, and Botstein}}}
\bibcite{Fienberg1981}{{30}{1981}{{Fienberg and Wasserman}}{{Fienberg and Wasserman}}}
\bibcite{Fisher2006}{{31}{2006}{{Fisher et~al.}}{{Fisher, Smith, and Welser}}}
\bibcite{Zighed2012}{{32}{2012}{{Forestier et~al.}}{{Forestier, {A. Stavrianou}, Velcin, and {D.A. Zighed}}}}
\bibcite{Forestier2012a}{{33}{2012}{{Forestier et~al.}}{{Forestier, Velcin, and Zighed}}}
\bibcite{mclust}{{34}{2012}{{Fraley et~al.}}{{Fraley, Raftery, Murphy, and Scrucca}}}
\bibcite{Furtado2013}{{35}{2013}{{Furtado et~al.}}{{Furtado, Andrade, Oliveira, and Brasileiro}}}
\bibcite{Gaumont2016}{{36}{2016}{{Gaumont et~al.}}{{Gaumont, Viard, Fournier-S'niehotta, Wang, and Latapy}}}
\bibcite{BDA}{{37}{2013}{{Gelman et~al.}}{{Gelman, Carlin, Stern, Dunson, Vehtari, and Rubin}}}
\bibcite{Gilks1992}{{38}{1992}{{Gilks and Wild}}{{Gilks and Wild}}}
\bibcite{Goffman1959}{{39}{1959}{{Goffman}}{{Goffman}}}
\bibcite{Golder2003}{{40}{2003}{{Golder}}{{Golder}}}
\bibcite{Golder2004}{{41}{2004}{{Golder and Donath}}{{Golder and Donath}}}
\bibcite{Gomez2010}{{42}{2010}{{G{\'{o}}mez et~al.}}{{G{\'{o}}mez, Kappen, and Kaltenbrunner}}}
\bibcite{Gomez2012a}{{43}{2012a}{{G{\'{o}}mez et~al.}}{{G{\'{o}}mez, Kappen, Litvak, and Kaltenbrunner}}}
\bibcite{Gomez2012}{{44}{2012b}{{G{\'{o}}mez et~al.}}{{G{\'{o}}mez, Kappen, Litvak, and Kaltenbrunner}}}
\bibcite{Gorur2010}{{45}{2010}{{G\"{o}r\"{u}r and Rasmussen}}{{G\"{o}r\"{u}r and Rasmussen}}}
\bibcite{Goyal2008}{{46}{2008}{{Goyal et~al.}}{{Goyal, Bonchi, and Lakshmanan}}}
\bibcite{Greene2009a}{{47}{2009}{{Greene and P\'{a}draig}}{{Greene and P\'{a}draig}}}
\bibcite{Himelboim2009}{{48}{2009}{{Himelboim et~al.}}{{Himelboim, Gleave, and Smith}}}
\bibcite{Holland1983}{{49}{1983}{{Holland et~al.}}{{Holland, Laskey, and Leinhardt}}}
\bibcite{Kamaliha2008}{{50}{2008}{{Kamaliha et~al.}}{{Kamaliha, Riahi, Qazvinian, and Adibi}}}
\bibcite{Kan2012}{{51}{2012}{{Kan et~al.}}{{Kan, Chan, Hayes, Hogan, Bailey, and Leckie}}}
\bibcite{Killick2012}{{52}{2012}{{Killick et~al.}}{{Killick, Fearnhead, and Eckely}}}
\bibcite{Kolaczyk2009}{{53}{2009}{{Kolaczyk}}{{Kolaczyk}}}
\bibcite{Kriplean2008}{{54}{2008}{{Kriplean et~al.}}{{Kriplean, Beschastnikh, and McDonald}}}
\bibcite{Kumar2011}{{55}{2011}{{Kumar et~al.}}{{Kumar, Rai, and Daume}}}
\bibcite{Kumar2010}{{56}{2010}{{Kumar et~al.}}{{Kumar, Mahdian, and McGlohon}}}
\bibcite{Latouche2012}{{57}{2012}{{Latouche et~al.}}{{Latouche, Birmele, and Ambroise}}}
\bibcite{Lorrain1971a}{{58}{1971}{{Lorrain and White}}{{Lorrain and White}}}
\bibcite{Lumbreras2013}{{59}{2013}{{Lumbreras et~al.}}{{Lumbreras, Lanagan, Velcin, Jouve, Eric, Lyon, and France}}}
\bibcite{Maia2008}{{60}{2008}{{Maia et~al.}}{{Maia, Almeida, and Almeida}}}
\bibcite{McCallum2007}{{61}{2007a}{{McCallum et~al.}}{{McCallum, Wang, and Corrada-Emmanuel}}}
\bibcite{McCallum2007a}{{62}{2007b}{{McCallum et~al.}}{{McCallum, Wang, and Corrada-Emmanuel}}}
\bibcite{Milo2002}{{63}{2002}{{Milo et~al.}}{{Milo, Shen-Orr, Itzkovitz, Kashtan, Chklovskii, and Alon}}}
\bibcite{Moreno1934}{{64}{1934}{{Moreno}}{{Moreno}}}
\bibcite{Nash1975}{{65}{1975}{{Nash}}{{Nash}}}
\bibcite{Neal2000}{{66}{2000}{{Neal}}{{Neal}}}
\bibcite{Ni2012}{{67}{2012}{{Ni}}{{Ni}}}
\bibcite{Niu2012}{{68}{2012}{{Niu et~al.}}{{Niu, Dy, and Ghahramani}}}
\bibcite{Nolker2005}{{69}{2005}{{Nolker and Zhou}}{{Nolker and Zhou}}}
\bibcite{Nonnecke2006}{{70}{2006}{{Nonnecke et~al.}}{{Nonnecke, Andrews, and Preece}}}
\bibcite{Nonnecke2000}{{71}{2000}{{Nonnecke and Preece}}{{Nonnecke and Preece}}}
\bibcite{Nonnecke2004}{{72}{2004}{{Nonnecke et~al.}}{{Nonnecke, Preece, and Andrews}}}
\bibcite{Nowicki2001}{{73}{2001}{{Nowicki and Snijders}}{{Nowicki and Snijders}}}
\bibcite{Pavlidis2002}{{74}{2002}{{Pavlidis et~al.}}{{Pavlidis, Weston, Cai, and Noble}}}
\bibcite{Pellegrini1999a}{{75}{1999}{{Pellegrini et~al.}}{{Pellegrini, Marcotte, Thompson, Eisenberg, and Yeates}}}
\bibcite{coda}{{76}{2006}{{Plummer et~al.}}{{Plummer, Best, Cowles, and Vines}}}
\bibcite{Rasmussen2000a}{{77}{2000}{{Rasmussen}}{{Rasmussen}}}
\bibcite{Rossi2013}{{78}{2013}{{Rossi et~al.}}{{Rossi, Gallagher, Neville, and Henderson}}}
\bibcite{Wang2012e}{{79}{2012}{{Wang et~al.}}{{Wang, Ye, and Huberman}}}
\bibcite{Wang2010}{{80}{2010}{{Wang et~al.}}{{Wang, Kraut, Butler, Joyce, and Burke}}}
\bibcite{Wasserman1994}{{81}{1994}{{Wasserman and Faust}}{{Wasserman and Faust}}}
\bibcite{Welser2011}{{82}{2011}{{Welser et~al.}}{{Welser, Cosley, Kossinets, Lin, Dokshin, Gay, and Smith}}}
\bibcite{Welser2007}{{83}{2007}{{Welser et~al.}}{{Welser, Gleave, Fisher, and Smith}}}
\bibcite{Weng2014}{{84}{2014}{{Weng et~al.}}{{Weng, Menczer, and Ahn}}}
\bibcite{Wernicke2006}{{85}{2006}{{Wernicke and Rasche}}{{Wernicke and Rasche}}}
\bibcite{White1976}{{86}{1976}{{White et~al.}}{{White, Boorman, and Breiger}}}
\bibcite{Zhang2007}{{87}{2007}{{Zhang et~al.}}{{Zhang, Ackerman, and Adamic}}}
\bibstyle{chicago}
\bibdata{../bibtex/0Thesis}
\@writefile{lof}{\addvspace {10pt}}
\@writefile{lot}{\addvspace {10pt}}
\@writefile{toc}{\contentsline {chapter}{\chapternumberline {A}Conclusions}{105}{appendix.A}}
\@writefile{loa}{\addvspace {10\p@ }}
\bibcite{Abbasnejad2013a}{{1}{2013}{{Abbasnejad et~al.}}{{Abbasnejad, Sanner, Bonilla, and Poupart}}}
\bibcite{Adal2012}{{2}{2012}{{Adal\IeC {\i } and Golbeck}}{{Adal\IeC {\i } and Golbeck}}}
\bibcite{Adamic2008}{{3}{2008}{{Adamic et~al.}}{{Adamic, Zhang, Bakshy, and Ackerman}}}
\bibcite{Airoldi2008}{{4}{2008}{{Airoldi et~al.}}{{Airoldi, Blei, Fienberg, and Xing}}}
\bibcite{Anderson2014}{{5}{2014}{{Anderson et~al.}}{{Anderson, Huttenlocher, Kleinberg, and Leskovec}}}
\bibcite{IrisData1935}{{6}{1935}{{Anderson}}{{Anderson}}}
\bibcite{Angeletou2011a}{{7}{2011}{{Angeletou et~al.}}{{Angeletou, Rowe, and Alani}}}
\bibcite{Backstrom2013}{{8}{2013}{{Backstrom et~al.}}{{Backstrom, Kleinberg, Lee, and Danescu-Niculescu-Mizil}}}
\bibcite{Barabasi1999}{{9}{1999}{{Barab{\'{a}}si and Albert}}{{Barab{\'{a}}si and Albert}}}
\bibcite{belbin2012team}{{10}{2012}{{Belbin}}{{Belbin}}}
\bibcite{Bhatt2012}{{11}{2012}{{Bhatt and Barman}}{{Bhatt and Barman}}}
\bibcite{SteffenandTobiasScheffer}{{12}{2004}{{Bickel and Scheffer}}{{Bickel and Scheffer}}}
\@writefile{toc}{\contentsline {chapter}{Bibliography}{107}{section*.134}}
\bibcite{Biddle1986}{{13}{1986}{{Biddle}}{{Biddle}}}
\bibcite{Birmele2010a}{{14}{2012}{{Birmel{\'{e}}}}{{Birmel{\'{e}}}}}
\bibcite{Blondel2008}{{15}{2008}{{Blondel et~al.}}{{Blondel, Guillaume, Lambiotte, and Lefebvre}}}
\bibcite{Mitchell1998}{{16}{1998}{{Blum and Mitchell}}{{Blum and Mitchell}}}
\bibcite{Bonilla2010}{{17}{2010}{{Bonilla et~al.}}{{Bonilla, Guo, and Sanner}}}
\bibcite{Brandes2009}{{18}{2009}{{Brandes et~al.}}{{Brandes, Lerner, and a.B. Snijders}}}
\bibcite{Brown2000}{{19}{2000}{{Brown et~al.}}{{Brown, Grundy, Lin, Cristianini, Sugnet, Furey, Ares, and Haussler}}}
\bibcite{Chan2010}{{20}{2010}{{Chan et~al.}}{{Chan, Hayes, and Daly}}}
\bibcite{Cheng2014}{{21}{2014}{{Cheng et~al.}}{{Cheng, Agrawal, Choudhary, Liu, and Zhang}}}
\bibcite{Cheung2004}{{22}{2004}{{Cheung et~al.}}{{Cheung, Tsui, and Liu}}}
\bibcite{Cong2008}{{23}{2008}{{Cong et~al.}}{{Cong, Wang, Lin, Song, and Sun}}}
\bibcite{Crain2012a}{{24}{2012}{{Crain et~al.}}{{Crain, Yang, and Zha}}}
\bibcite{Dahl2006}{{25}{2006}{{Dahl}}{{Dahl}}}
\bibcite{Dahlin2012}{{26}{2012}{{Dahlin et~al.}}{{Dahlin, Johansson, Kaati, and Christian}}}
\bibcite{Daudin2008}{{27}{2008}{{Daudin et~al.}}{{Daudin, Picard, and Robin}}}
\bibcite{Dorat2007}{{28}{2007}{{Dorat et~al.}}{{Dorat, Latapy, Conein, and Auray}}}
\bibcite{Eisen1998}{{29}{1998}{{Eisen et~al.}}{{Eisen, Spellman, Brown, and Botstein}}}
\bibcite{Fienberg1981}{{30}{1981}{{Fienberg and Wasserman}}{{Fienberg and Wasserman}}}
\bibcite{Fisher2006}{{31}{2006}{{Fisher et~al.}}{{Fisher, Smith, and Welser}}}
\bibcite{Zighed2012}{{32}{2012}{{Forestier et~al.}}{{Forestier, {A. Stavrianou}, Velcin, and {D.A. Zighed}}}}
\bibcite{Forestier2012a}{{33}{2012}{{Forestier et~al.}}{{Forestier, Velcin, and Zighed}}}
\bibcite{mclust}{{34}{2012}{{Fraley et~al.}}{{Fraley, Raftery, Murphy, and Scrucca}}}
\bibcite{Furtado2013}{{35}{2013}{{Furtado et~al.}}{{Furtado, Andrade, Oliveira, and Brasileiro}}}
\bibcite{Gaumont2016}{{36}{2016}{{Gaumont et~al.}}{{Gaumont, Viard, Fournier-S'niehotta, Wang, and Latapy}}}
\bibcite{BDA}{{37}{2013}{{Gelman et~al.}}{{Gelman, Carlin, Stern, Dunson, Vehtari, and Rubin}}}
\bibcite{Gilks1992}{{38}{1992}{{Gilks and Wild}}{{Gilks and Wild}}}
\bibcite{Goffman1959}{{39}{1959}{{Goffman}}{{Goffman}}}
\bibcite{Golder2003}{{40}{2003}{{Golder}}{{Golder}}}
\bibcite{Golder2004}{{41}{2004}{{Golder and Donath}}{{Golder and Donath}}}
\bibcite{Gomez2010}{{42}{2010}{{G{\'{o}}mez et~al.}}{{G{\'{o}}mez, Kappen, and Kaltenbrunner}}}
\bibcite{Gomez2012a}{{43}{2012a}{{G{\'{o}}mez et~al.}}{{G{\'{o}}mez, Kappen, Litvak, and Kaltenbrunner}}}
\bibcite{Gomez2012}{{44}{2012b}{{G{\'{o}}mez et~al.}}{{G{\'{o}}mez, Kappen, Litvak, and Kaltenbrunner}}}
\bibcite{Gorur2010}{{45}{2010}{{G\"{o}r\"{u}r and Rasmussen}}{{G\"{o}r\"{u}r and Rasmussen}}}
\bibcite{Goyal2008}{{46}{2008}{{Goyal et~al.}}{{Goyal, Bonchi, and Lakshmanan}}}
\bibcite{Greene2009a}{{47}{2009}{{Greene and P\'{a}draig}}{{Greene and P\'{a}draig}}}
\bibcite{Himelboim2009}{{48}{2009}{{Himelboim et~al.}}{{Himelboim, Gleave, and Smith}}}
\bibcite{Holland1983}{{49}{1983}{{Holland et~al.}}{{Holland, Laskey, and Leinhardt}}}
\bibcite{Kamaliha2008}{{50}{2008}{{Kamaliha et~al.}}{{Kamaliha, Riahi, Qazvinian, and Adibi}}}
\bibcite{Kan2012}{{51}{2012}{{Kan et~al.}}{{Kan, Chan, Hayes, Hogan, Bailey, and Leckie}}}
\bibcite{Killick2012}{{52}{2012}{{Killick et~al.}}{{Killick, Fearnhead, and Eckely}}}
\bibcite{Kolaczyk2009}{{53}{2009}{{Kolaczyk}}{{Kolaczyk}}}
\bibcite{Kriplean2008}{{54}{2008}{{Kriplean et~al.}}{{Kriplean, Beschastnikh, and McDonald}}}
\bibcite{Kumar2011}{{55}{2011}{{Kumar et~al.}}{{Kumar, Rai, and Daume}}}
\bibcite{Kumar2010}{{56}{2010}{{Kumar et~al.}}{{Kumar, Mahdian, and McGlohon}}}
\bibcite{Latouche2012}{{57}{2012}{{Latouche et~al.}}{{Latouche, Birmele, and Ambroise}}}
\bibcite{Lorrain1971a}{{58}{1971}{{Lorrain and White}}{{Lorrain and White}}}
\bibcite{Lumbreras2013}{{59}{2013}{{Lumbreras et~al.}}{{Lumbreras, Lanagan, Velcin, Jouve, Eric, Lyon, and France}}}
\bibcite{Maia2008}{{60}{2008}{{Maia et~al.}}{{Maia, Almeida, and Almeida}}}
\bibcite{McCallum2007}{{61}{2007a}{{McCallum et~al.}}{{McCallum, Wang, and Corrada-Emmanuel}}}
\bibcite{McCallum2007a}{{62}{2007b}{{McCallum et~al.}}{{McCallum, Wang, and Corrada-Emmanuel}}}
\bibcite{Milo2002}{{63}{2002}{{Milo et~al.}}{{Milo, Shen-Orr, Itzkovitz, Kashtan, Chklovskii, and Alon}}}
\bibcite{Moreno1934}{{64}{1934}{{Moreno}}{{Moreno}}}
\bibcite{Nash1975}{{65}{1975}{{Nash}}{{Nash}}}
\bibcite{Neal2000}{{66}{2000}{{Neal}}{{Neal}}}
\bibcite{Ni2012}{{67}{2012}{{Ni}}{{Ni}}}
\bibcite{Niu2012}{{68}{2012}{{Niu et~al.}}{{Niu, Dy, and Ghahramani}}}
\bibcite{Nolker2005}{{69}{2005}{{Nolker and Zhou}}{{Nolker and Zhou}}}
\bibcite{Nonnecke2006}{{70}{2006}{{Nonnecke et~al.}}{{Nonnecke, Andrews, and Preece}}}
\bibcite{Nonnecke2000}{{71}{2000}{{Nonnecke and Preece}}{{Nonnecke and Preece}}}
\bibcite{Nonnecke2004}{{72}{2004}{{Nonnecke et~al.}}{{Nonnecke, Preece, and Andrews}}}
\bibcite{Nowicki2001}{{73}{2001}{{Nowicki and Snijders}}{{Nowicki and Snijders}}}
\bibcite{Pavlidis2002}{{74}{2002}{{Pavlidis et~al.}}{{Pavlidis, Weston, Cai, and Noble}}}
\bibcite{Pellegrini1999a}{{75}{1999}{{Pellegrini et~al.}}{{Pellegrini, Marcotte, Thompson, Eisenberg, and Yeates}}}
\bibcite{coda}{{76}{2006}{{Plummer et~al.}}{{Plummer, Best, Cowles, and Vines}}}
\bibcite{Rasmussen2000a}{{77}{2000}{{Rasmussen}}{{Rasmussen}}}
\bibcite{Rossi2013}{{78}{2013}{{Rossi et~al.}}{{Rossi, Gallagher, Neville, and Henderson}}}
\bibcite{Wang2012e}{{79}{2012}{{Wang et~al.}}{{Wang, Ye, and Huberman}}}
\bibcite{Wang2010}{{80}{2010}{{Wang et~al.}}{{Wang, Kraut, Butler, Joyce, and Burke}}}
\bibcite{Wasserman1994}{{81}{1994}{{Wasserman and Faust}}{{Wasserman and Faust}}}
\bibcite{Welser2011}{{82}{2011}{{Welser et~al.}}{{Welser, Cosley, Kossinets, Lin, Dokshin, Gay, and Smith}}}
\bibcite{Welser2007}{{83}{2007}{{Welser et~al.}}{{Welser, Gleave, Fisher, and Smith}}}
\bibcite{Weng2014}{{84}{2014}{{Weng et~al.}}{{Weng, Menczer, and Ahn}}}
\bibcite{Wernicke2006}{{85}{2006}{{Wernicke and Rasche}}{{Wernicke and Rasche}}}
\bibcite{White1976}{{86}{1976}{{White et~al.}}{{White, Boorman, and Breiger}}}
\bibcite{Zhang2007}{{87}{2007}{{Zhang et~al.}}{{Zhang, Ackerman, and Adamic}}}
\memsetcounter{lastsheet}{113}
\memsetcounter{lastpage}{113}
