\relax 
\providecommand \oddpage@label [2]{}
\citation{Biddle1986}
\citation{Goffman1959}
\citation{Moreno1934}
\citation{Wasserman1994}
\citation{Golder2003}
\@writefile{toc}{\contentsline {chapter}{\numberline {1}Introduction}{3}}
\@writefile{lof}{\addvspace {10\p@ }}
\@writefile{lot}{\addvspace {10\p@ }}
\citation{Golder2003}
\citation{White1976,Boorman1976}
\citation{Glea2009}
\citation{Welser2007}
\@writefile{toc}{\contentsline {section}{\numberline {1.1}Online roles: an overview of the state of the art}{4}}
\@writefile{toc}{\contentsline {section}{\numberline {1.2}Our approach: roles as behavior functions}{5}}
\citation{Biddle1986}
\citation{Goffman1959}
\citation{Boorman1976}
\@writefile{toc}{\contentsline {chapter}{\numberline {2}Past work}{7}}
\@writefile{lof}{\addvspace {10\p@ }}
\@writefile{lot}{\addvspace {10\p@ }}
\@writefile{toc}{\contentsline {section}{\numberline {2.1}Role definition}{7}}
\citation{Lorrain1971a}
\citation{White1976,Holland1983,Wasserman1987,Anderson1992,Nowicki2001}
\@writefile{lof}{\contentsline {figure}{\numberline {2.1}{\ignorespaces Blockmodel in a IMDb thread\relax }}{8}}
\providecommand*\caption@xref[2]{\@setref\relax\@undefined{#1}}
\newlabel{fig:blockmodel}{{2.1}{8}}
\@writefile{toc}{\contentsline {section}{\numberline {2.2}Blockmodels}{8}}
\citation{McCallum2007}
\citation{DuBois2013}
\@writefile{toc}{\contentsline {subsubsection}{Limitations}{9}}
\citation{R.Milo}
\citation{Adamic2008}
\citation{Backstrom2013}
\citation{Lumbreras2013}
\@writefile{toc}{\contentsline {section}{\numberline {2.3}Motifs}{10}}
\@writefile{toc}{\contentsline {section}{\numberline {2.4}Contexts}{10}}
\@writefile{lof}{\contentsline {figure}{\numberline {2.2}{\ignorespaces Triad census vs total thread length (means)\relax }}{11}}
\newlabel{fig:triads}{{2.2}{11}}
\@writefile{lof}{\contentsline {figure}{\numberline {2.3}{\ignorespaces Example of hash graph. The hashing scheme collapses the information about authors so that two conversations involving different authors but that share a same schema are considered equivalent\relax }}{12}}
\newlabel{context_hash}{{2.3}{12}}
\@writefile{lof}{\contentsline {figure}{\numberline {2.4}{\ignorespaces Significance test for the choices of contexts. For every context, every point represents a user.\relax }}{13}}
\newlabel{fig:pvalues}{{2.4}{13}}
\@writefile{toc}{\contentsline {subsection}{\numberline {2.4.1}Evolution of contexts}{14}}
\@writefile{lof}{\contentsline {figure}{\numberline {2.5}{\ignorespaces Transitions between contexts\relax }}{15}}
\newlabel{fig:transitions}{{2.5}{15}}
\citation{SteffenandTobiasScheffer,Xu2013,Sun2013}
\citation{Caruana1997,Zhang2008,Zhang2005}
\citation{Yang2013,He2011}
\citation{Cheng2014}
\citation{Cheng2014}
\@writefile{toc}{\contentsline {chapter}{\numberline {3}Present and Future}{17}}
\@writefile{lof}{\addvspace {10\p@ }}
\@writefile{lot}{\addvspace {10\p@ }}
\@writefile{toc}{\contentsline {section}{\numberline {3.1}Multi-view Multi-task learning}{17}}
\@writefile{lof}{\contentsline {figure}{\numberline {3.1}{\ignorespaces Graphical model of the generative process. All views are connected through the latent variables $\mathbf  {z}$.\relax }}{18}}
\newlabel{fig:general}{{3.1}{18}}
\@writefile{toc}{\contentsline {section}{\numberline {3.2}Perspectives}{20}}
\bibstyle{chicago}
\bibdata{./bibtex/library}
\@writefile{toc}{\contentsline {chapter}{\numberline {A}Publications}{21}}
\@writefile{lof}{\addvspace {10\p@ }}
\@writefile{lot}{\addvspace {10\p@ }}
\bibcite{Adamic2008}{{1}{2008}{{Adamic et~al.}}{{Adamic, Zhang, Bakshy, and Ackerman}}}
\bibcite{Anderson1992}{{2}{1992}{{Anderson et~al.}}{{Anderson, Wasserman, and Faust}}}
\bibcite{Backstrom2013}{{3}{2013}{{Backstrom et~al.}}{{Backstrom, Kleinberg, Lee, and Danescu-niculescu mizil}}}
\bibcite{SteffenandTobiasScheffer}{{4}{2004}{{Bickel and Scheffer}}{{Bickel and Scheffer}}}
\bibcite{Biddle1986}{{5}{1986}{{Biddle}}{{Biddle}}}
\bibcite{Boorman1976}{{6}{1976}{{Boorman and White}}{{Boorman and White}}}
\bibcite{Caruana1997}{{7}{1997}{{Caruana}}{{Caruana}}}
\bibcite{Cheng2014}{{8}{2014}{{Cheng et~al.}}{{Cheng, Agrawal, Choudhary, Liu, and Zhang}}}
\bibcite{DuBois2013}{{9}{2013}{{DuBois et~al.}}{{DuBois, Butts, and Smyth}}}
\bibcite{Glea2009}{{10}{2009}{{Gleave et~al.}}{{Gleave, Welser, Lento, and Smith}}}
\bibcite{Goffman1959}{{11}{1959}{{Goffman}}{{Goffman}}}
\bibcite{Golder2003}{{12}{2003}{{Golder}}{{Golder}}}
\bibcite{He2011}{{13}{2011}{{He and Lawrence}}{{He and Lawrence}}}
\bibcite{Holland1983}{{14}{1983}{{Holland et~al.}}{{Holland, Laskey, and Leinhardt}}}
\bibcite{Lorrain1971a}{{15}{1971}{{Lorrain and White}}{{Lorrain and White}}}
\bibcite{Lumbreras2013}{{16}{2013}{{Lumbreras et~al.}}{{Lumbreras, Lanagan, Velcin, Jouve, Eric, Lyon, and France}}}
\bibcite{McCallum2007}{{17}{2007}{{McCallum et~al.}}{{McCallum, Wang, and Corrada-Emmanuel}}}
\bibcite{R.Milo}{{18}{2002}{{Milo et~al.}}{{Milo, Shen-Orr, Itzkovitz, Kashtan, Chklovskii, and Alon}}}
\bibcite{Moreno1934}{{19}{1934}{{Moreno}}{{Moreno}}}
\bibcite{Nowicki2001}{{20}{2001}{{Nowicki and Snijders}}{{Nowicki and Snijders}}}
\bibcite{Sun2013}{{21}{2013}{{Sun}}{{Sun}}}
\bibcite{Wasserman1987}{{22}{1987}{{Wasserman and Anderson}}{{Wasserman and Anderson}}}
\bibcite{Wasserman1994}{{23}{1994}{{Wasserman and Faust}}{{Wasserman and Faust}}}
\bibcite{Welser2007}{{24}{2007}{{Welser et~al.}}{{Welser, Gleave, Fisher, and Smith}}}
\bibcite{White1976}{{25}{1976}{{White et~al.}}{{White, Boorman, and Breiger}}}
\bibcite{Xu2013}{{26}{2013}{{Xu et~al.}}{{Xu, Tao, and Xu}}}
\bibcite{Yang2013}{{27}{2013}{{Yang and He}}{{Yang and He}}}
\bibcite{Zhang2005}{{28}{2005}{{Zhang et~al.}}{{Zhang, Ghahramani, and Yang}}}
\bibcite{Zhang2008}{{29}{2008}{{Zhang et~al.}}{{Zhang, Ghahramani, and Yang}}}
