\relax 
\@writefile{toc}{\contentsline {section}{\numberline {1}Introduction}{1}}
\@writefile{toc}{\contentsline {section}{\numberline {2}Problem formalization}{2}}
\@writefile{toc}{\contentsline {subsection}{\numberline {2.1}User-based models vs role-based models: $f_r$ or $f_u$?}{3}}
\@writefile{toc}{\contentsline {section}{\numberline {3}$f_r$: classic prediction schemes}{3}}
\@writefile{toc}{\contentsline {subsection}{\numberline {3.1}Discriminative models}{3}}
\@writefile{toc}{\contentsline {subsection}{\numberline {3.2}Generative models}{4}}
\@writefile{toc}{\contentsline {subsection}{\numberline {3.3}Discriminative vs Generative}{4}}
\@writefile{toc}{\contentsline {subsection}{\numberline {3.4}Some issues on mixture models}{5}}
\@writefile{toc}{\contentsline {section}{\numberline {4}$C$: codification of contexts}{5}}
\@writefile{lof}{\contentsline {figure}{\numberline {1}{\ignorespaces Hash signature of a toy context. The hashing scheme collapses the information about authors so that two conversations involving different authors but that share a same schema are considered equivalent. Besides, contexts have an artificial limit of three authors or six posts. (a full triad in a classic triad census).\relax }}{6}}
\providecommand*\caption@xref[2]{\@setref\relax\@undefined{#1}}
\newlabel{context_hash}{{1}{6}}
\@writefile{toc}{\contentsline {section}{\numberline {5}Experiments}{7}}
\@writefile{toc}{\contentsline {subsection}{\numberline {5.1}Users reactions to contexts}{7}}
\@writefile{lof}{\contentsline {figure}{\numberline {2}{\ignorespaces Selection of plots of the p-values corresponding to a user behaving randomly, that is, according to a Poisson Binomial Distribution (Null hypothesis)\relax }}{8}}
\newlabel{pvalues}{{2}{8}}
\@writefile{toc}{\contentsline {subsection}{\numberline {5.2}Clustering users with similar reactions}{8}}
\@writefile{lof}{\contentsline {figure}{\numberline {3}{\ignorespaces Clustering\relax }}{9}}
\newlabel{clustering}{{3}{9}}
\@writefile{toc}{\contentsline {subsection}{\numberline {5.3}Evolution of contexts}{9}}
\@writefile{toc}{\contentsline {section}{\numberline {6}Towards context-based predictions}{9}}
\@writefile{lof}{\contentsline {figure}{\numberline {4}{\ignorespaces Transitions between contexts\relax }}{10}}
\newlabel{transitions}{{4}{10}}
