\beamer@endinputifotherversion {3.33pt}
\beamer@sectionintoc {1}{Last visit to Lyon}{3}{0}{1}
\beamer@sectionintoc {2}{List triads}{5}{0}{2}
\beamer@sectionintoc {3}{MCMC and Blockmodels}{7}{0}{3}
\beamer@sectionintoc {4}{Blockmodeling simple relations}{10}{0}{4}
\beamer@sectionintoc {5}{Blockmodeling simple interactions}{13}{0}{5}
\beamer@sectionintoc {6}{Future}{23}{0}{6}
