\relax 
\providecommand*{\memsetcounter}[2]{}
\providecommand\hyper@newdestlabel[2]{}
\providecommand\HyperFirstAtBeginDocument{\AtBeginDocument}
\HyperFirstAtBeginDocument{\ifx\hyper@anchor\@undefined
\global\let\oldcontentsline\contentsline
\gdef\contentsline#1#2#3#4{\oldcontentsline{#1}{#2}{#3}}
\global\let\oldnewlabel\newlabel
\gdef\newlabel#1#2{\newlabelxx{#1}#2}
\gdef\newlabelxx#1#2#3#4#5#6{\oldnewlabel{#1}{{#2}{#3}}}
\AtEndDocument{\ifx\hyper@anchor\@undefined
\let\contentsline\oldcontentsline
\let\newlabel\oldnewlabel
\fi}
\fi}
\global\let\hyper@last\relax 
\gdef\HyperFirstAtBeginDocument#1{#1}
\providecommand\HyField@AuxAddToFields[1]{}
\providecommand\HyField@AuxAddToCoFields[2]{}
\@writefile{lof}{\addvspace {10pt}}
\@writefile{lot}{\addvspace {10pt}}
\@writefile{toc}{\contentsline {chapter}{\chapternumberline {1}Context prediction}{1}{chapter.1}}
\@writefile{toc}{\contentsline {section}{\numberline {1.1}$C$: codification of contexts}{1}{section.1.1}}
\@writefile{toc}{\contentsline {section}{\numberline {1.2}Experiments}{1}{section.1.2}}
\@writefile{toc}{\contentsline {subsection}{Users reactions to contexts}{1}{section*.1}}
\@writefile{toc}{\contentsline {subsection}{Clustering users with similar reactions}{3}{section*.2}}
\@writefile{toc}{\contentsline {section}{\numberline {1.3}Roles to predict reactions}{3}{section.1.3}}
\@writefile{toc}{\contentsline {subsection}{Evolution of contexts}{3}{section*.3}}
\@writefile{toc}{\contentsline {section}{\numberline {1.4}Towards context-based predictions}{3}{section.1.4}}
\memsetcounter{lastsheet}{4}
\memsetcounter{lastpage}{4}
