\relax 
\providecommand*{\memsetcounter}[2]{}
\providecommand\hyper@newdestlabel[2]{}
\providecommand\HyperFirstAtBeginDocument{\AtBeginDocument}
\HyperFirstAtBeginDocument{\ifx\hyper@anchor\@undefined
\global\let\oldcontentsline\contentsline
\gdef\contentsline#1#2#3#4{\oldcontentsline{#1}{#2}{#3}}
\global\let\oldnewlabel\newlabel
\gdef\newlabel#1#2{\newlabelxx{#1}#2}
\gdef\newlabelxx#1#2#3#4#5#6{\oldnewlabel{#1}{{#2}{#3}}}
\AtEndDocument{\ifx\hyper@anchor\@undefined
\let\contentsline\oldcontentsline
\let\newlabel\oldnewlabel
\fi}
\fi}
\global\let\hyper@last\relax 
\gdef\HyperFirstAtBeginDocument#1{#1}
\providecommand\HyField@AuxAddToFields[1]{}
\providecommand\HyField@AuxAddToCoFields[2]{}
\@writefile{lof}{\addvspace {10pt}}
\@writefile{lot}{\addvspace {10pt}}
\@writefile{toc}{\contentsline {chapter}{\chapternumberline {1}A new role analysis}{1}{chapter.1}}
\@writefile{loa}{\addvspace {10\p@ }}
\@writefile{toc}{\contentsline {section}{\numberline {1.1}Formalization}{1}{section.1.1}}
\@writefile{toc}{\contentsline {section}{\numberline {1.2}Role definition}{1}{section.1.2}}
\newmarginnote{note.1.1}{{2}{7048563sp}}
\@writefile{tdo}{\contentsline {todo}{this definition is useful to cluster users by life evolution}{2}{section*.1}}
\pgfsyspdfmark {pgfid1}{7048563}{41483582}
\pgfsyspdfmark {pgfid2}{2936179}{41497038}
\pgfsyspdfmark {pgfid3}{6557043}{41251852}
\newmarginnote{note.2.1}{{2}{7048563sp}}
\newmarginnote{note.2.2}{{2}{7048563sp}}
\newmarginnote{note.2.3}{{2}{7048563sp}}
\citation{Meredith}
\newmarginnote{note.2.4}{{3}{4699040sp}}
\@writefile{toc}{\contentsline {section}{\numberline {1.3}Role-based predictions}{3}{section.1.3}}
\@writefile{toc}{\contentsline {subsection}{Predicting successful threads}{3}{section*.2}}
\newmarginnote{note.3.1}{{3}{25150590sp}}
\newmarginnote{note.3.2}{{3}{12410023sp}}
\newlabel{basic_belbin}{{1.5}{3}{Predicting successful threads}{equation.1.3.5}{}}
\@writefile{toc}{\contentsline {subsubsection}{Non-linear model}{4}{section*.3}}
\newlabel{interdependence_belbin}{{1.6}{4}{Non-linear model}{equation.1.3.6}{}}
\newlabel{interdependence_belbin}{{1.7}{4}{Non-linear model}{equation.1.3.7}{}}
\@writefile{toc}{\contentsline {subsection}{Predicting users' replies}{4}{section*.4}}
\@writefile{toc}{\contentsline {subsection}{Predicting reactions to a post}{4}{section*.5}}
\bibstyle{spbasic}
\bibdata{../bibliography}
\bibcite{Meredith}{{1}{1993}{{Meredith}}{{}}}
\@writefile{toc}{\contentsline {chapter}{Bibliography}{7}{section*.7}}
\memsetcounter{lastsheet}{7}
\memsetcounter{lastpage}{7}
