%!PS-Adobe-3.0 EPSF-3.0
%%DocumentNeededResources: font Helvetica
%%+ font Helvetica-Bold
%%+ font Helvetica-Oblique
%%+ font Helvetica-BoldOblique
%%+ font Symbol
%%Title: R Graphics Output
%%Creator: R Software
%%Pages: (atend)
%%BoundingBox: 0 0 595 496
%%EndComments
%%BeginProlog
/bp  { gs sRGB gs } def
% begin .ps.prolog
/gs  { gsave } bind def
/gr  { grestore } bind def
/ep  { showpage gr gr } bind def
/m   { moveto } bind def
/l  { rlineto } bind def
/np  { newpath } bind def
/cp  { closepath } bind def
/f   { fill } bind def
/o   { stroke } bind def
/c   { newpath 0 360 arc } bind def
/r   { 4 2 roll moveto 1 copy 3 -1 roll exch 0 exch rlineto 0 rlineto -1 mul 0 exch rlineto closepath } bind def
/p1  { stroke } bind def
/p2  { gsave bg fill grestore newpath } bind def
/p3  { gsave bg fill grestore stroke } bind def
/p6  { gsave bg eofill grestore newpath } bind def
/p7  { gsave bg eofill grestore stroke } bind def
/t   { 5 -2 roll moveto gsave rotate
       1 index stringwidth pop
       mul neg 0 rmoveto show grestore } bind def
/ta  { 4 -2 roll moveto gsave rotate show } bind def
/tb  { 2 -1 roll 0 rmoveto show } bind def
/cl  { grestore gsave newpath 3 index 3 index moveto 1 index
       4 -1 roll lineto  exch 1 index lineto lineto
       closepath clip newpath } bind def
/rgb { setrgbcolor } bind def
/s   { scalefont setfont } bind def
% end   .ps.prolog
/sRGB { [ /CIEBasedABC
          << /DecodeLMN
               [ { dup 0.03928 le
                        {12.92321 div}
                        {0.055 add 1.055 div 2.4 exp }
                     ifelse
                 } bind dup dup
               ]
             /MatrixLMN [0.412457 0.212673 0.019334
                         0.357576 0.715152 0.119192
                         0.180437 0.072175 0.950301]
             /WhitePoint [0.9505 1.0 1.0890]
           >>
         ] setcolorspace } bind def
/srgb { setcolor } bind def
%%IncludeResource: font Helvetica
/Helvetica findfont
dup length dict begin
  {1 index /FID ne {def} {pop pop} ifelse} forall
  /Encoding ISOLatin1Encoding def
  currentdict
  end
/Font1 exch definefont pop
%%IncludeResource: font Helvetica-Bold
/Helvetica-Bold findfont
dup length dict begin
  {1 index /FID ne {def} {pop pop} ifelse} forall
  /Encoding ISOLatin1Encoding def
  currentdict
  end
/Font2 exch definefont pop
%%IncludeResource: font Helvetica-Oblique
/Helvetica-Oblique findfont
dup length dict begin
  {1 index /FID ne {def} {pop pop} ifelse} forall
  /Encoding ISOLatin1Encoding def
  currentdict
  end
/Font3 exch definefont pop
%%IncludeResource: font Helvetica-BoldOblique
/Helvetica-BoldOblique findfont
dup length dict begin
  {1 index /FID ne {def} {pop pop} ifelse} forall
  /Encoding ISOLatin1Encoding def
  currentdict
  end
/Font4 exch definefont pop
%%IncludeResource: font Symbol
/Symbol findfont
dup length dict begin
  {1 index /FID ne {def} {pop pop} ifelse} forall
  currentdict
  end
/Font5 exch definefont pop
%%EndProlog
%%Page: 1 1
bp
0.00 0.00 595.28 496.06 cl
0.00 0.00 595.28 496.06 cl
0.00 0.00 595.28 496.06 cl
0.00 0.00 595.28 496.06 cl
0.00 0.00 595.28 496.06 cl
0.00 0.00 595.28 496.06 cl
0.00 0.00 595.28 496.06 cl
0.00 0.00 595.28 496.06 cl
0.00 0.00 595.28 496.06 cl
0.00 0.00 595.28 496.06 cl
0.00 0.00 595.28 496.06 cl
0.00 0.00 595.28 496.06 cl
0.00 0.00 595.28 496.06 cl
0.00 0.00 595.28 496.06 cl
0.00 0.00 595.28 496.06 cl
0.00 0.00 595.28 496.06 cl
0.00 0.00 595.28 496.06 cl
0.00 0.00 595.28 496.06 cl
/bg { 1 1 1 srgb } def
1 1 1 srgb
1.07 setlinewidth
[] 0 setdash
1 setlinecap
1 setlinejoin
10.00 setmiterlimit
0.00 0.00 595.28 496.06 r p3
0.00 0.00 595.28 496.06 cl
38.27 407.53 496.36 490.09 cl
/bg { 1 1 1 srgb } def
38.27 407.53 458.09 82.56 r p2
0.9804 0.9804 0.9804 srgb
1.07 setlinewidth
[] 0 setdash
0 setlinecap
1 setlinejoin
10.00 setmiterlimit
np
43.16 407.53 m
0 82.56 l
o
np
53.78 407.53 m
0 82.56 l
o
np
64.40 407.53 m
0 82.56 l
o
np
74.50 407.53 m
0 82.56 l
o
np
84.60 407.53 m
0 82.56 l
o
np
95.05 407.53 m
0 82.56 l
o
np
105.49 407.53 m
0 82.56 l
o
np
115.94 407.53 m
0 82.56 l
o
np
126.38 407.53 m
0 82.56 l
o
np
137.00 407.53 m
0 82.56 l
o
np
147.45 407.53 m
0 82.56 l
o
np
157.89 407.53 m
0 82.56 l
o
np
168.34 407.53 m
0 82.56 l
o
np
178.78 407.53 m
0 82.56 l
o
np
189.40 407.53 m
0 82.56 l
o
np
199.50 407.53 m
0 82.56 l
o
np
209.61 407.53 m
0 82.56 l
o
np
220.05 407.53 m
0 82.56 l
o
np
230.50 407.53 m
0 82.56 l
o
np
240.94 407.53 m
0 82.56 l
o
np
251.39 407.53 m
0 82.56 l
o
np
262.00 407.53 m
0 82.56 l
o
np
272.45 407.53 m
0 82.56 l
o
np
282.89 407.53 m
0 82.56 l
o
np
293.34 407.53 m
0 82.56 l
o
np
303.79 407.53 m
0 82.56 l
o
np
314.40 407.53 m
0 82.56 l
o
np
324.50 407.53 m
0 82.56 l
o
np
334.61 407.53 m
0 82.56 l
o
np
345.05 407.53 m
0 82.56 l
o
np
355.50 407.53 m
0 82.56 l
o
np
365.94 407.53 m
0 82.56 l
o
np
376.39 407.53 m
0 82.56 l
o
np
387.01 407.53 m
0 82.56 l
o
np
397.45 407.53 m
0 82.56 l
o
np
407.90 407.53 m
0 82.56 l
o
np
418.34 407.53 m
0 82.56 l
o
np
428.79 407.53 m
0 82.56 l
o
np
439.40 407.53 m
0 82.56 l
o
np
449.68 407.53 m
0 82.56 l
o
np
459.95 407.53 m
0 82.56 l
o
np
470.40 407.53 m
0 82.56 l
o
np
480.84 407.53 m
0 82.56 l
o
np
491.46 407.53 m
0 82.56 l
o
0.8980 0.8980 0.8980 srgb
0.43 setlinewidth
[] 0 setdash
np
38.27 448.03 m
458.09 0 l
o
np
48.47 407.53 m
0 82.56 l
o
np
59.09 407.53 m
0 82.56 l
o
np
69.71 407.53 m
0 82.56 l
o
np
79.29 407.53 m
0 82.56 l
o
np
89.91 407.53 m
0 82.56 l
o
np
100.19 407.53 m
0 82.56 l
o
np
110.80 407.53 m
0 82.56 l
o
np
121.08 407.53 m
0 82.56 l
o
np
131.69 407.53 m
0 82.56 l
o
np
142.31 407.53 m
0 82.56 l
o
np
152.58 407.53 m
0 82.56 l
o
np
163.20 407.53 m
0 82.56 l
o
np
173.47 407.53 m
0 82.56 l
o
np
184.09 407.53 m
0 82.56 l
o
np
194.71 407.53 m
0 82.56 l
o
np
204.30 407.53 m
0 82.56 l
o
np
214.91 407.53 m
0 82.56 l
o
np
225.19 407.53 m
0 82.56 l
o
np
235.80 407.53 m
0 82.56 l
o
np
246.08 407.53 m
0 82.56 l
o
np
256.70 407.53 m
0 82.56 l
o
np
267.31 407.53 m
0 82.56 l
o
np
277.59 407.53 m
0 82.56 l
o
np
288.20 407.53 m
0 82.56 l
o
np
298.48 407.53 m
0 82.56 l
o
np
309.09 407.53 m
0 82.56 l
o
np
319.71 407.53 m
0 82.56 l
o
np
329.30 407.53 m
0 82.56 l
o
np
339.92 407.53 m
0 82.56 l
o
np
350.19 407.53 m
0 82.56 l
o
np
360.81 407.53 m
0 82.56 l
o
np
371.08 407.53 m
0 82.56 l
o
np
381.70 407.53 m
0 82.56 l
o
np
392.31 407.53 m
0 82.56 l
o
np
402.59 407.53 m
0 82.56 l
o
np
413.20 407.53 m
0 82.56 l
o
np
423.48 407.53 m
0 82.56 l
o
np
434.10 407.53 m
0 82.56 l
o
np
444.71 407.53 m
0 82.56 l
o
np
454.64 407.53 m
0 82.56 l
o
np
465.26 407.53 m
0 82.56 l
o
np
475.53 407.53 m
0 82.56 l
o
np
486.15 407.53 m
0 82.56 l
o
0 0 0 srgb
0.71 setlinewidth
[] 0 setdash
1 setlinecap
np
55.57 466.26 m
7.04 0 l
o
np
59.09 462.74 m
0 7.03 l
o
np
66.19 466.90 m
7.03 0 l
o
np
69.71 463.38 m
0 7.04 l
o
np
75.78 468.05 m
7.03 0 l
o
np
79.29 464.53 m
0 7.04 l
o
np
86.39 486.33 m
7.04 0 l
o
np
89.91 482.81 m
0 7.04 l
o
np
96.67 472.72 m
7.03 0 l
o
np
100.19 469.20 m
0 7.04 l
o
np
107.28 464.24 m
7.04 0 l
o
np
110.80 460.72 m
0 7.04 l
o
np
117.56 467.64 m
7.04 0 l
o
np
121.08 464.12 m
0 7.04 l
o
np
128.17 471.53 m
7.04 0 l
o
np
131.69 468.01 m
0 7.04 l
o
np
138.79 469.04 m
7.04 0 l
o
np
142.31 465.52 m
0 7.04 l
o
np
149.06 456.70 m
7.04 0 l
o
np
152.58 453.18 m
0 7.04 l
o
np
159.68 469.20 m
7.04 0 l
o
np
163.20 465.69 m
0 7.03 l
o
np
169.96 464.76 m
7.03 0 l
o
np
173.47 461.25 m
0 7.03 l
o
np
180.57 467.49 m
7.04 0 l
o
np
184.09 463.97 m
0 7.03 l
o
np
191.19 471.22 m
7.04 0 l
o
np
194.71 467.70 m
0 7.04 l
o
np
200.78 468.47 m
7.04 0 l
o
np
204.30 464.95 m
0 7.04 l
o
np
211.39 458.29 m
7.04 0 l
o
np
214.91 454.77 m
0 7.04 l
o
np
221.67 468.49 m
7.04 0 l
o
np
225.19 464.97 m
0 7.03 l
o
np
232.29 460.77 m
7.03 0 l
o
np
235.80 457.25 m
0 7.04 l
o
np
242.56 466.36 m
7.04 0 l
o
np
246.08 462.84 m
0 7.04 l
o
np
253.18 478.98 m
7.03 0 l
o
np
256.70 475.47 m
0 7.03 l
o
np
263.79 471.83 m
7.04 0 l
o
np
267.31 468.31 m
0 7.04 l
o
np
274.07 465.94 m
7.03 0 l
o
np
277.59 462.42 m
0 7.04 l
o
np
284.68 475.67 m
7.04 0 l
o
np
288.20 472.16 m
0 7.03 l
o
np
294.96 472.86 m
7.04 0 l
o
np
298.48 469.34 m
0 7.04 l
o
np
305.57 468.66 m
7.04 0 l
o
np
309.09 465.14 m
0 7.04 l
o
np
316.19 474.73 m
7.04 0 l
o
np
319.71 471.21 m
0 7.04 l
o
np
325.78 478.45 m
7.04 0 l
o
np
329.30 474.93 m
0 7.03 l
o
np
336.40 481.94 m
7.03 0 l
o
np
339.92 478.42 m
0 7.04 l
o
np
346.67 472.94 m
7.04 0 l
o
np
350.19 469.43 m
0 7.03 l
o
np
357.29 471.88 m
7.04 0 l
o
np
360.81 468.36 m
0 7.04 l
o
np
367.56 476.84 m
7.04 0 l
o
np
371.08 473.32 m
0 7.04 l
o
np
378.18 475.43 m
7.04 0 l
o
np
381.70 471.91 m
0 7.04 l
o
np
388.80 475.95 m
7.03 0 l
o
np
392.31 472.43 m
0 7.04 l
o
np
399.07 480.72 m
7.04 0 l
o
np
402.59 477.20 m
0 7.04 l
o
np
409.69 473.62 m
7.03 0 l
o
np
413.20 470.11 m
0 7.03 l
o
np
419.96 478.87 m
7.04 0 l
o
np
423.48 475.35 m
0 7.04 l
o
np
430.58 470.29 m
7.03 0 l
o
np
434.10 466.77 m
0 7.04 l
o
np
441.19 474.04 m
7.04 0 l
o
np
444.71 470.52 m
0 7.04 l
o
np
451.12 478.70 m
7.04 0 l
o
np
454.64 475.18 m
0 7.04 l
o
np
461.74 474.23 m
7.04 0 l
o
np
465.26 470.71 m
0 7.04 l
o
np
472.02 473.16 m
7.03 0 l
o
np
475.53 469.64 m
0 7.04 l
o
56.60 441.16 4.98 4.98 r p1
np
56.60 441.16 m
4.98 4.97 l
o
np
56.60 446.13 m
4.98 -4.97 l
o
67.22 431.66 4.98 4.98 r p1
np
67.22 431.66 m
4.97 4.98 l
o
np
67.22 436.64 m
4.97 -4.98 l
o
76.81 423.97 4.98 4.98 r p1
np
76.81 423.97 m
4.97 4.98 l
o
np
76.81 428.95 m
4.97 -4.98 l
o
87.42 422.96 4.98 4.98 r p1
np
87.42 422.96 m
4.98 4.98 l
o
np
87.42 427.94 m
4.98 -4.98 l
o
97.70 430.95 4.98 4.98 r p1
np
97.70 430.95 m
4.97 4.98 l
o
np
97.70 435.93 m
4.97 -4.98 l
o
108.31 420.74 4.98 4.98 r p1
np
108.31 420.74 m
4.98 4.97 l
o
np
108.31 425.71 m
4.98 -4.97 l
o
118.59 432.05 4.98 4.98 r p1
np
118.59 432.05 m
4.97 4.97 l
o
np
118.59 437.02 m
4.97 -4.97 l
o
129.20 408.79 4.98 4.98 r p1
np
129.20 408.79 m
4.98 4.98 l
o
np
129.20 413.77 m
4.98 -4.98 l
o
139.82 427.43 4.98 4.98 r p1
np
139.82 427.43 m
4.98 4.98 l
o
np
139.82 432.41 m
4.98 -4.98 l
o
150.10 421.89 4.98 4.98 r p1
np
150.10 421.89 m
4.97 4.98 l
o
np
150.10 426.87 m
4.97 -4.98 l
o
160.71 434.00 4.98 4.98 r p1
np
160.71 434.00 m
4.98 4.97 l
o
np
160.71 438.97 m
4.98 -4.97 l
o
170.99 412.00 4.98 4.98 r p1
np
170.99 412.00 m
4.97 4.98 l
o
np
170.99 416.98 m
4.97 -4.98 l
o
181.60 429.67 4.98 4.98 r p1
np
181.60 429.67 m
4.98 4.98 l
o
np
181.60 434.65 m
4.98 -4.98 l
o
192.22 416.25 4.98 4.98 r p1
np
192.22 416.25 m
4.98 4.97 l
o
np
192.22 421.22 m
4.98 -4.97 l
o
201.81 424.44 4.98 4.98 r p1
np
201.81 424.44 m
4.98 4.97 l
o
np
201.81 429.41 m
4.98 -4.97 l
o
212.43 429.48 4.98 4.98 r p1
np
212.43 429.48 m
4.97 4.98 l
o
np
212.43 434.46 m
4.97 -4.98 l
o
222.70 427.00 4.98 4.98 r p1
np
222.70 427.00 m
4.98 4.97 l
o
np
222.70 431.97 m
4.98 -4.97 l
o
233.32 425.84 4.98 4.98 r p1
np
233.32 425.84 m
4.97 4.98 l
o
np
233.32 430.82 m
4.97 -4.98 l
o
243.59 426.89 4.98 4.98 r p1
np
243.59 426.89 m
4.98 4.97 l
o
np
243.59 431.86 m
4.98 -4.97 l
o
254.21 427.11 4.98 4.98 r p1
np
254.21 427.11 m
4.97 4.97 l
o
np
254.21 432.08 m
4.97 -4.97 l
o
264.82 427.94 4.98 4.98 r p1
np
264.82 427.94 m
4.98 4.97 l
o
np
264.82 432.91 m
4.98 -4.97 l
o
275.10 418.07 4.98 4.98 r p1
np
275.10 418.07 m
4.97 4.98 l
o
np
275.10 423.05 m
4.97 -4.98 l
o
285.71 420.19 4.98 4.98 r p1
np
285.71 420.19 m
4.98 4.98 l
o
np
285.71 425.17 m
4.98 -4.98 l
o
295.99 427.89 4.98 4.98 r p1
np
295.99 427.89 m
4.98 4.98 l
o
np
295.99 432.87 m
4.98 -4.98 l
o
306.61 432.94 4.98 4.98 r p1
np
306.61 432.94 m
4.97 4.97 l
o
np
306.61 437.91 m
4.97 -4.97 l
o
317.22 428.55 4.98 4.98 r p1
np
317.22 428.55 m
4.98 4.98 l
o
np
317.22 433.53 m
4.98 -4.98 l
o
326.81 423.35 4.98 4.98 r p1
np
326.81 423.35 m
4.98 4.98 l
o
np
326.81 428.33 m
4.98 -4.98 l
o
337.43 421.31 4.98 4.98 r p1
np
337.43 421.31 m
4.97 4.98 l
o
np
337.43 426.29 m
4.97 -4.98 l
o
347.70 420.72 4.98 4.98 r p1
np
347.70 420.72 m
4.98 4.98 l
o
np
347.70 425.70 m
4.98 -4.98 l
o
358.32 427.85 4.98 4.98 r p1
np
358.32 427.85 m
4.97 4.98 l
o
np
358.32 432.83 m
4.97 -4.98 l
o
368.59 424.15 4.98 4.98 r p1
np
368.59 424.15 m
4.98 4.97 l
o
np
368.59 429.12 m
4.98 -4.97 l
o
379.21 419.20 4.98 4.98 r p1
np
379.21 419.20 m
4.98 4.97 l
o
np
379.21 424.17 m
4.98 -4.97 l
o
389.83 425.90 4.98 4.98 r p1
np
389.83 425.90 m
4.97 4.97 l
o
np
389.83 430.87 m
4.97 -4.97 l
o
400.10 429.81 4.98 4.98 r p1
np
400.10 429.81 m
4.98 4.97 l
o
np
400.10 434.78 m
4.98 -4.97 l
o
410.72 427.31 4.98 4.98 r p1
np
410.72 427.31 m
4.97 4.97 l
o
np
410.72 432.28 m
4.97 -4.97 l
o
420.99 430.22 4.98 4.98 r p1
np
420.99 430.22 m
4.98 4.98 l
o
np
420.99 435.20 m
4.98 -4.98 l
o
431.61 427.30 4.98 4.98 r p1
np
431.61 427.30 m
4.97 4.98 l
o
np
431.61 432.28 m
4.97 -4.98 l
o
442.22 423.79 4.98 4.98 r p1
np
442.22 423.79 m
4.98 4.97 l
o
np
442.22 428.76 m
4.98 -4.97 l
o
452.16 426.45 4.98 4.98 r p1
np
452.16 426.45 m
4.97 4.98 l
o
np
452.16 431.43 m
4.97 -4.98 l
o
462.77 426.98 4.98 4.98 r p1
np
462.77 426.98 m
4.98 4.97 l
o
np
462.77 431.95 m
4.98 -4.97 l
o
473.05 431.44 4.98 4.98 r p1
np
473.05 431.44 m
4.97 4.97 l
o
np
473.05 436.41 m
4.97 -4.97 l
o
1.07 setlinewidth
[] 0 setdash
0 setlinecap
1.00 setmiterlimit
np
59.09 466.26 m
10.62 0.64 l
9.58 1.15 l
10.62 18.28 l
10.28 -13.61 l
10.61 -8.48 l
10.28 3.40 l
10.61 3.89 l
10.62 -2.49 l
10.27 -12.34 l
10.62 12.50 l
10.27 -4.44 l
10.62 2.73 l
10.62 3.73 l
9.59 -2.75 l
10.61 -10.18 l
10.28 10.20 l
10.61 -7.72 l
10.28 5.59 l
10.62 12.62 l
10.61 -7.15 l
10.28 -5.89 l
10.61 9.73 l
10.28 -2.81 l
10.61 -4.20 l
10.62 6.07 l
9.59 3.72 l
10.62 3.49 l
10.27 -9.00 l
10.62 -1.06 l
10.27 4.96 l
10.62 -1.41 l
10.61 0.52 l
10.28 4.77 l
10.61 -7.10 l
10.28 5.25 l
10.62 -8.58 l
10.61 3.75 l
9.93 4.66 l
10.62 -4.47 l
10.27 -1.07 l
o
1.07 setlinewidth
[ 2.13 2.13] 0 setdash
np
59.09 443.64 m
10.62 -9.49 l
9.58 -7.69 l
10.62 -1.01 l
10.28 7.99 l
10.61 -10.22 l
10.28 11.32 l
10.61 -23.26 l
10.62 18.64 l
10.27 -5.54 l
10.62 12.11 l
10.27 -22.00 l
10.62 17.67 l
10.62 -13.42 l
9.59 8.18 l
10.61 5.05 l
10.28 -2.48 l
10.61 -1.16 l
10.28 1.05 l
10.62 0.21 l
10.61 0.84 l
10.28 -9.87 l
10.61 2.12 l
10.28 7.70 l
10.61 5.05 l
10.62 -4.39 l
9.59 -5.20 l
10.62 -2.04 l
10.27 -0.59 l
10.62 7.13 l
10.27 -3.71 l
10.62 -4.94 l
10.61 6.69 l
10.28 3.92 l
10.61 -2.51 l
10.28 2.92 l
10.62 -2.92 l
10.61 -3.52 l
9.93 2.67 l
10.62 0.53 l
10.27 4.46 l
o
0.4980 0.4980 0.4980 srgb
1.07 setlinewidth
[] 0 setdash
1 setlinecap
10.00 setmiterlimit
38.27 407.53 458.09 82.56 r p1
0.00 0.00 595.28 496.06 cl
38.27 318.99 496.36 401.55 cl
/bg { 1 1 1 srgb } def
38.27 318.99 458.09 82.56 r p2
0.9804 0.9804 0.9804 srgb
1.07 setlinewidth
[] 0 setdash
0 setlinecap
1 setlinejoin
10.00 setmiterlimit
np
38.27 347.80 m
458.09 0 l
o
np
38.27 388.15 m
458.09 0 l
o
np
43.16 318.99 m
0 82.56 l
o
np
53.78 318.99 m
0 82.56 l
o
np
64.40 318.99 m
0 82.56 l
o
np
74.50 318.99 m
0 82.56 l
o
np
84.60 318.99 m
0 82.56 l
o
np
95.05 318.99 m
0 82.56 l
o
np
105.49 318.99 m
0 82.56 l
o
np
115.94 318.99 m
0 82.56 l
o
np
126.38 318.99 m
0 82.56 l
o
np
137.00 318.99 m
0 82.56 l
o
np
147.45 318.99 m
0 82.56 l
o
np
157.89 318.99 m
0 82.56 l
o
np
168.34 318.99 m
0 82.56 l
o
np
178.78 318.99 m
0 82.56 l
o
np
189.40 318.99 m
0 82.56 l
o
np
199.50 318.99 m
0 82.56 l
o
np
209.61 318.99 m
0 82.56 l
o
np
220.05 318.99 m
0 82.56 l
o
np
230.50 318.99 m
0 82.56 l
o
np
240.94 318.99 m
0 82.56 l
o
np
251.39 318.99 m
0 82.56 l
o
np
262.00 318.99 m
0 82.56 l
o
np
272.45 318.99 m
0 82.56 l
o
np
282.89 318.99 m
0 82.56 l
o
np
293.34 318.99 m
0 82.56 l
o
np
303.79 318.99 m
0 82.56 l
o
np
314.40 318.99 m
0 82.56 l
o
np
324.50 318.99 m
0 82.56 l
o
np
334.61 318.99 m
0 82.56 l
o
np
345.05 318.99 m
0 82.56 l
o
np
355.50 318.99 m
0 82.56 l
o
np
365.94 318.99 m
0 82.56 l
o
np
376.39 318.99 m
0 82.56 l
o
np
387.01 318.99 m
0 82.56 l
o
np
397.45 318.99 m
0 82.56 l
o
np
407.90 318.99 m
0 82.56 l
o
np
418.34 318.99 m
0 82.56 l
o
np
428.79 318.99 m
0 82.56 l
o
np
439.40 318.99 m
0 82.56 l
o
np
449.68 318.99 m
0 82.56 l
o
np
459.95 318.99 m
0 82.56 l
o
np
470.40 318.99 m
0 82.56 l
o
np
480.84 318.99 m
0 82.56 l
o
np
491.46 318.99 m
0 82.56 l
o
0.8980 0.8980 0.8980 srgb
0.43 setlinewidth
[] 0 setdash
np
38.27 327.62 m
458.09 0 l
o
np
38.27 367.97 m
458.09 0 l
o
np
48.47 318.99 m
0 82.56 l
o
np
59.09 318.99 m
0 82.56 l
o
np
69.71 318.99 m
0 82.56 l
o
np
79.29 318.99 m
0 82.56 l
o
np
89.91 318.99 m
0 82.56 l
o
np
100.19 318.99 m
0 82.56 l
o
np
110.80 318.99 m
0 82.56 l
o
np
121.08 318.99 m
0 82.56 l
o
np
131.69 318.99 m
0 82.56 l
o
np
142.31 318.99 m
0 82.56 l
o
np
152.58 318.99 m
0 82.56 l
o
np
163.20 318.99 m
0 82.56 l
o
np
173.47 318.99 m
0 82.56 l
o
np
184.09 318.99 m
0 82.56 l
o
np
194.71 318.99 m
0 82.56 l
o
np
204.30 318.99 m
0 82.56 l
o
np
214.91 318.99 m
0 82.56 l
o
np
225.19 318.99 m
0 82.56 l
o
np
235.80 318.99 m
0 82.56 l
o
np
246.08 318.99 m
0 82.56 l
o
np
256.70 318.99 m
0 82.56 l
o
np
267.31 318.99 m
0 82.56 l
o
np
277.59 318.99 m
0 82.56 l
o
np
288.20 318.99 m
0 82.56 l
o
np
298.48 318.99 m
0 82.56 l
o
np
309.09 318.99 m
0 82.56 l
o
np
319.71 318.99 m
0 82.56 l
o
np
329.30 318.99 m
0 82.56 l
o
np
339.92 318.99 m
0 82.56 l
o
np
350.19 318.99 m
0 82.56 l
o
np
360.81 318.99 m
0 82.56 l
o
np
371.08 318.99 m
0 82.56 l
o
np
381.70 318.99 m
0 82.56 l
o
np
392.31 318.99 m
0 82.56 l
o
np
402.59 318.99 m
0 82.56 l
o
np
413.20 318.99 m
0 82.56 l
o
np
423.48 318.99 m
0 82.56 l
o
np
434.10 318.99 m
0 82.56 l
o
np
444.71 318.99 m
0 82.56 l
o
np
454.64 318.99 m
0 82.56 l
o
np
465.26 318.99 m
0 82.56 l
o
np
475.53 318.99 m
0 82.56 l
o
np
486.15 318.99 m
0 82.56 l
o
0 0 0 srgb
0.71 setlinewidth
[] 0 setdash
1 setlinecap
np
55.57 397.80 m
7.04 0 l
o
np
59.09 394.28 m
0 7.04 l
o
np
66.19 396.06 m
7.03 0 l
o
np
69.71 392.54 m
0 7.04 l
o
np
75.78 390.95 m
7.03 0 l
o
np
79.29 387.43 m
0 7.04 l
o
np
86.39 389.48 m
7.04 0 l
o
np
89.91 385.96 m
0 7.04 l
o
np
96.67 393.68 m
7.03 0 l
o
np
100.19 390.16 m
0 7.04 l
o
np
107.28 396.43 m
7.04 0 l
o
np
110.80 392.91 m
0 7.04 l
o
np
117.56 392.30 m
7.04 0 l
o
np
121.08 388.78 m
0 7.04 l
o
np
128.17 392.76 m
7.04 0 l
o
np
131.69 389.24 m
0 7.04 l
o
np
138.79 385.07 m
7.04 0 l
o
np
142.31 381.55 m
0 7.04 l
o
np
149.06 390.36 m
7.04 0 l
o
np
152.58 386.85 m
0 7.03 l
o
np
159.68 394.80 m
7.04 0 l
o
np
163.20 391.28 m
0 7.04 l
o
np
169.96 388.02 m
7.03 0 l
o
np
173.47 384.50 m
0 7.04 l
o
np
180.57 390.16 m
7.04 0 l
o
np
184.09 386.64 m
0 7.04 l
o
np
191.19 383.30 m
7.04 0 l
o
np
194.71 379.78 m
0 7.04 l
o
np
200.78 389.78 m
7.04 0 l
o
np
204.30 386.26 m
0 7.04 l
o
np
211.39 386.22 m
7.04 0 l
o
np
214.91 382.70 m
0 7.04 l
o
np
221.67 390.35 m
7.04 0 l
o
np
225.19 386.84 m
0 7.03 l
o
np
232.29 388.52 m
7.03 0 l
o
np
235.80 385.00 m
0 7.04 l
o
np
242.56 390.49 m
7.04 0 l
o
np
246.08 386.97 m
0 7.03 l
o
np
253.18 389.09 m
7.03 0 l
o
np
256.70 385.57 m
0 7.04 l
o
np
263.79 386.88 m
7.04 0 l
o
np
267.31 383.36 m
0 7.04 l
o
np
274.07 391.14 m
7.03 0 l
o
np
277.59 387.62 m
0 7.04 l
o
np
284.68 392.54 m
7.04 0 l
o
np
288.20 389.02 m
0 7.03 l
o
np
294.96 379.97 m
7.04 0 l
o
np
298.48 376.45 m
0 7.04 l
o
np
305.57 395.06 m
7.04 0 l
o
np
309.09 391.55 m
0 7.03 l
o
np
316.19 393.40 m
7.04 0 l
o
np
319.71 389.88 m
0 7.04 l
o
np
325.78 389.33 m
7.04 0 l
o
np
329.30 385.81 m
0 7.04 l
o
np
336.40 387.84 m
7.03 0 l
o
np
339.92 384.32 m
0 7.04 l
o
np
346.67 387.71 m
7.04 0 l
o
np
350.19 384.19 m
0 7.04 l
o
np
357.29 386.84 m
7.04 0 l
o
np
360.81 383.32 m
0 7.04 l
o
np
367.56 392.88 m
7.04 0 l
o
np
371.08 389.36 m
0 7.03 l
o
np
378.18 390.68 m
7.04 0 l
o
np
381.70 387.17 m
0 7.03 l
o
np
388.80 385.77 m
7.03 0 l
o
np
392.31 382.25 m
0 7.04 l
o
np
399.07 388.03 m
7.04 0 l
o
np
402.59 384.51 m
0 7.04 l
o
np
409.69 379.64 m
7.03 0 l
o
np
413.20 376.12 m
0 7.04 l
o
np
419.96 385.99 m
7.04 0 l
o
np
423.48 382.47 m
0 7.04 l
o
np
430.58 385.77 m
7.03 0 l
o
np
434.10 382.25 m
0 7.04 l
o
np
441.19 385.46 m
7.04 0 l
o
np
444.71 381.94 m
0 7.03 l
o
np
451.12 389.99 m
7.04 0 l
o
np
454.64 386.47 m
0 7.04 l
o
np
461.74 385.92 m
7.04 0 l
o
np
465.26 382.40 m
0 7.04 l
o
np
472.02 381.71 m
7.03 0 l
o
np
475.53 378.19 m
0 7.04 l
o
56.60 356.11 4.98 4.98 r p1
np
56.60 356.11 m
4.98 4.98 l
o
np
56.60 361.09 m
4.98 -4.98 l
o
67.22 356.95 4.98 4.98 r p1
np
67.22 356.95 m
4.97 4.98 l
o
np
67.22 361.93 m
4.97 -4.98 l
o
76.81 354.74 4.98 4.98 r p1
np
76.81 354.74 m
4.97 4.98 l
o
np
76.81 359.72 m
4.97 -4.98 l
o
87.42 355.50 4.98 4.98 r p1
np
87.42 355.50 m
4.98 4.97 l
o
np
87.42 360.47 m
4.98 -4.97 l
o
97.70 355.39 4.98 4.98 r p1
np
97.70 355.39 m
4.97 4.97 l
o
np
97.70 360.36 m
4.97 -4.97 l
o
108.31 356.61 4.98 4.98 r p1
np
108.31 356.61 m
4.98 4.98 l
o
np
108.31 361.59 m
4.98 -4.98 l
o
118.59 354.41 4.98 4.98 r p1
np
118.59 354.41 m
4.97 4.98 l
o
np
118.59 359.39 m
4.97 -4.98 l
o
129.20 366.66 4.98 4.98 r p1
np
129.20 366.66 m
4.98 4.98 l
o
np
129.20 371.64 m
4.98 -4.98 l
o
139.82 356.47 4.98 4.98 r p1
np
139.82 356.47 m
4.98 4.98 l
o
np
139.82 361.45 m
4.98 -4.98 l
o
150.10 368.56 4.98 4.98 r p1
np
150.10 368.56 m
4.97 4.98 l
o
np
150.10 373.54 m
4.97 -4.98 l
o
160.71 366.40 4.98 4.98 r p1
np
160.71 366.40 m
4.98 4.98 l
o
np
160.71 371.38 m
4.98 -4.98 l
o
170.99 349.77 4.98 4.98 r p1
np
170.99 349.77 m
4.97 4.97 l
o
np
170.99 354.74 m
4.97 -4.97 l
o
181.60 365.19 4.98 4.98 r p1
np
181.60 365.19 m
4.98 4.97 l
o
np
181.60 370.16 m
4.98 -4.97 l
o
192.22 347.69 4.98 4.98 r p1
np
192.22 347.69 m
4.98 4.98 l
o
np
192.22 352.67 m
4.98 -4.98 l
o
201.81 356.89 4.98 4.98 r p1
np
201.81 356.89 m
4.98 4.97 l
o
np
201.81 361.86 m
4.98 -4.97 l
o
212.43 352.54 4.98 4.98 r p1
np
212.43 352.54 m
4.97 4.97 l
o
np
212.43 357.51 m
4.97 -4.97 l
o
222.70 357.40 4.98 4.98 r p1
np
222.70 357.40 m
4.98 4.97 l
o
np
222.70 362.37 m
4.98 -4.97 l
o
233.32 351.63 4.98 4.98 r p1
np
233.32 351.63 m
4.97 4.97 l
o
np
233.32 356.60 m
4.97 -4.97 l
o
243.59 351.17 4.98 4.98 r p1
np
243.59 351.17 m
4.98 4.97 l
o
np
243.59 356.14 m
4.98 -4.97 l
o
254.21 356.89 4.98 4.98 r p1
np
254.21 356.89 m
4.97 4.97 l
o
np
254.21 361.86 m
4.97 -4.97 l
o
264.82 356.59 4.98 4.98 r p1
np
264.82 356.59 m
4.98 4.98 l
o
np
264.82 361.57 m
4.98 -4.98 l
o
275.10 359.32 4.98 4.98 r p1
np
275.10 359.32 m
4.97 4.98 l
o
np
275.10 364.30 m
4.97 -4.98 l
o
285.71 372.31 4.98 4.98 r p1
np
285.71 372.31 m
4.98 4.97 l
o
np
285.71 377.28 m
4.98 -4.97 l
o
295.99 339.33 4.98 4.98 r p1
np
295.99 339.33 m
4.98 4.98 l
o
np
295.99 344.31 m
4.98 -4.98 l
o
306.61 354.99 4.98 4.98 r p1
np
306.61 354.99 m
4.97 4.98 l
o
np
306.61 359.97 m
4.97 -4.98 l
o
317.22 355.80 4.98 4.98 r p1
np
317.22 355.80 m
4.98 4.97 l
o
np
317.22 360.77 m
4.98 -4.97 l
o
326.81 364.49 4.98 4.98 r p1
np
326.81 364.49 m
4.98 4.97 l
o
np
326.81 369.46 m
4.98 -4.97 l
o
337.43 353.82 4.98 4.98 r p1
np
337.43 353.82 m
4.97 4.98 l
o
np
337.43 358.80 m
4.97 -4.98 l
o
347.70 356.61 4.98 4.98 r p1
np
347.70 356.61 m
4.98 4.97 l
o
np
347.70 361.58 m
4.98 -4.97 l
o
358.32 357.28 4.98 4.98 r p1
np
358.32 357.28 m
4.97 4.98 l
o
np
358.32 362.26 m
4.97 -4.98 l
o
368.59 356.00 4.98 4.98 r p1
np
368.59 356.00 m
4.98 4.98 l
o
np
368.59 360.98 m
4.98 -4.98 l
o
379.21 330.34 4.98 4.98 r p1
np
379.21 330.34 m
4.98 4.98 l
o
np
379.21 335.32 m
4.98 -4.98 l
o
389.83 356.05 4.98 4.98 r p1
np
389.83 356.05 m
4.97 4.97 l
o
np
389.83 361.02 m
4.97 -4.97 l
o
400.10 350.99 4.98 4.98 r p1
np
400.10 350.99 m
4.98 4.98 l
o
np
400.10 355.97 m
4.98 -4.98 l
o
410.72 320.26 4.98 4.98 r p1
np
410.72 320.26 m
4.97 4.97 l
o
np
410.72 325.23 m
4.97 -4.97 l
o
420.99 351.90 4.98 4.98 r p1
np
420.99 351.90 m
4.98 4.97 l
o
np
420.99 356.87 m
4.98 -4.97 l
o
431.61 354.84 4.98 4.98 r p1
np
431.61 354.84 m
4.97 4.98 l
o
np
431.61 359.82 m
4.97 -4.98 l
o
442.22 359.44 4.98 4.98 r p1
np
442.22 359.44 m
4.98 4.97 l
o
np
442.22 364.41 m
4.98 -4.97 l
o
462.77 347.70 4.98 4.98 r p1
np
462.77 347.70 m
4.98 4.97 l
o
np
462.77 352.67 m
4.98 -4.97 l
o
473.05 345.15 4.98 4.98 r p1
np
473.05 345.15 m
4.97 4.98 l
o
np
473.05 350.13 m
4.97 -4.98 l
o
1.07 setlinewidth
[] 0 setdash
0 setlinecap
1.00 setmiterlimit
np
59.09 397.80 m
10.62 -1.74 l
9.58 -5.11 l
10.62 -1.47 l
10.28 4.20 l
10.61 2.75 l
10.28 -4.13 l
10.61 0.46 l
10.62 -7.69 l
10.27 5.29 l
10.62 4.44 l
10.27 -6.78 l
10.62 2.14 l
10.62 -6.86 l
9.59 6.48 l
10.61 -3.56 l
10.28 4.13 l
10.61 -1.83 l
10.28 1.97 l
10.62 -1.40 l
10.61 -2.21 l
10.28 4.26 l
10.61 1.40 l
10.28 -12.57 l
10.61 15.09 l
10.62 -1.66 l
9.59 -4.07 l
10.62 -1.49 l
10.27 -0.13 l
10.62 -0.87 l
10.27 6.04 l
10.62 -2.20 l
10.61 -4.91 l
10.28 2.26 l
10.61 -8.39 l
10.28 6.35 l
10.62 -0.22 l
10.61 -0.31 l
9.93 4.53 l
10.62 -4.07 l
10.27 -4.21 l
o
1.07 setlinewidth
[ 2.13 2.13] 0 setdash
np
59.09 358.60 m
10.62 0.84 l
9.58 -2.21 l
10.62 0.75 l
10.28 -0.11 l
10.61 1.23 l
10.28 -2.20 l
10.61 12.25 l
10.62 -10.19 l
10.27 12.09 l
10.62 -2.16 l
10.27 -16.64 l
10.62 15.42 l
10.62 -17.49 l
9.59 9.20 l
10.61 -4.35 l
10.28 4.85 l
10.61 -5.76 l
10.28 -0.47 l
10.62 5.73 l
10.61 -0.30 l
10.28 2.73 l
10.61 12.99 l
10.28 -32.98 l
10.61 15.66 l
10.62 0.80 l
9.59 8.69 l
10.62 -10.66 l
10.27 2.79 l
10.62 0.67 l
10.27 -1.28 l
10.62 -25.66 l
10.61 25.70 l
10.28 -5.05 l
10.61 -30.74 l
10.28 31.64 l
10.62 2.95 l
10.61 4.60 l
20.55 -11.74 l
10.27 -2.55 l
o
0.4980 0.4980 0.4980 srgb
1.07 setlinewidth
[] 0 setdash
1 setlinecap
10.00 setmiterlimit
38.27 318.99 458.09 82.56 r p1
0.00 0.00 595.28 496.06 cl
38.27 230.45 496.36 313.01 cl
/bg { 1 1 1 srgb } def
38.27 230.45 458.09 82.56 r p2
0.9804 0.9804 0.9804 srgb
1.07 setlinewidth
[] 0 setdash
0 setlinecap
1 setlinejoin
10.00 setmiterlimit
np
43.16 230.45 m
0 82.56 l
o
np
53.78 230.45 m
0 82.56 l
o
np
64.40 230.45 m
0 82.56 l
o
np
74.50 230.45 m
0 82.56 l
o
np
84.60 230.45 m
0 82.56 l
o
np
95.05 230.45 m
0 82.56 l
o
np
105.49 230.45 m
0 82.56 l
o
np
115.94 230.45 m
0 82.56 l
o
np
126.38 230.45 m
0 82.56 l
o
np
137.00 230.45 m
0 82.56 l
o
np
147.45 230.45 m
0 82.56 l
o
np
157.89 230.45 m
0 82.56 l
o
np
168.34 230.45 m
0 82.56 l
o
np
178.78 230.45 m
0 82.56 l
o
np
189.40 230.45 m
0 82.56 l
o
np
199.50 230.45 m
0 82.56 l
o
np
209.61 230.45 m
0 82.56 l
o
np
220.05 230.45 m
0 82.56 l
o
np
230.50 230.45 m
0 82.56 l
o
np
240.94 230.45 m
0 82.56 l
o
np
251.39 230.45 m
0 82.56 l
o
np
262.00 230.45 m
0 82.56 l
o
np
272.45 230.45 m
0 82.56 l
o
np
282.89 230.45 m
0 82.56 l
o
np
293.34 230.45 m
0 82.56 l
o
np
303.79 230.45 m
0 82.56 l
o
np
314.40 230.45 m
0 82.56 l
o
np
324.50 230.45 m
0 82.56 l
o
np
334.61 230.45 m
0 82.56 l
o
np
345.05 230.45 m
0 82.56 l
o
np
355.50 230.45 m
0 82.56 l
o
np
365.94 230.45 m
0 82.56 l
o
np
376.39 230.45 m
0 82.56 l
o
np
387.01 230.45 m
0 82.56 l
o
np
397.45 230.45 m
0 82.56 l
o
np
407.90 230.45 m
0 82.56 l
o
np
418.34 230.45 m
0 82.56 l
o
np
428.79 230.45 m
0 82.56 l
o
np
439.40 230.45 m
0 82.56 l
o
np
449.68 230.45 m
0 82.56 l
o
np
459.95 230.45 m
0 82.56 l
o
np
470.40 230.45 m
0 82.56 l
o
np
480.84 230.45 m
0 82.56 l
o
np
491.46 230.45 m
0 82.56 l
o
0.8980 0.8980 0.8980 srgb
0.43 setlinewidth
[] 0 setdash
np
38.27 271.08 m
458.09 0 l
o
np
48.47 230.45 m
0 82.56 l
o
np
59.09 230.45 m
0 82.56 l
o
np
69.71 230.45 m
0 82.56 l
o
np
79.29 230.45 m
0 82.56 l
o
np
89.91 230.45 m
0 82.56 l
o
np
100.19 230.45 m
0 82.56 l
o
np
110.80 230.45 m
0 82.56 l
o
np
121.08 230.45 m
0 82.56 l
o
np
131.69 230.45 m
0 82.56 l
o
np
142.31 230.45 m
0 82.56 l
o
np
152.58 230.45 m
0 82.56 l
o
np
163.20 230.45 m
0 82.56 l
o
np
173.47 230.45 m
0 82.56 l
o
np
184.09 230.45 m
0 82.56 l
o
np
194.71 230.45 m
0 82.56 l
o
np
204.30 230.45 m
0 82.56 l
o
np
214.91 230.45 m
0 82.56 l
o
np
225.19 230.45 m
0 82.56 l
o
np
235.80 230.45 m
0 82.56 l
o
np
246.08 230.45 m
0 82.56 l
o
np
256.70 230.45 m
0 82.56 l
o
np
267.31 230.45 m
0 82.56 l
o
np
277.59 230.45 m
0 82.56 l
o
np
288.20 230.45 m
0 82.56 l
o
np
298.48 230.45 m
0 82.56 l
o
np
309.09 230.45 m
0 82.56 l
o
np
319.71 230.45 m
0 82.56 l
o
np
329.30 230.45 m
0 82.56 l
o
np
339.92 230.45 m
0 82.56 l
o
np
350.19 230.45 m
0 82.56 l
o
np
360.81 230.45 m
0 82.56 l
o
np
371.08 230.45 m
0 82.56 l
o
np
381.70 230.45 m
0 82.56 l
o
np
392.31 230.45 m
0 82.56 l
o
np
402.59 230.45 m
0 82.56 l
o
np
413.20 230.45 m
0 82.56 l
o
np
423.48 230.45 m
0 82.56 l
o
np
434.10 230.45 m
0 82.56 l
o
np
444.71 230.45 m
0 82.56 l
o
np
454.64 230.45 m
0 82.56 l
o
np
465.26 230.45 m
0 82.56 l
o
np
475.53 230.45 m
0 82.56 l
o
np
486.15 230.45 m
0 82.56 l
o
0 0 0 srgb
0.71 setlinewidth
[] 0 setdash
1 setlinecap
np
55.57 293.01 m
7.04 0 l
o
np
59.09 289.49 m
0 7.04 l
o
np
66.19 286.64 m
7.03 0 l
o
np
69.71 283.12 m
0 7.03 l
o
np
75.78 291.57 m
7.03 0 l
o
np
79.29 288.05 m
0 7.04 l
o
np
86.39 309.26 m
7.04 0 l
o
np
89.91 305.74 m
0 7.04 l
o
np
96.67 289.50 m
7.03 0 l
o
np
100.19 285.98 m
0 7.04 l
o
np
107.28 280.23 m
7.04 0 l
o
np
110.80 276.71 m
0 7.04 l
o
np
117.56 298.90 m
7.04 0 l
o
np
121.08 295.39 m
0 7.03 l
o
np
128.17 298.86 m
7.04 0 l
o
np
131.69 295.34 m
0 7.04 l
o
np
138.79 309.14 m
7.04 0 l
o
np
142.31 305.62 m
0 7.04 l
o
np
149.06 261.92 m
7.04 0 l
o
np
152.58 258.40 m
0 7.03 l
o
np
159.68 295.12 m
7.04 0 l
o
np
163.20 291.60 m
0 7.04 l
o
np
169.96 276.17 m
7.03 0 l
o
np
173.47 272.65 m
0 7.04 l
o
np
180.57 286.77 m
7.04 0 l
o
np
184.09 283.26 m
0 7.03 l
o
np
191.19 287.65 m
7.04 0 l
o
np
194.71 284.13 m
0 7.04 l
o
np
200.78 296.55 m
7.04 0 l
o
np
204.30 293.03 m
0 7.04 l
o
np
211.39 293.39 m
7.04 0 l
o
np
214.91 289.87 m
0 7.03 l
o
np
221.67 285.88 m
7.04 0 l
o
np
225.19 282.36 m
0 7.04 l
o
np
232.29 277.77 m
7.03 0 l
o
np
235.80 274.25 m
0 7.03 l
o
np
242.56 273.13 m
7.04 0 l
o
np
246.08 269.61 m
0 7.04 l
o
np
253.18 291.28 m
7.03 0 l
o
np
256.70 287.76 m
0 7.03 l
o
np
263.79 286.38 m
7.04 0 l
o
np
267.31 282.86 m
0 7.04 l
o
np
274.07 287.48 m
7.03 0 l
o
np
277.59 283.96 m
0 7.04 l
o
np
284.68 297.54 m
7.04 0 l
o
np
288.20 294.02 m
0 7.04 l
o
np
294.96 279.10 m
7.04 0 l
o
np
298.48 275.58 m
0 7.04 l
o
np
305.57 289.21 m
7.04 0 l
o
np
309.09 285.69 m
0 7.04 l
o
np
316.19 288.89 m
7.04 0 l
o
np
319.71 285.37 m
0 7.04 l
o
np
325.78 278.93 m
7.04 0 l
o
np
329.30 275.42 m
0 7.03 l
o
np
336.40 293.70 m
7.03 0 l
o
np
339.92 290.18 m
0 7.04 l
o
np
346.67 289.05 m
7.04 0 l
o
np
350.19 285.53 m
0 7.03 l
o
np
357.29 288.53 m
7.04 0 l
o
np
360.81 285.01 m
0 7.04 l
o
np
367.56 286.88 m
7.04 0 l
o
np
371.08 283.36 m
0 7.03 l
o
np
378.18 282.04 m
7.04 0 l
o
np
381.70 278.52 m
0 7.04 l
o
np
388.80 278.17 m
7.03 0 l
o
np
392.31 274.65 m
0 7.04 l
o
np
399.07 280.86 m
7.04 0 l
o
np
402.59 277.34 m
0 7.04 l
o
np
409.69 287.53 m
7.03 0 l
o
np
413.20 284.01 m
0 7.04 l
o
np
419.96 286.81 m
7.04 0 l
o
np
423.48 283.29 m
0 7.04 l
o
np
430.58 288.12 m
7.03 0 l
o
np
434.10 284.60 m
0 7.04 l
o
np
441.19 288.45 m
7.04 0 l
o
np
444.71 284.93 m
0 7.04 l
o
np
451.12 265.55 m
7.04 0 l
o
np
454.64 262.03 m
0 7.04 l
o
np
461.74 293.48 m
7.04 0 l
o
np
465.26 289.97 m
0 7.03 l
o
np
472.02 295.94 m
7.03 0 l
o
np
475.53 292.42 m
0 7.04 l
o
56.60 237.00 4.98 4.98 r p1
np
56.60 237.00 m
4.98 4.98 l
o
np
56.60 241.98 m
4.98 -4.98 l
o
67.22 243.60 4.98 4.98 r p1
np
67.22 243.60 m
4.97 4.97 l
o
np
67.22 248.57 m
4.97 -4.97 l
o
76.81 237.06 4.98 4.98 r p1
np
76.81 237.06 m
4.97 4.98 l
o
np
76.81 242.04 m
4.97 -4.98 l
o
87.42 249.90 4.98 4.98 r p1
np
87.42 249.90 m
4.98 4.97 l
o
np
87.42 254.87 m
4.98 -4.97 l
o
97.70 257.83 4.98 4.98 r p1
np
97.70 257.83 m
4.97 4.97 l
o
np
97.70 262.80 m
4.97 -4.97 l
o
108.31 231.72 4.98 4.98 r p1
np
108.31 231.72 m
4.98 4.98 l
o
np
108.31 236.70 m
4.98 -4.98 l
o
118.59 241.03 4.98 4.98 r p1
np
118.59 241.03 m
4.97 4.98 l
o
np
118.59 246.01 m
4.97 -4.98 l
o
129.20 235.12 4.98 4.98 r p1
np
129.20 235.12 m
4.98 4.97 l
o
np
129.20 240.09 m
4.98 -4.97 l
o
139.82 254.16 4.98 4.98 r p1
np
139.82 254.16 m
4.98 4.98 l
o
np
139.82 259.14 m
4.98 -4.98 l
o
150.10 240.11 4.98 4.98 r p1
np
150.10 240.11 m
4.97 4.97 l
o
np
150.10 245.08 m
4.97 -4.97 l
o
160.71 257.06 4.98 4.98 r p1
np
160.71 257.06 m
4.98 4.98 l
o
np
160.71 262.04 m
4.98 -4.98 l
o
170.99 232.06 4.98 4.98 r p1
np
170.99 232.06 m
4.97 4.98 l
o
np
170.99 237.04 m
4.97 -4.98 l
o
181.60 244.28 4.98 4.98 r p1
np
181.60 244.28 m
4.98 4.98 l
o
np
181.60 249.26 m
4.98 -4.98 l
o
192.22 254.12 4.98 4.98 r p1
np
192.22 254.12 m
4.98 4.98 l
o
np
192.22 259.10 m
4.98 -4.98 l
o
201.81 237.05 4.98 4.98 r p1
np
201.81 237.05 m
4.98 4.98 l
o
np
201.81 242.03 m
4.98 -4.98 l
o
212.43 250.85 4.98 4.98 r p1
np
212.43 250.85 m
4.97 4.97 l
o
np
212.43 255.82 m
4.97 -4.97 l
o
222.70 241.09 4.98 4.98 r p1
np
222.70 241.09 m
4.98 4.97 l
o
np
222.70 246.06 m
4.98 -4.97 l
o
233.32 251.13 4.98 4.98 r p1
np
233.32 251.13 m
4.97 4.98 l
o
np
233.32 256.11 m
4.97 -4.98 l
o
243.59 239.05 4.98 4.98 r p1
np
243.59 239.05 m
4.98 4.98 l
o
np
243.59 244.03 m
4.98 -4.98 l
o
254.21 237.91 4.98 4.98 r p1
np
254.21 237.91 m
4.97 4.98 l
o
np
254.21 242.89 m
4.97 -4.98 l
o
264.82 240.82 4.98 4.98 r p1
np
264.82 240.82 m
4.98 4.98 l
o
np
264.82 245.80 m
4.98 -4.98 l
o
275.10 245.40 4.98 4.98 r p1
np
275.10 245.40 m
4.97 4.98 l
o
np
275.10 250.38 m
4.97 -4.98 l
o
285.71 258.79 4.98 4.98 r p1
np
285.71 258.79 m
4.98 4.98 l
o
np
285.71 263.77 m
4.98 -4.98 l
o
295.99 251.10 4.98 4.98 r p1
np
295.99 251.10 m
4.98 4.97 l
o
np
295.99 256.07 m
4.98 -4.97 l
o
306.61 248.80 4.98 4.98 r p1
np
306.61 248.80 m
4.97 4.97 l
o
np
306.61 253.77 m
4.97 -4.97 l
o
317.22 251.43 4.98 4.98 r p1
np
317.22 251.43 m
4.98 4.98 l
o
np
317.22 256.41 m
4.98 -4.98 l
o
326.81 252.78 4.98 4.98 r p1
np
326.81 252.78 m
4.98 4.98 l
o
np
326.81 257.76 m
4.98 -4.98 l
o
337.43 242.75 4.98 4.98 r p1
np
337.43 242.75 m
4.97 4.97 l
o
np
337.43 247.72 m
4.97 -4.97 l
o
347.70 247.84 4.98 4.98 r p1
np
347.70 247.84 m
4.98 4.98 l
o
np
347.70 252.82 m
4.98 -4.98 l
o
358.32 247.11 4.98 4.98 r p1
np
358.32 247.11 m
4.97 4.98 l
o
np
358.32 252.09 m
4.97 -4.98 l
o
368.59 245.81 4.98 4.98 r p1
np
368.59 245.81 m
4.98 4.98 l
o
np
368.59 250.79 m
4.98 -4.98 l
o
379.21 238.17 4.98 4.98 r p1
np
379.21 238.17 m
4.98 4.98 l
o
np
379.21 243.15 m
4.98 -4.98 l
o
389.83 242.57 4.98 4.98 r p1
np
389.83 242.57 m
4.97 4.98 l
o
np
389.83 247.55 m
4.97 -4.98 l
o
400.10 250.22 4.98 4.98 r p1
np
400.10 250.22 m
4.98 4.98 l
o
np
400.10 255.20 m
4.98 -4.98 l
o
410.72 246.01 4.98 4.98 r p1
np
410.72 246.01 m
4.97 4.97 l
o
np
410.72 250.98 m
4.97 -4.97 l
o
420.99 247.42 4.98 4.98 r p1
np
420.99 247.42 m
4.98 4.97 l
o
np
420.99 252.39 m
4.98 -4.97 l
o
431.61 252.69 4.98 4.98 r p1
np
431.61 252.69 m
4.97 4.98 l
o
np
431.61 257.67 m
4.97 -4.98 l
o
442.22 249.45 4.98 4.98 r p1
np
442.22 249.45 m
4.98 4.98 l
o
np
442.22 254.43 m
4.98 -4.98 l
o
452.16 255.07 4.98 4.98 r p1
np
452.16 255.07 m
4.97 4.98 l
o
np
452.16 260.05 m
4.97 -4.98 l
o
462.77 243.84 4.98 4.98 r p1
np
462.77 243.84 m
4.98 4.97 l
o
np
462.77 248.81 m
4.98 -4.97 l
o
473.05 244.87 4.98 4.98 r p1
np
473.05 244.87 m
4.97 4.98 l
o
np
473.05 249.85 m
4.97 -4.98 l
o
1.07 setlinewidth
[] 0 setdash
0 setlinecap
1.00 setmiterlimit
np
59.09 293.01 m
10.62 -6.37 l
9.58 4.93 l
10.62 17.69 l
10.28 -19.76 l
10.61 -9.27 l
10.28 18.67 l
10.61 -0.04 l
10.62 10.28 l
10.27 -47.22 l
10.62 33.20 l
10.27 -18.95 l
10.62 10.60 l
10.62 0.88 l
9.59 8.90 l
10.61 -3.16 l
10.28 -7.51 l
10.61 -8.11 l
10.28 -4.64 l
10.62 18.15 l
10.61 -4.90 l
10.28 1.10 l
10.61 10.06 l
10.28 -18.44 l
10.61 10.11 l
10.62 -0.32 l
9.59 -9.96 l
10.62 14.77 l
10.27 -4.65 l
10.62 -0.52 l
10.27 -1.65 l
10.62 -4.84 l
10.61 -3.87 l
10.28 2.69 l
10.61 6.67 l
10.28 -0.72 l
10.62 1.31 l
10.61 0.33 l
9.93 -22.90 l
10.62 27.93 l
10.27 2.46 l
o
1.07 setlinewidth
[ 2.13 2.13] 0 setdash
np
59.09 239.49 m
10.62 6.59 l
9.58 -6.53 l
10.62 12.84 l
10.28 7.93 l
10.61 -26.11 l
10.28 9.31 l
10.61 -5.92 l
10.62 19.05 l
10.27 -14.06 l
10.62 16.96 l
10.27 -25.00 l
10.62 12.22 l
10.62 9.84 l
9.59 -17.07 l
10.61 13.80 l
10.28 -9.77 l
10.61 10.05 l
10.28 -12.08 l
10.62 -1.14 l
10.61 2.91 l
10.28 4.58 l
10.61 13.39 l
10.28 -7.69 l
10.61 -2.30 l
10.62 2.63 l
9.59 1.35 l
10.62 -10.03 l
10.27 5.09 l
10.62 -0.73 l
10.27 -1.30 l
10.62 -7.64 l
10.61 4.40 l
10.28 7.65 l
10.61 -4.21 l
10.28 1.41 l
10.62 5.27 l
10.61 -3.24 l
9.93 5.62 l
10.62 -11.23 l
10.27 1.03 l
o
0.4980 0.4980 0.4980 srgb
1.07 setlinewidth
[] 0 setdash
1 setlinecap
10.00 setmiterlimit
38.27 230.45 458.09 82.56 r p1
0.00 0.00 595.28 496.06 cl
38.27 141.92 496.36 224.48 cl
/bg { 1 1 1 srgb } def
38.27 141.92 458.09 82.56 r p2
0.9804 0.9804 0.9804 srgb
1.07 setlinewidth
[] 0 setdash
0 setlinecap
1 setlinejoin
10.00 setmiterlimit
np
43.16 141.92 m
0 82.56 l
o
np
53.78 141.92 m
0 82.56 l
o
np
64.40 141.92 m
0 82.56 l
o
np
74.50 141.92 m
0 82.56 l
o
np
84.60 141.92 m
0 82.56 l
o
np
95.05 141.92 m
0 82.56 l
o
np
105.49 141.92 m
0 82.56 l
o
np
115.94 141.92 m
0 82.56 l
o
np
126.38 141.92 m
0 82.56 l
o
np
137.00 141.92 m
0 82.56 l
o
np
147.45 141.92 m
0 82.56 l
o
np
157.89 141.92 m
0 82.56 l
o
np
168.34 141.92 m
0 82.56 l
o
np
178.78 141.92 m
0 82.56 l
o
np
189.40 141.92 m
0 82.56 l
o
np
199.50 141.92 m
0 82.56 l
o
np
209.61 141.92 m
0 82.56 l
o
np
220.05 141.92 m
0 82.56 l
o
np
230.50 141.92 m
0 82.56 l
o
np
240.94 141.92 m
0 82.56 l
o
np
251.39 141.92 m
0 82.56 l
o
np
262.00 141.92 m
0 82.56 l
o
np
272.45 141.92 m
0 82.56 l
o
np
282.89 141.92 m
0 82.56 l
o
np
293.34 141.92 m
0 82.56 l
o
np
303.79 141.92 m
0 82.56 l
o
np
314.40 141.92 m
0 82.56 l
o
np
324.50 141.92 m
0 82.56 l
o
np
334.61 141.92 m
0 82.56 l
o
np
345.05 141.92 m
0 82.56 l
o
np
355.50 141.92 m
0 82.56 l
o
np
365.94 141.92 m
0 82.56 l
o
np
376.39 141.92 m
0 82.56 l
o
np
387.01 141.92 m
0 82.56 l
o
np
397.45 141.92 m
0 82.56 l
o
np
407.90 141.92 m
0 82.56 l
o
np
418.34 141.92 m
0 82.56 l
o
np
428.79 141.92 m
0 82.56 l
o
np
439.40 141.92 m
0 82.56 l
o
np
449.68 141.92 m
0 82.56 l
o
np
459.95 141.92 m
0 82.56 l
o
np
470.40 141.92 m
0 82.56 l
o
np
480.84 141.92 m
0 82.56 l
o
np
491.46 141.92 m
0 82.56 l
o
0.8980 0.8980 0.8980 srgb
0.43 setlinewidth
[] 0 setdash
np
38.27 171.85 m
458.09 0 l
o
np
48.47 141.92 m
0 82.56 l
o
np
59.09 141.92 m
0 82.56 l
o
np
69.71 141.92 m
0 82.56 l
o
np
79.29 141.92 m
0 82.56 l
o
np
89.91 141.92 m
0 82.56 l
o
np
100.19 141.92 m
0 82.56 l
o
np
110.80 141.92 m
0 82.56 l
o
np
121.08 141.92 m
0 82.56 l
o
np
131.69 141.92 m
0 82.56 l
o
np
142.31 141.92 m
0 82.56 l
o
np
152.58 141.92 m
0 82.56 l
o
np
163.20 141.92 m
0 82.56 l
o
np
173.47 141.92 m
0 82.56 l
o
np
184.09 141.92 m
0 82.56 l
o
np
194.71 141.92 m
0 82.56 l
o
np
204.30 141.92 m
0 82.56 l
o
np
214.91 141.92 m
0 82.56 l
o
np
225.19 141.92 m
0 82.56 l
o
np
235.80 141.92 m
0 82.56 l
o
np
246.08 141.92 m
0 82.56 l
o
np
256.70 141.92 m
0 82.56 l
o
np
267.31 141.92 m
0 82.56 l
o
np
277.59 141.92 m
0 82.56 l
o
np
288.20 141.92 m
0 82.56 l
o
np
298.48 141.92 m
0 82.56 l
o
np
309.09 141.92 m
0 82.56 l
o
np
319.71 141.92 m
0 82.56 l
o
np
329.30 141.92 m
0 82.56 l
o
np
339.92 141.92 m
0 82.56 l
o
np
350.19 141.92 m
0 82.56 l
o
np
360.81 141.92 m
0 82.56 l
o
np
371.08 141.92 m
0 82.56 l
o
np
381.70 141.92 m
0 82.56 l
o
np
392.31 141.92 m
0 82.56 l
o
np
402.59 141.92 m
0 82.56 l
o
np
413.20 141.92 m
0 82.56 l
o
np
423.48 141.92 m
0 82.56 l
o
np
434.10 141.92 m
0 82.56 l
o
np
444.71 141.92 m
0 82.56 l
o
np
454.64 141.92 m
0 82.56 l
o
np
465.26 141.92 m
0 82.56 l
o
np
475.53 141.92 m
0 82.56 l
o
np
486.15 141.92 m
0 82.56 l
o
0 0 0 srgb
0.71 setlinewidth
[] 0 setdash
1 setlinecap
np
232.29 220.72 m
7.03 0 l
o
np
235.80 217.21 m
0 7.03 l
o
np
242.56 214.91 m
7.04 0 l
o
np
246.08 211.39 m
0 7.04 l
o
np
253.18 210.97 m
7.03 0 l
o
np
256.70 207.45 m
0 7.04 l
o
np
263.79 210.28 m
7.04 0 l
o
np
267.31 206.76 m
0 7.04 l
o
np
274.07 207.95 m
7.03 0 l
o
np
277.59 204.43 m
0 7.04 l
o
np
284.68 208.76 m
7.04 0 l
o
np
288.20 205.24 m
0 7.04 l
o
np
294.96 203.38 m
7.04 0 l
o
np
298.48 199.86 m
0 7.04 l
o
np
305.57 210.48 m
7.04 0 l
o
np
309.09 206.96 m
0 7.04 l
o
np
316.19 205.35 m
7.04 0 l
o
np
319.71 201.83 m
0 7.04 l
o
np
325.78 208.38 m
7.04 0 l
o
np
329.30 204.86 m
0 7.04 l
o
np
336.40 205.05 m
7.03 0 l
o
np
339.92 201.54 m
0 7.03 l
o
np
346.67 206.18 m
7.04 0 l
o
np
350.19 202.66 m
0 7.04 l
o
np
357.29 209.14 m
7.04 0 l
o
np
360.81 205.62 m
0 7.04 l
o
np
367.56 201.17 m
7.04 0 l
o
np
371.08 197.65 m
0 7.03 l
o
np
378.18 207.27 m
7.04 0 l
o
np
381.70 203.75 m
0 7.04 l
o
np
388.80 199.99 m
7.03 0 l
o
np
392.31 196.47 m
0 7.04 l
o
np
399.07 199.20 m
7.04 0 l
o
np
402.59 195.68 m
0 7.04 l
o
np
409.69 205.98 m
7.03 0 l
o
np
413.20 202.46 m
0 7.04 l
o
np
430.58 202.74 m
7.03 0 l
o
np
434.10 199.22 m
0 7.04 l
o
np
441.19 202.10 m
7.04 0 l
o
np
444.71 198.58 m
0 7.04 l
o
np
451.12 206.68 m
7.04 0 l
o
np
454.64 203.16 m
0 7.04 l
o
np
461.74 206.76 m
7.04 0 l
o
np
465.26 203.24 m
0 7.04 l
o
np
472.02 200.87 m
7.03 0 l
o
np
475.53 197.35 m
0 7.03 l
o
222.70 166.94 4.98 4.98 r p1
np
222.70 166.94 m
4.98 4.98 l
o
np
222.70 171.92 m
4.98 -4.98 l
o
233.32 156.56 4.98 4.98 r p1
np
233.32 156.56 m
4.97 4.98 l
o
np
233.32 161.54 m
4.97 -4.98 l
o
243.59 155.47 4.98 4.98 r p1
np
243.59 155.47 m
4.98 4.98 l
o
np
243.59 160.45 m
4.98 -4.98 l
o
254.21 159.25 4.98 4.98 r p1
np
254.21 159.25 m
4.97 4.98 l
o
np
254.21 164.23 m
4.97 -4.98 l
o
264.82 145.03 4.98 4.98 r p1
np
264.82 145.03 m
4.98 4.98 l
o
np
264.82 150.01 m
4.98 -4.98 l
o
275.10 148.72 4.98 4.98 r p1
np
275.10 148.72 m
4.97 4.98 l
o
np
275.10 153.70 m
4.97 -4.98 l
o
285.71 156.13 4.98 4.98 r p1
np
285.71 156.13 m
4.98 4.98 l
o
np
285.71 161.11 m
4.98 -4.98 l
o
295.99 157.25 4.98 4.98 r p1
np
295.99 157.25 m
4.98 4.97 l
o
np
295.99 162.22 m
4.98 -4.97 l
o
306.61 153.01 4.98 4.98 r p1
np
306.61 153.01 m
4.97 4.98 l
o
np
306.61 157.99 m
4.97 -4.98 l
o
317.22 153.02 4.98 4.98 r p1
np
317.22 153.02 m
4.98 4.97 l
o
np
317.22 157.99 m
4.98 -4.97 l
o
326.81 156.67 4.98 4.98 r p1
np
326.81 156.67 m
4.98 4.98 l
o
np
326.81 161.65 m
4.98 -4.98 l
o
337.43 154.59 4.98 4.98 r p1
np
337.43 154.59 m
4.97 4.98 l
o
np
337.43 159.57 m
4.97 -4.98 l
o
347.70 153.82 4.98 4.98 r p1
np
347.70 153.82 m
4.98 4.98 l
o
np
347.70 158.80 m
4.98 -4.98 l
o
358.32 149.12 4.98 4.98 r p1
np
358.32 149.12 m
4.97 4.97 l
o
np
358.32 154.09 m
4.97 -4.97 l
o
368.59 154.33 4.98 4.98 r p1
np
368.59 154.33 m
4.98 4.98 l
o
np
368.59 159.31 m
4.98 -4.98 l
o
379.21 156.94 4.98 4.98 r p1
np
379.21 156.94 m
4.98 4.97 l
o
np
379.21 161.91 m
4.98 -4.97 l
o
389.83 154.02 4.98 4.98 r p1
np
389.83 154.02 m
4.97 4.98 l
o
np
389.83 159.00 m
4.97 -4.98 l
o
400.10 155.29 4.98 4.98 r p1
np
400.10 155.29 m
4.98 4.97 l
o
np
400.10 160.26 m
4.98 -4.97 l
o
410.72 152.85 4.98 4.98 r p1
np
410.72 152.85 m
4.97 4.97 l
o
np
410.72 157.82 m
4.97 -4.97 l
o
431.61 150.73 4.98 4.98 r p1
np
431.61 150.73 m
4.97 4.98 l
o
np
431.61 155.71 m
4.97 -4.98 l
o
442.22 155.81 4.98 4.98 r p1
np
442.22 155.81 m
4.98 4.98 l
o
np
442.22 160.79 m
4.98 -4.98 l
o
452.16 143.18 4.98 4.98 r p1
np
452.16 143.18 m
4.97 4.98 l
o
np
452.16 148.16 m
4.97 -4.98 l
o
462.77 151.11 4.98 4.98 r p1
np
462.77 151.11 m
4.98 4.97 l
o
np
462.77 156.08 m
4.98 -4.97 l
o
473.05 158.73 4.98 4.98 r p1
np
473.05 158.73 m
4.97 4.98 l
o
np
473.05 163.71 m
4.97 -4.98 l
o
1.07 setlinewidth
[] 0 setdash
0 setlinecap
1.00 setmiterlimit
np
235.80 220.72 m
10.28 -5.81 l
10.62 -3.94 l
10.61 -0.69 l
10.28 -2.33 l
10.61 0.81 l
10.28 -5.38 l
10.61 7.10 l
10.62 -5.13 l
9.59 3.03 l
10.62 -3.33 l
10.27 1.13 l
10.62 2.96 l
10.27 -7.97 l
10.62 6.10 l
10.61 -7.28 l
10.28 -0.79 l
10.61 6.78 l
20.90 -3.24 l
10.61 -0.64 l
9.93 4.58 l
10.62 0.08 l
10.27 -5.89 l
o
1.07 setlinewidth
[ 2.13 2.13] 0 setdash
np
225.19 169.43 m
10.61 -10.38 l
10.28 -1.09 l
10.62 3.78 l
10.61 -14.22 l
10.28 3.69 l
10.61 7.41 l
10.28 1.12 l
10.61 -4.24 l
10.62 0 l
9.59 3.66 l
10.62 -2.08 l
10.27 -0.77 l
10.62 -4.71 l
10.27 5.22 l
10.62 2.61 l
10.61 -2.92 l
10.28 1.26 l
10.61 -2.44 l
20.90 -2.11 l
10.61 5.08 l
9.93 -12.63 l
10.62 7.93 l
10.27 7.62 l
o
0.4980 0.4980 0.4980 srgb
1.07 setlinewidth
[] 0 setdash
1 setlinecap
10.00 setmiterlimit
38.27 141.92 458.09 82.56 r p1
0.00 0.00 595.28 496.06 cl
38.27 53.38 496.36 135.94 cl
/bg { 1 1 1 srgb } def
38.27 53.38 458.09 82.56 r p2
0.9804 0.9804 0.9804 srgb
1.07 setlinewidth
[] 0 setdash
0 setlinecap
1 setlinejoin
10.00 setmiterlimit
np
43.16 53.38 m
0 82.56 l
o
np
53.78 53.38 m
0 82.56 l
o
np
64.40 53.38 m
0 82.56 l
o
np
74.50 53.38 m
0 82.56 l
o
np
84.60 53.38 m
0 82.56 l
o
np
95.05 53.38 m
0 82.56 l
o
np
105.49 53.38 m
0 82.56 l
o
np
115.94 53.38 m
0 82.56 l
o
np
126.38 53.38 m
0 82.56 l
o
np
137.00 53.38 m
0 82.56 l
o
np
147.45 53.38 m
0 82.56 l
o
np
157.89 53.38 m
0 82.56 l
o
np
168.34 53.38 m
0 82.56 l
o
np
178.78 53.38 m
0 82.56 l
o
np
189.40 53.38 m
0 82.56 l
o
np
199.50 53.38 m
0 82.56 l
o
np
209.61 53.38 m
0 82.56 l
o
np
220.05 53.38 m
0 82.56 l
o
np
230.50 53.38 m
0 82.56 l
o
np
240.94 53.38 m
0 82.56 l
o
np
251.39 53.38 m
0 82.56 l
o
np
262.00 53.38 m
0 82.56 l
o
np
272.45 53.38 m
0 82.56 l
o
np
282.89 53.38 m
0 82.56 l
o
np
293.34 53.38 m
0 82.56 l
o
np
303.79 53.38 m
0 82.56 l
o
np
314.40 53.38 m
0 82.56 l
o
np
324.50 53.38 m
0 82.56 l
o
np
334.61 53.38 m
0 82.56 l
o
np
345.05 53.38 m
0 82.56 l
o
np
355.50 53.38 m
0 82.56 l
o
np
365.94 53.38 m
0 82.56 l
o
np
376.39 53.38 m
0 82.56 l
o
np
387.01 53.38 m
0 82.56 l
o
np
397.45 53.38 m
0 82.56 l
o
np
407.90 53.38 m
0 82.56 l
o
np
418.34 53.38 m
0 82.56 l
o
np
428.79 53.38 m
0 82.56 l
o
np
439.40 53.38 m
0 82.56 l
o
np
449.68 53.38 m
0 82.56 l
o
np
459.95 53.38 m
0 82.56 l
o
np
470.40 53.38 m
0 82.56 l
o
np
480.84 53.38 m
0 82.56 l
o
np
491.46 53.38 m
0 82.56 l
o
0.8980 0.8980 0.8980 srgb
0.43 setlinewidth
[] 0 setdash
np
38.27 89.25 m
458.09 0 l
o
np
48.47 53.38 m
0 82.56 l
o
np
59.09 53.38 m
0 82.56 l
o
np
69.71 53.38 m
0 82.56 l
o
np
79.29 53.38 m
0 82.56 l
o
np
89.91 53.38 m
0 82.56 l
o
np
100.19 53.38 m
0 82.56 l
o
np
110.80 53.38 m
0 82.56 l
o
np
121.08 53.38 m
0 82.56 l
o
np
131.69 53.38 m
0 82.56 l
o
np
142.31 53.38 m
0 82.56 l
o
np
152.58 53.38 m
0 82.56 l
o
np
163.20 53.38 m
0 82.56 l
o
np
173.47 53.38 m
0 82.56 l
o
np
184.09 53.38 m
0 82.56 l
o
np
194.71 53.38 m
0 82.56 l
o
np
204.30 53.38 m
0 82.56 l
o
np
214.91 53.38 m
0 82.56 l
o
np
225.19 53.38 m
0 82.56 l
o
np
235.80 53.38 m
0 82.56 l
o
np
246.08 53.38 m
0 82.56 l
o
np
256.70 53.38 m
0 82.56 l
o
np
267.31 53.38 m
0 82.56 l
o
np
277.59 53.38 m
0 82.56 l
o
np
288.20 53.38 m
0 82.56 l
o
np
298.48 53.38 m
0 82.56 l
o
np
309.09 53.38 m
0 82.56 l
o
np
319.71 53.38 m
0 82.56 l
o
np
329.30 53.38 m
0 82.56 l
o
np
339.92 53.38 m
0 82.56 l
o
np
350.19 53.38 m
0 82.56 l
o
np
360.81 53.38 m
0 82.56 l
o
np
371.08 53.38 m
0 82.56 l
o
np
381.70 53.38 m
0 82.56 l
o
np
392.31 53.38 m
0 82.56 l
o
np
402.59 53.38 m
0 82.56 l
o
np
413.20 53.38 m
0 82.56 l
o
np
423.48 53.38 m
0 82.56 l
o
np
434.10 53.38 m
0 82.56 l
o
np
444.71 53.38 m
0 82.56 l
o
np
454.64 53.38 m
0 82.56 l
o
np
465.26 53.38 m
0 82.56 l
o
np
475.53 53.38 m
0 82.56 l
o
np
486.15 53.38 m
0 82.56 l
o
0 0 0 srgb
0.71 setlinewidth
[] 0 setdash
1 setlinecap
np
55.57 123.50 m
7.04 0 l
o
np
59.09 119.98 m
0 7.04 l
o
np
66.19 120.02 m
7.03 0 l
o
np
69.71 116.50 m
0 7.04 l
o
np
75.78 123.96 m
7.03 0 l
o
np
79.29 120.44 m
0 7.04 l
o
np
86.39 121.64 m
7.04 0 l
o
np
89.91 118.12 m
0 7.04 l
o
np
96.67 121.94 m
7.03 0 l
o
np
100.19 118.42 m
0 7.04 l
o
np
107.28 122.55 m
7.04 0 l
o
np
110.80 119.03 m
0 7.04 l
o
np
117.56 123.90 m
7.04 0 l
o
np
121.08 120.38 m
0 7.04 l
o
np
128.17 123.63 m
7.04 0 l
o
np
131.69 120.11 m
0 7.04 l
o
np
138.79 127.85 m
7.04 0 l
o
np
142.31 124.33 m
0 7.04 l
o
np
149.06 117.83 m
7.04 0 l
o
np
152.58 114.31 m
0 7.04 l
o
np
159.68 118.89 m
7.04 0 l
o
np
163.20 115.37 m
0 7.04 l
o
np
169.96 121.90 m
7.03 0 l
o
np
173.47 118.38 m
0 7.04 l
o
np
180.57 125.27 m
7.04 0 l
o
np
184.09 121.75 m
0 7.04 l
o
np
191.19 127.63 m
7.04 0 l
o
np
194.71 124.11 m
0 7.04 l
o
np
200.78 119.23 m
7.04 0 l
o
np
204.30 115.71 m
0 7.04 l
o
np
211.39 129.30 m
7.04 0 l
o
np
214.91 125.78 m
0 7.04 l
o
np
221.67 129.87 m
7.04 0 l
o
np
225.19 126.36 m
0 7.03 l
o
np
232.29 127.99 m
7.03 0 l
o
np
235.80 124.47 m
0 7.04 l
o
np
242.56 128.35 m
7.04 0 l
o
np
246.08 124.83 m
0 7.04 l
o
np
253.18 129.42 m
7.03 0 l
o
np
256.70 125.90 m
0 7.04 l
o
np
263.79 122.05 m
7.04 0 l
o
np
267.31 118.53 m
0 7.04 l
o
np
274.07 132.19 m
7.03 0 l
o
np
277.59 128.67 m
0 7.04 l
o
np
284.68 128.02 m
7.04 0 l
o
np
288.20 124.50 m
0 7.04 l
o
np
294.96 130.40 m
7.04 0 l
o
np
298.48 126.88 m
0 7.04 l
o
np
305.57 128.49 m
7.04 0 l
o
np
309.09 124.97 m
0 7.04 l
o
np
316.19 120.70 m
7.04 0 l
o
np
319.71 117.18 m
0 7.04 l
o
np
325.78 126.25 m
7.04 0 l
o
np
329.30 122.74 m
0 7.03 l
o
np
336.40 127.73 m
7.03 0 l
o
np
339.92 124.21 m
0 7.04 l
o
np
346.67 120.15 m
7.04 0 l
o
np
350.19 116.63 m
0 7.04 l
o
np
357.29 122.75 m
7.04 0 l
o
np
360.81 119.23 m
0 7.04 l
o
np
367.56 126.90 m
7.04 0 l
o
np
371.08 123.38 m
0 7.04 l
o
np
378.18 120.29 m
7.04 0 l
o
np
381.70 116.77 m
0 7.04 l
o
np
388.80 130.60 m
7.03 0 l
o
np
392.31 127.08 m
0 7.04 l
o
np
399.07 119.52 m
7.04 0 l
o
np
402.59 116.00 m
0 7.04 l
o
np
409.69 129.76 m
7.03 0 l
o
np
413.20 126.24 m
0 7.04 l
o
np
419.96 119.92 m
7.04 0 l
o
np
423.48 116.41 m
0 7.03 l
o
np
430.58 125.86 m
7.03 0 l
o
np
434.10 122.35 m
0 7.03 l
o
np
441.19 125.56 m
7.04 0 l
o
np
444.71 122.04 m
0 7.04 l
o
np
451.12 131.21 m
7.04 0 l
o
np
454.64 127.69 m
0 7.04 l
o
np
461.74 124.95 m
7.04 0 l
o
np
465.26 121.43 m
0 7.04 l
o
np
472.02 121.90 m
7.03 0 l
o
np
475.53 118.38 m
0 7.04 l
o
56.60 71.98 4.98 4.98 r p1
np
56.60 71.98 m
4.98 4.98 l
o
np
56.60 76.96 m
4.98 -4.98 l
o
67.22 72.29 4.98 4.98 r p1
np
67.22 72.29 m
4.97 4.98 l
o
np
67.22 77.27 m
4.97 -4.98 l
o
76.81 74.85 4.98 4.98 r p1
np
76.81 74.85 m
4.97 4.97 l
o
np
76.81 79.82 m
4.97 -4.97 l
o
87.42 78.12 4.98 4.98 r p1
np
87.42 78.12 m
4.98 4.97 l
o
np
87.42 83.09 m
4.98 -4.97 l
o
97.70 79.76 4.98 4.98 r p1
np
97.70 79.76 m
4.97 4.97 l
o
np
97.70 84.73 m
4.97 -4.97 l
o
108.31 71.22 4.98 4.98 r p1
np
108.31 71.22 m
4.98 4.98 l
o
np
108.31 76.20 m
4.98 -4.98 l
o
118.59 70.45 4.98 4.98 r p1
np
118.59 70.45 m
4.97 4.98 l
o
np
118.59 75.43 m
4.97 -4.98 l
o
129.20 80.61 4.98 4.98 r p1
np
129.20 80.61 m
4.98 4.98 l
o
np
129.20 85.59 m
4.98 -4.98 l
o
139.82 76.13 4.98 4.98 r p1
np
139.82 76.13 m
4.98 4.98 l
o
np
139.82 81.11 m
4.98 -4.98 l
o
150.10 76.48 4.98 4.98 r p1
np
150.10 76.48 m
4.97 4.98 l
o
np
150.10 81.46 m
4.97 -4.98 l
o
160.71 71.68 4.98 4.98 r p1
np
160.71 71.68 m
4.98 4.97 l
o
np
160.71 76.65 m
4.98 -4.97 l
o
170.99 65.37 4.98 4.98 r p1
np
170.99 65.37 m
4.97 4.97 l
o
np
170.99 70.34 m
4.97 -4.97 l
o
181.60 69.07 4.98 4.98 r p1
np
181.60 69.07 m
4.98 4.98 l
o
np
181.60 74.05 m
4.98 -4.98 l
o
192.22 64.38 4.98 4.98 r p1
np
192.22 64.38 m
4.98 4.97 l
o
np
192.22 69.35 m
4.98 -4.97 l
o
201.81 71.00 4.98 4.98 r p1
np
201.81 71.00 m
4.98 4.97 l
o
np
201.81 75.97 m
4.98 -4.97 l
o
212.43 73.62 4.98 4.98 r p1
np
212.43 73.62 m
4.97 4.97 l
o
np
212.43 78.59 m
4.97 -4.97 l
o
222.70 74.64 4.98 4.98 r p1
np
222.70 74.64 m
4.98 4.98 l
o
np
222.70 79.62 m
4.98 -4.98 l
o
233.32 82.09 4.98 4.98 r p1
np
233.32 82.09 m
4.97 4.98 l
o
np
233.32 87.07 m
4.97 -4.98 l
o
243.59 69.89 4.98 4.98 r p1
np
243.59 69.89 m
4.98 4.97 l
o
np
243.59 74.86 m
4.98 -4.97 l
o
254.21 74.17 4.98 4.98 r p1
np
254.21 74.17 m
4.97 4.98 l
o
np
254.21 79.15 m
4.97 -4.98 l
o
264.82 61.00 4.98 4.98 r p1
np
264.82 61.00 m
4.98 4.98 l
o
np
264.82 65.98 m
4.98 -4.98 l
o
275.10 74.11 4.98 4.98 r p1
np
275.10 74.11 m
4.97 4.97 l
o
np
275.10 79.08 m
4.97 -4.97 l
o
285.71 63.29 4.98 4.98 r p1
np
285.71 63.29 m
4.98 4.97 l
o
np
285.71 68.26 m
4.98 -4.97 l
o
295.99 73.14 4.98 4.98 r p1
np
295.99 73.14 m
4.98 4.98 l
o
np
295.99 78.12 m
4.98 -4.98 l
o
306.61 73.73 4.98 4.98 r p1
np
306.61 73.73 m
4.97 4.98 l
o
np
306.61 78.71 m
4.97 -4.98 l
o
317.22 66.36 4.98 4.98 r p1
np
317.22 66.36 m
4.98 4.97 l
o
np
317.22 71.33 m
4.98 -4.97 l
o
326.81 80.19 4.98 4.98 r p1
np
326.81 80.19 m
4.98 4.97 l
o
np
326.81 85.16 m
4.98 -4.97 l
o
337.43 71.16 4.98 4.98 r p1
np
337.43 71.16 m
4.97 4.97 l
o
np
337.43 76.13 m
4.97 -4.97 l
o
347.70 62.88 4.98 4.98 r p1
np
347.70 62.88 m
4.98 4.98 l
o
np
347.70 67.86 m
4.98 -4.98 l
o
358.32 72.29 4.98 4.98 r p1
np
358.32 72.29 m
4.97 4.98 l
o
np
358.32 77.27 m
4.97 -4.98 l
o
368.59 66.32 4.98 4.98 r p1
np
368.59 66.32 m
4.98 4.98 l
o
np
368.59 71.30 m
4.98 -4.98 l
o
379.21 78.06 4.98 4.98 r p1
np
379.21 78.06 m
4.98 4.98 l
o
np
379.21 83.04 m
4.98 -4.98 l
o
389.83 67.78 4.98 4.98 r p1
np
389.83 67.78 m
4.97 4.98 l
o
np
389.83 72.76 m
4.97 -4.98 l
o
400.10 69.09 4.98 4.98 r p1
np
400.10 69.09 m
4.98 4.98 l
o
np
400.10 74.07 m
4.98 -4.98 l
o
410.72 70.69 4.98 4.98 r p1
np
410.72 70.69 m
4.97 4.97 l
o
np
410.72 75.66 m
4.97 -4.97 l
o
420.99 73.11 4.98 4.98 r p1
np
420.99 73.11 m
4.98 4.98 l
o
np
420.99 78.09 m
4.98 -4.98 l
o
431.61 54.65 4.98 4.98 r p1
np
431.61 54.65 m
4.97 4.97 l
o
np
431.61 59.62 m
4.97 -4.97 l
o
442.22 61.86 4.98 4.98 r p1
np
442.22 61.86 m
4.98 4.98 l
o
np
442.22 66.84 m
4.98 -4.98 l
o
452.16 82.67 4.98 4.98 r p1
np
452.16 82.67 m
4.97 4.98 l
o
np
452.16 87.65 m
4.97 -4.98 l
o
462.77 76.54 4.98 4.98 r p1
np
462.77 76.54 m
4.98 4.98 l
o
np
462.77 81.52 m
4.98 -4.98 l
o
473.05 68.13 4.98 4.98 r p1
np
473.05 68.13 m
4.97 4.97 l
o
np
473.05 73.10 m
4.97 -4.97 l
o
1.07 setlinewidth
[] 0 setdash
0 setlinecap
1.00 setmiterlimit
np
59.09 123.50 m
10.62 -3.48 l
9.58 3.94 l
10.62 -2.32 l
10.28 0.30 l
10.61 0.61 l
10.28 1.35 l
10.61 -0.27 l
10.62 4.22 l
10.27 -10.02 l
10.62 1.06 l
10.27 3.01 l
10.62 3.37 l
10.62 2.36 l
9.59 -8.40 l
10.61 10.07 l
10.28 0.57 l
10.61 -1.88 l
10.28 0.36 l
10.62 1.07 l
10.61 -7.37 l
10.28 10.14 l
10.61 -4.17 l
10.28 2.38 l
10.61 -1.91 l
10.62 -7.79 l
9.59 5.55 l
10.62 1.48 l
10.27 -7.58 l
10.62 2.60 l
10.27 4.15 l
10.62 -6.61 l
10.61 10.31 l
10.28 -11.08 l
10.61 10.24 l
10.28 -9.84 l
10.62 5.94 l
10.61 -0.30 l
9.93 5.65 l
10.62 -6.26 l
10.27 -3.05 l
o
1.07 setlinewidth
[ 2.13 2.13] 0 setdash
np
59.09 74.47 m
10.62 0.31 l
9.58 2.55 l
10.62 3.27 l
10.28 1.65 l
10.61 -8.54 l
10.28 -0.77 l
10.61 10.16 l
10.62 -4.48 l
10.27 0.35 l
10.62 -4.80 l
10.27 -6.31 l
10.62 3.70 l
10.62 -4.69 l
9.59 6.62 l
10.61 2.62 l
10.28 1.02 l
10.61 7.45 l
10.28 -12.20 l
10.62 4.28 l
10.61 -13.17 l
10.28 13.10 l
10.61 -10.81 l
10.28 9.85 l
10.61 0.59 l
10.62 -7.38 l
9.59 13.83 l
10.62 -9.03 l
10.27 -8.27 l
10.62 9.41 l
10.27 -5.97 l
10.62 11.74 l
10.61 -10.28 l
10.28 1.31 l
10.61 1.60 l
10.28 2.42 l
10.62 -18.46 l
10.61 7.21 l
9.93 20.81 l
10.62 -6.13 l
10.27 -8.42 l
o
0.4980 0.4980 0.4980 srgb
1.07 setlinewidth
[] 0 setdash
1 setlinecap
10.00 setmiterlimit
38.27 53.38 458.09 82.56 r p1
0.00 0.00 595.28 496.06 cl
0.00 0.00 595.28 496.06 cl
0.00 0.00 595.28 496.06 cl
0.00 0.00 595.28 496.06 cl
0.00 0.00 595.28 496.06 cl
0.00 0.00 595.28 496.06 cl
/Font1 findfont 8 s
0 0 0 srgb
32.89 445.16 (1) 1 0 t
0.00 0.00 595.28 496.06 cl
0.00 0.00 595.28 496.06 cl
0 0 0 srgb
1.07 setlinewidth
[] 0 setdash
0 setlinecap
1 setlinejoin
10.00 setmiterlimit
np
35.28 448.03 m
2.99 0 l
o
0.00 0.00 595.28 496.06 cl
0.00 0.00 595.28 496.06 cl
0.00 0.00 595.28 496.06 cl
0.00 0.00 595.28 496.06 cl
0.00 0.00 595.28 496.06 cl
0.00 0.00 595.28 496.06 cl
0.00 0.00 595.28 496.06 cl
0.00 0.00 595.28 496.06 cl
/Font1 findfont 8 s
0 0 0 srgb
32.89 324.75 (0.1) 1 0 t
32.89 365.10 (1.0) 1 0 t
0.00 0.00 595.28 496.06 cl
0.00 0.00 595.28 496.06 cl
0 0 0 srgb
1.07 setlinewidth
[] 0 setdash
0 setlinecap
1 setlinejoin
10.00 setmiterlimit
np
35.28 327.62 m
2.99 0 l
o
np
35.28 367.97 m
2.99 0 l
o
0.00 0.00 595.28 496.06 cl
0.00 0.00 595.28 496.06 cl
0.00 0.00 595.28 496.06 cl
0.00 0.00 595.28 496.06 cl
0.00 0.00 595.28 496.06 cl
0.00 0.00 595.28 496.06 cl
0.00 0.00 595.28 496.06 cl
0.00 0.00 595.28 496.06 cl
/Font1 findfont 8 s
0 0 0 srgb
32.89 268.21 (1) 1 0 t
0.00 0.00 595.28 496.06 cl
0.00 0.00 595.28 496.06 cl
0 0 0 srgb
1.07 setlinewidth
[] 0 setdash
0 setlinecap
1 setlinejoin
10.00 setmiterlimit
np
35.28 271.08 m
2.99 0 l
o
0.00 0.00 595.28 496.06 cl
0.00 0.00 595.28 496.06 cl
0.00 0.00 595.28 496.06 cl
0.00 0.00 595.28 496.06 cl
0.00 0.00 595.28 496.06 cl
0.00 0.00 595.28 496.06 cl
0.00 0.00 595.28 496.06 cl
0.00 0.00 595.28 496.06 cl
/Font1 findfont 8 s
0 0 0 srgb
32.89 168.98 (1) 1 0 t
0.00 0.00 595.28 496.06 cl
0.00 0.00 595.28 496.06 cl
0 0 0 srgb
1.07 setlinewidth
[] 0 setdash
0 setlinecap
1 setlinejoin
10.00 setmiterlimit
np
35.28 171.85 m
2.99 0 l
o
0.00 0.00 595.28 496.06 cl
0.00 0.00 595.28 496.06 cl
0.00 0.00 595.28 496.06 cl
0.00 0.00 595.28 496.06 cl
0.00 0.00 595.28 496.06 cl
0.00 0.00 595.28 496.06 cl
0.00 0.00 595.28 496.06 cl
0.00 0.00 595.28 496.06 cl
/Font1 findfont 8 s
0 0 0 srgb
32.89 86.38 (1) 1 0 t
0.00 0.00 595.28 496.06 cl
0.00 0.00 595.28 496.06 cl
0 0 0 srgb
1.07 setlinewidth
[] 0 setdash
0 setlinecap
1 setlinejoin
10.00 setmiterlimit
np
35.28 89.25 m
2.99 0 l
o
0.00 0.00 595.28 496.06 cl
0.00 0.00 595.28 496.06 cl
0.00 0.00 595.28 496.06 cl
496.36 407.53 514.06 490.09 cl
/bg { 1 1 1 srgb } def
0.4980 0.4980 0.4980 srgb
0.43 setlinewidth
[] 0 setdash
1 setlinecap
1 setlinejoin
10.00 setmiterlimit
496.36 407.53 17.70 82.56 r p3
/Font1 findfont 8 s
0.1020 0.1020 0.1020 srgb
502.33 459.92 (fr) -90.00 ta
-0.080 (ance) tb gr
496.36 407.53 514.06 490.09 cl
0.00 0.00 595.28 496.06 cl
496.36 318.99 514.06 401.55 cl
/bg { 1 1 1 srgb } def
0.4980 0.4980 0.4980 srgb
0.43 setlinewidth
[] 0 setdash
1 setlinecap
1 setlinejoin
10.00 setmiterlimit
496.36 318.99 17.70 82.56 r p3
/Font1 findfont 8 s
0.1020 0.1020 0.1020 srgb
502.33 360.27 (gameofthrones) .5 -90.00 t
496.36 318.99 514.06 401.55 cl
0.00 0.00 595.28 496.06 cl
496.36 230.45 514.06 313.01 cl
/bg { 1 1 1 srgb } def
0.4980 0.4980 0.4980 srgb
0.43 setlinewidth
[] 0 setdash
1 setlinecap
1 setlinejoin
10.00 setmiterlimit
496.36 230.45 17.70 82.56 r p3
/Font1 findfont 8 s
0.1020 0.1020 0.1020 srgb
502.33 302.41 (MachineLear) -90.00 ta
0.200 (ning) tb gr
496.36 230.45 514.06 313.01 cl
0.00 0.00 595.28 496.06 cl
496.36 141.92 514.06 224.48 cl
/bg { 1 1 1 srgb } def
0.4980 0.4980 0.4980 srgb
0.43 setlinewidth
[] 0 setdash
1 setlinecap
1 setlinejoin
10.00 setmiterlimit
496.36 141.92 17.70 82.56 r p3
/Font1 findfont 8 s
0.1020 0.1020 0.1020 srgb
502.33 183.20 (podemos) .5 -90.00 t
496.36 141.92 514.06 224.48 cl
0.00 0.00 595.28 496.06 cl
496.36 53.38 514.06 135.94 cl
/bg { 1 1 1 srgb } def
0.4980 0.4980 0.4980 srgb
0.43 setlinewidth
[] 0 setdash
1 setlinecap
1 setlinejoin
10.00 setmiterlimit
496.36 53.38 17.70 82.56 r p3
/Font1 findfont 8 s
0.1020 0.1020 0.1020 srgb
502.33 130.89 (T) -90.00 ta
-0.960 (w) tb
-0.080 (oXChromosomes) tb gr
496.36 53.38 514.06 135.94 cl
0.00 0.00 595.28 496.06 cl
0.00 0.00 595.28 496.06 cl
0.00 0.00 595.28 496.06 cl
0.00 0.00 595.28 496.06 cl
0.00 0.00 595.28 496.06 cl
0.00 0.00 595.28 496.06 cl
0 0 0 srgb
1.07 setlinewidth
[] 0 setdash
0 setlinecap
1 setlinejoin
10.00 setmiterlimit
np
48.47 50.39 m
0 2.99 l
o
np
59.09 50.39 m
0 2.99 l
o
np
69.71 50.39 m
0 2.99 l
o
np
79.29 50.39 m
0 2.99 l
o
np
89.91 50.39 m
0 2.99 l
o
np
100.19 50.39 m
0 2.99 l
o
np
110.80 50.39 m
0 2.99 l
o
np
121.08 50.39 m
0 2.99 l
o
np
131.69 50.39 m
0 2.99 l
o
np
142.31 50.39 m
0 2.99 l
o
np
152.58 50.39 m
0 2.99 l
o
np
163.20 50.39 m
0 2.99 l
o
np
173.47 50.39 m
0 2.99 l
o
np
184.09 50.39 m
0 2.99 l
o
np
194.71 50.39 m
0 2.99 l
o
np
204.30 50.39 m
0 2.99 l
o
np
214.91 50.39 m
0 2.99 l
o
np
225.19 50.39 m
0 2.99 l
o
np
235.80 50.39 m
0 2.99 l
o
np
246.08 50.39 m
0 2.99 l
o
np
256.70 50.39 m
0 2.99 l
o
np
267.31 50.39 m
0 2.99 l
o
np
277.59 50.39 m
0 2.99 l
o
np
288.20 50.39 m
0 2.99 l
o
np
298.48 50.39 m
0 2.99 l
o
np
309.09 50.39 m
0 2.99 l
o
np
319.71 50.39 m
0 2.99 l
o
np
329.30 50.39 m
0 2.99 l
o
np
339.92 50.39 m
0 2.99 l
o
np
350.19 50.39 m
0 2.99 l
o
np
360.81 50.39 m
0 2.99 l
o
np
371.08 50.39 m
0 2.99 l
o
np
381.70 50.39 m
0 2.99 l
o
np
392.31 50.39 m
0 2.99 l
o
np
402.59 50.39 m
0 2.99 l
o
np
413.20 50.39 m
0 2.99 l
o
np
423.48 50.39 m
0 2.99 l
o
np
434.10 50.39 m
0 2.99 l
o
np
444.71 50.39 m
0 2.99 l
o
np
454.64 50.39 m
0 2.99 l
o
np
465.26 50.39 m
0 2.99 l
o
np
475.53 50.39 m
0 2.99 l
o
np
486.15 50.39 m
0 2.99 l
o
0.00 0.00 595.28 496.06 cl
0.00 0.00 595.28 496.06 cl
/Font1 findfont 8 s
0 0 0 srgb
52.53 43.94 (2012-12) 1 45.00 t
63.15 43.94 (2013-01) 1 45.00 t
73.77 43.94 (2013-02) 1 45.00 t
83.36 43.94 (2013-03) 1 45.00 t
93.97 43.94 (2013-04) 1 45.00 t
104.25 43.94 (2013-05) 1 45.00 t
114.86 43.94 (2013-06) 1 45.00 t
125.14 43.94 (2013-07) 1 45.00 t
135.75 43.94 (2013-08) 1 45.00 t
146.37 43.94 (2013-09) 1 45.00 t
156.65 43.94 (2013-10) 1 45.00 t
167.26 43.94 (2013-11) 1 45.00 t
177.54 43.94 (2013-12) 1 45.00 t
188.15 43.94 (2014-01) 1 45.00 t
198.77 43.94 (2014-02) 1 45.00 t
208.36 43.94 (2014-03) 1 45.00 t
218.98 43.94 (2014-04) 1 45.00 t
229.25 43.94 (2014-05) 1 45.00 t
239.87 43.94 (2014-06) 1 45.00 t
250.14 43.94 (2014-07) 1 45.00 t
260.76 43.94 (2014-08) 1 45.00 t
271.37 43.94 (2014-09) 1 45.00 t
281.65 43.94 (2014-10) 1 45.00 t
292.26 43.94 (2014-11) 1 45.00 t
302.54 43.94 (2014-12) 1 45.00 t
313.15 43.94 (2015-01) 1 45.00 t
323.77 43.94 (2015-02) 1 45.00 t
333.36 43.94 (2015-03) 1 45.00 t
343.98 43.94 (2015-04) 1 45.00 t
354.25 43.94 (2015-05) 1 45.00 t
364.87 43.94 (2015-06) 1 45.00 t
375.14 43.94 (2015-07) 1 45.00 t
385.76 43.94 (2015-08) 1 45.00 t
396.38 43.94 (2015-09) 1 45.00 t
406.65 43.94 (2015-10) 1 45.00 t
417.27 43.94 (2015-11) 1 45.00 t
427.54 43.94 (2015-12) 1 45.00 t
438.16 43.94 (2016-01) 1 45.00 t
448.77 43.94 (2016-02) 1 45.00 t
458.71 43.94 (2016-03) 1 45.00 t
469.32 43.94 (2016-04) 1 45.00 t
479.60 43.94 (2016-05) 1 45.00 t
490.21 43.94 (2016-06) 1 45.00 t
0.00 0.00 595.28 496.06 cl
0.00 0.00 595.28 496.06 cl
0.00 0.00 595.28 496.06 cl
0.00 0.00 595.28 496.06 cl
/Font1 findfont 12 s
0 0 0 srgb
267.31 8.37 (date) .5 0 t
0.00 0.00 595.28 496.06 cl
0.00 0.00 595.28 496.06 cl
/Font1 findfont 12 s
0 0 0 srgb
16.98 271.73 (mean z-score) .5 90 t
0.00 0.00 595.28 496.06 cl
0.00 0.00 595.28 496.06 cl
0.00 0.00 595.28 496.06 cl
0.00 0.00 595.28 496.06 cl
/bg { 1 1 1 srgb } def
522.56 248.04 58.23 47.38 r p2
0.00 0.00 595.28 496.06 cl
0.00 0.00 595.28 496.06 cl
0.00 0.00 595.28 496.06 cl
0.00 0.00 595.28 496.06 cl
0.00 0.00 595.28 496.06 cl
0.00 0.00 595.28 496.06 cl
0 0 0 srgb
0.71 setlinewidth
[] 0 setdash
1 setlinecap
1 setlinejoin
10.00 setmiterlimit
np
531.93 278.21 m
7.04 0 l
o
np
535.45 274.70 m
0 7.03 l
o
0.00 0.00 595.28 496.06 cl
0.00 0.00 595.28 496.06 cl
0 0 0 srgb
1.07 setlinewidth
[] 0 setdash
0 setlinecap
1 setlinejoin
10.00 setmiterlimit
np
528.54 278.21 m
13.82 0 l
o
0.00 0.00 595.28 496.06 cl
0.00 0.00 595.28 496.06 cl
0.00 0.00 595.28 496.06 cl
0.00 0.00 595.28 496.06 cl
0 0 0 srgb
0.71 setlinewidth
[] 0 setdash
1 setlinecap
1 setlinejoin
10.00 setmiterlimit
532.96 258.45 4.98 4.98 r p1
np
532.96 258.45 m
4.98 4.97 l
o
np
532.96 263.42 m
4.98 -4.97 l
o
0.00 0.00 595.28 496.06 cl
0.00 0.00 595.28 496.06 cl
0 0 0 srgb
1.07 setlinewidth
[ 2.13 2.13] 0 setdash
0 setlinecap
1 setlinejoin
10.00 setmiterlimit
np
528.54 260.93 m
13.82 0 l
o
0.00 0.00 595.28 496.06 cl
0.00 0.00 595.28 496.06 cl
/Font1 findfont 10 s
0 0 0 srgb
546.25 274.62 (in-star) 0 0 t
0.00 0.00 595.28 496.06 cl
0.00 0.00 595.28 496.06 cl
/Font1 findfont 10 s
0 0 0 srgb
546.25 257.34 (chain) 0 0 t
0.00 0.00 595.28 496.06 cl
0.00 0.00 595.28 496.06 cl
0.00 0.00 595.28 496.06 cl
0.00 0.00 595.28 496.06 cl
0.00 0.00 595.28 496.06 cl
0.00 0.00 595.28 496.06 cl
ep
%%Trailer
%%Pages: 1
%%EOF
