%!PS-Adobe-3.0 EPSF-3.0
%%DocumentNeededResources: font Helvetica
%%+ font Helvetica-Bold
%%+ font Helvetica-Oblique
%%+ font Helvetica-BoldOblique
%%+ font Symbol
%%Title: R Graphics Output
%%Creator: R Software
%%Pages: (atend)
%%BoundingBox: 0 0 595 198
%%EndComments
%%BeginProlog
/bp  { gs sRGB gs } def
% begin .ps.prolog
/gs  { gsave } bind def
/gr  { grestore } bind def
/ep  { showpage gr gr } bind def
/m   { moveto } bind def
/l  { rlineto } bind def
/np  { newpath } bind def
/cp  { closepath } bind def
/f   { fill } bind def
/o   { stroke } bind def
/c   { newpath 0 360 arc } bind def
/r   { 4 2 roll moveto 1 copy 3 -1 roll exch 0 exch rlineto 0 rlineto -1 mul 0 exch rlineto closepath } bind def
/p1  { stroke } bind def
/p2  { gsave bg fill grestore newpath } bind def
/p3  { gsave bg fill grestore stroke } bind def
/p6  { gsave bg eofill grestore newpath } bind def
/p7  { gsave bg eofill grestore stroke } bind def
/t   { 5 -2 roll moveto gsave rotate
       1 index stringwidth pop
       mul neg 0 rmoveto show grestore } bind def
/ta  { 4 -2 roll moveto gsave rotate show } bind def
/tb  { 2 -1 roll 0 rmoveto show } bind def
/cl  { grestore gsave newpath 3 index 3 index moveto 1 index
       4 -1 roll lineto  exch 1 index lineto lineto
       closepath clip newpath } bind def
/rgb { setrgbcolor } bind def
/s   { scalefont setfont } bind def
% end   .ps.prolog
/sRGB { [ /CIEBasedABC
          << /DecodeLMN
               [ { dup 0.03928 le
                        {12.92321 div}
                        {0.055 add 1.055 div 2.4 exp }
                     ifelse
                 } bind dup dup
               ]
             /MatrixLMN [0.412457 0.212673 0.019334
                         0.357576 0.715152 0.119192
                         0.180437 0.072175 0.950301]
             /WhitePoint [0.9505 1.0 1.0890]
           >>
         ] setcolorspace } bind def
/srgb { setcolor } bind def
%%IncludeResource: font Helvetica
/Helvetica findfont
dup length dict begin
  {1 index /FID ne {def} {pop pop} ifelse} forall
  /Encoding ISOLatin1Encoding def
  currentdict
  end
/Font1 exch definefont pop
%%IncludeResource: font Helvetica-Bold
/Helvetica-Bold findfont
dup length dict begin
  {1 index /FID ne {def} {pop pop} ifelse} forall
  /Encoding ISOLatin1Encoding def
  currentdict
  end
/Font2 exch definefont pop
%%IncludeResource: font Helvetica-Oblique
/Helvetica-Oblique findfont
dup length dict begin
  {1 index /FID ne {def} {pop pop} ifelse} forall
  /Encoding ISOLatin1Encoding def
  currentdict
  end
/Font3 exch definefont pop
%%IncludeResource: font Helvetica-BoldOblique
/Helvetica-BoldOblique findfont
dup length dict begin
  {1 index /FID ne {def} {pop pop} ifelse} forall
  /Encoding ISOLatin1Encoding def
  currentdict
  end
/Font4 exch definefont pop
%%IncludeResource: font Symbol
/Symbol findfont
dup length dict begin
  {1 index /FID ne {def} {pop pop} ifelse} forall
  currentdict
  end
/Font5 exch definefont pop
%%EndProlog
%%Page: 1 1
bp
0.00 0.00 595.28 198.43 cl
0.00 0.00 595.28 198.43 cl
0.00 0.00 595.28 198.43 cl
0.00 0.00 595.28 198.43 cl
0.00 0.00 595.28 198.43 cl
0.00 0.00 595.28 198.43 cl
0.00 0.00 595.28 198.43 cl
0.00 0.00 595.28 198.43 cl
0.00 0.00 595.28 198.43 cl
0.00 0.00 595.28 198.43 cl
0.00 0.00 595.28 198.43 cl
0.00 0.00 595.28 198.43 cl
0.00 0.00 595.28 198.43 cl
0.00 0.00 595.28 198.43 cl
0.00 0.00 595.28 198.43 cl
0.00 0.00 595.28 198.43 cl
0.00 0.00 595.28 198.43 cl
0.00 15.60 595.28 182.83 cl
/bg { 1 1 1 srgb } def
1 1 1 srgb
1.07 setlinewidth
[] 0 setdash
1 setlinecap
1 setlinejoin
10.00 setmiterlimit
0.00 15.60 595.28 167.23 r p3
0.00 0.00 595.28 198.43 cl
49.61 157.71 152.77 176.85 cl
/bg { 1 1 1 srgb } def
0.4980 0.4980 0.4980 srgb
0.43 setlinewidth
[] 0 setdash
1 setlinecap
1 setlinejoin
10.00 setmiterlimit
49.61 157.71 103.16 19.14 r p3
/Font1 findfont 10 s
0.1020 0.1020 0.1020 srgb
87.29 163.69 (fr) 0 ta
-0.100 (ance) tb gr
49.61 157.71 152.77 176.85 cl
0.00 0.00 595.28 198.43 cl
158.74 157.71 261.90 176.85 cl
/bg { 1 1 1 srgb } def
0.4980 0.4980 0.4980 srgb
0.43 setlinewidth
[] 0 setdash
1 setlinecap
1 setlinejoin
10.00 setmiterlimit
158.74 157.71 103.16 19.14 r p3
/Font1 findfont 10 s
0.1020 0.1020 0.1020 srgb
210.32 163.69 (gameofthrones) .5 0 t
158.74 157.71 261.90 176.85 cl
0.00 0.00 595.28 198.43 cl
267.88 157.71 371.03 176.85 cl
/bg { 1 1 1 srgb } def
0.4980 0.4980 0.4980 srgb
0.43 setlinewidth
[] 0 setdash
1 setlinecap
1 setlinejoin
10.00 setmiterlimit
267.88 157.71 103.16 19.14 r p3
/Font1 findfont 10 s
0.1020 0.1020 0.1020 srgb
281.10 163.69 (MachineLear) 0 ta
0.250 (ning) tb gr
267.88 157.71 371.03 176.85 cl
0.00 0.00 595.28 198.43 cl
377.01 157.71 480.16 176.85 cl
/bg { 1 1 1 srgb } def
0.4980 0.4980 0.4980 srgb
0.43 setlinewidth
[] 0 setdash
1 setlinecap
1 setlinejoin
10.00 setmiterlimit
377.01 157.71 103.16 19.14 r p3
/Font1 findfont 10 s
0.1020 0.1020 0.1020 srgb
428.59 163.69 (podemos) .5 0 t
377.01 157.71 480.16 176.85 cl
0.00 0.00 595.28 198.43 cl
486.14 157.71 589.30 176.85 cl
/bg { 1 1 1 srgb } def
0.4980 0.4980 0.4980 srgb
0.43 setlinewidth
[] 0 setdash
1 setlinecap
1 setlinejoin
10.00 setmiterlimit
486.14 157.71 103.16 19.14 r p3
/Font1 findfont 10 s
0.1020 0.1020 0.1020 srgb
492.44 163.69 (T) 0 ta
-1.200 (w) tb
-0.100 (oXChromosomes) tb gr
486.14 157.71 589.30 176.85 cl
0.00 0.00 595.28 198.43 cl
49.61 54.56 152.77 157.71 cl
/bg { 1 1 1 srgb } def
49.61 54.56 103.16 103.16 r p2
0.9804 0.9804 0.9804 srgb
1.07 setlinewidth
[] 0 setdash
0 setlinecap
1 setlinejoin
10.00 setmiterlimit
np
49.61 62.96 m
103.16 0 l
o
np
49.61 102.24 m
103.16 0 l
o
np
49.61 141.52 m
103.16 0 l
o
np
58.58 54.56 m
0 103.15 l
o
np
80.08 54.56 m
0 103.15 l
o
np
101.59 54.56 m
0 103.15 l
o
np
123.10 54.56 m
0 103.15 l
o
np
144.60 54.56 m
0 103.15 l
o
0.8980 0.8980 0.8980 srgb
0.43 setlinewidth
[] 0 setdash
np
49.61 82.60 m
103.16 0 l
o
np
49.61 121.88 m
103.16 0 l
o
np
69.33 54.56 m
0 103.15 l
o
np
90.84 54.56 m
0 103.15 l
o
np
112.34 54.56 m
0 103.15 l
o
np
133.85 54.56 m
0 103.15 l
o
/bg { 0 0 0 srgb } def
0 0 0 srgb
0.71 setlinewidth
[] 0 setdash
1 setlinecap
114.60 70.98 0.57 c p3
113.23 70.98 0.57 c p3
112.75 70.98 0.57 c p3
112.38 70.98 0.57 c p3
111.96 70.98 0.57 c p3
111.83 70.98 0.57 c p3
111.75 70.98 0.57 c p3
111.48 70.98 0.57 c p3
111.36 70.98 0.57 c p3
111.19 70.98 0.57 c p3
111.04 70.98 0.57 c p3
110.93 70.98 0.57 c p3
110.90 70.98 0.57 c p3
110.89 70.98 0.57 c p3
110.87 70.98 0.57 c p3
110.81 70.98 0.57 c p3
110.64 70.98 0.57 c p3
110.28 70.98 0.57 c p3
110.26 70.98 0.57 c p3
110.21 70.98 0.57 c p3
110.18 70.98 0.57 c p3
110.09 70.98 0.57 c p3
110.08 70.98 0.57 c p3
109.96 70.98 0.57 c p3
109.95 70.98 0.57 c p3
109.87 70.98 0.57 c p3
109.73 70.98 0.57 c p3
109.58 70.98 0.57 c p3
109.51 70.98 0.57 c p3
109.43 70.98 0.57 c p3
109.40 76.89 0.57 c p3
109.39 70.98 0.57 c p3
109.37 70.98 0.57 c p3
109.35 70.98 0.57 c p3
109.30 70.98 0.57 c p3
109.22 70.98 0.57 c p3
109.21 70.98 0.57 c p3
109.14 70.98 0.57 c p3
109.13 70.98 0.57 c p3
109.12 70.98 0.57 c p3
109.09 70.98 0.57 c p3
109.04 70.98 0.57 c p3
108.97 70.98 0.57 c p3
108.96 70.98 0.57 c p3
108.94 70.98 0.57 c p3
108.92 70.98 0.57 c p3
108.90 80.35 0.57 c p3
108.89 70.98 0.57 c p3
108.86 70.98 0.57 c p3
108.80 70.98 0.57 c p3
108.78 76.89 0.57 c p3
108.77 76.89 0.57 c p3
108.74 70.98 0.57 c p3
108.71 76.89 0.57 c p3
108.69 76.89 0.57 c p3
108.66 70.98 0.57 c p3
108.63 70.98 0.57 c p3
108.62 76.89 0.57 c p3
108.59 76.89 0.57 c p3
108.57 70.98 0.57 c p3
108.56 70.98 0.57 c p3
108.53 70.98 0.57 c p3
108.50 70.98 0.57 c p3
108.42 70.98 0.57 c p3
108.38 76.89 0.57 c p3
108.33 76.89 0.57 c p3
108.31 70.98 0.57 c p3
108.29 80.35 0.57 c p3
108.26 70.98 0.57 c p3
108.25 70.98 0.57 c p3
108.23 76.89 0.57 c p3
108.22 76.89 0.57 c p3
108.20 70.98 0.57 c p3
108.17 70.98 0.57 c p3
108.15 70.98 0.57 c p3
108.12 70.98 0.57 c p3
108.10 70.98 0.57 c p3
108.09 70.98 0.57 c p3
108.07 70.98 0.57 c p3
108.01 70.98 0.57 c p3
107.95 76.89 0.57 c p3
107.92 70.98 0.57 c p3
107.91 80.35 0.57 c p3
107.85 70.98 0.57 c p3
107.77 82.80 0.57 c p3
107.71 76.89 0.57 c p3
107.68 76.89 0.57 c p3
107.63 76.89 0.57 c p3
107.62 70.98 0.57 c p3
107.57 70.98 0.57 c p3
107.56 70.98 0.57 c p3
107.54 70.98 0.57 c p3
107.49 76.89 0.57 c p3
107.48 76.89 0.57 c p3
107.45 70.98 0.57 c p3
107.38 70.98 0.57 c p3
107.35 70.98 0.57 c p3
107.34 76.89 0.57 c p3
107.32 70.98 0.57 c p3
107.30 70.98 0.57 c p3
107.26 70.98 0.57 c p3
107.24 80.35 0.57 c p3
107.22 70.98 0.57 c p3
107.21 70.98 0.57 c p3
107.19 70.98 0.57 c p3
107.16 70.98 0.57 c p3
107.13 76.89 0.57 c p3
107.09 70.98 0.57 c p3
107.06 70.98 0.57 c p3
107.04 70.98 0.57 c p3
107.03 76.89 0.57 c p3
107.01 70.98 0.57 c p3
106.98 70.98 0.57 c p3
106.96 84.71 0.57 c p3
106.94 76.89 0.57 c p3
106.93 76.89 0.57 c p3
106.89 76.89 0.57 c p3
106.88 70.98 0.57 c p3
106.86 70.98 0.57 c p3
106.83 76.89 0.57 c p3
106.81 70.98 0.57 c p3
106.73 70.98 0.57 c p3
106.71 70.98 0.57 c p3
106.69 76.89 0.57 c p3
106.67 70.98 0.57 c p3
106.66 70.98 0.57 c p3
106.64 76.89 0.57 c p3
106.62 76.89 0.57 c p3
106.61 70.98 0.57 c p3
106.59 70.98 0.57 c p3
106.57 70.98 0.57 c p3
106.55 70.98 0.57 c p3
106.54 70.98 0.57 c p3
106.50 70.98 0.57 c p3
106.43 76.89 0.57 c p3
106.40 76.89 0.57 c p3
106.29 80.35 0.57 c p3
106.27 82.80 0.57 c p3
106.20 70.98 0.57 c p3
106.18 80.35 0.57 c p3
106.16 80.35 0.57 c p3
106.13 76.89 0.57 c p3
106.09 70.98 0.57 c p3
106.07 76.89 0.57 c p3
106.04 76.89 0.57 c p3
106.02 70.98 0.57 c p3
106.00 76.89 0.57 c p3
105.96 80.35 0.57 c p3
105.94 76.89 0.57 c p3
105.91 70.98 0.57 c p3
105.89 70.98 0.57 c p3
105.83 70.98 0.57 c p3
105.81 70.98 0.57 c p3
105.78 80.35 0.57 c p3
105.76 70.98 0.57 c p3
105.74 70.98 0.57 c p3
105.72 70.98 0.57 c p3
105.70 70.98 0.57 c p3
105.68 70.98 0.57 c p3
105.66 76.89 0.57 c p3
105.64 80.35 0.57 c p3
105.62 70.98 0.57 c p3
105.60 70.98 0.57 c p3
105.58 70.98 0.57 c p3
105.55 76.89 0.57 c p3
105.53 80.35 0.57 c p3
105.49 70.98 0.57 c p3
105.45 76.89 0.57 c p3
105.43 70.98 0.57 c p3
105.39 70.98 0.57 c p3
105.33 70.98 0.57 c p3
105.31 70.98 0.57 c p3
105.29 70.98 0.57 c p3
105.27 70.98 0.57 c p3
105.25 70.98 0.57 c p3
105.19 82.80 0.57 c p3
105.13 70.98 0.57 c p3
105.11 76.89 0.57 c p3
105.05 70.98 0.57 c p3
105.01 76.89 0.57 c p3
104.99 80.35 0.57 c p3
104.97 82.80 0.57 c p3
104.95 70.98 0.57 c p3
104.93 76.89 0.57 c p3
104.91 70.98 0.57 c p3
104.88 76.89 0.57 c p3
104.84 70.98 0.57 c p3
104.76 76.89 0.57 c p3
104.72 76.89 0.57 c p3
104.70 76.89 0.57 c p3
104.65 76.89 0.57 c p3
104.63 76.89 0.57 c p3
104.61 70.98 0.57 c p3
104.59 80.35 0.57 c p3
104.57 70.98 0.57 c p3
104.55 70.98 0.57 c p3
104.53 76.89 0.57 c p3
104.50 70.98 0.57 c p3
104.46 82.80 0.57 c p3
104.44 76.89 0.57 c p3
104.42 80.35 0.57 c p3
104.37 80.35 0.57 c p3
104.35 76.89 0.57 c p3
104.33 76.89 0.57 c p3
104.17 76.89 0.57 c p3
104.13 70.98 0.57 c p3
104.11 70.98 0.57 c p3
104.08 76.89 0.57 c p3
104.06 70.98 0.57 c p3
104.02 76.89 0.57 c p3
103.99 70.98 0.57 c p3
103.97 70.98 0.57 c p3
103.95 70.98 0.57 c p3
103.92 76.89 0.57 c p3
103.90 80.35 0.57 c p3
103.88 70.98 0.57 c p3
103.78 70.98 0.57 c p3
103.74 76.89 0.57 c p3
103.67 70.98 0.57 c p3
103.64 70.98 0.57 c p3
103.62 76.89 0.57 c p3
103.60 70.98 0.57 c p3
103.57 70.98 0.57 c p3
103.52 70.98 0.57 c p3
103.50 70.98 0.57 c p3
103.48 70.98 0.57 c p3
103.43 70.98 0.57 c p3
103.38 70.98 0.57 c p3
103.35 70.98 0.57 c p3
103.31 76.89 0.57 c p3
103.23 76.89 0.57 c p3
103.21 76.89 0.57 c p3
103.13 76.89 0.57 c p3
103.03 76.89 0.57 c p3
103.01 76.89 0.57 c p3
102.98 76.89 0.57 c p3
102.90 76.89 0.57 c p3
102.88 76.89 0.57 c p3
102.83 70.98 0.57 c p3
102.75 70.98 0.57 c p3
102.72 76.89 0.57 c p3
102.62 70.98 0.57 c p3
102.59 80.35 0.57 c p3
102.54 80.35 0.57 c p3
102.48 70.98 0.57 c p3
102.46 76.89 0.57 c p3
102.35 76.89 0.57 c p3
102.32 76.89 0.57 c p3
102.29 70.98 0.57 c p3
102.27 70.98 0.57 c p3
102.24 70.98 0.57 c p3
102.21 70.98 0.57 c p3
102.16 76.89 0.57 c p3
102.13 70.98 0.57 c p3
102.10 80.35 0.57 c p3
102.07 76.89 0.57 c p3
102.04 70.98 0.57 c p3
101.99 76.89 0.57 c p3
101.87 70.98 0.57 c p3
101.82 70.98 0.57 c p3
101.79 76.89 0.57 c p3
101.76 76.89 0.57 c p3
101.73 70.98 0.57 c p3
101.70 70.98 0.57 c p3
101.67 70.98 0.57 c p3
101.61 76.89 0.57 c p3
101.58 76.89 0.57 c p3
101.55 76.89 0.57 c p3
101.49 76.89 0.57 c p3
101.46 76.89 0.57 c p3
101.40 70.98 0.57 c p3
101.37 76.89 0.57 c p3
101.31 76.89 0.57 c p3
101.28 70.98 0.57 c p3
101.22 70.98 0.57 c p3
101.19 82.80 0.57 c p3
101.16 76.89 0.57 c p3
101.00 76.89 0.57 c p3
100.97 76.89 0.57 c p3
100.94 70.98 0.57 c p3
100.91 82.80 0.57 c p3
100.88 82.80 0.57 c p3
100.85 70.98 0.57 c p3
100.81 76.89 0.57 c p3
100.78 76.89 0.57 c p3
100.75 70.98 0.57 c p3
100.72 82.80 0.57 c p3
100.68 80.35 0.57 c p3
100.59 70.98 0.57 c p3
100.55 82.80 0.57 c p3
100.52 76.89 0.57 c p3
100.49 84.71 0.57 c p3
100.45 76.89 0.57 c p3
100.42 82.80 0.57 c p3
100.35 80.35 0.57 c p3
100.32 80.35 0.57 c p3
100.29 87.58 0.57 c p3
100.25 84.71 0.57 c p3
100.22 76.89 0.57 c p3
100.18 80.35 0.57 c p3
100.15 76.89 0.57 c p3
100.11 70.98 0.57 c p3
100.08 80.35 0.57 c p3
100.04 70.98 0.57 c p3
100.01 80.35 0.57 c p3
99.97 76.89 0.57 c p3
99.94 70.98 0.57 c p3
99.90 87.58 0.57 c p3
99.87 84.71 0.57 c p3
99.83 70.98 0.57 c p3
99.80 76.89 0.57 c p3
99.76 82.80 0.57 c p3
99.73 82.80 0.57 c p3
99.69 80.35 0.57 c p3
99.65 86.26 0.57 c p3
99.62 76.89 0.57 c p3
99.58 70.98 0.57 c p3
99.47 80.35 0.57 c p3
99.43 82.80 0.57 c p3
99.40 76.89 0.57 c p3
99.36 86.26 0.57 c p3
99.28 70.98 0.57 c p3
99.24 80.35 0.57 c p3
99.21 76.89 0.57 c p3
99.17 80.35 0.57 c p3
99.13 80.35 0.57 c p3
99.09 82.80 0.57 c p3
99.05 82.80 0.57 c p3
99.01 84.71 0.57 c p3
98.97 82.80 0.57 c p3
98.94 84.71 0.57 c p3
98.90 76.89 0.57 c p3
98.86 70.98 0.57 c p3
98.82 80.35 0.57 c p3
98.78 88.72 0.57 c p3
98.74 84.71 0.57 c p3
98.70 84.71 0.57 c p3
98.66 80.35 0.57 c p3
98.62 80.35 0.57 c p3
98.58 84.71 0.57 c p3
98.53 86.26 0.57 c p3
98.49 84.71 0.57 c p3
98.45 80.35 0.57 c p3
98.41 80.35 0.57 c p3
98.37 84.71 0.57 c p3
98.33 80.35 0.57 c p3
98.29 82.80 0.57 c p3
98.24 76.89 0.57 c p3
98.20 80.35 0.57 c p3
98.16 76.89 0.57 c p3
98.12 86.26 0.57 c p3
98.07 82.80 0.57 c p3
98.03 84.71 0.57 c p3
97.99 76.89 0.57 c p3
97.94 86.26 0.57 c p3
97.90 70.98 0.57 c p3
97.86 82.80 0.57 c p3
97.81 87.58 0.57 c p3
97.77 84.71 0.57 c p3
97.72 82.80 0.57 c p3
97.68 80.35 0.57 c p3
97.63 84.71 0.57 c p3
97.59 84.71 0.57 c p3
97.54 70.98 0.57 c p3
97.50 70.98 0.57 c p3
97.45 84.71 0.57 c p3
97.40 84.71 0.57 c p3
97.36 84.71 0.57 c p3
97.31 87.58 0.57 c p3
97.26 82.80 0.57 c p3
97.22 80.35 0.57 c p3
97.17 70.98 0.57 c p3
97.12 86.26 0.57 c p3
97.07 84.71 0.57 c p3
97.03 87.58 0.57 c p3
96.98 86.26 0.57 c p3
96.93 82.80 0.57 c p3
96.88 89.72 0.57 c p3
96.83 88.72 0.57 c p3
96.78 87.58 0.57 c p3
96.73 80.35 0.57 c p3
96.68 89.72 0.57 c p3
96.63 86.26 0.57 c p3
96.58 86.26 0.57 c p3
96.53 89.72 0.57 c p3
96.48 76.89 0.57 c p3
96.43 86.26 0.57 c p3
96.38 82.80 0.57 c p3
96.33 86.26 0.57 c p3
96.27 91.43 0.57 c p3
96.22 84.71 0.57 c p3
96.17 82.80 0.57 c p3
96.12 84.71 0.57 c p3
96.06 86.26 0.57 c p3
96.01 82.80 0.57 c p3
95.96 80.35 0.57 c p3
95.90 82.80 0.57 c p3
95.85 82.80 0.57 c p3
95.79 90.62 0.57 c p3
95.74 89.72 0.57 c p3
95.68 89.72 0.57 c p3
95.63 87.58 0.57 c p3
95.57 82.80 0.57 c p3
95.51 87.58 0.57 c p3
95.46 92.17 0.57 c p3
95.40 84.71 0.57 c p3
95.34 87.58 0.57 c p3
95.29 91.43 0.57 c p3
95.23 82.80 0.57 c p3
95.17 88.72 0.57 c p3
95.11 89.72 0.57 c p3
95.05 87.58 0.57 c p3
94.99 88.72 0.57 c p3
94.93 92.17 0.57 c p3
94.87 92.17 0.57 c p3
94.81 92.86 0.57 c p3
94.75 89.72 0.57 c p3
94.69 86.26 0.57 c p3
94.62 88.72 0.57 c p3
94.56 87.58 0.57 c p3
94.50 89.72 0.57 c p3
94.44 91.43 0.57 c p3
94.37 87.58 0.57 c p3
94.31 90.62 0.57 c p3
94.24 87.58 0.57 c p3
94.18 91.43 0.57 c p3
94.11 90.62 0.57 c p3
94.05 96.09 0.57 c p3
93.98 84.71 0.57 c p3
93.91 94.63 0.57 c p3
93.85 94.08 0.57 c p3
93.78 92.17 0.57 c p3
93.71 90.62 0.57 c p3
93.64 91.43 0.57 c p3
93.57 86.26 0.57 c p3
93.50 94.63 0.57 c p3
93.43 93.49 0.57 c p3
93.36 88.72 0.57 c p3
93.29 90.62 0.57 c p3
93.22 94.63 0.57 c p3
93.14 93.49 0.57 c p3
93.07 95.63 0.57 c p3
93.00 96.53 0.57 c p3
92.92 92.86 0.57 c p3
92.85 92.86 0.57 c p3
92.77 90.62 0.57 c p3
92.69 88.72 0.57 c p3
92.62 94.63 0.57 c p3
92.54 93.49 0.57 c p3
92.46 96.95 0.57 c p3
92.38 93.49 0.57 c p3
92.30 87.58 0.57 c p3
92.22 95.15 0.57 c p3
92.14 95.63 0.57 c p3
92.06 96.53 0.57 c p3
91.98 94.08 0.57 c p3
91.90 96.53 0.57 c p3
91.81 92.17 0.57 c p3
91.73 99.40 0.57 c p3
91.64 95.15 0.57 c p3
91.56 96.95 0.57 c p3
91.47 99.99 0.57 c p3
91.38 94.63 0.57 c p3
91.29 96.09 0.57 c p3
91.20 97.34 0.57 c p3
91.11 95.15 0.57 c p3
91.02 96.95 0.57 c p3
90.93 99.09 0.57 c p3
90.84 98.09 0.57 c p3
90.74 97.34 0.57 c p3
90.65 99.99 0.57 c p3
90.55 96.95 0.57 c p3
90.46 97.72 0.57 c p3
90.36 99.09 0.57 c p3
90.26 96.53 0.57 c p3
90.16 99.99 0.57 c p3
90.06 101.55 0.57 c p3
89.96 99.99 0.57 c p3
89.85 100.27 0.57 c p3
89.75 102.66 0.57 c p3
89.64 99.09 0.57 c p3
89.54 100.27 0.57 c p3
89.43 101.78 0.57 c p3
89.32 101.55 0.57 c p3
89.21 102.23 0.57 c p3
89.10 101.31 0.57 c p3
88.98 101.06 0.57 c p3
88.87 100.54 0.57 c p3
88.75 101.78 0.57 c p3
88.64 100.54 0.57 c p3
88.52 102.23 0.57 c p3
88.40 104.52 0.57 c p3
88.27 102.86 0.57 c p3
88.15 104.00 0.57 c p3
88.02 102.86 0.57 c p3
87.90 103.45 0.57 c p3
87.77 104.52 0.57 c p3
87.64 104.00 0.57 c p3
87.51 103.64 0.57 c p3
87.37 105.31 0.57 c p3
87.24 106.59 0.57 c p3
87.10 104.68 0.57 c p3
86.96 107.46 0.57 c p3
86.81 105.47 0.57 c p3
86.67 105.90 0.57 c p3
86.52 105.00 0.57 c p3
86.37 106.32 0.57 c p3
86.22 106.18 0.57 c p3
86.07 108.46 0.57 c p3
85.91 106.97 0.57 c p3
85.75 106.45 0.57 c p3
85.59 109.07 0.57 c p3
85.42 109.64 0.57 c p3
85.25 109.07 0.57 c p3
85.08 109.36 0.57 c p3
84.91 109.17 0.57 c p3
84.73 110.00 0.57 c p3
84.55 110.00 0.57 c p3
84.36 111.38 0.57 c p3
84.17 111.00 0.57 c p3
83.98 111.96 0.57 c p3
83.79 110.84 0.57 c p3
83.58 112.30 0.57 c p3
83.38 112.43 0.57 c p3
83.17 112.03 0.57 c p3
82.95 113.19 0.57 c p3
82.73 114.32 0.57 c p3
82.51 114.58 0.57 c p3
82.28 112.95 0.57 c p3
82.04 114.74 0.57 c p3
81.80 114.16 0.57 c p3
81.55 115.32 0.57 c p3
81.30 114.22 0.57 c p3
81.03 116.09 0.57 c p3
80.76 117.10 0.57 c p3
80.48 117.14 0.57 c p3
80.19 118.08 0.57 c p3
79.90 117.55 0.57 c p3
79.59 118.61 0.57 c p3
79.28 119.40 0.57 c p3
78.95 119.37 0.57 c p3
78.61 120.37 0.57 c p3
78.26 120.50 0.57 c p3
77.89 121.02 0.57 c p3
77.51 120.65 0.57 c p3
77.11 122.11 0.57 c p3
76.70 122.60 0.57 c p3
76.26 123.03 0.57 c p3
75.81 123.11 0.57 c p3
75.33 123.61 0.57 c p3
74.82 124.31 0.57 c p3
74.29 125.70 0.57 c p3
73.72 125.78 0.57 c p3
73.12 127.12 0.57 c p3
72.47 128.38 0.57 c p3
71.78 128.09 0.57 c p3
71.03 129.66 0.57 c p3
70.22 130.07 0.57 c p3
69.33 130.97 0.57 c p3
68.35 131.89 0.57 c p3
67.25 133.10 0.57 c p3
66.00 134.32 0.57 c p3
64.56 135.47 0.57 c p3
62.86 136.78 0.57 c p3
60.77 138.24 0.57 c p3
58.09 140.36 0.57 c p3
54.30 144.11 0.57 c p3
0.4980 0.4980 0.4980 srgb
1.07 setlinewidth
[] 0 setdash
49.61 54.56 103.16 103.16 r p1
0.00 0.00 595.28 198.43 cl
158.74 54.56 261.90 157.71 cl
/bg { 1 1 1 srgb } def
158.74 54.56 103.16 103.16 r p2
0.9804 0.9804 0.9804 srgb
1.07 setlinewidth
[] 0 setdash
0 setlinecap
1 setlinejoin
10.00 setmiterlimit
np
158.74 62.96 m
103.16 0 l
o
np
158.74 102.24 m
103.16 0 l
o
np
158.74 141.52 m
103.16 0 l
o
np
167.71 54.56 m
0 103.15 l
o
np
189.22 54.56 m
0 103.15 l
o
np
210.72 54.56 m
0 103.15 l
o
np
232.23 54.56 m
0 103.15 l
o
np
253.73 54.56 m
0 103.15 l
o
0.8980 0.8980 0.8980 srgb
0.43 setlinewidth
[] 0 setdash
np
158.74 82.60 m
103.16 0 l
o
np
158.74 121.88 m
103.16 0 l
o
np
178.46 54.56 m
0 103.15 l
o
np
199.97 54.56 m
0 103.15 l
o
np
221.48 54.56 m
0 103.15 l
o
np
242.98 54.56 m
0 103.15 l
o
/bg { 0 0 0 srgb } def
0 0 0 srgb
0.71 setlinewidth
[] 0 setdash
1 setlinecap
249.56 59.25 0.57 c p3
249.00 59.25 0.57 c p3
247.31 59.25 0.57 c p3
246.25 59.25 0.57 c p3
246.13 59.25 0.57 c p3
245.97 59.25 0.57 c p3
245.60 59.25 0.57 c p3
245.20 59.25 0.57 c p3
244.81 59.25 0.57 c p3
244.80 59.25 0.57 c p3
244.77 59.25 0.57 c p3
244.65 59.25 0.57 c p3
244.54 59.25 0.57 c p3
242.57 59.25 0.57 c p3
242.07 59.25 0.57 c p3
241.39 59.25 0.57 c p3
241.26 59.25 0.57 c p3
241.04 59.25 0.57 c p3
240.75 59.25 0.57 c p3
240.47 59.25 0.57 c p3
240.11 59.25 0.57 c p3
239.94 59.25 0.57 c p3
239.89 59.25 0.57 c p3
239.76 59.25 0.57 c p3
239.67 59.25 0.57 c p3
239.36 59.25 0.57 c p3
239.25 59.25 0.57 c p3
238.46 59.25 0.57 c p3
238.28 59.25 0.57 c p3
237.42 59.25 0.57 c p3
237.41 59.25 0.57 c p3
237.33 59.25 0.57 c p3
237.09 59.25 0.57 c p3
237.05 59.25 0.57 c p3
236.92 59.25 0.57 c p3
236.83 59.25 0.57 c p3
236.52 59.25 0.57 c p3
236.44 59.25 0.57 c p3
236.09 59.25 0.57 c p3
236.02 59.25 0.57 c p3
234.69 59.25 0.57 c p3
234.45 59.25 0.57 c p3
234.36 59.25 0.57 c p3
233.70 59.25 0.57 c p3
233.17 59.25 0.57 c p3
233.06 59.25 0.57 c p3
232.97 59.25 0.57 c p3
232.85 59.25 0.57 c p3
232.83 59.25 0.57 c p3
232.17 59.25 0.57 c p3
231.76 59.25 0.57 c p3
231.66 59.25 0.57 c p3
231.10 59.25 0.57 c p3
231.08 59.25 0.57 c p3
230.94 59.25 0.57 c p3
230.91 59.25 0.57 c p3
230.85 59.25 0.57 c p3
230.81 59.25 0.57 c p3
230.40 59.25 0.57 c p3
230.07 59.25 0.57 c p3
229.66 59.25 0.57 c p3
229.62 59.25 0.57 c p3
229.53 59.25 0.57 c p3
229.40 59.25 0.57 c p3
229.05 59.25 0.57 c p3
229.05 59.25 0.57 c p3
228.41 59.25 0.57 c p3
228.17 59.25 0.57 c p3
227.64 59.25 0.57 c p3
227.46 59.25 0.57 c p3
227.14 59.25 0.57 c p3
227.04 59.25 0.57 c p3
227.00 59.25 0.57 c p3
226.91 59.25 0.57 c p3
226.74 59.25 0.57 c p3
226.72 59.25 0.57 c p3
226.53 59.25 0.57 c p3
226.45 59.25 0.57 c p3
226.38 59.25 0.57 c p3
226.34 59.25 0.57 c p3
226.14 59.25 0.57 c p3
226.13 59.25 0.57 c p3
225.80 59.25 0.57 c p3
225.75 59.25 0.57 c p3
225.65 59.25 0.57 c p3
225.64 59.25 0.57 c p3
225.58 59.25 0.57 c p3
225.36 59.25 0.57 c p3
225.35 59.25 0.57 c p3
225.33 65.16 0.57 c p3
225.28 59.25 0.57 c p3
225.06 59.25 0.57 c p3
225.02 59.25 0.57 c p3
224.80 59.25 0.57 c p3
224.74 59.25 0.57 c p3
224.71 59.25 0.57 c p3
224.64 59.25 0.57 c p3
224.56 59.25 0.57 c p3
224.41 59.25 0.57 c p3
224.37 59.25 0.57 c p3
224.33 59.25 0.57 c p3
224.30 59.25 0.57 c p3
224.24 65.16 0.57 c p3
224.13 59.25 0.57 c p3
224.11 59.25 0.57 c p3
223.98 65.16 0.57 c p3
223.96 59.25 0.57 c p3
223.90 59.25 0.57 c p3
223.81 59.25 0.57 c p3
223.80 59.25 0.57 c p3
223.80 59.25 0.57 c p3
223.76 59.25 0.57 c p3
223.75 59.25 0.57 c p3
223.74 59.25 0.57 c p3
223.69 59.25 0.57 c p3
223.68 59.25 0.57 c p3
223.66 59.25 0.57 c p3
223.59 59.25 0.57 c p3
223.45 59.25 0.57 c p3
223.36 59.25 0.57 c p3
223.33 59.25 0.57 c p3
223.32 59.25 0.57 c p3
223.30 59.25 0.57 c p3
223.26 68.62 0.57 c p3
223.25 59.25 0.57 c p3
223.22 59.25 0.57 c p3
223.18 59.25 0.57 c p3
223.16 59.25 0.57 c p3
223.12 59.25 0.57 c p3
223.08 59.25 0.57 c p3
223.07 59.25 0.57 c p3
222.99 59.25 0.57 c p3
222.98 59.25 0.57 c p3
222.88 59.25 0.57 c p3
222.85 59.25 0.57 c p3
222.81 59.25 0.57 c p3
222.81 59.25 0.57 c p3
222.69 68.62 0.57 c p3
222.60 59.25 0.57 c p3
222.57 59.25 0.57 c p3
222.54 59.25 0.57 c p3
222.49 59.25 0.57 c p3
222.44 59.25 0.57 c p3
222.42 59.25 0.57 c p3
222.37 59.25 0.57 c p3
222.28 59.25 0.57 c p3
222.27 59.25 0.57 c p3
222.25 65.16 0.57 c p3
222.24 59.25 0.57 c p3
222.22 65.16 0.57 c p3
222.20 59.25 0.57 c p3
222.18 59.25 0.57 c p3
222.16 59.25 0.57 c p3
222.13 59.25 0.57 c p3
222.02 59.25 0.57 c p3
221.98 59.25 0.57 c p3
221.97 59.25 0.57 c p3
221.96 59.25 0.57 c p3
221.90 59.25 0.57 c p3
221.88 59.25 0.57 c p3
221.81 59.25 0.57 c p3
221.79 59.25 0.57 c p3
221.74 59.25 0.57 c p3
221.72 59.25 0.57 c p3
221.67 59.25 0.57 c p3
221.65 65.16 0.57 c p3
221.64 59.25 0.57 c p3
221.59 59.25 0.57 c p3
221.46 59.25 0.57 c p3
221.42 59.25 0.57 c p3
221.40 59.25 0.57 c p3
221.38 59.25 0.57 c p3
221.35 59.25 0.57 c p3
221.34 59.25 0.57 c p3
221.33 59.25 0.57 c p3
221.30 59.25 0.57 c p3
221.16 59.25 0.57 c p3
221.15 59.25 0.57 c p3
221.10 59.25 0.57 c p3
221.08 59.25 0.57 c p3
221.04 59.25 0.57 c p3
220.98 59.25 0.57 c p3
220.96 59.25 0.57 c p3
220.94 59.25 0.57 c p3
220.92 59.25 0.57 c p3
220.91 59.25 0.57 c p3
220.90 59.25 0.57 c p3
220.88 59.25 0.57 c p3
220.86 59.25 0.57 c p3
220.83 59.25 0.57 c p3
220.81 65.16 0.57 c p3
220.77 59.25 0.57 c p3
220.73 59.25 0.57 c p3
220.67 59.25 0.57 c p3
220.66 59.25 0.57 c p3
220.56 59.25 0.57 c p3
220.53 59.25 0.57 c p3
220.51 59.25 0.57 c p3
220.45 59.25 0.57 c p3
220.39 65.16 0.57 c p3
220.37 59.25 0.57 c p3
220.31 59.25 0.57 c p3
220.30 65.16 0.57 c p3
220.28 65.16 0.57 c p3
220.27 59.25 0.57 c p3
220.24 59.25 0.57 c p3
220.23 65.16 0.57 c p3
220.19 59.25 0.57 c p3
220.15 65.16 0.57 c p3
220.14 59.25 0.57 c p3
220.13 59.25 0.57 c p3
220.12 59.25 0.57 c p3
220.11 59.25 0.57 c p3
220.08 59.25 0.57 c p3
220.06 65.16 0.57 c p3
220.05 65.16 0.57 c p3
220.03 59.25 0.57 c p3
220.02 65.16 0.57 c p3
219.99 65.16 0.57 c p3
219.95 65.16 0.57 c p3
219.94 59.25 0.57 c p3
219.90 59.25 0.57 c p3
219.89 68.62 0.57 c p3
219.88 65.16 0.57 c p3
219.87 59.25 0.57 c p3
219.85 59.25 0.57 c p3
219.84 59.25 0.57 c p3
219.83 59.25 0.57 c p3
219.77 59.25 0.57 c p3
219.72 65.16 0.57 c p3
219.71 59.25 0.57 c p3
219.70 65.16 0.57 c p3
219.69 59.25 0.57 c p3
219.66 59.25 0.57 c p3
219.59 59.25 0.57 c p3
219.54 59.25 0.57 c p3
219.51 59.25 0.57 c p3
219.47 59.25 0.57 c p3
219.46 59.25 0.57 c p3
219.43 59.25 0.57 c p3
219.40 59.25 0.57 c p3
219.38 59.25 0.57 c p3
219.37 59.25 0.57 c p3
219.33 65.16 0.57 c p3
219.32 65.16 0.57 c p3
219.31 59.25 0.57 c p3
219.30 59.25 0.57 c p3
219.29 65.16 0.57 c p3
219.25 59.25 0.57 c p3
219.24 65.16 0.57 c p3
219.22 65.16 0.57 c p3
219.20 59.25 0.57 c p3
219.19 59.25 0.57 c p3
219.17 59.25 0.57 c p3
219.11 65.16 0.57 c p3
219.08 59.25 0.57 c p3
219.06 65.16 0.57 c p3
219.05 59.25 0.57 c p3
219.03 65.16 0.57 c p3
219.02 59.25 0.57 c p3
219.00 65.16 0.57 c p3
218.97 65.16 0.57 c p3
218.95 59.25 0.57 c p3
218.94 59.25 0.57 c p3
218.93 59.25 0.57 c p3
218.91 59.25 0.57 c p3
218.90 59.25 0.57 c p3
218.88 59.25 0.57 c p3
218.85 68.62 0.57 c p3
218.83 59.25 0.57 c p3
218.81 59.25 0.57 c p3
218.78 65.16 0.57 c p3
218.76 59.25 0.57 c p3
218.69 71.07 0.57 c p3
218.65 65.16 0.57 c p3
218.57 59.25 0.57 c p3
218.56 68.62 0.57 c p3
218.55 59.25 0.57 c p3
218.54 59.25 0.57 c p3
218.52 59.25 0.57 c p3
218.51 59.25 0.57 c p3
218.50 59.25 0.57 c p3
218.47 59.25 0.57 c p3
218.45 65.16 0.57 c p3
218.42 68.62 0.57 c p3
218.41 59.25 0.57 c p3
218.39 65.16 0.57 c p3
218.38 59.25 0.57 c p3
218.34 59.25 0.57 c p3
218.33 68.62 0.57 c p3
218.30 59.25 0.57 c p3
218.29 65.16 0.57 c p3
218.28 59.25 0.57 c p3
218.26 59.25 0.57 c p3
218.25 59.25 0.57 c p3
218.24 59.25 0.57 c p3
218.22 65.16 0.57 c p3
218.20 59.25 0.57 c p3
218.18 59.25 0.57 c p3
218.17 59.25 0.57 c p3
218.14 65.16 0.57 c p3
218.13 59.25 0.57 c p3
218.12 59.25 0.57 c p3
218.08 59.25 0.57 c p3
218.06 59.25 0.57 c p3
218.05 59.25 0.57 c p3
218.02 65.16 0.57 c p3
218.01 59.25 0.57 c p3
218.00 59.25 0.57 c p3
217.98 59.25 0.57 c p3
217.97 65.16 0.57 c p3
217.96 59.25 0.57 c p3
217.94 59.25 0.57 c p3
217.92 59.25 0.57 c p3
217.90 59.25 0.57 c p3
217.89 59.25 0.57 c p3
217.85 59.25 0.57 c p3
217.83 65.16 0.57 c p3
217.79 68.62 0.57 c p3
217.78 65.16 0.57 c p3
217.76 68.62 0.57 c p3
217.75 59.25 0.57 c p3
217.71 68.62 0.57 c p3
217.69 59.25 0.57 c p3
217.68 59.25 0.57 c p3
217.67 68.62 0.57 c p3
217.65 59.25 0.57 c p3
217.64 59.25 0.57 c p3
217.60 65.16 0.57 c p3
217.58 65.16 0.57 c p3
217.52 59.25 0.57 c p3
217.50 59.25 0.57 c p3
217.45 65.16 0.57 c p3
217.42 65.16 0.57 c p3
217.41 59.25 0.57 c p3
217.39 59.25 0.57 c p3
217.37 65.16 0.57 c p3
217.32 71.07 0.57 c p3
217.29 71.07 0.57 c p3
217.26 65.16 0.57 c p3
217.25 65.16 0.57 c p3
217.23 59.25 0.57 c p3
217.22 59.25 0.57 c p3
217.19 68.62 0.57 c p3
217.18 65.16 0.57 c p3
217.15 59.25 0.57 c p3
217.13 59.25 0.57 c p3
217.10 59.25 0.57 c p3
217.07 59.25 0.57 c p3
217.06 59.25 0.57 c p3
217.01 59.25 0.57 c p3
217.00 65.16 0.57 c p3
216.98 71.07 0.57 c p3
216.97 68.62 0.57 c p3
216.95 59.25 0.57 c p3
216.92 65.16 0.57 c p3
216.91 59.25 0.57 c p3
216.89 59.25 0.57 c p3
216.87 59.25 0.57 c p3
216.84 65.16 0.57 c p3
216.78 59.25 0.57 c p3
216.75 65.16 0.57 c p3
216.74 71.07 0.57 c p3
216.72 65.16 0.57 c p3
216.67 65.16 0.57 c p3
216.64 59.25 0.57 c p3
216.63 59.25 0.57 c p3
216.61 59.25 0.57 c p3
216.58 65.16 0.57 c p3
216.56 59.25 0.57 c p3
216.55 68.62 0.57 c p3
216.53 65.16 0.57 c p3
216.52 59.25 0.57 c p3
216.50 65.16 0.57 c p3
216.48 68.62 0.57 c p3
216.47 59.25 0.57 c p3
216.45 65.16 0.57 c p3
216.42 74.53 0.57 c p3
216.40 65.16 0.57 c p3
216.39 59.25 0.57 c p3
216.37 71.07 0.57 c p3
216.34 68.62 0.57 c p3
216.31 71.07 0.57 c p3
216.26 59.25 0.57 c p3
216.23 65.16 0.57 c p3
216.21 68.62 0.57 c p3
216.19 65.16 0.57 c p3
216.18 65.16 0.57 c p3
216.16 59.25 0.57 c p3
216.13 65.16 0.57 c p3
216.11 65.16 0.57 c p3
216.08 71.07 0.57 c p3
216.06 68.62 0.57 c p3
216.04 72.98 0.57 c p3
216.03 65.16 0.57 c p3
215.99 59.25 0.57 c p3
215.96 65.16 0.57 c p3
215.89 59.25 0.57 c p3
215.88 68.62 0.57 c p3
215.86 59.25 0.57 c p3
215.82 65.16 0.57 c p3
215.81 68.62 0.57 c p3
215.79 65.16 0.57 c p3
215.77 59.25 0.57 c p3
215.76 59.25 0.57 c p3
215.74 72.98 0.57 c p3
215.72 68.62 0.57 c p3
215.69 71.07 0.57 c p3
215.67 68.62 0.57 c p3
215.65 59.25 0.57 c p3
215.63 68.62 0.57 c p3
215.62 59.25 0.57 c p3
215.60 59.25 0.57 c p3
215.58 65.16 0.57 c p3
215.56 59.25 0.57 c p3
215.55 59.25 0.57 c p3
215.53 65.16 0.57 c p3
215.51 68.62 0.57 c p3
215.49 59.25 0.57 c p3
215.48 59.25 0.57 c p3
215.46 59.25 0.57 c p3
215.44 72.98 0.57 c p3
215.42 68.62 0.57 c p3
215.40 59.25 0.57 c p3
215.37 65.16 0.57 c p3
215.35 59.25 0.57 c p3
215.33 72.98 0.57 c p3
215.31 74.53 0.57 c p3
215.30 59.25 0.57 c p3
215.28 65.16 0.57 c p3
215.26 75.85 0.57 c p3
215.24 65.16 0.57 c p3
215.22 65.16 0.57 c p3
215.21 72.98 0.57 c p3
215.19 68.62 0.57 c p3
215.17 74.53 0.57 c p3
215.15 65.16 0.57 c p3
215.13 65.16 0.57 c p3
215.11 59.25 0.57 c p3
215.09 68.62 0.57 c p3
215.06 65.16 0.57 c p3
215.04 65.16 0.57 c p3
215.02 65.16 0.57 c p3
215.00 65.16 0.57 c p3
214.98 65.16 0.57 c p3
214.95 65.16 0.57 c p3
214.93 72.98 0.57 c p3
214.91 65.16 0.57 c p3
214.89 68.62 0.57 c p3
214.87 65.16 0.57 c p3
214.85 59.25 0.57 c p3
214.83 65.16 0.57 c p3
214.81 59.25 0.57 c p3
214.79 68.62 0.57 c p3
214.78 59.25 0.57 c p3
214.76 65.16 0.57 c p3
214.74 68.62 0.57 c p3
214.72 71.07 0.57 c p3
214.70 71.07 0.57 c p3
214.68 71.07 0.57 c p3
214.66 59.25 0.57 c p3
214.64 68.62 0.57 c p3
214.62 65.16 0.57 c p3
214.60 68.62 0.57 c p3
214.58 71.07 0.57 c p3
214.56 65.16 0.57 c p3
214.54 59.25 0.57 c p3
214.52 65.16 0.57 c p3
214.50 72.98 0.57 c p3
214.46 68.62 0.57 c p3
214.44 78.89 0.57 c p3
214.42 71.07 0.57 c p3
214.40 72.98 0.57 c p3
214.38 59.25 0.57 c p3
214.36 68.62 0.57 c p3
214.34 71.07 0.57 c p3
214.32 65.16 0.57 c p3
214.30 59.25 0.57 c p3
214.28 71.07 0.57 c p3
214.26 71.07 0.57 c p3
214.24 72.98 0.57 c p3
214.22 75.85 0.57 c p3
214.20 59.25 0.57 c p3
214.18 59.25 0.57 c p3
214.16 72.98 0.57 c p3
214.14 65.16 0.57 c p3
214.12 68.62 0.57 c p3
214.10 59.25 0.57 c p3
214.08 72.98 0.57 c p3
214.06 65.16 0.57 c p3
214.04 72.98 0.57 c p3
214.02 59.25 0.57 c p3
213.98 59.25 0.57 c p3
213.96 74.53 0.57 c p3
213.93 65.16 0.57 c p3
213.91 59.25 0.57 c p3
213.89 68.62 0.57 c p3
213.87 71.07 0.57 c p3
213.85 65.16 0.57 c p3
213.83 71.07 0.57 c p3
213.81 65.16 0.57 c p3
213.79 68.62 0.57 c p3
213.77 68.62 0.57 c p3
213.74 59.25 0.57 c p3
213.72 68.62 0.57 c p3
213.70 65.16 0.57 c p3
213.68 74.53 0.57 c p3
213.66 59.25 0.57 c p3
213.64 65.16 0.57 c p3
213.62 68.62 0.57 c p3
213.59 71.07 0.57 c p3
213.57 72.98 0.57 c p3
213.55 59.25 0.57 c p3
213.53 72.98 0.57 c p3
213.51 68.62 0.57 c p3
213.48 65.16 0.57 c p3
213.46 59.25 0.57 c p3
213.44 72.98 0.57 c p3
213.42 72.98 0.57 c p3
213.40 68.62 0.57 c p3
213.37 59.25 0.57 c p3
213.35 68.62 0.57 c p3
213.33 65.16 0.57 c p3
213.31 59.25 0.57 c p3
213.28 72.98 0.57 c p3
213.26 76.99 0.57 c p3
213.24 74.53 0.57 c p3
213.22 75.85 0.57 c p3
213.19 74.53 0.57 c p3
213.17 71.07 0.57 c p3
213.15 74.53 0.57 c p3
213.13 68.62 0.57 c p3
213.10 71.07 0.57 c p3
213.08 59.25 0.57 c p3
213.06 72.98 0.57 c p3
213.03 71.07 0.57 c p3
213.01 71.07 0.57 c p3
212.99 65.16 0.57 c p3
212.96 72.98 0.57 c p3
212.94 68.62 0.57 c p3
212.92 74.53 0.57 c p3
212.89 65.16 0.57 c p3
212.87 65.16 0.57 c p3
212.85 65.16 0.57 c p3
212.82 77.99 0.57 c p3
212.80 68.62 0.57 c p3
212.78 71.07 0.57 c p3
212.75 72.98 0.57 c p3
212.73 71.07 0.57 c p3
212.71 71.07 0.57 c p3
212.68 72.98 0.57 c p3
212.66 76.99 0.57 c p3
212.63 71.07 0.57 c p3
212.61 75.85 0.57 c p3
212.59 68.62 0.57 c p3
212.56 71.07 0.57 c p3
212.54 75.85 0.57 c p3
212.51 74.53 0.57 c p3
212.49 65.16 0.57 c p3
212.46 72.98 0.57 c p3
212.44 72.98 0.57 c p3
212.41 74.53 0.57 c p3
212.39 68.62 0.57 c p3
212.36 76.99 0.57 c p3
212.34 68.62 0.57 c p3
212.32 68.62 0.57 c p3
212.29 65.16 0.57 c p3
212.27 74.53 0.57 c p3
212.24 71.07 0.57 c p3
212.21 71.07 0.57 c p3
212.19 59.25 0.57 c p3
212.16 76.99 0.57 c p3
212.14 65.16 0.57 c p3
212.11 68.62 0.57 c p3
212.09 76.99 0.57 c p3
212.06 72.98 0.57 c p3
212.04 72.98 0.57 c p3
212.01 74.53 0.57 c p3
211.99 75.85 0.57 c p3
211.96 72.98 0.57 c p3
211.93 68.62 0.57 c p3
211.91 76.99 0.57 c p3
211.88 72.98 0.57 c p3
211.86 72.98 0.57 c p3
211.83 77.99 0.57 c p3
211.80 65.16 0.57 c p3
211.78 68.62 0.57 c p3
211.75 75.85 0.57 c p3
211.72 76.99 0.57 c p3
211.70 59.25 0.57 c p3
211.67 74.53 0.57 c p3
211.64 71.07 0.57 c p3
211.62 71.07 0.57 c p3
211.59 78.89 0.57 c p3
211.56 74.53 0.57 c p3
211.54 72.98 0.57 c p3
211.51 77.99 0.57 c p3
211.48 72.98 0.57 c p3
211.45 76.99 0.57 c p3
211.43 71.07 0.57 c p3
211.40 77.99 0.57 c p3
211.37 76.99 0.57 c p3
211.34 72.98 0.57 c p3
211.32 68.62 0.57 c p3
211.29 72.98 0.57 c p3
211.26 78.89 0.57 c p3
211.23 72.98 0.57 c p3
211.21 72.98 0.57 c p3
211.18 75.85 0.57 c p3
211.15 68.62 0.57 c p3
211.12 71.07 0.57 c p3
211.09 65.16 0.57 c p3
211.06 76.99 0.57 c p3
211.04 77.99 0.57 c p3
211.01 74.53 0.57 c p3
210.98 72.98 0.57 c p3
210.95 71.07 0.57 c p3
210.92 78.89 0.57 c p3
210.89 79.70 0.57 c p3
210.86 65.16 0.57 c p3
210.83 77.99 0.57 c p3
210.80 74.53 0.57 c p3
210.78 71.07 0.57 c p3
210.75 77.99 0.57 c p3
210.72 72.98 0.57 c p3
210.69 71.07 0.57 c p3
210.66 68.62 0.57 c p3
210.63 74.53 0.57 c p3
210.60 74.53 0.57 c p3
210.57 72.98 0.57 c p3
210.54 68.62 0.57 c p3
210.51 71.07 0.57 c p3
210.48 77.99 0.57 c p3
210.45 74.53 0.57 c p3
210.42 76.99 0.57 c p3
210.39 77.99 0.57 c p3
210.35 74.53 0.57 c p3
210.32 77.99 0.57 c p3
210.29 74.53 0.57 c p3
210.26 79.70 0.57 c p3
210.23 75.85 0.57 c p3
210.20 76.99 0.57 c p3
210.17 79.70 0.57 c p3
210.14 77.99 0.57 c p3
210.11 74.53 0.57 c p3
210.07 72.98 0.57 c p3
210.04 77.99 0.57 c p3
210.01 81.76 0.57 c p3
209.98 78.89 0.57 c p3
209.95 76.99 0.57 c p3
209.91 79.70 0.57 c p3
209.88 81.76 0.57 c p3
209.85 76.99 0.57 c p3
209.82 74.53 0.57 c p3
209.78 77.99 0.57 c p3
209.75 59.25 0.57 c p3
209.72 75.85 0.57 c p3
209.69 74.53 0.57 c p3
209.65 71.07 0.57 c p3
209.62 74.53 0.57 c p3
209.59 77.99 0.57 c p3
209.55 75.85 0.57 c p3
209.52 72.98 0.57 c p3
209.49 75.85 0.57 c p3
209.45 81.76 0.57 c p3
209.42 77.99 0.57 c p3
209.38 82.90 0.57 c p3
209.35 77.99 0.57 c p3
209.32 76.99 0.57 c p3
209.28 78.89 0.57 c p3
209.25 80.44 0.57 c p3
209.21 78.89 0.57 c p3
209.18 78.89 0.57 c p3
209.14 74.53 0.57 c p3
209.11 77.99 0.57 c p3
209.07 75.85 0.57 c p3
209.04 78.89 0.57 c p3
209.00 78.89 0.57 c p3
208.97 76.99 0.57 c p3
208.93 75.85 0.57 c p3
208.89 76.99 0.57 c p3
208.86 72.98 0.57 c p3
208.82 83.90 0.57 c p3
208.79 75.85 0.57 c p3
208.75 74.53 0.57 c p3
208.71 77.99 0.57 c p3
208.68 79.70 0.57 c p3
208.64 80.44 0.57 c p3
208.60 77.99 0.57 c p3
208.57 79.70 0.57 c p3
208.53 81.76 0.57 c p3
208.49 74.53 0.57 c p3
208.45 78.89 0.57 c p3
208.42 78.89 0.57 c p3
208.38 81.13 0.57 c p3
208.34 75.85 0.57 c p3
208.30 79.70 0.57 c p3
208.26 77.99 0.57 c p3
208.22 75.85 0.57 c p3
208.19 80.44 0.57 c p3
208.15 78.89 0.57 c p3
208.11 81.13 0.57 c p3
208.07 81.13 0.57 c p3
208.03 77.99 0.57 c p3
207.99 78.89 0.57 c p3
207.95 78.89 0.57 c p3
207.91 80.44 0.57 c p3
207.87 80.44 0.57 c p3
207.83 81.76 0.57 c p3
207.79 79.70 0.57 c p3
207.75 80.44 0.57 c p3
207.71 80.44 0.57 c p3
207.67 76.99 0.57 c p3
207.63 76.99 0.57 c p3
207.59 81.76 0.57 c p3
207.54 81.76 0.57 c p3
207.50 81.76 0.57 c p3
207.46 82.90 0.57 c p3
207.42 78.89 0.57 c p3
207.38 83.42 0.57 c p3
207.33 76.99 0.57 c p3
207.29 77.99 0.57 c p3
207.25 81.13 0.57 c p3
207.21 84.36 0.57 c p3
207.16 81.13 0.57 c p3
207.12 85.61 0.57 c p3
207.08 78.89 0.57 c p3
207.03 83.42 0.57 c p3
206.99 83.42 0.57 c p3
206.94 82.35 0.57 c p3
206.90 77.99 0.57 c p3
206.86 85.22 0.57 c p3
206.81 84.80 0.57 c p3
206.77 81.13 0.57 c p3
206.72 82.90 0.57 c p3
206.67 78.89 0.57 c p3
206.63 81.76 0.57 c p3
206.58 83.42 0.57 c p3
206.54 82.90 0.57 c p3
206.49 81.13 0.57 c p3
206.44 84.36 0.57 c p3
206.40 82.35 0.57 c p3
206.35 81.76 0.57 c p3
206.30 81.76 0.57 c p3
206.26 83.42 0.57 c p3
206.21 80.44 0.57 c p3
206.16 79.70 0.57 c p3
206.11 80.44 0.57 c p3
206.06 79.70 0.57 c p3
206.01 81.76 0.57 c p3
205.96 87.04 0.57 c p3
205.92 84.80 0.57 c p3
205.87 83.42 0.57 c p3
205.82 81.76 0.57 c p3
205.77 84.36 0.57 c p3
205.72 83.90 0.57 c p3
205.67 84.80 0.57 c p3
205.61 85.22 0.57 c p3
205.56 82.90 0.57 c p3
205.51 83.90 0.57 c p3
205.46 83.90 0.57 c p3
205.41 84.80 0.57 c p3
205.36 87.67 0.57 c p3
205.30 83.42 0.57 c p3
205.25 87.04 0.57 c p3
205.20 85.99 0.57 c p3
205.14 83.42 0.57 c p3
205.09 83.90 0.57 c p3
205.04 82.35 0.57 c p3
204.98 85.61 0.57 c p3
204.93 83.90 0.57 c p3
204.87 87.04 0.57 c p3
204.82 87.97 0.57 c p3
204.76 86.36 0.57 c p3
204.70 86.71 0.57 c p3
204.65 84.36 0.57 c p3
204.59 85.22 0.57 c p3
204.53 85.99 0.57 c p3
204.48 87.36 0.57 c p3
204.42 87.04 0.57 c p3
204.36 88.26 0.57 c p3
204.30 87.36 0.57 c p3
204.24 85.99 0.57 c p3
204.18 87.04 0.57 c p3
204.12 85.22 0.57 c p3
204.06 87.67 0.57 c p3
204.00 86.36 0.57 c p3
203.94 85.99 0.57 c p3
203.88 85.22 0.57 c p3
203.82 87.97 0.57 c p3
203.76 88.81 0.57 c p3
203.69 88.54 0.57 c p3
203.63 87.36 0.57 c p3
203.57 85.99 0.57 c p3
203.50 84.80 0.57 c p3
203.44 89.33 0.57 c p3
203.38 90.28 0.57 c p3
203.31 86.36 0.57 c p3
203.25 89.07 0.57 c p3
203.18 88.26 0.57 c p3
203.11 87.04 0.57 c p3
203.05 87.97 0.57 c p3
202.98 88.54 0.57 c p3
202.91 87.04 0.57 c p3
202.84 89.58 0.57 c p3
202.77 85.99 0.57 c p3
202.70 87.04 0.57 c p3
202.63 89.07 0.57 c p3
202.56 87.97 0.57 c p3
202.49 87.36 0.57 c p3
202.42 91.33 0.57 c p3
202.35 90.50 0.57 c p3
202.28 90.28 0.57 c p3
202.20 89.58 0.57 c p3
202.13 91.13 0.57 c p3
202.05 90.28 0.57 c p3
201.98 90.05 0.57 c p3
201.90 90.50 0.57 c p3
201.83 91.13 0.57 c p3
201.75 89.07 0.57 c p3
201.67 91.13 0.57 c p3
201.59 91.53 0.57 c p3
201.52 92.95 0.57 c p3
201.44 91.72 0.57 c p3
201.36 92.27 0.57 c p3
201.28 91.91 0.57 c p3
201.19 90.28 0.57 c p3
201.11 92.09 0.57 c p3
201.03 91.53 0.57 c p3
200.94 90.28 0.57 c p3
200.86 91.91 0.57 c p3
200.78 92.09 0.57 c p3
200.69 91.33 0.57 c p3
200.60 92.79 0.57 c p3
200.51 93.58 0.57 c p3
200.43 92.45 0.57 c p3
200.34 93.43 0.57 c p3
200.25 91.33 0.57 c p3
200.16 94.45 0.57 c p3
200.06 93.58 0.57 c p3
199.97 93.58 0.57 c p3
199.88 93.43 0.57 c p3
199.78 94.45 0.57 c p3
199.69 94.59 0.57 c p3
199.59 95.49 0.57 c p3
199.49 92.62 0.57 c p3
199.39 92.09 0.57 c p3
199.29 94.17 0.57 c p3
199.19 93.88 0.57 c p3
199.09 95.73 0.57 c p3
198.99 94.86 0.57 c p3
198.88 95.96 0.57 c p3
198.78 96.19 0.57 c p3
198.67 94.31 0.57 c p3
198.56 95.24 0.57 c p3
198.45 95.49 0.57 c p3
198.34 96.30 0.57 c p3
198.23 97.14 0.57 c p3
198.12 96.63 0.57 c p3
198.00 96.63 0.57 c p3
197.89 97.24 0.57 c p3
197.77 96.94 0.57 c p3
197.65 97.04 0.57 c p3
197.53 95.96 0.57 c p3
197.41 97.63 0.57 c p3
197.28 98.36 0.57 c p3
197.16 98.87 0.57 c p3
197.03 96.52 0.57 c p3
196.90 98.87 0.57 c p3
196.77 97.82 0.57 c p3
196.64 99.72 0.57 c p3
196.50 98.87 0.57 c p3
196.37 99.72 0.57 c p3
196.23 99.27 0.57 c p3
196.09 99.87 0.57 c p3
195.95 100.37 0.57 c p3
195.80 98.78 0.57 c p3
195.65 99.80 0.57 c p3
195.51 101.40 0.57 c p3
195.35 100.77 0.57 c p3
195.20 100.37 0.57 c p3
195.04 101.46 0.57 c p3
194.88 101.46 0.57 c p3
194.72 101.34 0.57 c p3
194.55 102.21 0.57 c p3
194.39 101.70 0.57 c p3
194.22 102.49 0.57 c p3
194.04 102.96 0.57 c p3
193.86 102.80 0.57 c p3
193.68 103.82 0.57 c p3
193.50 103.78 0.57 c p3
193.31 103.78 0.57 c p3
193.11 105.37 0.57 c p3
192.92 103.96 0.57 c p3
192.72 105.71 0.57 c p3
192.51 104.78 0.57 c p3
192.30 106.45 0.57 c p3
192.09 106.28 0.57 c p3
191.87 106.10 0.57 c p3
191.64 107.07 0.57 c p3
191.41 106.78 0.57 c p3
191.18 107.55 0.57 c p3
190.93 106.68 0.57 c p3
190.68 108.58 0.57 c p3
190.43 108.02 0.57 c p3
190.16 108.94 0.57 c p3
189.89 109.96 0.57 c p3
189.62 110.69 0.57 c p3
189.33 110.14 0.57 c p3
189.03 111.03 0.57 c p3
188.73 111.25 0.57 c p3
188.41 111.46 0.57 c p3
188.08 112.21 0.57 c p3
187.74 112.79 0.57 c p3
187.39 114.07 0.57 c p3
187.02 114.33 0.57 c p3
186.64 115.73 0.57 c p3
186.24 115.95 0.57 c p3
185.83 116.20 0.57 c p3
185.39 117.51 0.57 c p3
184.94 117.85 0.57 c p3
184.46 118.08 0.57 c p3
183.95 119.73 0.57 c p3
183.42 120.53 0.57 c p3
182.85 121.39 0.57 c p3
182.25 122.69 0.57 c p3
181.61 123.01 0.57 c p3
180.91 124.36 0.57 c p3
180.17 125.78 0.57 c p3
179.35 126.72 0.57 c p3
178.46 127.91 0.57 c p3
177.48 129.33 0.57 c p3
176.38 130.74 0.57 c p3
175.13 132.27 0.57 c p3
173.69 133.69 0.57 c p3
171.99 135.72 0.57 c p3
169.91 137.91 0.57 c p3
167.22 141.47 0.57 c p3
163.43 153.03 0.57 c p3
0.4980 0.4980 0.4980 srgb
1.07 setlinewidth
[] 0 setdash
158.74 54.56 103.16 103.16 r p1
0.00 0.00 595.28 198.43 cl
267.88 54.56 371.03 157.71 cl
/bg { 1 1 1 srgb } def
267.88 54.56 103.16 103.16 r p2
0.9804 0.9804 0.9804 srgb
1.07 setlinewidth
[] 0 setdash
0 setlinecap
1 setlinejoin
10.00 setmiterlimit
np
267.88 62.96 m
103.15 0 l
o
np
267.88 102.24 m
103.15 0 l
o
np
267.88 141.52 m
103.15 0 l
o
np
276.84 54.56 m
0 103.15 l
o
np
298.35 54.56 m
0 103.15 l
o
np
319.86 54.56 m
0 103.15 l
o
np
341.36 54.56 m
0 103.15 l
o
np
362.87 54.56 m
0 103.15 l
o
0.8980 0.8980 0.8980 srgb
0.43 setlinewidth
[] 0 setdash
np
267.88 82.60 m
103.15 0 l
o
np
267.88 121.88 m
103.15 0 l
o
np
287.60 54.56 m
0 103.15 l
o
np
309.10 54.56 m
0 103.15 l
o
np
330.61 54.56 m
0 103.15 l
o
np
352.11 54.56 m
0 103.15 l
o
/bg { 0 0 0 srgb } def
0 0 0 srgb
0.71 setlinewidth
[] 0 setdash
1 setlinecap
321.52 81.94 0.57 c p3
320.28 81.94 0.57 c p3
319.64 81.94 0.57 c p3
319.49 81.94 0.57 c p3
319.40 81.94 0.57 c p3
319.30 81.94 0.57 c p3
319.27 81.94 0.57 c p3
318.88 81.94 0.57 c p3
318.55 81.94 0.57 c p3
317.51 81.94 0.57 c p3
316.68 81.94 0.57 c p3
316.42 81.94 0.57 c p3
315.72 81.94 0.57 c p3
313.49 81.94 0.57 c p3
313.43 81.94 0.57 c p3
313.20 81.94 0.57 c p3
313.08 81.94 0.57 c p3
312.83 81.94 0.57 c p3
312.57 87.86 0.57 c p3
312.44 81.94 0.57 c p3
311.98 87.86 0.57 c p3
311.34 81.94 0.57 c p3
311.26 81.94 0.57 c p3
311.11 81.94 0.57 c p3
310.57 81.94 0.57 c p3
310.41 81.94 0.57 c p3
310.24 87.86 0.57 c p3
310.16 81.94 0.57 c p3
310.08 81.94 0.57 c p3
309.47 81.94 0.57 c p3
309.29 81.94 0.57 c p3
308.82 81.94 0.57 c p3
308.72 81.94 0.57 c p3
308.32 81.94 0.57 c p3
308.22 91.32 0.57 c p3
308.12 81.94 0.57 c p3
308.01 81.94 0.57 c p3
307.91 81.94 0.57 c p3
307.80 81.94 0.57 c p3
307.69 81.94 0.57 c p3
307.59 87.86 0.57 c p3
307.47 87.86 0.57 c p3
307.25 81.94 0.57 c p3
307.14 81.94 0.57 c p3
307.02 81.94 0.57 c p3
306.90 81.94 0.57 c p3
306.78 81.94 0.57 c p3
306.66 95.67 0.57 c p3
306.54 91.32 0.57 c p3
306.42 87.86 0.57 c p3
306.29 93.77 0.57 c p3
306.03 81.94 0.57 c p3
305.90 91.32 0.57 c p3
305.77 81.94 0.57 c p3
305.64 81.94 0.57 c p3
305.50 98.54 0.57 c p3
305.36 91.32 0.57 c p3
305.22 81.94 0.57 c p3
305.08 87.86 0.57 c p3
304.93 91.32 0.57 c p3
304.79 93.77 0.57 c p3
304.64 95.67 0.57 c p3
304.49 87.86 0.57 c p3
304.33 93.77 0.57 c p3
304.18 93.77 0.57 c p3
304.02 91.32 0.57 c p3
303.85 91.32 0.57 c p3
303.69 95.67 0.57 c p3
303.52 95.67 0.57 c p3
303.35 95.67 0.57 c p3
303.17 93.77 0.57 c p3
303.00 102.40 0.57 c p3
302.81 95.67 0.57 c p3
302.63 99.68 0.57 c p3
302.44 97.23 0.57 c p3
302.25 93.77 0.57 c p3
302.05 97.23 0.57 c p3
301.85 104.46 0.57 c p3
301.65 105.04 0.57 c p3
301.44 101.59 0.57 c p3
301.22 100.69 0.57 c p3
301.00 100.69 0.57 c p3
300.78 105.04 0.57 c p3
300.55 103.14 0.57 c p3
300.31 101.59 0.57 c p3
300.07 101.59 0.57 c p3
299.82 107.06 0.57 c p3
299.56 107.50 0.57 c p3
299.30 108.69 0.57 c p3
299.03 106.60 0.57 c p3
298.75 110.67 0.57 c p3
298.46 109.74 0.57 c p3
298.16 112.27 0.57 c p3
297.86 111.24 0.57 c p3
297.54 113.19 0.57 c p3
297.21 114.03 0.57 c p3
296.87 115.14 0.57 c p3
296.52 114.97 0.57 c p3
296.16 115.81 0.57 c p3
295.77 117.01 0.57 c p3
295.38 116.43 0.57 c p3
294.96 119.53 0.57 c p3
294.53 119.43 0.57 c p3
294.07 120.61 0.57 c p3
293.59 121.64 0.57 c p3
293.09 123.66 0.57 c p3
292.55 125.50 0.57 c p3
291.99 123.85 0.57 c p3
291.38 125.29 0.57 c p3
290.74 127.56 0.57 c p3
290.05 129.48 0.57 c p3
289.30 130.68 0.57 c p3
288.49 131.28 0.57 c p3
287.60 133.57 0.57 c p3
286.61 134.73 0.57 c p3
285.51 136.69 0.57 c p3
284.27 137.68 0.57 c p3
282.83 138.98 0.57 c p3
281.12 140.16 0.57 c p3
279.04 141.41 0.57 c p3
276.35 143.15 0.57 c p3
272.57 144.90 0.57 c p3
0.4980 0.4980 0.4980 srgb
1.07 setlinewidth
[] 0 setdash
267.88 54.56 103.16 103.16 r p1
0.00 0.00 595.28 198.43 cl
377.01 54.56 480.16 157.71 cl
/bg { 1 1 1 srgb } def
377.01 54.56 103.16 103.16 r p2
0.9804 0.9804 0.9804 srgb
1.07 setlinewidth
[] 0 setdash
0 setlinecap
1 setlinejoin
10.00 setmiterlimit
np
377.01 62.96 m
103.15 0 l
o
np
377.01 102.24 m
103.15 0 l
o
np
377.01 141.52 m
103.15 0 l
o
np
385.98 54.56 m
0 103.15 l
o
np
407.48 54.56 m
0 103.15 l
o
np
428.99 54.56 m
0 103.15 l
o
np
450.49 54.56 m
0 103.15 l
o
np
472.00 54.56 m
0 103.15 l
o
0.8980 0.8980 0.8980 srgb
0.43 setlinewidth
[] 0 setdash
np
377.01 82.60 m
103.15 0 l
o
np
377.01 121.88 m
103.15 0 l
o
np
396.73 54.56 m
0 103.15 l
o
np
418.24 54.56 m
0 103.15 l
o
np
439.74 54.56 m
0 103.15 l
o
np
461.25 54.56 m
0 103.15 l
o
/bg { 0 0 0 srgb } def
0 0 0 srgb
0.71 setlinewidth
[] 0 setdash
1 setlinecap
475.48 64.27 0.57 c p3
469.56 64.27 0.57 c p3
465.51 64.27 0.57 c p3
451.16 64.27 0.57 c p3
450.23 64.27 0.57 c p3
441.37 64.27 0.57 c p3
441.16 64.27 0.57 c p3
440.78 64.27 0.57 c p3
439.95 64.27 0.57 c p3
438.72 64.27 0.57 c p3
438.54 64.27 0.57 c p3
438.31 64.27 0.57 c p3
438.12 64.27 0.57 c p3
438.10 64.27 0.57 c p3
437.77 64.27 0.57 c p3
436.73 64.27 0.57 c p3
436.52 64.27 0.57 c p3
436.24 64.27 0.57 c p3
436.06 64.27 0.57 c p3
435.89 64.27 0.57 c p3
435.43 64.27 0.57 c p3
434.21 64.27 0.57 c p3
434.16 64.27 0.57 c p3
434.04 64.27 0.57 c p3
434.02 64.27 0.57 c p3
433.85 64.27 0.57 c p3
433.58 64.27 0.57 c p3
433.43 64.27 0.57 c p3
433.25 64.27 0.57 c p3
433.14 64.27 0.57 c p3
433.08 64.27 0.57 c p3
432.79 64.27 0.57 c p3
432.75 64.27 0.57 c p3
432.55 64.27 0.57 c p3
432.24 64.27 0.57 c p3
432.12 64.27 0.57 c p3
432.10 64.27 0.57 c p3
432.05 70.18 0.57 c p3
431.92 64.27 0.57 c p3
431.88 64.27 0.57 c p3
431.79 64.27 0.57 c p3
431.77 64.27 0.57 c p3
431.75 64.27 0.57 c p3
431.73 64.27 0.57 c p3
431.71 64.27 0.57 c p3
431.64 64.27 0.57 c p3
431.62 64.27 0.57 c p3
431.60 70.18 0.57 c p3
431.57 64.27 0.57 c p3
431.39 64.27 0.57 c p3
431.28 64.27 0.57 c p3
431.25 70.18 0.57 c p3
431.21 64.27 0.57 c p3
431.16 64.27 0.57 c p3
431.11 64.27 0.57 c p3
431.04 64.27 0.57 c p3
430.95 70.18 0.57 c p3
430.90 64.27 0.57 c p3
430.85 64.27 0.57 c p3
430.83 64.27 0.57 c p3
430.53 64.27 0.57 c p3
430.48 70.18 0.57 c p3
430.23 64.27 0.57 c p3
430.20 64.27 0.57 c p3
430.12 76.10 0.57 c p3
430.04 64.27 0.57 c p3
430.02 73.64 0.57 c p3
429.99 64.27 0.57 c p3
429.88 64.27 0.57 c p3
429.86 70.18 0.57 c p3
429.83 64.27 0.57 c p3
429.75 64.27 0.57 c p3
429.72 64.27 0.57 c p3
429.67 64.27 0.57 c p3
429.64 70.18 0.57 c p3
429.50 64.27 0.57 c p3
429.47 64.27 0.57 c p3
429.44 64.27 0.57 c p3
429.42 64.27 0.57 c p3
429.39 64.27 0.57 c p3
429.36 64.27 0.57 c p3
429.27 70.18 0.57 c p3
429.22 70.18 0.57 c p3
429.04 64.27 0.57 c p3
428.98 64.27 0.57 c p3
428.95 73.64 0.57 c p3
428.89 64.27 0.57 c p3
428.86 64.27 0.57 c p3
428.80 64.27 0.57 c p3
428.77 64.27 0.57 c p3
428.71 64.27 0.57 c p3
428.68 64.27 0.57 c p3
428.65 64.27 0.57 c p3
428.62 73.64 0.57 c p3
428.59 70.18 0.57 c p3
428.50 70.18 0.57 c p3
428.47 64.27 0.57 c p3
428.43 70.18 0.57 c p3
428.31 64.27 0.57 c p3
428.28 64.27 0.57 c p3
428.18 76.10 0.57 c p3
428.12 64.27 0.57 c p3
428.08 64.27 0.57 c p3
428.05 73.64 0.57 c p3
428.02 64.27 0.57 c p3
427.99 70.18 0.57 c p3
427.95 64.27 0.57 c p3
427.92 70.18 0.57 c p3
427.89 76.10 0.57 c p3
427.85 73.64 0.57 c p3
427.82 70.18 0.57 c p3
427.75 70.18 0.57 c p3
427.72 78.00 0.57 c p3
427.68 70.18 0.57 c p3
427.65 64.27 0.57 c p3
427.62 70.18 0.57 c p3
427.58 70.18 0.57 c p3
427.55 64.27 0.57 c p3
427.51 70.18 0.57 c p3
427.48 73.64 0.57 c p3
427.44 64.27 0.57 c p3
427.41 64.27 0.57 c p3
427.37 78.00 0.57 c p3
427.34 64.27 0.57 c p3
427.23 64.27 0.57 c p3
427.20 64.27 0.57 c p3
427.16 64.27 0.57 c p3
427.09 73.64 0.57 c p3
427.05 64.27 0.57 c p3
426.98 64.27 0.57 c p3
426.94 70.18 0.57 c p3
426.91 64.27 0.57 c p3
426.87 70.18 0.57 c p3
426.83 70.18 0.57 c p3
426.79 73.64 0.57 c p3
426.76 70.18 0.57 c p3
426.72 64.27 0.57 c p3
426.68 64.27 0.57 c p3
426.64 73.64 0.57 c p3
426.61 70.18 0.57 c p3
426.57 64.27 0.57 c p3
426.53 70.18 0.57 c p3
426.49 64.27 0.57 c p3
426.45 64.27 0.57 c p3
426.41 79.55 0.57 c p3
426.37 76.10 0.57 c p3
426.33 70.18 0.57 c p3
426.30 64.27 0.57 c p3
426.26 70.18 0.57 c p3
426.22 76.10 0.57 c p3
426.18 70.18 0.57 c p3
426.14 64.27 0.57 c p3
426.10 64.27 0.57 c p3
426.06 64.27 0.57 c p3
426.02 64.27 0.57 c p3
425.97 76.10 0.57 c p3
425.93 78.00 0.57 c p3
425.89 76.10 0.57 c p3
425.85 78.00 0.57 c p3
425.77 64.27 0.57 c p3
425.73 73.64 0.57 c p3
425.68 78.00 0.57 c p3
425.64 64.27 0.57 c p3
425.60 73.64 0.57 c p3
425.56 76.10 0.57 c p3
425.51 64.27 0.57 c p3
425.47 73.64 0.57 c p3
425.43 73.64 0.57 c p3
425.39 79.55 0.57 c p3
425.34 64.27 0.57 c p3
425.30 78.00 0.57 c p3
425.25 70.18 0.57 c p3
425.21 73.64 0.57 c p3
425.17 73.64 0.57 c p3
425.12 64.27 0.57 c p3
425.08 80.87 0.57 c p3
425.03 73.64 0.57 c p3
424.99 64.27 0.57 c p3
424.94 76.10 0.57 c p3
424.90 73.64 0.57 c p3
424.85 79.55 0.57 c p3
424.80 78.00 0.57 c p3
424.71 73.64 0.57 c p3
424.66 70.18 0.57 c p3
424.62 70.18 0.57 c p3
424.57 73.64 0.57 c p3
424.52 76.10 0.57 c p3
424.47 76.10 0.57 c p3
424.43 70.18 0.57 c p3
424.38 79.55 0.57 c p3
424.33 79.55 0.57 c p3
424.28 76.10 0.57 c p3
424.23 78.00 0.57 c p3
424.18 70.18 0.57 c p3
424.13 76.10 0.57 c p3
424.08 76.10 0.57 c p3
424.03 76.10 0.57 c p3
423.98 76.10 0.57 c p3
423.93 73.64 0.57 c p3
423.88 79.55 0.57 c p3
423.83 84.72 0.57 c p3
423.78 78.00 0.57 c p3
423.73 82.01 0.57 c p3
423.67 80.87 0.57 c p3
423.62 76.10 0.57 c p3
423.57 76.10 0.57 c p3
423.52 79.55 0.57 c p3
423.46 76.10 0.57 c p3
423.41 76.10 0.57 c p3
423.36 79.55 0.57 c p3
423.30 79.55 0.57 c p3
423.25 80.87 0.57 c p3
423.19 76.10 0.57 c p3
423.14 76.10 0.57 c p3
423.08 79.55 0.57 c p3
423.03 78.00 0.57 c p3
422.97 80.87 0.57 c p3
422.91 79.55 0.57 c p3
422.86 78.00 0.57 c p3
422.80 80.87 0.57 c p3
422.74 78.00 0.57 c p3
422.68 82.01 0.57 c p3
422.63 80.87 0.57 c p3
422.57 80.87 0.57 c p3
422.51 76.10 0.57 c p3
422.45 82.01 0.57 c p3
422.39 80.87 0.57 c p3
422.33 80.87 0.57 c p3
422.27 73.64 0.57 c p3
422.21 82.01 0.57 c p3
422.15 80.87 0.57 c p3
422.09 78.00 0.57 c p3
422.02 80.87 0.57 c p3
421.96 80.87 0.57 c p3
421.90 79.55 0.57 c p3
421.83 79.55 0.57 c p3
421.77 82.01 0.57 c p3
421.71 83.91 0.57 c p3
421.64 79.55 0.57 c p3
421.58 85.47 0.57 c p3
421.51 83.01 0.57 c p3
421.45 88.93 0.57 c p3
421.38 83.91 0.57 c p3
421.31 87.37 0.57 c p3
421.24 84.72 0.57 c p3
421.18 83.91 0.57 c p3
421.11 86.15 0.57 c p3
421.04 86.78 0.57 c p3
420.97 83.01 0.57 c p3
420.90 83.91 0.57 c p3
420.83 80.87 0.57 c p3
420.76 82.01 0.57 c p3
420.69 85.47 0.57 c p3
420.61 86.78 0.57 c p3
420.54 87.37 0.57 c p3
420.47 87.37 0.57 c p3
420.39 83.91 0.57 c p3
420.32 84.72 0.57 c p3
420.25 85.47 0.57 c p3
420.17 86.78 0.57 c p3
420.09 90.64 0.57 c p3
420.02 85.47 0.57 c p3
419.94 87.37 0.57 c p3
419.86 89.82 0.57 c p3
419.78 87.92 0.57 c p3
419.70 87.92 0.57 c p3
419.62 85.47 0.57 c p3
419.54 87.37 0.57 c p3
419.46 89.82 0.57 c p3
419.38 89.39 0.57 c p3
419.29 88.44 0.57 c p3
419.21 89.82 0.57 c p3
419.13 90.24 0.57 c p3
419.04 90.64 0.57 c p3
418.95 87.37 0.57 c p3
418.87 89.82 0.57 c p3
418.78 91.02 0.57 c p3
418.69 91.73 0.57 c p3
418.60 89.39 0.57 c p3
418.51 85.47 0.57 c p3
418.42 92.38 0.57 c p3
418.33 91.73 0.57 c p3
418.24 92.38 0.57 c p3
418.14 91.38 0.57 c p3
418.05 92.06 0.57 c p3
417.95 93.28 0.57 c p3
417.85 92.69 0.57 c p3
417.76 91.73 0.57 c p3
417.66 93.28 0.57 c p3
417.56 93.28 0.57 c p3
417.46 92.38 0.57 c p3
417.36 95.74 0.57 c p3
417.25 94.84 0.57 c p3
417.15 93.28 0.57 c p3
417.04 95.95 0.57 c p3
416.94 93.28 0.57 c p3
416.83 94.35 0.57 c p3
416.72 92.06 0.57 c p3
416.61 96.55 0.57 c p3
416.50 96.35 0.57 c p3
416.38 92.99 0.57 c p3
416.27 96.93 0.57 c p3
416.15 98.30 0.57 c p3
416.03 96.15 0.57 c p3
415.92 97.47 0.57 c p3
415.80 98.76 0.57 c p3
415.67 97.29 0.57 c p3
415.55 98.91 0.57 c p3
415.42 98.14 0.57 c p3
415.30 97.97 0.57 c p3
415.17 100.75 0.57 c p3
415.04 99.48 0.57 c p3
414.90 99.20 0.57 c p3
414.77 99.20 0.57 c p3
414.63 99.20 0.57 c p3
414.50 100.87 0.57 c p3
414.36 100.63 0.57 c p3
414.21 101.65 0.57 c p3
414.07 103.03 0.57 c p3
413.92 102.27 0.57 c p3
413.77 101.76 0.57 c p3
413.62 102.17 0.57 c p3
413.47 103.20 0.57 c p3
413.31 102.27 0.57 c p3
413.15 103.12 0.57 c p3
412.99 103.29 0.57 c p3
412.82 103.47 0.57 c p3
412.65 104.67 0.57 c p3
412.48 104.21 0.57 c p3
412.31 105.18 0.57 c p3
412.13 106.30 0.57 c p3
411.95 105.25 0.57 c p3
411.76 105.04 0.57 c p3
411.57 106.90 0.57 c p3
411.38 106.48 0.57 c p3
411.18 106.30 0.57 c p3
410.98 107.88 0.57 c p3
410.78 108.13 0.57 c p3
410.57 108.52 0.57 c p3
410.35 108.89 0.57 c p3
410.13 110.12 0.57 c p3
409.91 110.28 0.57 c p3
409.68 110.95 0.57 c p3
409.44 109.55 0.57 c p3
409.20 111.06 0.57 c p3
408.95 112.27 0.57 c p3
408.69 112.95 0.57 c p3
408.43 112.58 0.57 c p3
408.16 113.79 0.57 c p3
407.88 113.79 0.57 c p3
407.59 114.92 0.57 c p3
407.30 115.07 0.57 c p3
406.99 115.63 0.57 c p3
406.67 115.96 0.57 c p3
406.35 116.53 0.57 c p3
406.01 117.84 0.57 c p3
405.65 117.73 0.57 c p3
405.29 118.38 0.57 c p3
404.91 119.53 0.57 c p3
404.51 119.21 0.57 c p3
404.09 120.83 0.57 c p3
403.66 121.46 0.57 c p3
403.20 122.23 0.57 c p3
402.73 123.30 0.57 c p3
402.22 123.90 0.57 c p3
401.69 124.35 0.57 c p3
401.12 125.58 0.57 c p3
400.52 126.19 0.57 c p3
399.87 127.58 0.57 c p3
399.18 128.66 0.57 c p3
398.43 129.33 0.57 c p3
397.62 130.42 0.57 c p3
396.73 131.83 0.57 c p3
395.75 132.98 0.57 c p3
394.65 134.41 0.57 c p3
393.40 135.63 0.57 c p3
391.96 137.15 0.57 c p3
390.26 138.95 0.57 c p3
388.17 140.72 0.57 c p3
385.49 142.98 0.57 c p3
381.70 144.91 0.57 c p3
0.4980 0.4980 0.4980 srgb
1.07 setlinewidth
[] 0 setdash
377.01 54.56 103.16 103.16 r p1
0.00 0.00 595.28 198.43 cl
486.14 54.56 589.30 157.71 cl
/bg { 1 1 1 srgb } def
486.14 54.56 103.16 103.16 r p2
0.9804 0.9804 0.9804 srgb
1.07 setlinewidth
[] 0 setdash
0 setlinecap
1 setlinejoin
10.00 setmiterlimit
np
486.14 62.96 m
103.16 0 l
o
np
486.14 102.24 m
103.16 0 l
o
np
486.14 141.52 m
103.16 0 l
o
np
495.11 54.56 m
0 103.15 l
o
np
516.62 54.56 m
0 103.15 l
o
np
538.12 54.56 m
0 103.15 l
o
np
559.63 54.56 m
0 103.15 l
o
np
581.13 54.56 m
0 103.15 l
o
0.8980 0.8980 0.8980 srgb
0.43 setlinewidth
[] 0 setdash
np
486.14 82.60 m
103.16 0 l
o
np
486.14 121.88 m
103.16 0 l
o
np
505.86 54.56 m
0 103.15 l
o
np
527.37 54.56 m
0 103.15 l
o
np
548.87 54.56 m
0 103.15 l
o
np
570.38 54.56 m
0 103.15 l
o
/bg { 0 0 0 srgb } def
0 0 0 srgb
0.71 setlinewidth
[] 0 setdash
1 setlinecap
568.04 61.60 0.57 c p3
564.01 61.60 0.57 c p3
563.87 61.60 0.57 c p3
563.49 61.60 0.57 c p3
562.67 61.60 0.57 c p3
562.25 61.60 0.57 c p3
561.86 61.60 0.57 c p3
561.70 61.60 0.57 c p3
561.02 61.60 0.57 c p3
560.45 61.60 0.57 c p3
560.45 61.60 0.57 c p3
560.00 61.60 0.57 c p3
559.92 61.60 0.57 c p3
559.75 61.60 0.57 c p3
559.61 61.60 0.57 c p3
559.18 61.60 0.57 c p3
559.01 61.60 0.57 c p3
558.95 61.60 0.57 c p3
558.58 61.60 0.57 c p3
558.57 61.60 0.57 c p3
558.06 61.60 0.57 c p3
558.04 61.60 0.57 c p3
557.97 61.60 0.57 c p3
557.83 61.60 0.57 c p3
557.82 61.60 0.57 c p3
557.77 61.60 0.57 c p3
557.06 61.60 0.57 c p3
556.93 61.60 0.57 c p3
556.91 61.60 0.57 c p3
556.82 61.60 0.57 c p3
556.78 61.60 0.57 c p3
556.72 61.60 0.57 c p3
556.67 61.60 0.57 c p3
556.67 61.60 0.57 c p3
556.65 67.51 0.57 c p3
556.60 61.60 0.57 c p3
556.58 61.60 0.57 c p3
556.54 61.60 0.57 c p3
556.52 61.60 0.57 c p3
556.49 61.60 0.57 c p3
556.44 61.60 0.57 c p3
556.43 61.60 0.57 c p3
556.39 61.60 0.57 c p3
556.37 61.60 0.57 c p3
556.31 61.60 0.57 c p3
556.24 61.60 0.57 c p3
556.09 61.60 0.57 c p3
556.08 61.60 0.57 c p3
555.93 61.60 0.57 c p3
555.84 61.60 0.57 c p3
555.81 61.60 0.57 c p3
555.81 61.60 0.57 c p3
555.79 61.60 0.57 c p3
555.70 61.60 0.57 c p3
555.60 61.60 0.57 c p3
555.25 61.60 0.57 c p3
555.17 61.60 0.57 c p3
555.13 61.60 0.57 c p3
555.07 61.60 0.57 c p3
555.06 67.51 0.57 c p3
554.98 61.60 0.57 c p3
554.94 61.60 0.57 c p3
554.93 61.60 0.57 c p3
554.86 61.60 0.57 c p3
554.84 61.60 0.57 c p3
554.80 61.60 0.57 c p3
554.74 61.60 0.57 c p3
554.68 61.60 0.57 c p3
554.64 61.60 0.57 c p3
554.54 61.60 0.57 c p3
554.52 61.60 0.57 c p3
554.43 61.60 0.57 c p3
554.34 61.60 0.57 c p3
554.33 61.60 0.57 c p3
554.20 67.51 0.57 c p3
554.18 61.60 0.57 c p3
554.13 61.60 0.57 c p3
554.12 61.60 0.57 c p3
554.11 61.60 0.57 c p3
554.09 61.60 0.57 c p3
553.92 61.60 0.57 c p3
553.87 61.60 0.57 c p3
553.84 61.60 0.57 c p3
553.82 61.60 0.57 c p3
553.80 61.60 0.57 c p3
553.79 61.60 0.57 c p3
553.72 61.60 0.57 c p3
553.68 61.60 0.57 c p3
553.64 61.60 0.57 c p3
553.60 61.60 0.57 c p3
553.49 61.60 0.57 c p3
553.47 61.60 0.57 c p3
553.45 61.60 0.57 c p3
553.44 61.60 0.57 c p3
553.43 61.60 0.57 c p3
553.41 61.60 0.57 c p3
553.40 61.60 0.57 c p3
553.39 61.60 0.57 c p3
553.26 61.60 0.57 c p3
553.25 61.60 0.57 c p3
553.24 61.60 0.57 c p3
553.21 61.60 0.57 c p3
553.21 61.60 0.57 c p3
553.18 61.60 0.57 c p3
553.16 61.60 0.57 c p3
553.14 67.51 0.57 c p3
553.07 61.60 0.57 c p3
553.06 61.60 0.57 c p3
553.06 67.51 0.57 c p3
553.03 61.60 0.57 c p3
553.00 61.60 0.57 c p3
553.00 61.60 0.57 c p3
552.98 61.60 0.57 c p3
552.94 61.60 0.57 c p3
552.92 61.60 0.57 c p3
552.91 61.60 0.57 c p3
552.80 61.60 0.57 c p3
552.75 61.60 0.57 c p3
552.74 61.60 0.57 c p3
552.74 67.51 0.57 c p3
552.72 61.60 0.57 c p3
552.69 67.51 0.57 c p3
552.67 61.60 0.57 c p3
552.62 61.60 0.57 c p3
552.61 67.51 0.57 c p3
552.59 61.60 0.57 c p3
552.59 67.51 0.57 c p3
552.55 61.60 0.57 c p3
552.52 67.51 0.57 c p3
552.49 61.60 0.57 c p3
552.47 61.60 0.57 c p3
552.44 61.60 0.57 c p3
552.43 61.60 0.57 c p3
552.41 61.60 0.57 c p3
552.40 61.60 0.57 c p3
552.39 61.60 0.57 c p3
552.28 67.51 0.57 c p3
552.27 61.60 0.57 c p3
552.26 61.60 0.57 c p3
552.14 61.60 0.57 c p3
552.12 61.60 0.57 c p3
552.11 61.60 0.57 c p3
552.08 61.60 0.57 c p3
552.07 67.51 0.57 c p3
551.97 61.60 0.57 c p3
551.94 61.60 0.57 c p3
551.93 61.60 0.57 c p3
551.92 61.60 0.57 c p3
551.78 61.60 0.57 c p3
551.77 61.60 0.57 c p3
551.76 61.60 0.57 c p3
551.75 61.60 0.57 c p3
551.73 61.60 0.57 c p3
551.70 61.60 0.57 c p3
551.66 61.60 0.57 c p3
551.63 61.60 0.57 c p3
551.62 61.60 0.57 c p3
551.52 61.60 0.57 c p3
551.48 61.60 0.57 c p3
551.42 61.60 0.57 c p3
551.40 61.60 0.57 c p3
551.38 67.51 0.57 c p3
551.32 61.60 0.57 c p3
551.31 61.60 0.57 c p3
551.30 61.60 0.57 c p3
551.26 61.60 0.57 c p3
551.24 61.60 0.57 c p3
551.23 61.60 0.57 c p3
551.22 61.60 0.57 c p3
551.21 61.60 0.57 c p3
551.16 61.60 0.57 c p3
551.13 61.60 0.57 c p3
551.11 61.60 0.57 c p3
551.11 61.60 0.57 c p3
551.05 61.60 0.57 c p3
551.02 61.60 0.57 c p3
550.98 67.51 0.57 c p3
550.97 61.60 0.57 c p3
550.94 61.60 0.57 c p3
550.92 61.60 0.57 c p3
550.88 67.51 0.57 c p3
550.85 61.60 0.57 c p3
550.83 61.60 0.57 c p3
550.81 67.51 0.57 c p3
550.79 61.60 0.57 c p3
550.76 67.51 0.57 c p3
550.66 67.51 0.57 c p3
550.65 61.60 0.57 c p3
550.62 67.51 0.57 c p3
550.62 61.60 0.57 c p3
550.59 61.60 0.57 c p3
550.55 70.97 0.57 c p3
550.54 61.60 0.57 c p3
550.52 61.60 0.57 c p3
550.49 61.60 0.57 c p3
550.48 61.60 0.57 c p3
550.45 61.60 0.57 c p3
550.39 61.60 0.57 c p3
550.38 61.60 0.57 c p3
550.37 61.60 0.57 c p3
550.32 70.97 0.57 c p3
550.29 61.60 0.57 c p3
550.20 67.51 0.57 c p3
550.19 67.51 0.57 c p3
550.17 61.60 0.57 c p3
550.16 67.51 0.57 c p3
550.16 61.60 0.57 c p3
550.12 67.51 0.57 c p3
550.12 61.60 0.57 c p3
550.09 61.60 0.57 c p3
550.06 61.60 0.57 c p3
550.05 61.60 0.57 c p3
550.03 67.51 0.57 c p3
550.02 61.60 0.57 c p3
549.98 61.60 0.57 c p3
549.96 67.51 0.57 c p3
549.89 61.60 0.57 c p3
549.87 67.51 0.57 c p3
549.84 61.60 0.57 c p3
549.83 61.60 0.57 c p3
549.82 61.60 0.57 c p3
549.80 61.60 0.57 c p3
549.79 61.60 0.57 c p3
549.78 61.60 0.57 c p3
549.77 61.60 0.57 c p3
549.71 61.60 0.57 c p3
549.57 70.97 0.57 c p3
549.56 70.97 0.57 c p3
549.52 61.60 0.57 c p3
549.51 61.60 0.57 c p3
549.50 67.51 0.57 c p3
549.47 67.51 0.57 c p3
549.45 61.60 0.57 c p3
549.44 61.60 0.57 c p3
549.43 61.60 0.57 c p3
549.42 61.60 0.57 c p3
549.41 61.60 0.57 c p3
549.40 67.51 0.57 c p3
549.38 67.51 0.57 c p3
549.38 61.60 0.57 c p3
549.35 67.51 0.57 c p3
549.33 61.60 0.57 c p3
549.31 67.51 0.57 c p3
549.30 67.51 0.57 c p3
549.30 61.60 0.57 c p3
549.28 61.60 0.57 c p3
549.27 61.60 0.57 c p3
549.24 67.51 0.57 c p3
549.21 61.60 0.57 c p3
549.21 67.51 0.57 c p3
549.20 61.60 0.57 c p3
549.19 61.60 0.57 c p3
549.18 67.51 0.57 c p3
549.12 61.60 0.57 c p3
549.11 70.97 0.57 c p3
549.11 61.60 0.57 c p3
549.09 67.51 0.57 c p3
549.06 61.60 0.57 c p3
549.05 67.51 0.57 c p3
549.04 61.60 0.57 c p3
549.01 61.60 0.57 c p3
549.00 61.60 0.57 c p3
548.99 61.60 0.57 c p3
548.92 67.51 0.57 c p3
548.89 61.60 0.57 c p3
548.87 61.60 0.57 c p3
548.83 61.60 0.57 c p3
548.82 61.60 0.57 c p3
548.76 61.60 0.57 c p3
548.73 61.60 0.57 c p3
548.71 61.60 0.57 c p3
548.66 61.60 0.57 c p3
548.63 67.51 0.57 c p3
548.62 61.60 0.57 c p3
548.60 61.60 0.57 c p3
548.59 67.51 0.57 c p3
548.58 61.60 0.57 c p3
548.57 67.51 0.57 c p3
548.56 67.51 0.57 c p3
548.52 67.51 0.57 c p3
548.48 67.51 0.57 c p3
548.45 67.51 0.57 c p3
548.44 61.60 0.57 c p3
548.41 61.60 0.57 c p3
548.39 61.60 0.57 c p3
548.33 61.60 0.57 c p3
548.32 61.60 0.57 c p3
548.31 61.60 0.57 c p3
548.29 61.60 0.57 c p3
548.28 61.60 0.57 c p3
548.27 67.51 0.57 c p3
548.25 61.60 0.57 c p3
548.24 67.51 0.57 c p3
548.23 61.60 0.57 c p3
548.22 61.60 0.57 c p3
548.21 61.60 0.57 c p3
548.19 61.60 0.57 c p3
548.17 67.51 0.57 c p3
548.12 61.60 0.57 c p3
548.10 61.60 0.57 c p3
548.09 61.60 0.57 c p3
548.08 67.51 0.57 c p3
548.07 70.97 0.57 c p3
548.04 61.60 0.57 c p3
548.02 67.51 0.57 c p3
548.01 67.51 0.57 c p3
547.98 61.60 0.57 c p3
547.96 67.51 0.57 c p3
547.95 73.43 0.57 c p3
547.90 67.51 0.57 c p3
547.89 61.60 0.57 c p3
547.87 70.97 0.57 c p3
547.85 61.60 0.57 c p3
547.84 67.51 0.57 c p3
547.82 70.97 0.57 c p3
547.81 61.60 0.57 c p3
547.80 61.60 0.57 c p3
547.79 61.60 0.57 c p3
547.74 61.60 0.57 c p3
547.71 61.60 0.57 c p3
547.68 61.60 0.57 c p3
547.66 61.60 0.57 c p3
547.64 61.60 0.57 c p3
547.63 61.60 0.57 c p3
547.62 61.60 0.57 c p3
547.61 67.51 0.57 c p3
547.59 67.51 0.57 c p3
547.57 61.60 0.57 c p3
547.56 61.60 0.57 c p3
547.52 61.60 0.57 c p3
547.51 61.60 0.57 c p3
547.50 61.60 0.57 c p3
547.48 61.60 0.57 c p3
547.47 67.51 0.57 c p3
547.44 67.51 0.57 c p3
547.43 61.60 0.57 c p3
547.42 61.60 0.57 c p3
547.41 61.60 0.57 c p3
547.39 67.51 0.57 c p3
547.37 61.60 0.57 c p3
547.36 61.60 0.57 c p3
547.35 70.97 0.57 c p3
547.34 67.51 0.57 c p3
547.32 61.60 0.57 c p3
547.31 70.97 0.57 c p3
547.30 67.51 0.57 c p3
547.28 61.60 0.57 c p3
547.25 67.51 0.57 c p3
547.24 61.60 0.57 c p3
547.22 61.60 0.57 c p3
547.21 67.51 0.57 c p3
547.20 67.51 0.57 c p3
547.19 67.51 0.57 c p3
547.18 61.60 0.57 c p3
547.17 61.60 0.57 c p3
547.13 67.51 0.57 c p3
547.11 67.51 0.57 c p3
547.09 61.60 0.57 c p3
547.08 61.60 0.57 c p3
547.07 61.60 0.57 c p3
547.06 61.60 0.57 c p3
547.04 61.60 0.57 c p3
547.02 61.60 0.57 c p3
547.01 61.60 0.57 c p3
547.00 67.51 0.57 c p3
546.99 61.60 0.57 c p3
546.98 61.60 0.57 c p3
546.96 61.60 0.57 c p3
546.94 61.60 0.57 c p3
546.92 67.51 0.57 c p3
546.88 61.60 0.57 c p3
546.87 67.51 0.57 c p3
546.86 61.60 0.57 c p3
546.85 67.51 0.57 c p3
546.83 70.97 0.57 c p3
546.81 61.60 0.57 c p3
546.79 61.60 0.57 c p3
546.78 70.97 0.57 c p3
546.70 61.60 0.57 c p3
546.67 67.51 0.57 c p3
546.66 61.60 0.57 c p3
546.65 61.60 0.57 c p3
546.63 61.60 0.57 c p3
546.61 61.60 0.57 c p3
546.60 61.60 0.57 c p3
546.59 67.51 0.57 c p3
546.58 61.60 0.57 c p3
546.55 67.51 0.57 c p3
546.54 61.60 0.57 c p3
546.53 70.97 0.57 c p3
546.52 61.60 0.57 c p3
546.51 61.60 0.57 c p3
546.49 61.60 0.57 c p3
546.48 67.51 0.57 c p3
546.47 61.60 0.57 c p3
546.46 61.60 0.57 c p3
546.43 67.51 0.57 c p3
546.42 67.51 0.57 c p3
546.37 67.51 0.57 c p3
546.36 61.60 0.57 c p3
546.35 67.51 0.57 c p3
546.34 61.60 0.57 c p3
546.32 70.97 0.57 c p3
546.31 61.60 0.57 c p3
546.30 61.60 0.57 c p3
546.27 67.51 0.57 c p3
546.25 61.60 0.57 c p3
546.24 61.60 0.57 c p3
546.20 61.60 0.57 c p3
546.19 61.60 0.57 c p3
546.18 61.60 0.57 c p3
546.16 67.51 0.57 c p3
546.13 67.51 0.57 c p3
546.11 67.51 0.57 c p3
546.10 67.51 0.57 c p3
546.09 61.60 0.57 c p3
546.08 61.60 0.57 c p3
546.06 61.60 0.57 c p3
546.02 61.60 0.57 c p3
546.01 61.60 0.57 c p3
546.00 70.97 0.57 c p3
545.99 67.51 0.57 c p3
545.97 67.51 0.57 c p3
545.96 61.60 0.57 c p3
545.92 61.60 0.57 c p3
545.91 67.51 0.57 c p3
545.88 67.51 0.57 c p3
545.83 61.60 0.57 c p3
545.81 61.60 0.57 c p3
545.79 61.60 0.57 c p3
545.75 70.97 0.57 c p3
545.74 67.51 0.57 c p3
545.72 67.51 0.57 c p3
545.70 61.60 0.57 c p3
545.68 61.60 0.57 c p3
545.66 70.97 0.57 c p3
545.65 61.60 0.57 c p3
545.62 61.60 0.57 c p3
545.61 61.60 0.57 c p3
545.60 61.60 0.57 c p3
545.58 67.51 0.57 c p3
545.56 67.51 0.57 c p3
545.54 61.60 0.57 c p3
545.53 67.51 0.57 c p3
545.50 61.60 0.57 c p3
545.49 61.60 0.57 c p3
545.48 67.51 0.57 c p3
545.46 61.60 0.57 c p3
545.45 67.51 0.57 c p3
545.42 67.51 0.57 c p3
545.40 67.51 0.57 c p3
545.38 61.60 0.57 c p3
545.37 67.51 0.57 c p3
545.35 61.60 0.57 c p3
545.34 67.51 0.57 c p3
545.33 61.60 0.57 c p3
545.31 67.51 0.57 c p3
545.29 67.51 0.57 c p3
545.27 61.60 0.57 c p3
545.26 73.43 0.57 c p3
545.25 67.51 0.57 c p3
545.23 75.33 0.57 c p3
545.22 61.60 0.57 c p3
545.19 61.60 0.57 c p3
545.18 67.51 0.57 c p3
545.15 67.51 0.57 c p3
545.13 61.60 0.57 c p3
545.12 61.60 0.57 c p3
545.11 67.51 0.57 c p3
545.09 70.97 0.57 c p3
545.08 67.51 0.57 c p3
545.06 61.60 0.57 c p3
544.99 73.43 0.57 c p3
544.98 61.60 0.57 c p3
544.97 67.51 0.57 c p3
544.95 73.43 0.57 c p3
544.92 70.97 0.57 c p3
544.89 61.60 0.57 c p3
544.88 61.60 0.57 c p3
544.87 61.60 0.57 c p3
544.85 70.97 0.57 c p3
544.82 61.60 0.57 c p3
544.81 78.20 0.57 c p3
544.79 67.51 0.57 c p3
544.76 73.43 0.57 c p3
544.74 67.51 0.57 c p3
544.68 73.43 0.57 c p3
544.65 67.51 0.57 c p3
544.63 61.60 0.57 c p3
544.62 70.97 0.57 c p3
544.59 61.60 0.57 c p3
544.57 70.97 0.57 c p3
544.56 67.51 0.57 c p3
544.54 61.60 0.57 c p3
544.53 70.97 0.57 c p3
544.52 67.51 0.57 c p3
544.50 67.51 0.57 c p3
544.49 70.97 0.57 c p3
544.47 61.60 0.57 c p3
544.46 61.60 0.57 c p3
544.43 61.60 0.57 c p3
544.41 70.97 0.57 c p3
544.40 67.51 0.57 c p3
544.38 70.97 0.57 c p3
544.36 67.51 0.57 c p3
544.32 67.51 0.57 c p3
544.30 70.97 0.57 c p3
544.27 67.51 0.57 c p3
544.24 61.60 0.57 c p3
544.23 70.97 0.57 c p3
544.21 73.43 0.57 c p3
544.20 70.97 0.57 c p3
544.18 61.60 0.57 c p3
544.17 61.60 0.57 c p3
544.15 61.60 0.57 c p3
544.14 67.51 0.57 c p3
544.09 61.60 0.57 c p3
544.06 67.51 0.57 c p3
544.04 61.60 0.57 c p3
544.03 61.60 0.57 c p3
544.01 67.51 0.57 c p3
543.99 70.97 0.57 c p3
543.98 61.60 0.57 c p3
543.96 61.60 0.57 c p3
543.93 61.60 0.57 c p3
543.90 61.60 0.57 c p3
543.88 73.43 0.57 c p3
543.87 73.43 0.57 c p3
543.85 61.60 0.57 c p3
543.82 61.60 0.57 c p3
543.80 73.43 0.57 c p3
543.79 67.51 0.57 c p3
543.77 67.51 0.57 c p3
543.74 61.60 0.57 c p3
543.72 73.43 0.57 c p3
543.71 70.97 0.57 c p3
543.69 76.88 0.57 c p3
543.67 61.60 0.57 c p3
543.66 67.51 0.57 c p3
543.64 70.97 0.57 c p3
543.62 61.60 0.57 c p3
543.61 67.51 0.57 c p3
543.59 61.60 0.57 c p3
543.58 67.51 0.57 c p3
543.56 61.60 0.57 c p3
543.54 67.51 0.57 c p3
543.53 70.97 0.57 c p3
543.51 67.51 0.57 c p3
543.49 73.43 0.57 c p3
543.48 73.43 0.57 c p3
543.46 70.97 0.57 c p3
543.44 61.60 0.57 c p3
543.41 75.33 0.57 c p3
543.39 67.51 0.57 c p3
543.36 61.60 0.57 c p3
543.34 73.43 0.57 c p3
543.33 67.51 0.57 c p3
543.27 70.97 0.57 c p3
543.26 67.51 0.57 c p3
543.22 70.97 0.57 c p3
543.21 70.97 0.57 c p3
543.19 67.51 0.57 c p3
543.15 67.51 0.57 c p3
543.14 73.43 0.57 c p3
543.12 67.51 0.57 c p3
543.10 75.33 0.57 c p3
543.09 67.51 0.57 c p3
543.07 61.60 0.57 c p3
543.05 73.43 0.57 c p3
543.03 67.51 0.57 c p3
543.02 70.97 0.57 c p3
543.00 61.60 0.57 c p3
542.98 67.51 0.57 c p3
542.96 67.51 0.57 c p3
542.95 67.51 0.57 c p3
542.93 67.51 0.57 c p3
542.91 67.51 0.57 c p3
542.89 67.51 0.57 c p3
542.86 61.60 0.57 c p3
542.84 75.33 0.57 c p3
542.82 67.51 0.57 c p3
542.80 67.51 0.57 c p3
542.79 73.43 0.57 c p3
542.77 73.43 0.57 c p3
542.75 75.33 0.57 c p3
542.73 75.33 0.57 c p3
542.71 61.60 0.57 c p3
542.70 61.60 0.57 c p3
542.66 70.97 0.57 c p3
542.64 61.60 0.57 c p3
542.62 75.33 0.57 c p3
542.60 75.33 0.57 c p3
542.59 61.60 0.57 c p3
542.55 73.43 0.57 c p3
542.53 70.97 0.57 c p3
542.51 70.97 0.57 c p3
542.49 67.51 0.57 c p3
542.48 61.60 0.57 c p3
542.46 70.97 0.57 c p3
542.42 73.43 0.57 c p3
542.40 75.33 0.57 c p3
542.38 70.97 0.57 c p3
542.36 67.51 0.57 c p3
542.34 67.51 0.57 c p3
542.33 61.60 0.57 c p3
542.31 67.51 0.57 c p3
542.29 70.97 0.57 c p3
542.27 67.51 0.57 c p3
542.25 75.33 0.57 c p3
542.23 61.60 0.57 c p3
542.21 73.43 0.57 c p3
542.19 75.33 0.57 c p3
542.17 70.97 0.57 c p3
542.16 79.34 0.57 c p3
542.14 61.60 0.57 c p3
542.12 70.97 0.57 c p3
542.10 70.97 0.57 c p3
542.06 67.51 0.57 c p3
542.04 76.88 0.57 c p3
542.02 70.97 0.57 c p3
542.00 61.60 0.57 c p3
541.98 73.43 0.57 c p3
541.96 67.51 0.57 c p3
541.94 75.33 0.57 c p3
541.92 61.60 0.57 c p3
541.90 75.33 0.57 c p3
541.88 75.33 0.57 c p3
541.86 73.43 0.57 c p3
541.84 67.51 0.57 c p3
541.82 67.51 0.57 c p3
541.80 75.33 0.57 c p3
541.78 67.51 0.57 c p3
541.76 70.97 0.57 c p3
541.74 75.33 0.57 c p3
541.72 76.88 0.57 c p3
541.70 61.60 0.57 c p3
541.68 67.51 0.57 c p3
541.66 67.51 0.57 c p3
541.62 67.51 0.57 c p3
541.60 73.43 0.57 c p3
541.58 73.43 0.57 c p3
541.56 61.60 0.57 c p3
541.52 67.51 0.57 c p3
541.50 70.97 0.57 c p3
541.48 70.97 0.57 c p3
541.46 67.51 0.57 c p3
541.44 70.97 0.57 c p3
541.42 67.51 0.57 c p3
541.40 76.88 0.57 c p3
541.38 61.60 0.57 c p3
541.35 61.60 0.57 c p3
541.33 61.60 0.57 c p3
541.31 75.33 0.57 c p3
541.29 70.97 0.57 c p3
541.25 67.51 0.57 c p3
541.23 67.51 0.57 c p3
541.21 73.43 0.57 c p3
541.19 76.88 0.57 c p3
541.14 67.51 0.57 c p3
541.12 75.33 0.57 c p3
541.10 67.51 0.57 c p3
541.08 73.43 0.57 c p3
541.06 70.97 0.57 c p3
541.04 73.43 0.57 c p3
541.01 73.43 0.57 c p3
540.99 67.51 0.57 c p3
540.97 61.60 0.57 c p3
540.95 67.51 0.57 c p3
540.93 70.97 0.57 c p3
540.91 73.43 0.57 c p3
540.88 70.97 0.57 c p3
540.86 70.97 0.57 c p3
540.84 67.51 0.57 c p3
540.82 67.51 0.57 c p3
540.79 61.60 0.57 c p3
540.77 76.88 0.57 c p3
540.75 61.60 0.57 c p3
540.73 61.60 0.57 c p3
540.71 70.97 0.57 c p3
540.68 73.43 0.57 c p3
540.66 67.51 0.57 c p3
540.64 75.33 0.57 c p3
540.62 70.97 0.57 c p3
540.59 70.97 0.57 c p3
540.57 70.97 0.57 c p3
540.55 61.60 0.57 c p3
540.52 70.97 0.57 c p3
540.50 67.51 0.57 c p3
540.48 70.97 0.57 c p3
540.46 75.33 0.57 c p3
540.43 75.33 0.57 c p3
540.41 76.88 0.57 c p3
540.39 70.97 0.57 c p3
540.36 78.20 0.57 c p3
540.32 75.33 0.57 c p3
540.29 76.88 0.57 c p3
540.27 79.34 0.57 c p3
540.25 73.43 0.57 c p3
540.22 75.33 0.57 c p3
540.20 76.88 0.57 c p3
540.18 70.97 0.57 c p3
540.15 70.97 0.57 c p3
540.13 73.43 0.57 c p3
540.10 67.51 0.57 c p3
540.08 73.43 0.57 c p3
540.06 70.97 0.57 c p3
540.03 76.88 0.57 c p3
540.01 76.88 0.57 c p3
539.98 76.88 0.57 c p3
539.96 70.97 0.57 c p3
539.94 76.88 0.57 c p3
539.91 70.97 0.57 c p3
539.89 70.97 0.57 c p3
539.86 78.20 0.57 c p3
539.84 70.97 0.57 c p3
539.81 78.20 0.57 c p3
539.79 75.33 0.57 c p3
539.76 70.97 0.57 c p3
539.74 75.33 0.57 c p3
539.71 70.97 0.57 c p3
539.69 76.88 0.57 c p3
539.66 67.51 0.57 c p3
539.64 67.51 0.57 c p3
539.61 73.43 0.57 c p3
539.59 82.80 0.57 c p3
539.56 76.88 0.57 c p3
539.54 73.43 0.57 c p3
539.51 73.43 0.57 c p3
539.49 73.43 0.57 c p3
539.46 79.34 0.57 c p3
539.44 76.88 0.57 c p3
539.41 67.51 0.57 c p3
539.38 75.33 0.57 c p3
539.36 75.33 0.57 c p3
539.33 80.34 0.57 c p3
539.31 73.43 0.57 c p3
539.28 75.33 0.57 c p3
539.25 73.43 0.57 c p3
539.23 73.43 0.57 c p3
539.20 70.97 0.57 c p3
539.18 79.34 0.57 c p3
539.15 75.33 0.57 c p3
539.12 78.20 0.57 c p3
539.10 70.97 0.57 c p3
539.07 76.88 0.57 c p3
539.04 76.88 0.57 c p3
539.02 75.33 0.57 c p3
538.99 79.34 0.57 c p3
538.96 78.20 0.57 c p3
538.94 79.34 0.57 c p3
538.91 79.34 0.57 c p3
538.88 76.88 0.57 c p3
538.85 79.34 0.57 c p3
538.83 75.33 0.57 c p3
538.80 75.33 0.57 c p3
538.77 78.20 0.57 c p3
538.74 75.33 0.57 c p3
538.72 76.88 0.57 c p3
538.69 78.20 0.57 c p3
538.66 75.33 0.57 c p3
538.63 76.88 0.57 c p3
538.60 73.43 0.57 c p3
538.58 70.97 0.57 c p3
538.55 76.88 0.57 c p3
538.52 70.97 0.57 c p3
538.49 76.88 0.57 c p3
538.46 76.88 0.57 c p3
538.43 79.34 0.57 c p3
538.41 80.34 0.57 c p3
538.38 73.43 0.57 c p3
538.35 78.20 0.57 c p3
538.32 75.33 0.57 c p3
538.29 75.33 0.57 c p3
538.26 75.33 0.57 c p3
538.23 73.43 0.57 c p3
538.20 78.20 0.57 c p3
538.17 73.43 0.57 c p3
538.14 79.34 0.57 c p3
538.12 78.20 0.57 c p3
538.09 75.33 0.57 c p3
538.06 78.20 0.57 c p3
538.03 78.20 0.57 c p3
538.00 76.88 0.57 c p3
537.97 81.24 0.57 c p3
537.94 75.33 0.57 c p3
537.91 76.88 0.57 c p3
537.88 70.97 0.57 c p3
537.85 75.33 0.57 c p3
537.82 78.20 0.57 c p3
537.78 79.34 0.57 c p3
537.75 82.05 0.57 c p3
537.72 78.20 0.57 c p3
537.69 78.20 0.57 c p3
537.66 84.70 0.57 c p3
537.63 75.33 0.57 c p3
537.60 75.33 0.57 c p3
537.57 79.34 0.57 c p3
537.54 80.34 0.57 c p3
537.50 73.43 0.57 c p3
537.47 78.20 0.57 c p3
537.44 83.48 0.57 c p3
537.41 79.34 0.57 c p3
537.38 80.34 0.57 c p3
537.35 79.34 0.57 c p3
537.31 75.33 0.57 c p3
537.28 78.20 0.57 c p3
537.25 78.20 0.57 c p3
537.22 76.88 0.57 c p3
537.18 78.20 0.57 c p3
537.15 73.43 0.57 c p3
537.12 80.34 0.57 c p3
537.09 78.20 0.57 c p3
537.05 80.34 0.57 c p3
537.02 82.05 0.57 c p3
536.99 78.20 0.57 c p3
536.95 84.70 0.57 c p3
536.92 82.80 0.57 c p3
536.89 73.43 0.57 c p3
536.85 70.97 0.57 c p3
536.82 73.43 0.57 c p3
536.78 79.34 0.57 c p3
536.75 80.34 0.57 c p3
536.71 81.24 0.57 c p3
536.68 78.20 0.57 c p3
536.65 73.43 0.57 c p3
536.61 76.88 0.57 c p3
536.58 82.80 0.57 c p3
536.54 82.05 0.57 c p3
536.51 79.34 0.57 c p3
536.47 76.88 0.57 c p3
536.44 81.24 0.57 c p3
536.40 81.24 0.57 c p3
536.37 79.34 0.57 c p3
536.33 81.24 0.57 c p3
536.29 73.43 0.57 c p3
536.26 82.05 0.57 c p3
536.22 80.34 0.57 c p3
536.19 78.20 0.57 c p3
536.15 82.05 0.57 c p3
536.11 85.25 0.57 c p3
536.08 80.34 0.57 c p3
536.04 78.20 0.57 c p3
536.00 78.20 0.57 c p3
535.96 83.48 0.57 c p3
535.93 78.20 0.57 c p3
535.89 79.34 0.57 c p3
535.85 79.34 0.57 c p3
535.81 82.05 0.57 c p3
535.78 79.34 0.57 c p3
535.74 79.34 0.57 c p3
535.70 82.05 0.57 c p3
535.66 76.88 0.57 c p3
535.62 82.80 0.57 c p3
535.58 78.20 0.57 c p3
535.55 82.05 0.57 c p3
535.51 84.11 0.57 c p3
535.47 82.80 0.57 c p3
535.43 73.43 0.57 c p3
535.39 80.34 0.57 c p3
535.35 83.48 0.57 c p3
535.31 85.25 0.57 c p3
535.27 82.80 0.57 c p3
535.23 81.24 0.57 c p3
535.19 84.11 0.57 c p3
535.15 84.11 0.57 c p3
535.11 81.24 0.57 c p3
535.07 83.48 0.57 c p3
535.03 86.26 0.57 c p3
534.98 73.43 0.57 c p3
534.94 84.70 0.57 c p3
534.90 81.24 0.57 c p3
534.86 78.20 0.57 c p3
534.82 84.70 0.57 c p3
534.78 82.05 0.57 c p3
534.73 84.11 0.57 c p3
534.69 84.70 0.57 c p3
534.65 82.80 0.57 c p3
534.61 79.34 0.57 c p3
534.56 82.05 0.57 c p3
534.52 87.97 0.57 c p3
534.47 86.26 0.57 c p3
534.43 79.34 0.57 c p3
534.39 84.11 0.57 c p3
534.34 82.80 0.57 c p3
534.30 78.20 0.57 c p3
534.25 80.34 0.57 c p3
534.21 82.80 0.57 c p3
534.16 86.26 0.57 c p3
534.12 84.70 0.57 c p3
534.07 82.05 0.57 c p3
534.03 83.48 0.57 c p3
533.98 87.57 0.57 c p3
533.94 85.77 0.57 c p3
533.89 83.48 0.57 c p3
533.84 82.05 0.57 c p3
533.80 89.39 0.57 c p3
533.75 83.48 0.57 c p3
533.70 86.26 0.57 c p3
533.65 85.25 0.57 c p3
533.61 84.70 0.57 c p3
533.56 86.26 0.57 c p3
533.51 84.70 0.57 c p3
533.46 86.72 0.57 c p3
533.41 84.11 0.57 c p3
533.36 85.77 0.57 c p3
533.31 87.15 0.57 c p3
533.27 87.97 0.57 c p3
533.22 80.34 0.57 c p3
533.17 83.48 0.57 c p3
533.11 80.34 0.57 c p3
533.06 84.70 0.57 c p3
533.01 88.35 0.57 c p3
532.96 85.77 0.57 c p3
532.91 86.26 0.57 c p3
532.86 87.57 0.57 c p3
532.81 84.11 0.57 c p3
532.75 84.70 0.57 c p3
532.70 87.15 0.57 c p3
532.65 85.77 0.57 c p3
532.60 86.72 0.57 c p3
532.54 84.70 0.57 c p3
532.49 87.15 0.57 c p3
532.43 85.25 0.57 c p3
532.38 87.57 0.57 c p3
532.33 86.26 0.57 c p3
532.27 87.15 0.57 c p3
532.21 87.15 0.57 c p3
532.16 89.39 0.57 c p3
532.10 88.71 0.57 c p3
532.05 88.35 0.57 c p3
531.99 87.97 0.57 c p3
531.93 90.32 0.57 c p3
531.87 82.05 0.57 c p3
531.82 87.57 0.57 c p3
531.76 87.57 0.57 c p3
531.70 90.89 0.57 c p3
531.64 87.15 0.57 c p3
531.58 90.89 0.57 c p3
531.52 86.72 0.57 c p3
531.46 90.61 0.57 c p3
531.40 85.77 0.57 c p3
531.34 85.77 0.57 c p3
531.28 90.89 0.57 c p3
531.22 86.72 0.57 c p3
531.16 87.57 0.57 c p3
531.09 87.97 0.57 c p3
531.03 87.15 0.57 c p3
530.97 86.72 0.57 c p3
530.90 89.39 0.57 c p3
530.84 88.71 0.57 c p3
530.77 89.06 0.57 c p3
530.71 90.32 0.57 c p3
530.64 87.15 0.57 c p3
530.58 92.17 0.57 c p3
530.51 89.06 0.57 c p3
530.44 90.89 0.57 c p3
530.38 91.43 0.57 c p3
530.31 94.62 0.57 c p3
530.24 89.71 0.57 c p3
530.17 89.71 0.57 c p3
530.10 88.71 0.57 c p3
530.03 90.32 0.57 c p3
529.96 92.17 0.57 c p3
529.89 93.07 0.57 c p3
529.82 93.68 0.57 c p3
529.75 93.28 0.57 c p3
529.67 92.63 0.57 c p3
529.60 93.07 0.57 c p3
529.53 91.16 0.57 c p3
529.45 93.68 0.57 c p3
529.38 91.16 0.57 c p3
529.30 93.68 0.57 c p3
529.23 91.93 0.57 c p3
529.15 95.31 0.57 c p3
529.07 92.63 0.57 c p3
528.99 94.80 0.57 c p3
528.92 90.61 0.57 c p3
528.84 91.93 0.57 c p3
528.76 94.26 0.57 c p3
528.67 95.63 0.57 c p3
528.59 94.07 0.57 c p3
528.51 93.28 0.57 c p3
528.43 94.26 0.57 c p3
528.34 96.09 0.57 c p3
528.26 94.44 0.57 c p3
528.17 94.07 0.57 c p3
528.09 95.78 0.57 c p3
528.00 95.31 0.57 c p3
527.91 93.48 0.57 c p3
527.82 96.94 0.57 c p3
527.74 96.81 0.57 c p3
527.65 96.24 0.57 c p3
527.55 95.47 0.57 c p3
527.46 97.59 0.57 c p3
527.37 97.84 0.57 c p3
527.28 99.29 0.57 c p3
527.18 95.47 0.57 c p3
527.08 96.94 0.57 c p3
526.99 97.21 0.57 c p3
526.89 97.96 0.57 c p3
526.79 99.29 0.57 c p3
526.69 100.53 0.57 c p3
526.59 97.59 0.57 c p3
526.49 98.98 0.57 c p3
526.39 98.54 0.57 c p3
526.28 99.19 0.57 c p3
526.18 99.60 0.57 c p3
526.07 99.70 0.57 c p3
525.96 99.79 0.57 c p3
525.85 97.84 0.57 c p3
525.74 100.88 0.57 c p3
525.63 99.29 0.57 c p3
525.52 100.08 0.57 c p3
525.40 99.98 0.57 c p3
525.29 99.60 0.57 c p3
525.17 99.70 0.57 c p3
525.05 101.62 0.57 c p3
524.93 102.15 0.57 c p3
524.81 102.15 0.57 c p3
524.68 102.37 0.57 c p3
524.56 103.75 0.57 c p3
524.43 100.88 0.57 c p3
524.30 103.12 0.57 c p3
524.17 102.58 0.57 c p3
524.04 103.51 0.57 c p3
523.90 102.99 0.57 c p3
523.77 104.17 0.57 c p3
523.63 103.44 0.57 c p3
523.49 104.84 0.57 c p3
523.35 104.05 0.57 c p3
523.20 103.99 0.57 c p3
523.05 105.41 0.57 c p3
522.90 104.62 0.57 c p3
522.75 106.04 0.57 c p3
522.60 105.75 0.57 c p3
522.44 106.54 0.57 c p3
522.28 106.40 0.57 c p3
522.12 106.96 0.57 c p3
521.95 107.49 0.57 c p3
521.79 108.73 0.57 c p3
521.61 108.28 0.57 c p3
521.44 109.39 0.57 c p3
521.26 109.26 0.57 c p3
521.08 110.14 0.57 c p3
520.90 109.00 0.57 c p3
520.71 109.36 0.57 c p3
520.51 110.40 0.57 c p3
520.32 110.51 0.57 c p3
520.12 110.51 0.57 c p3
519.91 111.30 0.57 c p3
519.70 112.58 0.57 c p3
519.49 112.49 0.57 c p3
519.27 113.04 0.57 c p3
519.04 113.17 0.57 c p3
518.81 113.44 0.57 c p3
518.57 113.73 0.57 c p3
518.33 113.75 0.57 c p3
518.08 114.63 0.57 c p3
517.83 115.14 0.57 c p3
517.56 115.80 0.57 c p3
517.29 115.76 0.57 c p3
517.01 115.80 0.57 c p3
516.73 117.17 0.57 c p3
516.43 117.27 0.57 c p3
516.12 117.73 0.57 c p3
515.81 118.87 0.57 c p3
515.48 119.32 0.57 c p3
515.14 119.70 0.57 c p3
514.79 120.31 0.57 c p3
514.42 120.05 0.57 c p3
514.04 121.31 0.57 c p3
513.64 121.97 0.57 c p3
513.23 122.85 0.57 c p3
512.79 123.57 0.57 c p3
512.34 124.13 0.57 c p3
511.86 124.78 0.57 c p3
511.35 125.69 0.57 c p3
510.82 125.94 0.57 c p3
510.25 127.49 0.57 c p3
509.65 127.87 0.57 c p3
509.01 128.65 0.57 c p3
508.31 129.55 0.57 c p3
507.57 129.94 0.57 c p3
506.75 131.32 0.57 c p3
505.86 131.70 0.57 c p3
504.88 132.94 0.57 c p3
503.78 133.53 0.57 c p3
502.53 134.69 0.57 c p3
501.09 135.28 0.57 c p3
499.39 136.65 0.57 c p3
497.31 137.23 0.57 c p3
494.62 139.26 0.57 c p3
490.83 144.26 0.57 c p3
0.4980 0.4980 0.4980 srgb
1.07 setlinewidth
[] 0 setdash
486.14 54.56 103.16 103.16 r p1
0.00 0.00 595.28 198.43 cl
0.00 0.00 595.28 198.43 cl
0.00 0.00 595.28 198.43 cl
0.00 0.00 595.28 198.43 cl
0.00 0.00 595.28 198.43 cl
0.00 0.00 595.28 198.43 cl
/Font1 findfont 12 s
0 0 0 srgb
21.77 76.92 (10) 0 0 t
/Font1 findfont 8 s
35.11 82.88 (-) 0 0 t
39.78 82.88 (4) 0 0 t
/Font1 findfont 12 s
21.77 116.20 (10) 0 0 t
/Font1 findfont 8 s
35.11 122.16 (-) 0 0 t
39.78 122.16 (2) 0 0 t
0.00 0.00 595.28 198.43 cl
0.00 0.00 595.28 198.43 cl
0 0 0 srgb
1.07 setlinewidth
[] 0 setdash
0 setlinecap
1 setlinejoin
10.00 setmiterlimit
np
46.62 82.60 m
2.99 0 l
o
np
46.62 121.88 m
2.99 0 l
o
0.00 0.00 595.28 198.43 cl
0.00 0.00 595.28 198.43 cl
0.00 0.00 595.28 198.43 cl
0.00 0.00 595.28 198.43 cl
0.00 0.00 595.28 198.43 cl
0.00 0.00 595.28 198.43 cl
0.00 0.00 595.28 198.43 cl
0.00 0.00 595.28 198.43 cl
0 0 0 srgb
1.07 setlinewidth
[] 0 setdash
0 setlinecap
1 setlinejoin
10.00 setmiterlimit
np
69.33 51.57 m
0 2.99 l
o
np
90.84 51.57 m
0 2.99 l
o
np
112.34 51.57 m
0 2.99 l
o
np
133.85 51.57 m
0 2.99 l
o
0.00 0.00 595.28 198.43 cl
0.00 0.00 595.28 198.43 cl
/Font1 findfont 12 s
0 0 0 srgb
60.44 37.59 (10) 0 0 t
/Font1 findfont 8 s
73.78 43.56 (1) 0 0 t
/Font1 findfont 12 s
81.94 37.59 (10) 0 0 t
/Font1 findfont 8 s
95.29 43.56 (2) 0 0 t
/Font1 findfont 12 s
103.45 37.59 (10) 0 0 t
/Font1 findfont 8 s
116.79 43.56 (3) 0 0 t
/Font1 findfont 12 s
124.95 37.59 (10) 0 0 t
/Font1 findfont 8 s
138.30 43.56 (4) 0 0 t
0.00 0.00 595.28 198.43 cl
0.00 0.00 595.28 198.43 cl
0.00 0.00 595.28 198.43 cl
0.00 0.00 595.28 198.43 cl
0.00 0.00 595.28 198.43 cl
0.00 0.00 595.28 198.43 cl
0.00 0.00 595.28 198.43 cl
0.00 0.00 595.28 198.43 cl
0 0 0 srgb
1.07 setlinewidth
[] 0 setdash
0 setlinecap
1 setlinejoin
10.00 setmiterlimit
np
178.46 51.57 m
0 2.99 l
o
np
199.97 51.57 m
0 2.99 l
o
np
221.48 51.57 m
0 2.99 l
o
np
242.98 51.57 m
0 2.99 l
o
0.00 0.00 595.28 198.43 cl
0.00 0.00 595.28 198.43 cl
/Font1 findfont 12 s
0 0 0 srgb
169.57 37.59 (10) 0 0 t
/Font1 findfont 8 s
182.91 43.56 (1) 0 0 t
/Font1 findfont 12 s
191.07 37.59 (10) 0 0 t
/Font1 findfont 8 s
204.42 43.56 (2) 0 0 t
/Font1 findfont 12 s
212.58 37.59 (10) 0 0 t
/Font1 findfont 8 s
225.92 43.56 (3) 0 0 t
/Font1 findfont 12 s
234.09 37.59 (10) 0 0 t
/Font1 findfont 8 s
247.43 43.56 (4) 0 0 t
0.00 0.00 595.28 198.43 cl
0.00 0.00 595.28 198.43 cl
0.00 0.00 595.28 198.43 cl
0.00 0.00 595.28 198.43 cl
0.00 0.00 595.28 198.43 cl
0.00 0.00 595.28 198.43 cl
0.00 0.00 595.28 198.43 cl
0.00 0.00 595.28 198.43 cl
0 0 0 srgb
1.07 setlinewidth
[] 0 setdash
0 setlinecap
1 setlinejoin
10.00 setmiterlimit
np
287.60 51.57 m
0 2.99 l
o
np
309.10 51.57 m
0 2.99 l
o
np
330.61 51.57 m
0 2.99 l
o
np
352.11 51.57 m
0 2.99 l
o
0.00 0.00 595.28 198.43 cl
0.00 0.00 595.28 198.43 cl
/Font1 findfont 12 s
0 0 0 srgb
278.70 37.59 (10) 0 0 t
/Font1 findfont 8 s
292.05 43.56 (1) 0 0 t
/Font1 findfont 12 s
300.21 37.59 (10) 0 0 t
/Font1 findfont 8 s
313.55 43.56 (2) 0 0 t
/Font1 findfont 12 s
321.71 37.59 (10) 0 0 t
/Font1 findfont 8 s
335.06 43.56 (3) 0 0 t
/Font1 findfont 12 s
343.22 37.59 (10) 0 0 t
/Font1 findfont 8 s
356.56 43.56 (4) 0 0 t
0.00 0.00 595.28 198.43 cl
0.00 0.00 595.28 198.43 cl
0.00 0.00 595.28 198.43 cl
0.00 0.00 595.28 198.43 cl
0.00 0.00 595.28 198.43 cl
0.00 0.00 595.28 198.43 cl
0.00 0.00 595.28 198.43 cl
0.00 0.00 595.28 198.43 cl
0 0 0 srgb
1.07 setlinewidth
[] 0 setdash
0 setlinecap
1 setlinejoin
10.00 setmiterlimit
np
396.73 51.57 m
0 2.99 l
o
np
418.24 51.57 m
0 2.99 l
o
np
439.74 51.57 m
0 2.99 l
o
np
461.25 51.57 m
0 2.99 l
o
0.00 0.00 595.28 198.43 cl
0.00 0.00 595.28 198.43 cl
/Font1 findfont 12 s
0 0 0 srgb
387.83 37.59 (10) 0 0 t
/Font1 findfont 8 s
401.18 43.56 (1) 0 0 t
/Font1 findfont 12 s
409.34 37.59 (10) 0 0 t
/Font1 findfont 8 s
422.68 43.56 (2) 0 0 t
/Font1 findfont 12 s
430.85 37.59 (10) 0 0 t
/Font1 findfont 8 s
444.19 43.56 (3) 0 0 t
/Font1 findfont 12 s
452.35 37.59 (10) 0 0 t
/Font1 findfont 8 s
465.70 43.56 (4) 0 0 t
0.00 0.00 595.28 198.43 cl
0.00 0.00 595.28 198.43 cl
0.00 0.00 595.28 198.43 cl
0.00 0.00 595.28 198.43 cl
0.00 0.00 595.28 198.43 cl
0.00 0.00 595.28 198.43 cl
0.00 0.00 595.28 198.43 cl
0.00 0.00 595.28 198.43 cl
0 0 0 srgb
1.07 setlinewidth
[] 0 setdash
0 setlinecap
1 setlinejoin
10.00 setmiterlimit
np
505.86 51.57 m
0 2.99 l
o
np
527.37 51.57 m
0 2.99 l
o
np
548.87 51.57 m
0 2.99 l
o
np
570.38 51.57 m
0 2.99 l
o
0.00 0.00 595.28 198.43 cl
0.00 0.00 595.28 198.43 cl
/Font1 findfont 12 s
0 0 0 srgb
496.97 37.59 (10) 0 0 t
/Font1 findfont 8 s
510.31 43.56 (1) 0 0 t
/Font1 findfont 12 s
518.47 37.59 (10) 0 0 t
/Font1 findfont 8 s
531.82 43.56 (2) 0 0 t
/Font1 findfont 12 s
539.98 37.59 (10) 0 0 t
/Font1 findfont 8 s
553.32 43.56 (3) 0 0 t
/Font1 findfont 12 s
561.48 37.59 (10) 0 0 t
/Font1 findfont 8 s
574.83 43.56 (4) 0 0 t
0.00 0.00 595.28 198.43 cl
0.00 0.00 595.28 198.43 cl
0.00 0.00 595.28 198.43 cl
0.00 0.00 595.28 198.43 cl
/Font1 findfont 12 s
0 0 0 srgb
308.79 23.97 (siz) 0 ta
-0.180 (e) tb gr
0.00 0.00 595.28 198.43 cl
0.00 0.00 595.28 198.43 cl
/Font1 findfont 12 s
0 0 0 srgb
16.98 106.14 (probability) .5 90 t
0.00 0.00 595.28 198.43 cl
0.00 0.00 595.28 198.43 cl
0.00 0.00 595.28 198.43 cl
0.00 0.00 595.28 198.43 cl
ep
%%Trailer
%%Pages: 1
%%EOF
