%!PS-Adobe-3.0 EPSF-3.0
%%DocumentNeededResources: font Helvetica
%%+ font Helvetica-Bold
%%+ font Helvetica-Oblique
%%+ font Helvetica-BoldOblique
%%+ font Symbol
%%Title: R Graphics Output
%%Creator: R Software
%%Pages: (atend)
%%BoundingBox: 0 0 595 198
%%EndComments
%%BeginProlog
/bp  { gs sRGB gs } def
% begin .ps.prolog
/gs  { gsave } bind def
/gr  { grestore } bind def
/ep  { showpage gr gr } bind def
/m   { moveto } bind def
/l  { rlineto } bind def
/np  { newpath } bind def
/cp  { closepath } bind def
/f   { fill } bind def
/o   { stroke } bind def
/c   { newpath 0 360 arc } bind def
/r   { 4 2 roll moveto 1 copy 3 -1 roll exch 0 exch rlineto 0 rlineto -1 mul 0 exch rlineto closepath } bind def
/p1  { stroke } bind def
/p2  { gsave bg fill grestore newpath } bind def
/p3  { gsave bg fill grestore stroke } bind def
/p6  { gsave bg eofill grestore newpath } bind def
/p7  { gsave bg eofill grestore stroke } bind def
/t   { 5 -2 roll moveto gsave rotate
       1 index stringwidth pop
       mul neg 0 rmoveto show grestore } bind def
/ta  { 4 -2 roll moveto gsave rotate show } bind def
/tb  { 2 -1 roll 0 rmoveto show } bind def
/cl  { grestore gsave newpath 3 index 3 index moveto 1 index
       4 -1 roll lineto  exch 1 index lineto lineto
       closepath clip newpath } bind def
/rgb { setrgbcolor } bind def
/s   { scalefont setfont } bind def
% end   .ps.prolog
/sRGB { [ /CIEBasedABC
          << /DecodeLMN
               [ { dup 0.03928 le
                        {12.92321 div}
                        {0.055 add 1.055 div 2.4 exp }
                     ifelse
                 } bind dup dup
               ]
             /MatrixLMN [0.412457 0.212673 0.019334
                         0.357576 0.715152 0.119192
                         0.180437 0.072175 0.950301]
             /WhitePoint [0.9505 1.0 1.0890]
           >>
         ] setcolorspace } bind def
/srgb { setcolor } bind def
%%IncludeResource: font Helvetica
/Helvetica findfont
dup length dict begin
  {1 index /FID ne {def} {pop pop} ifelse} forall
  /Encoding ISOLatin1Encoding def
  currentdict
  end
/Font1 exch definefont pop
%%IncludeResource: font Helvetica-Bold
/Helvetica-Bold findfont
dup length dict begin
  {1 index /FID ne {def} {pop pop} ifelse} forall
  /Encoding ISOLatin1Encoding def
  currentdict
  end
/Font2 exch definefont pop
%%IncludeResource: font Helvetica-Oblique
/Helvetica-Oblique findfont
dup length dict begin
  {1 index /FID ne {def} {pop pop} ifelse} forall
  /Encoding ISOLatin1Encoding def
  currentdict
  end
/Font3 exch definefont pop
%%IncludeResource: font Helvetica-BoldOblique
/Helvetica-BoldOblique findfont
dup length dict begin
  {1 index /FID ne {def} {pop pop} ifelse} forall
  /Encoding ISOLatin1Encoding def
  currentdict
  end
/Font4 exch definefont pop
%%IncludeResource: font Symbol
/Symbol findfont
dup length dict begin
  {1 index /FID ne {def} {pop pop} ifelse} forall
  currentdict
  end
/Font5 exch definefont pop
%%EndProlog
%%Page: 1 1
bp
0.00 0.00 595.28 198.43 cl
0.00 0.00 595.28 198.43 cl
0.00 0.00 595.28 198.43 cl
0.00 0.00 595.28 198.43 cl
0.00 0.00 595.28 198.43 cl
0.00 0.00 595.28 198.43 cl
0.00 0.00 595.28 198.43 cl
0.00 0.00 595.28 198.43 cl
0.00 0.00 595.28 198.43 cl
0.00 0.00 595.28 198.43 cl
0.00 0.00 595.28 198.43 cl
0.00 0.00 595.28 198.43 cl
0.00 0.00 595.28 198.43 cl
0.00 0.00 595.28 198.43 cl
0.00 0.00 595.28 198.43 cl
0.00 0.00 595.28 198.43 cl
0.00 0.00 595.28 198.43 cl
0.00 15.60 595.28 182.83 cl
/bg { 1 1 1 srgb } def
1 1 1 srgb
1.07 setlinewidth
[] 0 setdash
1 setlinecap
1 setlinejoin
10.00 setmiterlimit
0.00 15.60 595.28 167.23 r p3
0.00 0.00 595.28 198.43 cl
49.61 157.71 152.77 176.85 cl
/bg { 1 1 1 srgb } def
0.4980 0.4980 0.4980 srgb
0.43 setlinewidth
[] 0 setdash
1 setlinecap
1 setlinejoin
10.00 setmiterlimit
49.61 157.71 103.16 19.14 r p3
/Font1 findfont 10 s
0.1020 0.1020 0.1020 srgb
87.29 163.69 (fr) 0 ta
-0.100 (ance) tb gr
49.61 157.71 152.77 176.85 cl
0.00 0.00 595.28 198.43 cl
158.74 157.71 261.90 176.85 cl
/bg { 1 1 1 srgb } def
0.4980 0.4980 0.4980 srgb
0.43 setlinewidth
[] 0 setdash
1 setlinecap
1 setlinejoin
10.00 setmiterlimit
158.74 157.71 103.16 19.14 r p3
/Font1 findfont 10 s
0.1020 0.1020 0.1020 srgb
210.32 163.69 (gameofthrones) .5 0 t
158.74 157.71 261.90 176.85 cl
0.00 0.00 595.28 198.43 cl
267.88 157.71 371.03 176.85 cl
/bg { 1 1 1 srgb } def
0.4980 0.4980 0.4980 srgb
0.43 setlinewidth
[] 0 setdash
1 setlinecap
1 setlinejoin
10.00 setmiterlimit
267.88 157.71 103.16 19.14 r p3
/Font1 findfont 10 s
0.1020 0.1020 0.1020 srgb
281.10 163.69 (MachineLear) 0 ta
0.250 (ning) tb gr
267.88 157.71 371.03 176.85 cl
0.00 0.00 595.28 198.43 cl
377.01 157.71 480.16 176.85 cl
/bg { 1 1 1 srgb } def
0.4980 0.4980 0.4980 srgb
0.43 setlinewidth
[] 0 setdash
1 setlinecap
1 setlinejoin
10.00 setmiterlimit
377.01 157.71 103.16 19.14 r p3
/Font1 findfont 10 s
0.1020 0.1020 0.1020 srgb
428.59 163.69 (podemos) .5 0 t
377.01 157.71 480.16 176.85 cl
0.00 0.00 595.28 198.43 cl
486.14 157.71 589.30 176.85 cl
/bg { 1 1 1 srgb } def
0.4980 0.4980 0.4980 srgb
0.43 setlinewidth
[] 0 setdash
1 setlinecap
1 setlinejoin
10.00 setmiterlimit
486.14 157.71 103.16 19.14 r p3
/Font1 findfont 10 s
0.1020 0.1020 0.1020 srgb
492.44 163.69 (T) 0 ta
-1.200 (w) tb
-0.100 (oXChromosomes) tb gr
486.14 157.71 589.30 176.85 cl
0.00 0.00 595.28 198.43 cl
49.61 54.56 152.77 157.71 cl
/bg { 1 1 1 srgb } def
49.61 54.56 103.16 103.16 r p2
0.9804 0.9804 0.9804 srgb
1.07 setlinewidth
[] 0 setdash
0 setlinecap
1 setlinejoin
10.00 setmiterlimit
np
49.61 68.67 m
103.16 0 l
o
np
49.61 105.00 m
103.16 0 l
o
np
49.61 141.34 m
103.16 0 l
o
np
54.30 54.56 m
0 103.15 l
o
np
86.14 54.56 m
0 103.15 l
o
np
117.98 54.56 m
0 103.15 l
o
np
149.82 54.56 m
0 103.15 l
o
0.8980 0.8980 0.8980 srgb
0.43 setlinewidth
[] 0 setdash
np
49.61 86.84 m
103.16 0 l
o
np
49.61 123.17 m
103.16 0 l
o
np
70.22 54.56 m
0 103.15 l
o
np
102.06 54.56 m
0 103.15 l
o
np
133.90 54.56 m
0 103.15 l
o
/bg { 0 0 0 srgb } def
0 0 0 srgb
0.71 setlinewidth
[] 0 setdash
1 setlinecap
132.07 80.28 0.57 c p3
121.72 80.28 0.57 c p3
119.58 80.28 0.57 c p3
119.23 80.28 0.57 c p3
117.44 80.28 0.57 c p3
116.60 80.28 0.57 c p3
116.04 80.28 0.57 c p3
115.93 80.28 0.57 c p3
115.90 80.28 0.57 c p3
115.89 80.28 0.57 c p3
115.80 80.28 0.57 c p3
115.67 80.28 0.57 c p3
115.50 80.28 0.57 c p3
115.25 80.28 0.57 c p3
115.20 80.28 0.57 c p3
115.06 80.28 0.57 c p3
114.64 80.28 0.57 c p3
113.83 80.28 0.57 c p3
113.78 80.28 0.57 c p3
113.63 80.28 0.57 c p3
113.55 80.28 0.57 c p3
113.24 80.28 0.57 c p3
113.23 80.28 0.57 c p3
113.02 80.28 0.57 c p3
112.96 80.28 0.57 c p3
112.85 80.28 0.57 c p3
112.51 80.28 0.57 c p3
112.34 80.28 0.57 c p3
112.17 80.28 0.57 c p3
112.11 80.28 0.57 c p3
112.09 80.28 0.57 c p3
112.04 80.28 0.57 c p3
111.58 80.28 0.57 c p3
111.37 80.28 0.57 c p3
111.17 80.28 0.57 c p3
111.06 80.28 0.57 c p3
110.81 80.28 0.57 c p3
110.66 80.28 0.57 c p3
110.65 80.28 0.57 c p3
110.58 80.28 0.57 c p3
110.39 80.28 0.57 c p3
110.16 80.28 0.57 c p3
109.94 80.28 0.57 c p3
109.91 80.28 0.57 c p3
109.73 80.28 0.57 c p3
109.59 80.28 0.57 c p3
109.54 80.28 0.57 c p3
109.38 80.28 0.57 c p3
109.37 80.28 0.57 c p3
109.26 80.28 0.57 c p3
109.19 80.28 0.57 c p3
109.12 80.28 0.57 c p3
108.67 80.28 0.57 c p3
108.67 80.28 0.57 c p3
108.60 80.28 0.57 c p3
108.57 80.28 0.57 c p3
108.51 80.28 0.57 c p3
108.47 80.28 0.57 c p3
108.45 80.28 0.57 c p3
108.40 85.75 0.57 c p3
108.38 80.28 0.57 c p3
108.23 80.28 0.57 c p3
108.19 80.28 0.57 c p3
108.07 80.28 0.57 c p3
107.86 80.28 0.57 c p3
107.85 80.28 0.57 c p3
107.64 80.28 0.57 c p3
107.57 80.28 0.57 c p3
107.52 80.28 0.57 c p3
107.39 80.28 0.57 c p3
107.36 80.28 0.57 c p3
107.35 80.28 0.57 c p3
107.22 80.28 0.57 c p3
107.22 80.28 0.57 c p3
107.05 80.28 0.57 c p3
107.03 80.28 0.57 c p3
106.77 80.28 0.57 c p3
106.77 80.28 0.57 c p3
106.72 80.28 0.57 c p3
106.70 80.28 0.57 c p3
106.70 80.28 0.57 c p3
106.64 80.28 0.57 c p3
106.37 80.28 0.57 c p3
106.22 80.28 0.57 c p3
106.21 80.28 0.57 c p3
106.19 80.28 0.57 c p3
106.14 80.28 0.57 c p3
106.07 80.28 0.57 c p3
106.06 80.28 0.57 c p3
106.02 80.28 0.57 c p3
105.91 80.28 0.57 c p3
105.90 80.28 0.57 c p3
105.87 80.28 0.57 c p3
105.70 80.28 0.57 c p3
105.68 80.28 0.57 c p3
105.65 80.28 0.57 c p3
105.63 80.28 0.57 c p3
105.62 80.28 0.57 c p3
105.55 80.28 0.57 c p3
105.50 80.28 0.57 c p3
105.45 80.28 0.57 c p3
105.43 80.28 0.57 c p3
105.40 80.28 0.57 c p3
105.36 80.28 0.57 c p3
105.35 80.28 0.57 c p3
105.28 80.28 0.57 c p3
105.25 80.28 0.57 c p3
105.24 80.28 0.57 c p3
105.18 80.28 0.57 c p3
105.11 80.28 0.57 c p3
105.07 80.28 0.57 c p3
104.99 80.28 0.57 c p3
104.99 80.28 0.57 c p3
104.85 80.28 0.57 c p3
104.83 80.28 0.57 c p3
104.82 80.28 0.57 c p3
104.79 80.28 0.57 c p3
104.74 80.28 0.57 c p3
104.72 80.28 0.57 c p3
104.64 80.28 0.57 c p3
104.62 80.28 0.57 c p3
104.61 80.28 0.57 c p3
104.57 80.28 0.57 c p3
104.56 80.28 0.57 c p3
104.54 80.28 0.57 c p3
104.49 80.28 0.57 c p3
104.40 80.28 0.57 c p3
104.19 80.28 0.57 c p3
104.10 80.28 0.57 c p3
104.07 80.28 0.57 c p3
104.07 80.28 0.57 c p3
104.05 80.28 0.57 c p3
104.02 80.28 0.57 c p3
103.99 80.28 0.57 c p3
103.95 80.28 0.57 c p3
103.91 80.28 0.57 c p3
103.88 80.28 0.57 c p3
103.77 80.28 0.57 c p3
103.75 80.28 0.57 c p3
103.70 80.28 0.57 c p3
103.63 80.28 0.57 c p3
103.63 80.28 0.57 c p3
103.62 80.28 0.57 c p3
103.60 80.28 0.57 c p3
103.54 80.28 0.57 c p3
103.51 80.28 0.57 c p3
103.43 80.28 0.57 c p3
103.43 80.28 0.57 c p3
103.41 80.28 0.57 c p3
103.25 80.28 0.57 c p3
103.17 80.28 0.57 c p3
103.08 80.28 0.57 c p3
103.05 80.28 0.57 c p3
103.04 80.28 0.57 c p3
102.96 80.28 0.57 c p3
102.94 80.28 0.57 c p3
102.88 80.28 0.57 c p3
102.85 80.28 0.57 c p3
102.83 80.28 0.57 c p3
102.82 80.28 0.57 c p3
102.73 80.28 0.57 c p3
102.71 80.28 0.57 c p3
102.60 80.28 0.57 c p3
102.59 80.28 0.57 c p3
102.47 80.28 0.57 c p3
102.46 85.75 0.57 c p3
102.45 80.28 0.57 c p3
102.45 80.28 0.57 c p3
102.39 80.28 0.57 c p3
102.30 80.28 0.57 c p3
102.28 85.75 0.57 c p3
102.28 80.28 0.57 c p3
102.26 80.28 0.57 c p3
102.16 80.28 0.57 c p3
102.15 80.28 0.57 c p3
102.15 80.28 0.57 c p3
102.13 80.28 0.57 c p3
102.04 80.28 0.57 c p3
101.95 80.28 0.57 c p3
101.94 80.28 0.57 c p3
101.93 80.28 0.57 c p3
101.88 80.28 0.57 c p3
101.87 80.28 0.57 c p3
101.86 80.28 0.57 c p3
101.76 85.75 0.57 c p3
101.72 85.75 0.57 c p3
101.66 80.28 0.57 c p3
101.61 80.28 0.57 c p3
101.58 85.75 0.57 c p3
101.57 85.75 0.57 c p3
101.55 80.28 0.57 c p3
101.54 80.28 0.57 c p3
101.53 80.28 0.57 c p3
101.44 80.28 0.57 c p3
101.43 80.28 0.57 c p3
101.41 80.28 0.57 c p3
101.39 80.28 0.57 c p3
101.35 85.75 0.57 c p3
101.34 80.28 0.57 c p3
101.31 80.28 0.57 c p3
101.27 80.28 0.57 c p3
101.23 85.75 0.57 c p3
101.13 80.28 0.57 c p3
101.12 80.28 0.57 c p3
101.01 80.28 0.57 c p3
100.96 80.28 0.57 c p3
100.92 80.28 0.57 c p3
100.84 80.28 0.57 c p3
100.79 80.28 0.57 c p3
100.76 80.28 0.57 c p3
100.64 80.28 0.57 c p3
100.63 80.28 0.57 c p3
100.56 80.28 0.57 c p3
100.51 80.28 0.57 c p3
100.49 80.28 0.57 c p3
100.47 80.28 0.57 c p3
100.45 80.28 0.57 c p3
100.43 80.28 0.57 c p3
100.42 80.28 0.57 c p3
100.33 85.75 0.57 c p3
100.32 80.28 0.57 c p3
100.29 80.28 0.57 c p3
100.28 80.28 0.57 c p3
100.24 80.28 0.57 c p3
100.17 80.28 0.57 c p3
100.15 80.28 0.57 c p3
100.13 80.28 0.57 c p3
100.12 85.75 0.57 c p3
100.06 80.28 0.57 c p3
99.96 80.28 0.57 c p3
99.87 85.75 0.57 c p3
99.83 80.28 0.57 c p3
99.79 80.28 0.57 c p3
99.78 80.28 0.57 c p3
99.72 80.28 0.57 c p3
99.70 80.28 0.57 c p3
99.69 80.28 0.57 c p3
99.62 80.28 0.57 c p3
99.57 80.28 0.57 c p3
99.56 80.28 0.57 c p3
99.54 80.28 0.57 c p3
99.47 80.28 0.57 c p3
99.46 80.28 0.57 c p3
99.45 80.28 0.57 c p3
99.41 80.28 0.57 c p3
99.40 80.28 0.57 c p3
99.35 80.28 0.57 c p3
99.34 80.28 0.57 c p3
99.33 80.28 0.57 c p3
99.31 80.28 0.57 c p3
99.30 80.28 0.57 c p3
99.29 80.28 0.57 c p3
99.28 80.28 0.57 c p3
99.27 85.75 0.57 c p3
99.19 80.28 0.57 c p3
99.17 80.28 0.57 c p3
99.16 80.28 0.57 c p3
99.12 80.28 0.57 c p3
99.10 85.75 0.57 c p3
99.09 85.75 0.57 c p3
99.08 80.28 0.57 c p3
99.07 85.75 0.57 c p3
99.03 80.28 0.57 c p3
98.98 80.28 0.57 c p3
98.91 80.28 0.57 c p3
98.90 80.28 0.57 c p3
98.84 80.28 0.57 c p3
98.83 85.75 0.57 c p3
98.82 85.75 0.57 c p3
98.81 80.28 0.57 c p3
98.77 80.28 0.57 c p3
98.73 80.28 0.57 c p3
98.71 80.28 0.57 c p3
98.70 85.75 0.57 c p3
98.69 85.75 0.57 c p3
98.66 80.28 0.57 c p3
98.61 80.28 0.57 c p3
98.59 80.28 0.57 c p3
98.56 80.28 0.57 c p3
98.55 80.28 0.57 c p3
98.53 80.28 0.57 c p3
98.49 80.28 0.57 c p3
98.48 80.28 0.57 c p3
98.42 80.28 0.57 c p3
98.39 80.28 0.57 c p3
98.37 85.75 0.57 c p3
98.36 80.28 0.57 c p3
98.34 80.28 0.57 c p3
98.28 80.28 0.57 c p3
98.27 80.28 0.57 c p3
98.26 80.28 0.57 c p3
98.22 80.28 0.57 c p3
98.21 80.28 0.57 c p3
98.20 91.22 0.57 c p3
98.17 80.28 0.57 c p3
98.16 80.28 0.57 c p3
98.12 80.28 0.57 c p3
98.11 80.28 0.57 c p3
98.09 80.28 0.57 c p3
98.04 80.28 0.57 c p3
98.00 80.28 0.57 c p3
97.95 80.28 0.57 c p3
97.87 80.28 0.57 c p3
97.82 88.95 0.57 c p3
97.78 85.75 0.57 c p3
97.72 80.28 0.57 c p3
97.71 85.75 0.57 c p3
97.69 80.28 0.57 c p3
97.67 80.28 0.57 c p3
97.65 80.28 0.57 c p3
97.63 80.28 0.57 c p3
97.62 80.28 0.57 c p3
97.59 85.75 0.57 c p3
97.56 80.28 0.57 c p3
97.52 85.75 0.57 c p3
97.48 85.75 0.57 c p3
97.42 80.28 0.57 c p3
97.40 80.28 0.57 c p3
97.36 80.28 0.57 c p3
97.33 80.28 0.57 c p3
97.32 80.28 0.57 c p3
97.29 80.28 0.57 c p3
97.21 85.75 0.57 c p3
97.20 85.75 0.57 c p3
97.18 85.75 0.57 c p3
97.11 85.75 0.57 c p3
97.08 85.75 0.57 c p3
97.05 80.28 0.57 c p3
97.04 80.28 0.57 c p3
97.03 85.75 0.57 c p3
97.00 80.28 0.57 c p3
96.90 85.75 0.57 c p3
96.88 80.28 0.57 c p3
96.85 88.95 0.57 c p3
96.78 85.75 0.57 c p3
96.70 80.28 0.57 c p3
96.69 80.28 0.57 c p3
96.64 80.28 0.57 c p3
96.60 80.28 0.57 c p3
96.57 80.28 0.57 c p3
96.55 80.28 0.57 c p3
96.51 85.75 0.57 c p3
96.49 88.95 0.57 c p3
96.41 85.75 0.57 c p3
96.38 85.75 0.57 c p3
96.37 80.28 0.57 c p3
96.35 80.28 0.57 c p3
96.32 88.95 0.57 c p3
96.30 80.28 0.57 c p3
96.27 80.28 0.57 c p3
96.25 80.28 0.57 c p3
96.24 80.28 0.57 c p3
96.22 80.28 0.57 c p3
96.19 80.28 0.57 c p3
96.17 80.28 0.57 c p3
96.13 80.28 0.57 c p3
96.11 80.28 0.57 c p3
96.08 80.28 0.57 c p3
96.01 80.28 0.57 c p3
95.98 91.22 0.57 c p3
95.94 80.28 0.57 c p3
95.93 80.28 0.57 c p3
95.89 85.75 0.57 c p3
95.88 80.28 0.57 c p3
95.84 80.28 0.57 c p3
95.79 80.28 0.57 c p3
95.76 80.28 0.57 c p3
95.74 85.75 0.57 c p3
95.72 85.75 0.57 c p3
95.71 88.95 0.57 c p3
95.69 88.95 0.57 c p3
95.65 85.75 0.57 c p3
95.60 80.28 0.57 c p3
95.58 88.95 0.57 c p3
95.56 85.75 0.57 c p3
95.55 80.28 0.57 c p3
95.44 80.28 0.57 c p3
95.42 88.95 0.57 c p3
95.40 80.28 0.57 c p3
95.39 80.28 0.57 c p3
95.28 85.75 0.57 c p3
95.26 80.28 0.57 c p3
95.24 85.75 0.57 c p3
95.18 80.28 0.57 c p3
95.15 80.28 0.57 c p3
95.13 80.28 0.57 c p3
95.11 80.28 0.57 c p3
95.09 80.28 0.57 c p3
95.07 80.28 0.57 c p3
95.01 80.28 0.57 c p3
94.96 80.28 0.57 c p3
94.94 85.75 0.57 c p3
94.92 88.95 0.57 c p3
94.90 85.75 0.57 c p3
94.88 85.75 0.57 c p3
94.86 88.95 0.57 c p3
94.84 80.28 0.57 c p3
94.80 85.75 0.57 c p3
94.78 85.75 0.57 c p3
94.76 88.95 0.57 c p3
94.74 85.75 0.57 c p3
94.72 80.28 0.57 c p3
94.70 80.28 0.57 c p3
94.68 88.95 0.57 c p3
94.66 88.95 0.57 c p3
94.64 85.75 0.57 c p3
94.62 85.75 0.57 c p3
94.58 91.22 0.57 c p3
94.54 80.28 0.57 c p3
94.50 80.28 0.57 c p3
94.48 85.75 0.57 c p3
94.45 80.28 0.57 c p3
94.43 85.75 0.57 c p3
94.41 80.28 0.57 c p3
94.39 85.75 0.57 c p3
94.35 80.28 0.57 c p3
94.33 88.95 0.57 c p3
94.31 80.28 0.57 c p3
94.29 80.28 0.57 c p3
94.27 80.28 0.57 c p3
94.24 85.75 0.57 c p3
94.20 80.28 0.57 c p3
94.18 91.22 0.57 c p3
94.16 91.22 0.57 c p3
94.14 80.28 0.57 c p3
94.11 80.28 0.57 c p3
94.05 80.28 0.57 c p3
94.00 80.28 0.57 c p3
93.98 80.28 0.57 c p3
93.92 80.28 0.57 c p3
93.89 91.22 0.57 c p3
93.87 85.75 0.57 c p3
93.85 91.22 0.57 c p3
93.82 80.28 0.57 c p3
93.80 85.75 0.57 c p3
93.76 80.28 0.57 c p3
93.73 85.75 0.57 c p3
93.71 85.75 0.57 c p3
93.66 85.75 0.57 c p3
93.62 85.75 0.57 c p3
93.59 88.95 0.57 c p3
93.57 85.75 0.57 c p3
93.55 85.75 0.57 c p3
93.50 80.28 0.57 c p3
93.48 85.75 0.57 c p3
93.45 80.28 0.57 c p3
93.43 80.28 0.57 c p3
93.40 85.75 0.57 c p3
93.38 85.75 0.57 c p3
93.35 85.75 0.57 c p3
93.33 91.22 0.57 c p3
93.31 85.75 0.57 c p3
93.28 85.75 0.57 c p3
93.26 85.75 0.57 c p3
93.23 85.75 0.57 c p3
93.21 88.95 0.57 c p3
93.18 91.22 0.57 c p3
93.16 80.28 0.57 c p3
93.13 91.22 0.57 c p3
93.11 88.95 0.57 c p3
93.06 80.28 0.57 c p3
93.03 91.22 0.57 c p3
93.00 80.28 0.57 c p3
92.95 85.75 0.57 c p3
92.93 91.22 0.57 c p3
92.90 91.22 0.57 c p3
92.88 80.28 0.57 c p3
92.80 91.22 0.57 c p3
92.77 91.22 0.57 c p3
92.74 91.22 0.57 c p3
92.72 80.28 0.57 c p3
92.69 80.28 0.57 c p3
92.66 80.28 0.57 c p3
92.58 92.98 0.57 c p3
92.56 92.98 0.57 c p3
92.50 88.95 0.57 c p3
92.47 88.95 0.57 c p3
92.45 88.95 0.57 c p3
92.39 88.95 0.57 c p3
92.36 91.22 0.57 c p3
92.33 88.95 0.57 c p3
92.30 88.95 0.57 c p3
92.28 80.28 0.57 c p3
92.25 91.22 0.57 c p3
92.19 80.28 0.57 c p3
92.16 85.75 0.57 c p3
92.13 91.22 0.57 c p3
92.10 80.28 0.57 c p3
92.05 80.28 0.57 c p3
92.02 88.95 0.57 c p3
91.99 95.64 0.57 c p3
91.96 88.95 0.57 c p3
91.93 80.28 0.57 c p3
91.90 80.28 0.57 c p3
91.87 88.95 0.57 c p3
91.84 80.28 0.57 c p3
91.81 85.75 0.57 c p3
91.74 91.22 0.57 c p3
91.71 85.75 0.57 c p3
91.68 85.75 0.57 c p3
91.65 80.28 0.57 c p3
91.62 85.75 0.57 c p3
91.59 80.28 0.57 c p3
91.56 88.95 0.57 c p3
91.53 80.28 0.57 c p3
91.49 88.95 0.57 c p3
91.46 88.95 0.57 c p3
91.43 88.95 0.57 c p3
91.40 91.22 0.57 c p3
91.37 85.75 0.57 c p3
91.33 91.22 0.57 c p3
91.30 91.22 0.57 c p3
91.27 95.64 0.57 c p3
91.23 92.98 0.57 c p3
91.20 92.98 0.57 c p3
91.17 80.28 0.57 c p3
91.13 85.75 0.57 c p3
91.10 85.75 0.57 c p3
91.07 85.75 0.57 c p3
91.03 88.95 0.57 c p3
91.00 85.75 0.57 c p3
90.96 88.95 0.57 c p3
90.93 92.98 0.57 c p3
90.90 85.75 0.57 c p3
90.86 94.42 0.57 c p3
90.83 85.75 0.57 c p3
90.79 88.95 0.57 c p3
90.76 94.42 0.57 c p3
90.72 85.75 0.57 c p3
90.68 91.22 0.57 c p3
90.65 91.22 0.57 c p3
90.61 91.22 0.57 c p3
90.54 91.22 0.57 c p3
90.50 85.75 0.57 c p3
90.47 92.98 0.57 c p3
90.43 88.95 0.57 c p3
90.39 94.42 0.57 c p3
90.35 94.42 0.57 c p3
90.32 88.95 0.57 c p3
90.28 85.75 0.57 c p3
90.24 88.95 0.57 c p3
90.20 85.75 0.57 c p3
90.16 85.75 0.57 c p3
90.12 91.22 0.57 c p3
90.09 97.62 0.57 c p3
90.05 95.64 0.57 c p3
90.01 92.98 0.57 c p3
89.97 88.95 0.57 c p3
89.89 98.45 0.57 c p3
89.85 91.22 0.57 c p3
89.77 80.28 0.57 c p3
89.72 91.22 0.57 c p3
89.68 85.75 0.57 c p3
89.64 80.28 0.57 c p3
89.60 94.42 0.57 c p3
89.56 88.95 0.57 c p3
89.52 88.95 0.57 c p3
89.47 95.64 0.57 c p3
89.43 85.75 0.57 c p3
89.39 80.28 0.57 c p3
89.34 91.22 0.57 c p3
89.30 95.64 0.57 c p3
89.26 92.98 0.57 c p3
89.21 92.98 0.57 c p3
89.17 88.95 0.57 c p3
89.12 92.98 0.57 c p3
89.08 95.64 0.57 c p3
89.03 92.98 0.57 c p3
88.99 91.22 0.57 c p3
88.94 92.98 0.57 c p3
88.89 85.75 0.57 c p3
88.85 96.69 0.57 c p3
88.80 91.22 0.57 c p3
88.75 94.42 0.57 c p3
88.71 92.98 0.57 c p3
88.66 92.98 0.57 c p3
88.61 88.95 0.57 c p3
88.56 94.42 0.57 c p3
88.51 88.95 0.57 c p3
88.46 94.42 0.57 c p3
88.41 80.28 0.57 c p3
88.36 88.95 0.57 c p3
88.31 92.98 0.57 c p3
88.26 95.64 0.57 c p3
88.21 88.95 0.57 c p3
88.16 96.69 0.57 c p3
88.11 92.98 0.57 c p3
88.06 88.95 0.57 c p3
88.00 88.95 0.57 c p3
87.95 92.98 0.57 c p3
87.90 91.22 0.57 c p3
87.84 96.69 0.57 c p3
87.79 85.75 0.57 c p3
87.74 96.69 0.57 c p3
87.68 92.98 0.57 c p3
87.63 91.22 0.57 c p3
87.57 96.69 0.57 c p3
87.51 94.42 0.57 c p3
87.46 91.22 0.57 c p3
87.40 95.64 0.57 c p3
87.34 85.75 0.57 c p3
87.28 91.22 0.57 c p3
87.22 92.98 0.57 c p3
87.16 94.42 0.57 c p3
87.10 97.62 0.57 c p3
87.04 91.22 0.57 c p3
86.98 96.69 0.57 c p3
86.92 94.42 0.57 c p3
86.86 97.62 0.57 c p3
86.80 94.42 0.57 c p3
86.73 91.22 0.57 c p3
86.67 94.42 0.57 c p3
86.61 99.20 0.57 c p3
86.54 100.52 0.57 c p3
86.48 97.62 0.57 c p3
86.41 99.20 0.57 c p3
86.34 98.45 0.57 c p3
86.27 99.20 0.57 c p3
86.21 95.64 0.57 c p3
86.14 91.22 0.57 c p3
86.07 102.16 0.57 c p3
86.00 95.64 0.57 c p3
85.93 100.52 0.57 c p3
85.86 100.52 0.57 c p3
85.78 100.52 0.57 c p3
85.71 92.98 0.57 c p3
85.64 97.62 0.57 c p3
85.56 101.11 0.57 c p3
85.49 96.69 0.57 c p3
85.41 95.64 0.57 c p3
85.33 91.22 0.57 c p3
85.25 98.45 0.57 c p3
85.18 99.89 0.57 c p3
85.10 95.64 0.57 c p3
85.01 102.64 0.57 c p3
84.93 97.62 0.57 c p3
84.85 99.89 0.57 c p3
84.77 101.65 0.57 c p3
84.68 99.89 0.57 c p3
84.60 99.20 0.57 c p3
84.51 95.64 0.57 c p3
84.42 102.16 0.57 c p3
84.33 100.52 0.57 c p3
84.24 97.62 0.57 c p3
84.15 96.69 0.57 c p3
84.06 98.45 0.57 c p3
83.96 101.11 0.57 c p3
83.87 98.45 0.57 c p3
83.77 100.52 0.57 c p3
83.67 100.52 0.57 c p3
83.57 99.89 0.57 c p3
83.47 99.89 0.57 c p3
83.37 99.89 0.57 c p3
83.27 97.62 0.57 c p3
83.16 102.64 0.57 c p3
83.05 101.11 0.57 c p3
82.94 103.09 0.57 c p3
82.83 104.30 0.57 c p3
82.72 97.62 0.57 c p3
82.61 99.89 0.57 c p3
82.49 104.67 0.57 c p3
82.37 103.51 0.57 c p3
82.25 103.09 0.57 c p3
82.13 101.65 0.57 c p3
82.00 101.11 0.57 c p3
81.88 103.51 0.57 c p3
81.75 102.64 0.57 c p3
81.62 102.16 0.57 c p3
81.48 101.65 0.57 c p3
81.35 105.02 0.57 c p3
81.21 106.29 0.57 c p3
81.06 105.36 0.57 c p3
80.92 105.02 0.57 c p3
80.77 105.36 0.57 c p3
80.62 105.99 0.57 c p3
80.46 107.63 0.57 c p3
80.30 105.68 0.57 c p3
80.14 104.67 0.57 c p3
79.97 107.87 0.57 c p3
79.80 107.87 0.57 c p3
79.63 105.99 0.57 c p3
79.45 106.57 0.57 c p3
79.26 107.87 0.57 c p3
79.07 109.58 0.57 c p3
78.88 108.33 0.57 c p3
78.68 107.87 0.57 c p3
78.47 109.19 0.57 c p3
78.26 111.46 0.57 c p3
78.04 112.85 0.57 c p3
77.81 112.72 0.57 c p3
77.58 113.22 0.57 c p3
77.34 111.46 0.57 c p3
77.09 112.18 0.57 c p3
76.82 113.46 0.57 c p3
76.55 113.57 0.57 c p3
76.27 114.24 0.57 c p3
75.98 114.66 0.57 c p3
75.67 114.24 0.57 c p3
75.35 115.52 0.57 c p3
75.01 116.62 0.57 c p3
74.66 117.44 0.57 c p3
74.28 116.46 0.57 c p3
73.89 118.12 0.57 c p3
73.47 119.04 0.57 c p3
73.02 119.87 0.57 c p3
72.54 120.62 0.57 c p3
72.03 121.34 0.57 c p3
71.48 122.28 0.57 c p3
70.88 123.91 0.57 c p3
70.22 125.02 0.57 c p3
69.49 126.11 0.57 c p3
68.68 127.32 0.57 c p3
67.75 128.84 0.57 c p3
66.69 131.35 0.57 c p3
65.43 133.81 0.57 c p3
63.88 135.92 0.57 c p3
61.89 139.62 0.57 c p3
59.09 144.45 0.57 c p3
54.30 151.95 0.57 c p3
0.4980 0.4980 0.4980 srgb
1.07 setlinewidth
[] 0 setdash
49.61 54.56 103.16 103.16 r p1
0.00 0.00 595.28 198.43 cl
158.74 54.56 261.90 157.71 cl
/bg { 1 1 1 srgb } def
158.74 54.56 103.16 103.16 r p2
0.9804 0.9804 0.9804 srgb
1.07 setlinewidth
[] 0 setdash
0 setlinecap
1 setlinejoin
10.00 setmiterlimit
np
158.74 68.67 m
103.16 0 l
o
np
158.74 105.00 m
103.16 0 l
o
np
158.74 141.34 m
103.16 0 l
o
np
163.43 54.56 m
0 103.15 l
o
np
195.27 54.56 m
0 103.15 l
o
np
227.11 54.56 m
0 103.15 l
o
np
258.95 54.56 m
0 103.15 l
o
0.8980 0.8980 0.8980 srgb
0.43 setlinewidth
[] 0 setdash
np
158.74 86.84 m
103.16 0 l
o
np
158.74 123.17 m
103.16 0 l
o
np
179.35 54.56 m
0 103.15 l
o
np
211.19 54.56 m
0 103.15 l
o
np
243.03 54.56 m
0 103.15 l
o
/bg { 0 0 0 srgb } def
0 0 0 srgb
0.71 setlinewidth
[] 0 setdash
1 setlinecap
251.98 60.60 0.57 c p3
241.37 60.60 0.57 c p3
228.10 60.60 0.57 c p3
224.55 60.60 0.57 c p3
222.75 60.60 0.57 c p3
222.20 60.60 0.57 c p3
221.09 60.60 0.57 c p3
217.71 60.60 0.57 c p3
217.33 60.60 0.57 c p3
217.19 60.60 0.57 c p3
216.92 60.60 0.57 c p3
216.70 60.60 0.57 c p3
216.65 60.60 0.57 c p3
216.61 60.60 0.57 c p3
215.84 60.60 0.57 c p3
215.31 60.60 0.57 c p3
215.13 60.60 0.57 c p3
215.08 60.60 0.57 c p3
215.03 60.60 0.57 c p3
214.83 60.60 0.57 c p3
214.81 60.60 0.57 c p3
214.67 60.60 0.57 c p3
214.61 60.60 0.57 c p3
214.53 60.60 0.57 c p3
214.33 60.60 0.57 c p3
214.32 60.60 0.57 c p3
214.14 66.07 0.57 c p3
213.93 60.60 0.57 c p3
213.91 60.60 0.57 c p3
213.78 60.60 0.57 c p3
213.77 60.60 0.57 c p3
213.71 60.60 0.57 c p3
213.69 60.60 0.57 c p3
213.59 60.60 0.57 c p3
213.53 60.60 0.57 c p3
213.41 60.60 0.57 c p3
213.33 60.60 0.57 c p3
213.32 60.60 0.57 c p3
213.30 60.60 0.57 c p3
213.19 60.60 0.57 c p3
213.08 60.60 0.57 c p3
212.95 60.60 0.57 c p3
212.79 60.60 0.57 c p3
212.74 60.60 0.57 c p3
212.70 60.60 0.57 c p3
212.54 60.60 0.57 c p3
212.34 60.60 0.57 c p3
212.33 60.60 0.57 c p3
212.31 60.60 0.57 c p3
212.27 60.60 0.57 c p3
212.22 60.60 0.57 c p3
212.11 60.60 0.57 c p3
212.08 60.60 0.57 c p3
211.99 60.60 0.57 c p3
211.94 60.60 0.57 c p3
211.89 60.60 0.57 c p3
211.88 60.60 0.57 c p3
211.85 60.60 0.57 c p3
211.82 60.60 0.57 c p3
211.72 60.60 0.57 c p3
211.71 60.60 0.57 c p3
211.67 60.60 0.57 c p3
211.63 60.60 0.57 c p3
211.52 60.60 0.57 c p3
211.47 60.60 0.57 c p3
211.39 60.60 0.57 c p3
211.38 60.60 0.57 c p3
211.12 66.07 0.57 c p3
211.09 60.60 0.57 c p3
211.08 60.60 0.57 c p3
211.05 60.60 0.57 c p3
211.04 60.60 0.57 c p3
210.99 60.60 0.57 c p3
210.92 60.60 0.57 c p3
210.89 60.60 0.57 c p3
210.88 60.60 0.57 c p3
210.86 60.60 0.57 c p3
210.84 60.60 0.57 c p3
210.84 60.60 0.57 c p3
210.81 60.60 0.57 c p3
210.75 60.60 0.57 c p3
210.74 60.60 0.57 c p3
210.70 60.60 0.57 c p3
210.68 60.60 0.57 c p3
210.67 60.60 0.57 c p3
210.62 60.60 0.57 c p3
210.51 60.60 0.57 c p3
210.50 66.07 0.57 c p3
210.48 60.60 0.57 c p3
210.45 66.07 0.57 c p3
210.45 60.60 0.57 c p3
210.42 60.60 0.57 c p3
210.38 60.60 0.57 c p3
210.38 60.60 0.57 c p3
210.37 60.60 0.57 c p3
210.30 60.60 0.57 c p3
210.27 60.60 0.57 c p3
210.16 60.60 0.57 c p3
210.15 60.60 0.57 c p3
210.09 60.60 0.57 c p3
210.07 60.60 0.57 c p3
210.03 60.60 0.57 c p3
210.01 60.60 0.57 c p3
209.95 60.60 0.57 c p3
209.84 60.60 0.57 c p3
209.84 60.60 0.57 c p3
209.80 69.27 0.57 c p3
209.78 60.60 0.57 c p3
209.72 60.60 0.57 c p3
209.71 60.60 0.57 c p3
209.66 60.60 0.57 c p3
209.63 60.60 0.57 c p3
209.60 60.60 0.57 c p3
209.57 60.60 0.57 c p3
209.53 60.60 0.57 c p3
209.46 60.60 0.57 c p3
209.45 60.60 0.57 c p3
209.44 60.60 0.57 c p3
209.37 60.60 0.57 c p3
209.33 60.60 0.57 c p3
209.31 60.60 0.57 c p3
209.28 60.60 0.57 c p3
209.27 60.60 0.57 c p3
209.23 60.60 0.57 c p3
209.17 60.60 0.57 c p3
209.16 60.60 0.57 c p3
209.15 60.60 0.57 c p3
209.14 66.07 0.57 c p3
209.03 60.60 0.57 c p3
209.00 60.60 0.57 c p3
208.98 60.60 0.57 c p3
208.92 60.60 0.57 c p3
208.87 60.60 0.57 c p3
208.86 60.60 0.57 c p3
208.84 60.60 0.57 c p3
208.81 60.60 0.57 c p3
208.78 60.60 0.57 c p3
208.77 60.60 0.57 c p3
208.71 60.60 0.57 c p3
208.66 60.60 0.57 c p3
208.63 60.60 0.57 c p3
208.60 66.07 0.57 c p3
208.59 60.60 0.57 c p3
208.57 60.60 0.57 c p3
208.56 60.60 0.57 c p3
208.54 66.07 0.57 c p3
208.52 60.60 0.57 c p3
208.51 60.60 0.57 c p3
208.50 60.60 0.57 c p3
208.49 60.60 0.57 c p3
208.48 66.07 0.57 c p3
208.47 60.60 0.57 c p3
208.45 66.07 0.57 c p3
208.43 60.60 0.57 c p3
208.42 66.07 0.57 c p3
208.38 60.60 0.57 c p3
208.32 69.27 0.57 c p3
208.26 60.60 0.57 c p3
208.25 60.60 0.57 c p3
208.20 60.60 0.57 c p3
208.15 60.60 0.57 c p3
208.14 60.60 0.57 c p3
208.13 66.07 0.57 c p3
208.12 60.60 0.57 c p3
208.07 66.07 0.57 c p3
208.06 66.07 0.57 c p3
208.04 60.60 0.57 c p3
208.01 71.54 0.57 c p3
207.94 66.07 0.57 c p3
207.93 60.60 0.57 c p3
207.92 60.60 0.57 c p3
207.90 60.60 0.57 c p3
207.89 60.60 0.57 c p3
207.86 66.07 0.57 c p3
207.85 66.07 0.57 c p3
207.83 60.60 0.57 c p3
207.82 60.60 0.57 c p3
207.80 60.60 0.57 c p3
207.77 60.60 0.57 c p3
207.76 60.60 0.57 c p3
207.75 60.60 0.57 c p3
207.74 60.60 0.57 c p3
207.73 60.60 0.57 c p3
207.69 60.60 0.57 c p3
207.68 66.07 0.57 c p3
207.67 60.60 0.57 c p3
207.65 60.60 0.57 c p3
207.62 60.60 0.57 c p3
207.60 60.60 0.57 c p3
207.58 66.07 0.57 c p3
207.55 66.07 0.57 c p3
207.54 60.60 0.57 c p3
207.52 66.07 0.57 c p3
207.51 60.60 0.57 c p3
207.46 60.60 0.57 c p3
207.40 60.60 0.57 c p3
207.35 60.60 0.57 c p3
207.34 66.07 0.57 c p3
207.33 66.07 0.57 c p3
207.32 60.60 0.57 c p3
207.29 60.60 0.57 c p3
207.28 66.07 0.57 c p3
207.24 66.07 0.57 c p3
207.22 60.60 0.57 c p3
207.19 60.60 0.57 c p3
207.17 60.60 0.57 c p3
207.16 60.60 0.57 c p3
207.13 66.07 0.57 c p3
207.08 60.60 0.57 c p3
207.07 60.60 0.57 c p3
207.04 60.60 0.57 c p3
207.03 60.60 0.57 c p3
207.02 66.07 0.57 c p3
207.01 69.27 0.57 c p3
206.99 60.60 0.57 c p3
206.98 69.27 0.57 c p3
206.97 66.07 0.57 c p3
206.96 60.60 0.57 c p3
206.93 60.60 0.57 c p3
206.92 66.07 0.57 c p3
206.90 60.60 0.57 c p3
206.87 66.07 0.57 c p3
206.85 60.60 0.57 c p3
206.84 66.07 0.57 c p3
206.81 60.60 0.57 c p3
206.76 60.60 0.57 c p3
206.75 60.60 0.57 c p3
206.74 66.07 0.57 c p3
206.72 71.54 0.57 c p3
206.71 60.60 0.57 c p3
206.68 69.27 0.57 c p3
206.66 66.07 0.57 c p3
206.64 71.54 0.57 c p3
206.60 60.60 0.57 c p3
206.59 69.27 0.57 c p3
206.55 60.60 0.57 c p3
206.53 60.60 0.57 c p3
206.52 66.07 0.57 c p3
206.51 71.54 0.57 c p3
206.49 60.60 0.57 c p3
206.48 60.60 0.57 c p3
206.45 69.27 0.57 c p3
206.44 66.07 0.57 c p3
206.43 60.60 0.57 c p3
206.41 60.60 0.57 c p3
206.40 69.27 0.57 c p3
206.38 60.60 0.57 c p3
206.34 66.07 0.57 c p3
206.33 66.07 0.57 c p3
206.27 66.07 0.57 c p3
206.26 66.07 0.57 c p3
206.24 66.07 0.57 c p3
206.23 60.60 0.57 c p3
206.20 66.07 0.57 c p3
206.17 71.54 0.57 c p3
206.14 66.07 0.57 c p3
206.13 60.60 0.57 c p3
206.12 60.60 0.57 c p3
206.10 60.60 0.57 c p3
206.09 60.60 0.57 c p3
206.07 60.60 0.57 c p3
206.06 71.54 0.57 c p3
206.04 66.07 0.57 c p3
206.03 66.07 0.57 c p3
206.01 71.54 0.57 c p3
205.98 60.60 0.57 c p3
205.97 71.54 0.57 c p3
205.96 60.60 0.57 c p3
205.94 66.07 0.57 c p3
205.93 60.60 0.57 c p3
205.91 69.27 0.57 c p3
205.90 66.07 0.57 c p3
205.88 60.60 0.57 c p3
205.87 69.27 0.57 c p3
205.85 60.60 0.57 c p3
205.84 60.60 0.57 c p3
205.82 60.60 0.57 c p3
205.78 66.07 0.57 c p3
205.73 66.07 0.57 c p3
205.72 66.07 0.57 c p3
205.68 60.60 0.57 c p3
205.67 66.07 0.57 c p3
205.65 71.54 0.57 c p3
205.64 60.60 0.57 c p3
205.62 60.60 0.57 c p3
205.61 60.60 0.57 c p3
205.59 69.27 0.57 c p3
205.58 60.60 0.57 c p3
205.56 60.60 0.57 c p3
205.53 73.30 0.57 c p3
205.51 60.60 0.57 c p3
205.50 69.27 0.57 c p3
205.48 66.07 0.57 c p3
205.45 66.07 0.57 c p3
205.44 60.60 0.57 c p3
205.42 73.30 0.57 c p3
205.39 60.60 0.57 c p3
205.36 69.27 0.57 c p3
205.34 66.07 0.57 c p3
205.32 73.30 0.57 c p3
205.31 60.60 0.57 c p3
205.24 69.27 0.57 c p3
205.19 71.54 0.57 c p3
205.18 69.27 0.57 c p3
205.16 66.07 0.57 c p3
205.14 60.60 0.57 c p3
205.13 69.27 0.57 c p3
205.11 60.60 0.57 c p3
205.09 66.07 0.57 c p3
205.08 60.60 0.57 c p3
205.06 71.54 0.57 c p3
205.04 71.54 0.57 c p3
205.03 66.07 0.57 c p3
205.01 66.07 0.57 c p3
204.99 69.27 0.57 c p3
204.98 69.27 0.57 c p3
204.96 60.60 0.57 c p3
204.94 73.30 0.57 c p3
204.92 74.74 0.57 c p3
204.89 71.54 0.57 c p3
204.87 66.07 0.57 c p3
204.86 60.60 0.57 c p3
204.84 69.27 0.57 c p3
204.82 69.27 0.57 c p3
204.80 60.60 0.57 c p3
204.79 60.60 0.57 c p3
204.77 69.27 0.57 c p3
204.75 73.30 0.57 c p3
204.73 69.27 0.57 c p3
204.72 66.07 0.57 c p3
204.70 60.60 0.57 c p3
204.68 66.07 0.57 c p3
204.66 69.27 0.57 c p3
204.64 69.27 0.57 c p3
204.63 69.27 0.57 c p3
204.61 69.27 0.57 c p3
204.59 66.07 0.57 c p3
204.57 60.60 0.57 c p3
204.56 60.60 0.57 c p3
204.54 66.07 0.57 c p3
204.52 69.27 0.57 c p3
204.50 69.27 0.57 c p3
204.48 69.27 0.57 c p3
204.46 71.54 0.57 c p3
204.43 66.07 0.57 c p3
204.41 66.07 0.57 c p3
204.39 73.30 0.57 c p3
204.37 66.07 0.57 c p3
204.35 60.60 0.57 c p3
204.33 66.07 0.57 c p3
204.32 60.60 0.57 c p3
204.30 66.07 0.57 c p3
204.28 69.27 0.57 c p3
204.26 71.54 0.57 c p3
204.24 60.60 0.57 c p3
204.22 60.60 0.57 c p3
204.20 60.60 0.57 c p3
204.18 74.74 0.57 c p3
204.17 60.60 0.57 c p3
204.15 71.54 0.57 c p3
204.13 69.27 0.57 c p3
204.11 69.27 0.57 c p3
204.09 69.27 0.57 c p3
204.07 69.27 0.57 c p3
204.05 60.60 0.57 c p3
204.03 69.27 0.57 c p3
204.01 69.27 0.57 c p3
203.99 71.54 0.57 c p3
203.97 66.07 0.57 c p3
203.95 66.07 0.57 c p3
203.93 60.60 0.57 c p3
203.91 66.07 0.57 c p3
203.89 69.27 0.57 c p3
203.87 69.27 0.57 c p3
203.85 71.54 0.57 c p3
203.83 66.07 0.57 c p3
203.81 66.07 0.57 c p3
203.79 74.74 0.57 c p3
203.77 74.74 0.57 c p3
203.75 74.74 0.57 c p3
203.73 66.07 0.57 c p3
203.71 71.54 0.57 c p3
203.67 73.30 0.57 c p3
203.65 66.07 0.57 c p3
203.63 71.54 0.57 c p3
203.61 71.54 0.57 c p3
203.59 71.54 0.57 c p3
203.57 66.07 0.57 c p3
203.55 66.07 0.57 c p3
203.53 71.54 0.57 c p3
203.50 71.54 0.57 c p3
203.48 66.07 0.57 c p3
203.46 71.54 0.57 c p3
203.44 66.07 0.57 c p3
203.40 71.54 0.57 c p3
203.38 73.30 0.57 c p3
203.36 60.60 0.57 c p3
203.33 71.54 0.57 c p3
203.31 66.07 0.57 c p3
203.29 71.54 0.57 c p3
203.27 60.60 0.57 c p3
203.25 66.07 0.57 c p3
203.23 71.54 0.57 c p3
203.20 60.60 0.57 c p3
203.18 74.74 0.57 c p3
203.16 71.54 0.57 c p3
203.14 73.30 0.57 c p3
203.12 71.54 0.57 c p3
203.09 73.30 0.57 c p3
203.07 71.54 0.57 c p3
203.05 69.27 0.57 c p3
203.03 60.60 0.57 c p3
203.00 79.52 0.57 c p3
202.98 71.54 0.57 c p3
202.96 71.54 0.57 c p3
202.94 75.95 0.57 c p3
202.91 74.74 0.57 c p3
202.89 69.27 0.57 c p3
202.87 69.27 0.57 c p3
202.84 73.30 0.57 c p3
202.82 66.07 0.57 c p3
202.80 74.74 0.57 c p3
202.77 74.74 0.57 c p3
202.75 73.30 0.57 c p3
202.73 71.54 0.57 c p3
202.70 66.07 0.57 c p3
202.68 74.74 0.57 c p3
202.66 77.01 0.57 c p3
202.63 74.74 0.57 c p3
202.61 73.30 0.57 c p3
202.58 73.30 0.57 c p3
202.56 75.95 0.57 c p3
202.54 71.54 0.57 c p3
202.51 73.30 0.57 c p3
202.49 77.01 0.57 c p3
202.46 74.74 0.57 c p3
202.44 71.54 0.57 c p3
202.41 71.54 0.57 c p3
202.39 77.01 0.57 c p3
202.36 77.01 0.57 c p3
202.34 73.30 0.57 c p3
202.31 69.27 0.57 c p3
202.29 74.74 0.57 c p3
202.26 73.30 0.57 c p3
202.24 73.30 0.57 c p3
202.21 69.27 0.57 c p3
202.19 60.60 0.57 c p3
202.16 73.30 0.57 c p3
202.14 73.30 0.57 c p3
202.11 77.94 0.57 c p3
202.09 79.52 0.57 c p3
202.06 75.95 0.57 c p3
202.03 77.01 0.57 c p3
202.01 75.95 0.57 c p3
201.98 74.74 0.57 c p3
201.96 74.74 0.57 c p3
201.93 77.01 0.57 c p3
201.90 71.54 0.57 c p3
201.88 80.84 0.57 c p3
201.85 74.74 0.57 c p3
201.82 66.07 0.57 c p3
201.80 73.30 0.57 c p3
201.77 78.77 0.57 c p3
201.74 77.94 0.57 c p3
201.72 78.77 0.57 c p3
201.69 66.07 0.57 c p3
201.66 78.77 0.57 c p3
201.63 77.94 0.57 c p3
201.61 79.52 0.57 c p3
201.58 75.95 0.57 c p3
201.55 74.74 0.57 c p3
201.52 74.74 0.57 c p3
201.49 82.96 0.57 c p3
201.47 77.01 0.57 c p3
201.44 77.94 0.57 c p3
201.41 69.27 0.57 c p3
201.38 75.95 0.57 c p3
201.35 66.07 0.57 c p3
201.32 80.21 0.57 c p3
201.29 80.21 0.57 c p3
201.27 77.94 0.57 c p3
201.24 74.74 0.57 c p3
201.21 73.30 0.57 c p3
201.18 77.94 0.57 c p3
201.15 75.95 0.57 c p3
201.12 73.30 0.57 c p3
201.09 77.01 0.57 c p3
201.06 79.52 0.57 c p3
201.03 77.94 0.57 c p3
201.00 77.94 0.57 c p3
200.97 77.01 0.57 c p3
200.94 81.42 0.57 c p3
200.91 80.21 0.57 c p3
200.88 77.01 0.57 c p3
200.85 78.77 0.57 c p3
200.82 74.74 0.57 c p3
200.78 80.84 0.57 c p3
200.75 80.84 0.57 c p3
200.72 75.95 0.57 c p3
200.69 73.30 0.57 c p3
200.66 80.21 0.57 c p3
200.63 80.84 0.57 c p3
200.60 81.97 0.57 c p3
200.56 77.01 0.57 c p3
200.53 69.27 0.57 c p3
200.50 79.52 0.57 c p3
200.47 77.01 0.57 c p3
200.43 77.01 0.57 c p3
200.40 81.42 0.57 c p3
200.37 80.84 0.57 c p3
200.33 81.42 0.57 c p3
200.30 78.77 0.57 c p3
200.27 81.42 0.57 c p3
200.23 83.41 0.57 c p3
200.20 81.97 0.57 c p3
200.17 81.42 0.57 c p3
200.13 79.52 0.57 c p3
200.10 77.01 0.57 c p3
200.06 82.48 0.57 c p3
200.03 77.94 0.57 c p3
199.99 84.62 0.57 c p3
199.96 82.96 0.57 c p3
199.92 82.96 0.57 c p3
199.89 78.77 0.57 c p3
199.85 79.52 0.57 c p3
199.82 79.52 0.57 c p3
199.78 84.62 0.57 c p3
199.74 83.83 0.57 c p3
199.71 79.52 0.57 c p3
199.67 82.48 0.57 c p3
199.64 82.96 0.57 c p3
199.60 81.97 0.57 c p3
199.56 80.84 0.57 c p3
199.52 83.41 0.57 c p3
199.49 82.48 0.57 c p3
199.45 82.48 0.57 c p3
199.41 83.83 0.57 c p3
199.37 81.97 0.57 c p3
199.33 78.77 0.57 c p3
199.30 81.42 0.57 c p3
199.26 83.83 0.57 c p3
199.22 82.96 0.57 c p3
199.18 81.97 0.57 c p3
199.14 84.99 0.57 c p3
199.10 85.68 0.57 c p3
199.06 82.96 0.57 c p3
199.02 83.41 0.57 c p3
198.98 81.97 0.57 c p3
198.94 83.41 0.57 c p3
198.90 82.48 0.57 c p3
198.86 82.48 0.57 c p3
198.82 84.99 0.57 c p3
198.77 84.62 0.57 c p3
198.73 82.48 0.57 c p3
198.69 86.61 0.57 c p3
198.65 84.24 0.57 c p3
198.61 82.48 0.57 c p3
198.56 87.95 0.57 c p3
198.52 85.34 0.57 c p3
198.48 84.99 0.57 c p3
198.43 85.68 0.57 c p3
198.39 83.83 0.57 c p3
198.35 84.24 0.57 c p3
198.30 85.68 0.57 c p3
198.26 85.34 0.57 c p3
198.21 84.62 0.57 c p3
198.17 87.70 0.57 c p3
198.12 85.34 0.57 c p3
198.07 87.95 0.57 c p3
198.03 85.34 0.57 c p3
197.98 87.70 0.57 c p3
197.93 86.00 0.57 c p3
197.89 82.96 0.57 c p3
197.84 84.62 0.57 c p3
197.79 88.88 0.57 c p3
197.74 85.34 0.57 c p3
197.70 88.88 0.57 c p3
197.65 86.31 0.57 c p3
197.60 87.70 0.57 c p3
197.55 86.00 0.57 c p3
197.50 88.88 0.57 c p3
197.45 86.00 0.57 c p3
197.40 88.42 0.57 c p3
197.35 88.88 0.57 c p3
197.29 87.70 0.57 c p3
197.24 87.44 0.57 c p3
197.19 85.68 0.57 c p3
197.14 89.51 0.57 c p3
197.08 89.51 0.57 c p3
197.03 90.28 0.57 c p3
196.98 89.09 0.57 c p3
196.92 89.09 0.57 c p3
196.87 90.81 0.57 c p3
196.81 90.09 0.57 c p3
196.76 88.65 0.57 c p3
196.70 86.61 0.57 c p3
196.65 91.47 0.57 c p3
196.59 89.71 0.57 c p3
196.53 90.81 0.57 c p3
196.47 90.09 0.57 c p3
196.42 88.19 0.57 c p3
196.36 91.15 0.57 c p3
196.30 89.09 0.57 c p3
196.24 90.81 0.57 c p3
196.18 91.15 0.57 c p3
196.12 90.09 0.57 c p3
196.05 89.51 0.57 c p3
195.99 91.47 0.57 c p3
195.93 91.15 0.57 c p3
195.87 90.64 0.57 c p3
195.80 91.47 0.57 c p3
195.74 91.31 0.57 c p3
195.67 92.22 0.57 c p3
195.61 86.89 0.57 c p3
195.54 92.22 0.57 c p3
195.48 93.29 0.57 c p3
195.41 93.54 0.57 c p3
195.34 91.31 0.57 c p3
195.27 90.28 0.57 c p3
195.20 91.47 0.57 c p3
195.13 93.29 0.57 c p3
195.06 93.04 0.57 c p3
194.99 92.50 0.57 c p3
194.92 93.16 0.57 c p3
194.84 93.78 0.57 c p3
194.77 94.56 0.57 c p3
194.69 92.36 0.57 c p3
194.62 94.34 0.57 c p3
194.54 95.08 0.57 c p3
194.47 95.47 0.57 c p3
194.39 93.89 0.57 c p3
194.31 96.28 0.57 c p3
194.23 95.18 0.57 c p3
194.15 93.54 0.57 c p3
194.07 96.28 0.57 c p3
193.98 96.10 0.57 c p3
193.90 95.08 0.57 c p3
193.81 96.10 0.57 c p3
193.73 95.84 0.57 c p3
193.64 97.54 0.57 c p3
193.55 95.47 0.57 c p3
193.46 97.25 0.57 c p3
193.37 97.25 0.57 c p3
193.28 96.53 0.57 c p3
193.19 98.70 0.57 c p3
193.10 96.86 0.57 c p3
193.00 99.36 0.57 c p3
192.90 97.25 0.57 c p3
192.81 97.62 0.57 c p3
192.71 98.70 0.57 c p3
192.60 99.42 0.57 c p3
192.50 98.88 0.57 c p3
192.40 99.42 0.57 c p3
192.29 100.03 0.57 c p3
192.19 97.62 0.57 c p3
192.08 100.08 0.57 c p3
191.97 100.19 0.57 c p3
191.85 99.81 0.57 c p3
191.74 99.53 0.57 c p3
191.62 101.08 0.57 c p3
191.50 100.55 0.57 c p3
191.38 101.66 0.57 c p3
191.26 101.87 0.57 c p3
191.14 102.60 0.57 c p3
191.01 102.86 0.57 c p3
190.88 102.04 0.57 c p3
190.75 102.98 0.57 c p3
190.62 102.75 0.57 c p3
190.48 103.78 0.57 c p3
190.34 104.92 0.57 c p3
190.20 104.51 0.57 c p3
190.05 105.36 0.57 c p3
189.90 104.26 0.57 c p3
189.75 105.03 0.57 c p3
189.59 104.26 0.57 c p3
189.44 106.06 0.57 c p3
189.27 106.24 0.57 c p3
189.11 106.43 0.57 c p3
188.94 107.43 0.57 c p3
188.76 107.93 0.57 c p3
188.58 107.89 0.57 c p3
188.40 108.13 0.57 c p3
188.21 108.68 0.57 c p3
188.01 108.91 0.57 c p3
187.81 109.94 0.57 c p3
187.61 110.33 0.57 c p3
187.39 110.21 0.57 c p3
187.17 110.21 0.57 c p3
186.95 110.58 0.57 c p3
186.71 111.66 0.57 c p3
186.47 111.93 0.57 c p3
186.22 112.21 0.57 c p3
185.96 113.22 0.57 c p3
185.69 114.21 0.57 c p3
185.40 114.48 0.57 c p3
185.11 114.51 0.57 c p3
184.80 115.34 0.57 c p3
184.48 116.05 0.57 c p3
184.14 116.61 0.57 c p3
183.79 117.09 0.57 c p3
183.42 118.21 0.57 c p3
183.02 118.63 0.57 c p3
182.60 119.83 0.57 c p3
182.15 120.28 0.57 c p3
181.68 121.40 0.57 c p3
181.17 122.42 0.57 c p3
180.61 123.41 0.57 c p3
180.01 124.63 0.57 c p3
179.35 125.79 0.57 c p3
178.62 126.98 0.57 c p3
177.81 128.69 0.57 c p3
176.89 130.24 0.57 c p3
175.82 132.20 0.57 c p3
174.56 134.44 0.57 c p3
173.02 136.96 0.57 c p3
171.03 140.41 0.57 c p3
168.22 144.89 0.57 c p3
163.43 151.94 0.57 c p3
0.4980 0.4980 0.4980 srgb
1.07 setlinewidth
[] 0 setdash
158.74 54.56 103.16 103.16 r p1
0.00 0.00 595.28 198.43 cl
267.88 54.56 371.03 157.71 cl
/bg { 1 1 1 srgb } def
267.88 54.56 103.16 103.16 r p2
0.9804 0.9804 0.9804 srgb
1.07 setlinewidth
[] 0 setdash
0 setlinecap
1 setlinejoin
10.00 setmiterlimit
np
267.88 68.67 m
103.15 0 l
o
np
267.88 105.00 m
103.15 0 l
o
np
267.88 141.34 m
103.15 0 l
o
np
272.57 54.56 m
0 103.15 l
o
np
304.40 54.56 m
0 103.15 l
o
np
336.24 54.56 m
0 103.15 l
o
np
368.08 54.56 m
0 103.15 l
o
0.8980 0.8980 0.8980 srgb
0.43 setlinewidth
[] 0 setdash
np
267.88 86.84 m
103.15 0 l
o
np
267.88 123.17 m
103.15 0 l
o
np
288.48 54.56 m
0 103.15 l
o
np
320.32 54.56 m
0 103.15 l
o
np
352.16 54.56 m
0 103.15 l
o
/bg { 0 0 0 srgb } def
0 0 0 srgb
0.71 setlinewidth
[] 0 setdash
1 setlinecap
334.39 84.25 0.57 c p3
322.21 84.25 0.57 c p3
321.79 84.25 0.57 c p3
320.62 84.25 0.57 c p3
318.59 84.25 0.57 c p3
318.43 84.25 0.57 c p3
316.92 84.25 0.57 c p3
316.66 84.25 0.57 c p3
316.29 84.25 0.57 c p3
316.04 84.25 0.57 c p3
316.00 84.25 0.57 c p3
315.83 84.25 0.57 c p3
315.19 84.25 0.57 c p3
315.09 84.25 0.57 c p3
313.65 84.25 0.57 c p3
313.18 84.25 0.57 c p3
312.86 84.25 0.57 c p3
312.82 84.25 0.57 c p3
312.76 84.25 0.57 c p3
312.74 84.25 0.57 c p3
312.38 84.25 0.57 c p3
312.20 84.25 0.57 c p3
312.16 84.25 0.57 c p3
311.81 84.25 0.57 c p3
311.79 84.25 0.57 c p3
311.74 84.25 0.57 c p3
311.57 84.25 0.57 c p3
311.50 84.25 0.57 c p3
311.47 84.25 0.57 c p3
311.30 89.72 0.57 c p3
310.88 84.25 0.57 c p3
310.60 84.25 0.57 c p3
310.49 84.25 0.57 c p3
310.34 84.25 0.57 c p3
310.28 84.25 0.57 c p3
310.19 84.25 0.57 c p3
310.13 84.25 0.57 c p3
310.07 84.25 0.57 c p3
309.70 84.25 0.57 c p3
309.60 84.25 0.57 c p3
309.57 84.25 0.57 c p3
309.40 89.72 0.57 c p3
309.23 84.25 0.57 c p3
309.16 84.25 0.57 c p3
309.13 84.25 0.57 c p3
309.02 84.25 0.57 c p3
308.99 84.25 0.57 c p3
308.91 84.25 0.57 c p3
308.88 84.25 0.57 c p3
308.73 89.72 0.57 c p3
308.54 84.25 0.57 c p3
308.47 84.25 0.57 c p3
308.31 84.25 0.57 c p3
308.27 84.25 0.57 c p3
308.15 84.25 0.57 c p3
308.03 84.25 0.57 c p3
307.91 89.72 0.57 c p3
307.82 84.25 0.57 c p3
307.74 84.25 0.57 c p3
307.65 84.25 0.57 c p3
307.48 84.25 0.57 c p3
307.34 89.72 0.57 c p3
307.30 89.72 0.57 c p3
306.73 89.72 0.57 c p3
306.68 89.72 0.57 c p3
306.53 89.72 0.57 c p3
306.43 84.25 0.57 c p3
306.38 89.72 0.57 c p3
306.32 84.25 0.57 c p3
306.22 84.25 0.57 c p3
306.16 92.92 0.57 c p3
306.06 84.25 0.57 c p3
306.00 84.25 0.57 c p3
305.78 89.72 0.57 c p3
305.72 89.72 0.57 c p3
305.66 89.72 0.57 c p3
305.61 84.25 0.57 c p3
305.55 84.25 0.57 c p3
305.49 95.18 0.57 c p3
305.43 84.25 0.57 c p3
305.37 84.25 0.57 c p3
305.19 92.92 0.57 c p3
305.00 84.25 0.57 c p3
304.94 84.25 0.57 c p3
304.81 92.92 0.57 c p3
304.74 92.92 0.57 c p3
304.61 84.25 0.57 c p3
304.54 92.92 0.57 c p3
304.47 92.92 0.57 c p3
304.40 89.72 0.57 c p3
304.12 92.92 0.57 c p3
304.05 89.72 0.57 c p3
303.98 95.18 0.57 c p3
303.90 89.72 0.57 c p3
303.83 89.72 0.57 c p3
303.68 89.72 0.57 c p3
303.60 95.18 0.57 c p3
303.52 96.95 0.57 c p3
303.44 92.92 0.57 c p3
303.36 89.72 0.57 c p3
303.28 84.25 0.57 c p3
303.20 92.92 0.57 c p3
303.12 99.60 0.57 c p3
303.03 89.72 0.57 c p3
302.86 84.25 0.57 c p3
302.77 92.92 0.57 c p3
302.69 84.25 0.57 c p3
302.60 92.92 0.57 c p3
302.51 98.38 0.57 c p3
302.42 95.18 0.57 c p3
302.32 92.92 0.57 c p3
302.23 92.92 0.57 c p3
302.13 89.72 0.57 c p3
302.04 89.72 0.57 c p3
301.94 92.92 0.57 c p3
301.74 98.38 0.57 c p3
301.64 89.72 0.57 c p3
301.53 92.92 0.57 c p3
301.43 89.72 0.57 c p3
301.32 89.72 0.57 c p3
301.21 89.72 0.57 c p3
301.10 89.72 0.57 c p3
300.99 103.17 0.57 c p3
300.87 95.18 0.57 c p3
300.76 98.38 0.57 c p3
300.64 99.60 0.57 c p3
300.52 98.38 0.57 c p3
300.40 84.25 0.57 c p3
300.27 102.41 0.57 c p3
300.14 99.60 0.57 c p3
300.01 102.41 0.57 c p3
299.88 99.60 0.57 c p3
299.75 100.65 0.57 c p3
299.61 100.65 0.57 c p3
299.47 98.38 0.57 c p3
299.33 101.58 0.57 c p3
299.18 101.58 0.57 c p3
299.04 99.60 0.57 c p3
298.88 99.60 0.57 c p3
298.73 103.17 0.57 c p3
298.57 100.65 0.57 c p3
298.41 103.85 0.57 c p3
298.24 99.60 0.57 c p3
298.07 101.58 0.57 c p3
297.89 106.60 0.57 c p3
297.71 100.65 0.57 c p3
297.53 100.65 0.57 c p3
297.34 105.61 0.57 c p3
297.15 103.85 0.57 c p3
296.95 100.65 0.57 c p3
296.74 103.17 0.57 c p3
296.53 106.12 0.57 c p3
296.31 109.32 0.57 c p3
296.08 107.88 0.57 c p3
295.85 109.32 0.57 c p3
295.60 109.64 0.57 c p3
295.35 111.34 0.57 c p3
295.09 108.64 0.57 c p3
294.82 111.34 0.57 c p3
294.54 112.07 0.57 c p3
294.24 111.59 0.57 c p3
293.94 112.07 0.57 c p3
293.61 111.08 0.57 c p3
293.28 113.74 0.57 c p3
292.92 114.10 0.57 c p3
292.55 115.42 0.57 c p3
292.15 116.68 0.57 c p3
291.73 118.21 0.57 c p3
291.29 117.30 0.57 c p3
290.81 120.81 0.57 c p3
290.30 120.18 0.57 c p3
289.75 121.89 0.57 c p3
289.14 122.34 0.57 c p3
288.48 125.00 0.57 c p3
287.76 126.66 0.57 c p3
286.94 127.87 0.57 c p3
286.02 129.43 0.57 c p3
284.95 131.73 0.57 c p3
283.69 134.68 0.57 c p3
282.15 137.48 0.57 c p3
280.16 141.06 0.57 c p3
277.36 145.69 0.57 c p3
272.57 152.57 0.57 c p3
0.4980 0.4980 0.4980 srgb
1.07 setlinewidth
[] 0 setdash
267.88 54.56 103.16 103.16 r p1
0.00 0.00 595.28 198.43 cl
377.01 54.56 480.16 157.71 cl
/bg { 1 1 1 srgb } def
377.01 54.56 103.16 103.16 r p2
0.9804 0.9804 0.9804 srgb
1.07 setlinewidth
[] 0 setdash
0 setlinecap
1 setlinejoin
10.00 setmiterlimit
np
377.01 68.67 m
103.15 0 l
o
np
377.01 105.00 m
103.15 0 l
o
np
377.01 141.34 m
103.15 0 l
o
np
381.70 54.56 m
0 103.15 l
o
np
413.54 54.56 m
0 103.15 l
o
np
445.38 54.56 m
0 103.15 l
o
np
477.21 54.56 m
0 103.15 l
o
0.8980 0.8980 0.8980 srgb
0.43 setlinewidth
[] 0 setdash
np
377.01 86.84 m
103.15 0 l
o
np
377.01 123.17 m
103.15 0 l
o
np
397.62 54.56 m
0 103.15 l
o
np
429.46 54.56 m
0 103.15 l
o
np
461.29 54.56 m
0 103.15 l
o
/bg { 0 0 0 srgb } def
0 0 0 srgb
0.71 setlinewidth
[] 0 setdash
1 setlinecap
460.81 78.07 0.57 c p3
451.78 78.07 0.57 c p3
451.76 78.07 0.57 c p3
449.50 78.07 0.57 c p3
449.12 78.07 0.57 c p3
447.08 78.07 0.57 c p3
446.09 78.07 0.57 c p3
445.39 78.07 0.57 c p3
444.60 78.07 0.57 c p3
444.30 78.07 0.57 c p3
444.15 78.07 0.57 c p3
443.68 78.07 0.57 c p3
443.43 78.07 0.57 c p3
442.94 78.07 0.57 c p3
442.78 78.07 0.57 c p3
442.01 78.07 0.57 c p3
442.01 78.07 0.57 c p3
441.51 78.07 0.57 c p3
441.40 78.07 0.57 c p3
441.29 78.07 0.57 c p3
441.29 78.07 0.57 c p3
440.94 78.07 0.57 c p3
440.44 78.07 0.57 c p3
440.31 78.07 0.57 c p3
440.15 78.07 0.57 c p3
440.05 78.07 0.57 c p3
439.99 78.07 0.57 c p3
439.98 78.07 0.57 c p3
439.96 78.07 0.57 c p3
439.80 78.07 0.57 c p3
439.74 78.07 0.57 c p3
439.73 78.07 0.57 c p3
439.71 78.07 0.57 c p3
439.69 78.07 0.57 c p3
439.63 78.07 0.57 c p3
439.30 78.07 0.57 c p3
439.13 78.07 0.57 c p3
439.03 78.07 0.57 c p3
438.77 78.07 0.57 c p3
438.76 78.07 0.57 c p3
438.75 78.07 0.57 c p3
438.65 78.07 0.57 c p3
438.60 78.07 0.57 c p3
438.54 78.07 0.57 c p3
438.38 78.07 0.57 c p3
438.36 78.07 0.57 c p3
438.29 78.07 0.57 c p3
438.26 78.07 0.57 c p3
438.23 83.54 0.57 c p3
438.21 78.07 0.57 c p3
438.17 78.07 0.57 c p3
438.03 78.07 0.57 c p3
437.94 78.07 0.57 c p3
437.76 78.07 0.57 c p3
437.73 78.07 0.57 c p3
437.71 78.07 0.57 c p3
437.31 78.07 0.57 c p3
437.25 78.07 0.57 c p3
437.18 78.07 0.57 c p3
437.13 78.07 0.57 c p3
437.12 78.07 0.57 c p3
437.09 78.07 0.57 c p3
437.04 78.07 0.57 c p3
436.83 78.07 0.57 c p3
436.60 78.07 0.57 c p3
436.51 83.54 0.57 c p3
436.46 78.07 0.57 c p3
436.46 78.07 0.57 c p3
436.41 78.07 0.57 c p3
436.40 78.07 0.57 c p3
436.38 78.07 0.57 c p3
436.34 78.07 0.57 c p3
436.15 78.07 0.57 c p3
436.14 78.07 0.57 c p3
436.10 78.07 0.57 c p3
435.98 78.07 0.57 c p3
435.97 78.07 0.57 c p3
435.90 78.07 0.57 c p3
435.78 78.07 0.57 c p3
435.64 78.07 0.57 c p3
435.56 78.07 0.57 c p3
435.53 78.07 0.57 c p3
435.49 78.07 0.57 c p3
435.44 78.07 0.57 c p3
435.34 78.07 0.57 c p3
435.27 78.07 0.57 c p3
435.27 78.07 0.57 c p3
435.22 78.07 0.57 c p3
435.21 78.07 0.57 c p3
435.08 78.07 0.57 c p3
435.02 78.07 0.57 c p3
435.00 78.07 0.57 c p3
434.89 78.07 0.57 c p3
434.78 78.07 0.57 c p3
434.77 78.07 0.57 c p3
434.77 78.07 0.57 c p3
434.74 78.07 0.57 c p3
434.71 78.07 0.57 c p3
434.69 78.07 0.57 c p3
434.69 78.07 0.57 c p3
434.68 78.07 0.57 c p3
434.53 78.07 0.57 c p3
434.47 78.07 0.57 c p3
434.45 78.07 0.57 c p3
434.37 78.07 0.57 c p3
434.35 78.07 0.57 c p3
434.29 78.07 0.57 c p3
434.27 78.07 0.57 c p3
434.19 78.07 0.57 c p3
434.18 78.07 0.57 c p3
434.03 78.07 0.57 c p3
434.00 78.07 0.57 c p3
433.73 78.07 0.57 c p3
433.71 78.07 0.57 c p3
433.57 78.07 0.57 c p3
433.52 78.07 0.57 c p3
433.52 78.07 0.57 c p3
433.50 78.07 0.57 c p3
433.44 78.07 0.57 c p3
433.35 78.07 0.57 c p3
433.35 78.07 0.57 c p3
433.32 78.07 0.57 c p3
433.25 78.07 0.57 c p3
433.20 78.07 0.57 c p3
433.19 78.07 0.57 c p3
433.17 78.07 0.57 c p3
433.10 78.07 0.57 c p3
432.99 78.07 0.57 c p3
432.89 78.07 0.57 c p3
432.80 78.07 0.57 c p3
432.74 78.07 0.57 c p3
432.65 78.07 0.57 c p3
432.60 78.07 0.57 c p3
432.57 78.07 0.57 c p3
432.49 78.07 0.57 c p3
432.47 78.07 0.57 c p3
432.45 78.07 0.57 c p3
432.30 83.54 0.57 c p3
432.29 83.54 0.57 c p3
432.27 78.07 0.57 c p3
432.26 78.07 0.57 c p3
432.20 78.07 0.57 c p3
432.15 78.07 0.57 c p3
432.14 78.07 0.57 c p3
432.11 78.07 0.57 c p3
432.07 78.07 0.57 c p3
432.01 78.07 0.57 c p3
432.00 78.07 0.57 c p3
431.94 78.07 0.57 c p3
431.93 78.07 0.57 c p3
431.84 78.07 0.57 c p3
431.81 78.07 0.57 c p3
431.70 78.07 0.57 c p3
431.63 78.07 0.57 c p3
431.52 78.07 0.57 c p3
431.51 83.54 0.57 c p3
431.43 78.07 0.57 c p3
431.42 78.07 0.57 c p3
431.41 78.07 0.57 c p3
431.37 78.07 0.57 c p3
431.30 78.07 0.57 c p3
431.30 78.07 0.57 c p3
431.27 83.54 0.57 c p3
431.22 78.07 0.57 c p3
431.18 78.07 0.57 c p3
431.15 83.54 0.57 c p3
431.12 78.07 0.57 c p3
431.11 78.07 0.57 c p3
431.10 78.07 0.57 c p3
431.08 78.07 0.57 c p3
431.01 78.07 0.57 c p3
430.99 78.07 0.57 c p3
430.98 78.07 0.57 c p3
430.97 78.07 0.57 c p3
430.94 78.07 0.57 c p3
430.93 78.07 0.57 c p3
430.86 78.07 0.57 c p3
430.80 83.54 0.57 c p3
430.79 78.07 0.57 c p3
430.73 78.07 0.57 c p3
430.72 78.07 0.57 c p3
430.71 78.07 0.57 c p3
430.65 78.07 0.57 c p3
430.56 83.54 0.57 c p3
430.48 78.07 0.57 c p3
430.43 78.07 0.57 c p3
430.41 78.07 0.57 c p3
430.36 83.54 0.57 c p3
430.30 78.07 0.57 c p3
430.30 78.07 0.57 c p3
430.25 78.07 0.57 c p3
430.22 78.07 0.57 c p3
430.12 78.07 0.57 c p3
430.12 78.07 0.57 c p3
430.06 78.07 0.57 c p3
430.06 78.07 0.57 c p3
430.04 78.07 0.57 c p3
430.01 78.07 0.57 c p3
429.96 78.07 0.57 c p3
429.92 83.54 0.57 c p3
429.91 78.07 0.57 c p3
429.89 78.07 0.57 c p3
429.85 78.07 0.57 c p3
429.81 78.07 0.57 c p3
429.79 78.07 0.57 c p3
429.77 78.07 0.57 c p3
429.73 78.07 0.57 c p3
429.71 78.07 0.57 c p3
429.69 78.07 0.57 c p3
429.68 78.07 0.57 c p3
429.64 78.07 0.57 c p3
429.63 78.07 0.57 c p3
429.56 78.07 0.57 c p3
429.41 78.07 0.57 c p3
429.39 78.07 0.57 c p3
429.37 78.07 0.57 c p3
429.30 78.07 0.57 c p3
429.18 78.07 0.57 c p3
429.15 78.07 0.57 c p3
429.07 78.07 0.57 c p3
429.04 78.07 0.57 c p3
429.01 78.07 0.57 c p3
428.98 78.07 0.57 c p3
428.89 83.54 0.57 c p3
428.84 83.54 0.57 c p3
428.83 78.07 0.57 c p3
428.77 78.07 0.57 c p3
428.76 83.54 0.57 c p3
428.72 78.07 0.57 c p3
428.70 83.54 0.57 c p3
428.65 78.07 0.57 c p3
428.64 83.54 0.57 c p3
428.59 78.07 0.57 c p3
428.57 78.07 0.57 c p3
428.56 78.07 0.57 c p3
428.53 78.07 0.57 c p3
428.52 78.07 0.57 c p3
428.50 78.07 0.57 c p3
428.49 78.07 0.57 c p3
428.39 78.07 0.57 c p3
428.31 78.07 0.57 c p3
428.28 78.07 0.57 c p3
428.27 78.07 0.57 c p3
428.25 78.07 0.57 c p3
428.21 78.07 0.57 c p3
428.20 78.07 0.57 c p3
428.15 78.07 0.57 c p3
428.11 86.74 0.57 c p3
428.08 78.07 0.57 c p3
428.05 78.07 0.57 c p3
428.04 78.07 0.57 c p3
428.00 78.07 0.57 c p3
427.98 78.07 0.57 c p3
427.97 78.07 0.57 c p3
427.92 83.54 0.57 c p3
427.91 78.07 0.57 c p3
427.89 83.54 0.57 c p3
427.88 83.54 0.57 c p3
427.87 83.54 0.57 c p3
427.86 83.54 0.57 c p3
427.84 86.74 0.57 c p3
427.82 78.07 0.57 c p3
427.79 78.07 0.57 c p3
427.78 78.07 0.57 c p3
427.75 78.07 0.57 c p3
427.73 78.07 0.57 c p3
427.69 78.07 0.57 c p3
427.67 78.07 0.57 c p3
427.59 78.07 0.57 c p3
427.57 83.54 0.57 c p3
427.52 83.54 0.57 c p3
427.49 83.54 0.57 c p3
427.46 78.07 0.57 c p3
427.43 78.07 0.57 c p3
427.41 78.07 0.57 c p3
427.40 78.07 0.57 c p3
427.39 78.07 0.57 c p3
427.37 83.54 0.57 c p3
427.30 78.07 0.57 c p3
427.29 78.07 0.57 c p3
427.24 78.07 0.57 c p3
427.16 78.07 0.57 c p3
427.12 78.07 0.57 c p3
427.10 78.07 0.57 c p3
427.04 78.07 0.57 c p3
427.00 86.74 0.57 c p3
426.96 83.54 0.57 c p3
426.95 78.07 0.57 c p3
426.90 78.07 0.57 c p3
426.88 78.07 0.57 c p3
426.86 78.07 0.57 c p3
426.85 78.07 0.57 c p3
426.83 78.07 0.57 c p3
426.82 78.07 0.57 c p3
426.81 78.07 0.57 c p3
426.79 90.77 0.57 c p3
426.75 78.07 0.57 c p3
426.70 78.07 0.57 c p3
426.68 78.07 0.57 c p3
426.66 78.07 0.57 c p3
426.63 78.07 0.57 c p3
426.59 78.07 0.57 c p3
426.56 78.07 0.57 c p3
426.55 78.07 0.57 c p3
426.52 78.07 0.57 c p3
426.50 83.54 0.57 c p3
426.49 78.07 0.57 c p3
426.48 78.07 0.57 c p3
426.47 78.07 0.57 c p3
426.46 78.07 0.57 c p3
426.45 78.07 0.57 c p3
426.44 78.07 0.57 c p3
426.42 78.07 0.57 c p3
426.40 78.07 0.57 c p3
426.37 83.54 0.57 c p3
426.35 78.07 0.57 c p3
426.34 83.54 0.57 c p3
426.32 78.07 0.57 c p3
426.28 78.07 0.57 c p3
426.26 78.07 0.57 c p3
426.18 78.07 0.57 c p3
426.16 78.07 0.57 c p3
426.15 78.07 0.57 c p3
426.14 86.74 0.57 c p3
426.10 78.07 0.57 c p3
426.04 78.07 0.57 c p3
426.03 78.07 0.57 c p3
426.00 78.07 0.57 c p3
425.98 78.07 0.57 c p3
425.96 78.07 0.57 c p3
425.92 78.07 0.57 c p3
425.89 78.07 0.57 c p3
425.87 78.07 0.57 c p3
425.84 78.07 0.57 c p3
425.83 78.07 0.57 c p3
425.82 83.54 0.57 c p3
425.80 78.07 0.57 c p3
425.75 83.54 0.57 c p3
425.70 86.74 0.57 c p3
425.69 83.54 0.57 c p3
425.67 78.07 0.57 c p3
425.65 78.07 0.57 c p3
425.64 86.74 0.57 c p3
425.62 78.07 0.57 c p3
425.50 78.07 0.57 c p3
425.47 78.07 0.57 c p3
425.45 83.54 0.57 c p3
425.44 78.07 0.57 c p3
425.41 78.07 0.57 c p3
425.39 83.54 0.57 c p3
425.37 78.07 0.57 c p3
425.36 83.54 0.57 c p3
425.34 78.07 0.57 c p3
425.32 78.07 0.57 c p3
425.31 78.07 0.57 c p3
425.29 83.54 0.57 c p3
425.26 86.74 0.57 c p3
425.23 78.07 0.57 c p3
425.22 83.54 0.57 c p3
425.18 78.07 0.57 c p3
425.17 78.07 0.57 c p3
425.14 78.07 0.57 c p3
425.13 78.07 0.57 c p3
425.11 83.54 0.57 c p3
425.07 78.07 0.57 c p3
425.05 83.54 0.57 c p3
425.04 78.07 0.57 c p3
425.01 78.07 0.57 c p3
425.00 78.07 0.57 c p3
424.99 78.07 0.57 c p3
424.96 78.07 0.57 c p3
424.90 83.54 0.57 c p3
424.87 78.07 0.57 c p3
424.79 78.07 0.57 c p3
424.75 78.07 0.57 c p3
424.71 78.07 0.57 c p3
424.69 78.07 0.57 c p3
424.66 83.54 0.57 c p3
424.62 78.07 0.57 c p3
424.57 78.07 0.57 c p3
424.55 83.54 0.57 c p3
424.52 78.07 0.57 c p3
424.50 83.54 0.57 c p3
424.47 83.54 0.57 c p3
424.44 78.07 0.57 c p3
424.40 83.54 0.57 c p3
424.38 78.07 0.57 c p3
424.37 78.07 0.57 c p3
424.34 83.54 0.57 c p3
424.32 78.07 0.57 c p3
424.31 83.54 0.57 c p3
424.29 78.07 0.57 c p3
424.22 78.07 0.57 c p3
424.21 83.54 0.57 c p3
424.19 83.54 0.57 c p3
424.16 78.07 0.57 c p3
424.12 78.07 0.57 c p3
424.10 86.74 0.57 c p3
424.09 78.07 0.57 c p3
424.06 78.07 0.57 c p3
424.04 78.07 0.57 c p3
424.03 78.07 0.57 c p3
424.01 78.07 0.57 c p3
424.00 78.07 0.57 c p3
423.97 78.07 0.57 c p3
423.95 78.07 0.57 c p3
423.92 78.07 0.57 c p3
423.90 78.07 0.57 c p3
423.89 86.74 0.57 c p3
423.87 78.07 0.57 c p3
423.86 78.07 0.57 c p3
423.81 78.07 0.57 c p3
423.80 78.07 0.57 c p3
423.78 86.74 0.57 c p3
423.75 83.54 0.57 c p3
423.73 89.01 0.57 c p3
423.70 78.07 0.57 c p3
423.69 78.07 0.57 c p3
423.67 78.07 0.57 c p3
423.65 78.07 0.57 c p3
423.64 78.07 0.57 c p3
423.61 86.74 0.57 c p3
423.59 83.54 0.57 c p3
423.57 83.54 0.57 c p3
423.54 78.07 0.57 c p3
423.51 78.07 0.57 c p3
423.49 78.07 0.57 c p3
423.44 86.74 0.57 c p3
423.43 78.07 0.57 c p3
423.41 83.54 0.57 c p3
423.38 83.54 0.57 c p3
423.33 83.54 0.57 c p3
423.31 78.07 0.57 c p3
423.29 78.07 0.57 c p3
423.28 83.54 0.57 c p3
423.26 78.07 0.57 c p3
423.22 86.74 0.57 c p3
423.14 78.07 0.57 c p3
423.09 78.07 0.57 c p3
423.07 83.54 0.57 c p3
423.03 78.07 0.57 c p3
423.02 86.74 0.57 c p3
423.00 83.54 0.57 c p3
422.98 83.54 0.57 c p3
422.96 86.74 0.57 c p3
422.95 78.07 0.57 c p3
422.93 78.07 0.57 c p3
422.88 78.07 0.57 c p3
422.86 83.54 0.57 c p3
422.84 78.07 0.57 c p3
422.80 86.74 0.57 c p3
422.77 83.54 0.57 c p3
422.73 86.74 0.57 c p3
422.71 83.54 0.57 c p3
422.69 83.54 0.57 c p3
422.68 78.07 0.57 c p3
422.66 78.07 0.57 c p3
422.60 83.54 0.57 c p3
422.58 78.07 0.57 c p3
422.56 83.54 0.57 c p3
422.54 78.07 0.57 c p3
422.53 78.07 0.57 c p3
422.49 78.07 0.57 c p3
422.47 78.07 0.57 c p3
422.45 78.07 0.57 c p3
422.39 86.74 0.57 c p3
422.37 78.07 0.57 c p3
422.34 78.07 0.57 c p3
422.32 78.07 0.57 c p3
422.30 83.54 0.57 c p3
422.28 78.07 0.57 c p3
422.26 78.07 0.57 c p3
422.24 86.74 0.57 c p3
422.22 83.54 0.57 c p3
422.20 83.54 0.57 c p3
422.18 78.07 0.57 c p3
422.16 78.07 0.57 c p3
422.14 78.07 0.57 c p3
422.10 89.01 0.57 c p3
422.08 89.01 0.57 c p3
422.06 78.07 0.57 c p3
422.04 78.07 0.57 c p3
422.02 78.07 0.57 c p3
422.00 86.74 0.57 c p3
421.94 86.74 0.57 c p3
421.92 83.54 0.57 c p3
421.90 78.07 0.57 c p3
421.87 83.54 0.57 c p3
421.85 78.07 0.57 c p3
421.83 78.07 0.57 c p3
421.81 83.54 0.57 c p3
421.79 86.74 0.57 c p3
421.77 78.07 0.57 c p3
421.75 78.07 0.57 c p3
421.71 86.74 0.57 c p3
421.69 78.07 0.57 c p3
421.66 78.07 0.57 c p3
421.64 86.74 0.57 c p3
421.62 78.07 0.57 c p3
421.60 78.07 0.57 c p3
421.58 83.54 0.57 c p3
421.56 89.01 0.57 c p3
421.54 83.54 0.57 c p3
421.51 83.54 0.57 c p3
421.49 90.77 0.57 c p3
421.47 78.07 0.57 c p3
421.45 78.07 0.57 c p3
421.43 83.54 0.57 c p3
421.40 86.74 0.57 c p3
421.36 83.54 0.57 c p3
421.34 83.54 0.57 c p3
421.31 83.54 0.57 c p3
421.29 86.74 0.57 c p3
421.27 83.54 0.57 c p3
421.22 83.54 0.57 c p3
421.20 78.07 0.57 c p3
421.18 83.54 0.57 c p3
421.16 78.07 0.57 c p3
421.13 86.74 0.57 c p3
421.11 78.07 0.57 c p3
421.09 83.54 0.57 c p3
421.06 83.54 0.57 c p3
421.04 83.54 0.57 c p3
421.02 78.07 0.57 c p3
420.99 83.54 0.57 c p3
420.97 86.74 0.57 c p3
420.95 78.07 0.57 c p3
420.92 83.54 0.57 c p3
420.90 83.54 0.57 c p3
420.87 90.77 0.57 c p3
420.85 78.07 0.57 c p3
420.83 83.54 0.57 c p3
420.73 78.07 0.57 c p3
420.70 86.74 0.57 c p3
420.68 89.01 0.57 c p3
420.66 86.74 0.57 c p3
420.63 83.54 0.57 c p3
420.61 78.07 0.57 c p3
420.58 86.74 0.57 c p3
420.56 83.54 0.57 c p3
420.53 86.74 0.57 c p3
420.51 83.54 0.57 c p3
420.48 78.07 0.57 c p3
420.43 83.54 0.57 c p3
420.40 78.07 0.57 c p3
420.38 83.54 0.57 c p3
420.35 86.74 0.57 c p3
420.33 78.07 0.57 c p3
420.30 90.77 0.57 c p3
420.27 78.07 0.57 c p3
420.25 83.54 0.57 c p3
420.22 89.01 0.57 c p3
420.20 78.07 0.57 c p3
420.17 86.74 0.57 c p3
420.14 89.01 0.57 c p3
420.12 86.74 0.57 c p3
420.09 83.54 0.57 c p3
420.06 83.54 0.57 c p3
420.04 90.77 0.57 c p3
420.01 78.07 0.57 c p3
419.98 83.54 0.57 c p3
419.95 83.54 0.57 c p3
419.93 86.74 0.57 c p3
419.90 86.74 0.57 c p3
419.87 83.54 0.57 c p3
419.84 83.54 0.57 c p3
419.82 86.74 0.57 c p3
419.79 89.01 0.57 c p3
419.76 83.54 0.57 c p3
419.73 83.54 0.57 c p3
419.68 86.74 0.57 c p3
419.65 89.01 0.57 c p3
419.62 86.74 0.57 c p3
419.59 90.77 0.57 c p3
419.56 86.74 0.57 c p3
419.53 83.54 0.57 c p3
419.50 78.07 0.57 c p3
419.47 92.21 0.57 c p3
419.44 83.54 0.57 c p3
419.41 86.74 0.57 c p3
419.39 78.07 0.57 c p3
419.36 86.74 0.57 c p3
419.33 83.54 0.57 c p3
419.30 86.74 0.57 c p3
419.24 83.54 0.57 c p3
419.20 86.74 0.57 c p3
419.17 90.77 0.57 c p3
419.14 83.54 0.57 c p3
419.11 83.54 0.57 c p3
419.08 90.77 0.57 c p3
419.05 86.74 0.57 c p3
419.02 83.54 0.57 c p3
418.99 83.54 0.57 c p3
418.96 89.01 0.57 c p3
418.92 78.07 0.57 c p3
418.89 83.54 0.57 c p3
418.86 83.54 0.57 c p3
418.83 83.54 0.57 c p3
418.80 78.07 0.57 c p3
418.76 86.74 0.57 c p3
418.73 83.54 0.57 c p3
418.70 86.74 0.57 c p3
418.67 83.54 0.57 c p3
418.63 86.74 0.57 c p3
418.60 94.48 0.57 c p3
418.57 86.74 0.57 c p3
418.50 86.74 0.57 c p3
418.47 83.54 0.57 c p3
418.43 83.54 0.57 c p3
418.40 89.01 0.57 c p3
418.36 78.07 0.57 c p3
418.33 86.74 0.57 c p3
418.29 93.43 0.57 c p3
418.26 96.24 0.57 c p3
418.22 89.01 0.57 c p3
418.19 94.48 0.57 c p3
418.15 86.74 0.57 c p3
418.12 83.54 0.57 c p3
418.08 86.74 0.57 c p3
418.05 92.21 0.57 c p3
418.01 83.54 0.57 c p3
417.97 78.07 0.57 c p3
417.94 83.54 0.57 c p3
417.90 90.77 0.57 c p3
417.86 90.77 0.57 c p3
417.83 83.54 0.57 c p3
417.79 89.01 0.57 c p3
417.75 92.21 0.57 c p3
417.72 89.01 0.57 c p3
417.68 86.74 0.57 c p3
417.64 86.74 0.57 c p3
417.60 94.48 0.57 c p3
417.56 89.01 0.57 c p3
417.52 89.01 0.57 c p3
417.48 94.48 0.57 c p3
417.45 78.07 0.57 c p3
417.41 93.43 0.57 c p3
417.37 89.01 0.57 c p3
417.33 78.07 0.57 c p3
417.29 83.54 0.57 c p3
417.25 96.99 0.57 c p3
417.21 90.77 0.57 c p3
417.16 93.43 0.57 c p3
417.12 92.21 0.57 c p3
417.08 83.54 0.57 c p3
417.04 92.21 0.57 c p3
417.00 93.43 0.57 c p3
416.96 92.21 0.57 c p3
416.91 86.74 0.57 c p3
416.87 90.77 0.57 c p3
416.83 92.21 0.57 c p3
416.79 94.48 0.57 c p3
416.74 86.74 0.57 c p3
416.70 90.77 0.57 c p3
416.66 93.43 0.57 c p3
416.61 89.01 0.57 c p3
416.57 96.24 0.57 c p3
416.52 94.48 0.57 c p3
416.48 86.74 0.57 c p3
416.43 95.41 0.57 c p3
416.39 90.77 0.57 c p3
416.34 95.41 0.57 c p3
416.29 89.01 0.57 c p3
416.25 89.01 0.57 c p3
416.20 93.43 0.57 c p3
416.15 78.07 0.57 c p3
416.11 92.21 0.57 c p3
416.06 93.43 0.57 c p3
416.01 92.21 0.57 c p3
415.96 94.48 0.57 c p3
415.91 90.77 0.57 c p3
415.86 90.77 0.57 c p3
415.81 92.21 0.57 c p3
415.76 93.43 0.57 c p3
415.71 86.74 0.57 c p3
415.66 92.21 0.57 c p3
415.61 90.77 0.57 c p3
415.56 86.74 0.57 c p3
415.51 92.21 0.57 c p3
415.46 97.68 0.57 c p3
415.40 92.21 0.57 c p3
415.35 96.24 0.57 c p3
415.30 90.77 0.57 c p3
415.24 93.43 0.57 c p3
415.19 86.74 0.57 c p3
415.13 92.21 0.57 c p3
415.08 92.21 0.57 c p3
415.02 95.41 0.57 c p3
414.97 95.41 0.57 c p3
414.91 90.77 0.57 c p3
414.85 92.21 0.57 c p3
414.80 83.54 0.57 c p3
414.74 83.54 0.57 c p3
414.68 95.41 0.57 c p3
414.62 92.21 0.57 c p3
414.56 99.44 0.57 c p3
414.50 96.24 0.57 c p3
414.44 97.68 0.57 c p3
414.38 90.77 0.57 c p3
414.32 96.99 0.57 c p3
414.26 97.68 0.57 c p3
414.20 89.01 0.57 c p3
414.13 93.43 0.57 c p3
414.07 100.88 0.57 c p3
414.00 96.24 0.57 c p3
413.94 96.99 0.57 c p3
413.87 97.68 0.57 c p3
413.81 96.24 0.57 c p3
413.74 96.99 0.57 c p3
413.67 98.90 0.57 c p3
413.61 95.41 0.57 c p3
413.54 98.31 0.57 c p3
413.47 99.44 0.57 c p3
413.40 90.77 0.57 c p3
413.33 96.24 0.57 c p3
413.25 96.24 0.57 c p3
413.18 98.31 0.57 c p3
413.11 95.41 0.57 c p3
413.04 96.99 0.57 c p3
412.96 101.71 0.57 c p3
412.88 97.68 0.57 c p3
412.81 94.48 0.57 c p3
412.73 95.41 0.57 c p3
412.65 99.44 0.57 c p3
412.57 100.43 0.57 c p3
412.49 96.99 0.57 c p3
412.41 98.31 0.57 c p3
412.33 99.95 0.57 c p3
412.25 98.31 0.57 c p3
412.16 98.31 0.57 c p3
412.08 98.90 0.57 c p3
411.99 101.31 0.57 c p3
411.91 102.10 0.57 c p3
411.82 100.43 0.57 c p3
411.73 97.68 0.57 c p3
411.64 100.43 0.57 c p3
411.55 101.31 0.57 c p3
411.46 96.24 0.57 c p3
411.36 102.10 0.57 c p3
411.27 102.10 0.57 c p3
411.17 99.95 0.57 c p3
411.07 98.31 0.57 c p3
410.97 102.10 0.57 c p3
410.87 102.10 0.57 c p3
410.77 101.31 0.57 c p3
410.66 101.71 0.57 c p3
410.56 101.71 0.57 c p3
410.45 98.31 0.57 c p3
410.34 101.31 0.57 c p3
410.23 99.44 0.57 c p3
410.12 105.66 0.57 c p3
410.01 100.88 0.57 c p3
409.89 104.64 0.57 c p3
409.77 101.71 0.57 c p3
409.65 103.78 0.57 c p3
409.53 103.47 0.57 c p3
409.40 99.44 0.57 c p3
409.28 102.46 0.57 c p3
409.15 105.17 0.57 c p3
409.02 103.15 0.57 c p3
408.88 102.81 0.57 c p3
408.74 105.17 0.57 c p3
408.61 103.78 0.57 c p3
408.46 106.56 0.57 c p3
408.32 107.93 0.57 c p3
408.17 107.56 0.57 c p3
408.02 109.25 0.57 c p3
407.86 107.37 0.57 c p3
407.70 108.45 0.57 c p3
407.54 108.28 0.57 c p3
407.37 108.62 0.57 c p3
407.20 106.56 0.57 c p3
407.03 107.75 0.57 c p3
406.85 109.69 0.57 c p3
406.66 110.11 0.57 c p3
406.47 108.94 0.57 c p3
406.28 111.71 0.57 c p3
406.08 108.94 0.57 c p3
405.87 110.51 0.57 c p3
405.66 110.89 0.57 c p3
405.44 109.10 0.57 c p3
405.21 110.89 0.57 c p3
404.98 110.51 0.57 c p3
404.74 111.82 0.57 c p3
404.48 113.75 0.57 c p3
404.22 113.13 0.57 c p3
403.95 114.64 0.57 c p3
403.67 115.51 0.57 c p3
403.38 114.09 0.57 c p3
403.07 116.04 0.57 c p3
402.75 117.12 0.57 c p3
402.41 117.12 0.57 c p3
402.06 118.12 0.57 c p3
401.68 118.55 0.57 c p3
401.29 119.18 0.57 c p3
400.87 119.13 0.57 c p3
400.42 120.41 0.57 c p3
399.94 120.88 0.57 c p3
399.43 123.02 0.57 c p3
398.88 123.02 0.57 c p3
398.28 124.45 0.57 c p3
397.62 126.13 0.57 c p3
396.89 127.04 0.57 c p3
396.07 127.90 0.57 c p3
395.15 129.69 0.57 c p3
394.09 131.06 0.57 c p3
392.83 133.37 0.57 c p3
391.28 136.04 0.57 c p3
389.29 139.73 0.57 c p3
386.49 144.26 0.57 c p3
381.70 151.71 0.57 c p3
0.4980 0.4980 0.4980 srgb
1.07 setlinewidth
[] 0 setdash
377.01 54.56 103.16 103.16 r p1
0.00 0.00 595.28 198.43 cl
486.14 54.56 589.30 157.71 cl
/bg { 1 1 1 srgb } def
486.14 54.56 103.16 103.16 r p2
0.9804 0.9804 0.9804 srgb
1.07 setlinewidth
[] 0 setdash
0 setlinecap
1 setlinejoin
10.00 setmiterlimit
np
486.14 68.67 m
103.16 0 l
o
np
486.14 105.00 m
103.16 0 l
o
np
486.14 141.34 m
103.16 0 l
o
np
490.83 54.56 m
0 103.15 l
o
np
522.67 54.56 m
0 103.15 l
o
np
554.51 54.56 m
0 103.15 l
o
np
586.35 54.56 m
0 103.15 l
o
0.8980 0.8980 0.8980 srgb
0.43 setlinewidth
[] 0 setdash
np
486.14 86.84 m
103.16 0 l
o
np
486.14 123.17 m
103.16 0 l
o
np
506.75 54.56 m
0 103.15 l
o
np
538.59 54.56 m
0 103.15 l
o
np
570.43 54.56 m
0 103.15 l
o
/bg { 0 0 0 srgb } def
0 0 0 srgb
0.71 setlinewidth
[] 0 setdash
1 setlinecap
584.61 59.25 0.57 c p3
554.92 59.25 0.57 c p3
552.88 59.25 0.57 c p3
551.13 59.25 0.57 c p3
550.49 59.25 0.57 c p3
550.30 59.25 0.57 c p3
549.79 59.25 0.57 c p3
549.35 59.25 0.57 c p3
548.58 59.25 0.57 c p3
548.53 59.25 0.57 c p3
548.27 59.25 0.57 c p3
547.37 59.25 0.57 c p3
547.17 59.25 0.57 c p3
547.10 59.25 0.57 c p3
547.04 59.25 0.57 c p3
546.97 59.25 0.57 c p3
546.21 59.25 0.57 c p3
546.21 59.25 0.57 c p3
545.55 59.25 0.57 c p3
545.47 59.25 0.57 c p3
545.32 59.25 0.57 c p3
545.04 59.25 0.57 c p3
544.92 59.25 0.57 c p3
544.43 59.25 0.57 c p3
544.38 59.25 0.57 c p3
543.91 59.25 0.57 c p3
543.45 59.25 0.57 c p3
543.36 59.25 0.57 c p3
543.20 59.25 0.57 c p3
543.12 59.25 0.57 c p3
542.97 59.25 0.57 c p3
542.82 59.25 0.57 c p3
542.65 59.25 0.57 c p3
542.59 59.25 0.57 c p3
542.50 59.25 0.57 c p3
542.45 59.25 0.57 c p3
542.40 59.25 0.57 c p3
542.37 59.25 0.57 c p3
542.35 59.25 0.57 c p3
542.25 59.25 0.57 c p3
542.23 59.25 0.57 c p3
542.12 59.25 0.57 c p3
542.12 59.25 0.57 c p3
542.07 59.25 0.57 c p3
542.05 59.25 0.57 c p3
541.95 59.25 0.57 c p3
541.94 59.25 0.57 c p3
541.93 59.25 0.57 c p3
541.92 59.25 0.57 c p3
541.83 59.25 0.57 c p3
541.83 59.25 0.57 c p3
541.71 64.72 0.57 c p3
541.69 59.25 0.57 c p3
541.64 59.25 0.57 c p3
541.57 59.25 0.57 c p3
541.34 59.25 0.57 c p3
541.28 59.25 0.57 c p3
541.23 59.25 0.57 c p3
541.13 64.72 0.57 c p3
541.06 59.25 0.57 c p3
541.05 59.25 0.57 c p3
541.00 59.25 0.57 c p3
540.92 59.25 0.57 c p3
540.86 59.25 0.57 c p3
540.77 59.25 0.57 c p3
540.75 59.25 0.57 c p3
540.68 59.25 0.57 c p3
540.65 59.25 0.57 c p3
540.63 59.25 0.57 c p3
540.56 59.25 0.57 c p3
540.55 59.25 0.57 c p3
540.53 59.25 0.57 c p3
540.46 59.25 0.57 c p3
540.45 59.25 0.57 c p3
540.43 59.25 0.57 c p3
540.40 59.25 0.57 c p3
540.36 59.25 0.57 c p3
540.35 59.25 0.57 c p3
540.30 59.25 0.57 c p3
540.28 59.25 0.57 c p3
540.23 64.72 0.57 c p3
540.17 59.25 0.57 c p3
540.12 59.25 0.57 c p3
540.05 59.25 0.57 c p3
540.03 59.25 0.57 c p3
539.96 59.25 0.57 c p3
539.95 64.72 0.57 c p3
539.94 59.25 0.57 c p3
539.83 59.25 0.57 c p3
539.78 59.25 0.57 c p3
539.75 59.25 0.57 c p3
539.72 67.92 0.57 c p3
539.71 59.25 0.57 c p3
539.69 59.25 0.57 c p3
539.65 59.25 0.57 c p3
539.65 64.72 0.57 c p3
539.63 59.25 0.57 c p3
539.62 59.25 0.57 c p3
539.60 59.25 0.57 c p3
539.58 59.25 0.57 c p3
539.51 59.25 0.57 c p3
539.49 59.25 0.57 c p3
539.47 59.25 0.57 c p3
539.46 59.25 0.57 c p3
539.45 59.25 0.57 c p3
539.45 59.25 0.57 c p3
539.44 59.25 0.57 c p3
539.43 59.25 0.57 c p3
539.38 59.25 0.57 c p3
539.37 59.25 0.57 c p3
539.28 59.25 0.57 c p3
539.27 59.25 0.57 c p3
539.25 59.25 0.57 c p3
539.24 59.25 0.57 c p3
539.23 59.25 0.57 c p3
539.21 59.25 0.57 c p3
539.17 59.25 0.57 c p3
539.15 59.25 0.57 c p3
539.10 64.72 0.57 c p3
539.06 59.25 0.57 c p3
539.02 59.25 0.57 c p3
538.97 59.25 0.57 c p3
538.95 59.25 0.57 c p3
538.95 59.25 0.57 c p3
538.93 59.25 0.57 c p3
538.80 59.25 0.57 c p3
538.73 59.25 0.57 c p3
538.73 59.25 0.57 c p3
538.72 59.25 0.57 c p3
538.66 59.25 0.57 c p3
538.60 59.25 0.57 c p3
538.58 59.25 0.57 c p3
538.54 59.25 0.57 c p3
538.51 64.72 0.57 c p3
538.46 64.72 0.57 c p3
538.45 59.25 0.57 c p3
538.44 67.92 0.57 c p3
538.41 59.25 0.57 c p3
538.39 59.25 0.57 c p3
538.37 59.25 0.57 c p3
538.36 59.25 0.57 c p3
538.36 59.25 0.57 c p3
538.34 59.25 0.57 c p3
538.29 59.25 0.57 c p3
538.28 59.25 0.57 c p3
538.26 59.25 0.57 c p3
538.23 64.72 0.57 c p3
538.23 59.25 0.57 c p3
538.21 59.25 0.57 c p3
538.18 59.25 0.57 c p3
538.16 59.25 0.57 c p3
538.15 59.25 0.57 c p3
538.12 64.72 0.57 c p3
538.05 59.25 0.57 c p3
538.02 59.25 0.57 c p3
538.01 64.72 0.57 c p3
537.98 59.25 0.57 c p3
537.98 70.19 0.57 c p3
537.97 59.25 0.57 c p3
537.91 59.25 0.57 c p3
537.89 59.25 0.57 c p3
537.85 59.25 0.57 c p3
537.85 59.25 0.57 c p3
537.81 64.72 0.57 c p3
537.78 59.25 0.57 c p3
537.77 59.25 0.57 c p3
537.75 59.25 0.57 c p3
537.67 59.25 0.57 c p3
537.66 59.25 0.57 c p3
537.65 64.72 0.57 c p3
537.62 64.72 0.57 c p3
537.56 59.25 0.57 c p3
537.53 59.25 0.57 c p3
537.52 59.25 0.57 c p3
537.51 59.25 0.57 c p3
537.51 59.25 0.57 c p3
537.50 59.25 0.57 c p3
537.47 59.25 0.57 c p3
537.43 59.25 0.57 c p3
537.38 59.25 0.57 c p3
537.37 59.25 0.57 c p3
537.33 59.25 0.57 c p3
537.32 59.25 0.57 c p3
537.31 59.25 0.57 c p3
537.28 59.25 0.57 c p3
537.21 59.25 0.57 c p3
537.19 59.25 0.57 c p3
537.17 64.72 0.57 c p3
537.08 59.25 0.57 c p3
537.06 59.25 0.57 c p3
537.01 64.72 0.57 c p3
537.00 59.25 0.57 c p3
536.99 59.25 0.57 c p3
536.99 59.25 0.57 c p3
536.96 59.25 0.57 c p3
536.94 59.25 0.57 c p3
536.92 59.25 0.57 c p3
536.92 59.25 0.57 c p3
536.88 59.25 0.57 c p3
536.86 59.25 0.57 c p3
536.85 59.25 0.57 c p3
536.84 59.25 0.57 c p3
536.83 59.25 0.57 c p3
536.80 59.25 0.57 c p3
536.79 64.72 0.57 c p3
536.78 59.25 0.57 c p3
536.76 59.25 0.57 c p3
536.68 67.92 0.57 c p3
536.66 64.72 0.57 c p3
536.66 59.25 0.57 c p3
536.65 59.25 0.57 c p3
536.63 59.25 0.57 c p3
536.61 59.25 0.57 c p3
536.59 64.72 0.57 c p3
536.58 59.25 0.57 c p3
536.53 64.72 0.57 c p3
536.50 59.25 0.57 c p3
536.49 59.25 0.57 c p3
536.48 59.25 0.57 c p3
536.46 59.25 0.57 c p3
536.45 59.25 0.57 c p3
536.43 59.25 0.57 c p3
536.42 64.72 0.57 c p3
536.41 67.92 0.57 c p3
536.39 64.72 0.57 c p3
536.37 59.25 0.57 c p3
536.33 59.25 0.57 c p3
536.31 64.72 0.57 c p3
536.29 67.92 0.57 c p3
536.27 59.25 0.57 c p3
536.26 64.72 0.57 c p3
536.23 59.25 0.57 c p3
536.22 59.25 0.57 c p3
536.18 64.72 0.57 c p3
536.15 64.72 0.57 c p3
536.11 59.25 0.57 c p3
536.10 59.25 0.57 c p3
536.05 59.25 0.57 c p3
536.03 59.25 0.57 c p3
536.00 64.72 0.57 c p3
535.98 59.25 0.57 c p3
535.97 59.25 0.57 c p3
535.96 59.25 0.57 c p3
535.94 59.25 0.57 c p3
535.93 59.25 0.57 c p3
535.90 59.25 0.57 c p3
535.88 59.25 0.57 c p3
535.86 59.25 0.57 c p3
535.85 59.25 0.57 c p3
535.83 59.25 0.57 c p3
535.81 59.25 0.57 c p3
535.79 59.25 0.57 c p3
535.75 64.72 0.57 c p3
535.74 64.72 0.57 c p3
535.72 59.25 0.57 c p3
535.71 64.72 0.57 c p3
535.70 64.72 0.57 c p3
535.65 64.72 0.57 c p3
535.64 59.25 0.57 c p3
535.62 59.25 0.57 c p3
535.59 59.25 0.57 c p3
535.55 59.25 0.57 c p3
535.54 59.25 0.57 c p3
535.51 59.25 0.57 c p3
535.49 59.25 0.57 c p3
535.48 64.72 0.57 c p3
535.44 59.25 0.57 c p3
535.43 59.25 0.57 c p3
535.42 59.25 0.57 c p3
535.34 64.72 0.57 c p3
535.28 67.92 0.57 c p3
535.27 59.25 0.57 c p3
535.25 59.25 0.57 c p3
535.23 64.72 0.57 c p3
535.22 59.25 0.57 c p3
535.21 59.25 0.57 c p3
535.18 67.92 0.57 c p3
535.16 59.25 0.57 c p3
535.15 59.25 0.57 c p3
535.14 64.72 0.57 c p3
535.13 64.72 0.57 c p3
535.06 59.25 0.57 c p3
535.05 59.25 0.57 c p3
535.02 59.25 0.57 c p3
535.00 64.72 0.57 c p3
534.99 67.92 0.57 c p3
534.96 59.25 0.57 c p3
534.94 64.72 0.57 c p3
534.92 59.25 0.57 c p3
534.91 64.72 0.57 c p3
534.89 59.25 0.57 c p3
534.88 59.25 0.57 c p3
534.87 59.25 0.57 c p3
534.86 59.25 0.57 c p3
534.85 59.25 0.57 c p3
534.82 64.72 0.57 c p3
534.81 59.25 0.57 c p3
534.80 59.25 0.57 c p3
534.79 59.25 0.57 c p3
534.76 59.25 0.57 c p3
534.75 59.25 0.57 c p3
534.73 59.25 0.57 c p3
534.68 67.92 0.57 c p3
534.65 59.25 0.57 c p3
534.64 59.25 0.57 c p3
534.63 59.25 0.57 c p3
534.61 59.25 0.57 c p3
534.59 64.72 0.57 c p3
534.58 67.92 0.57 c p3
534.57 64.72 0.57 c p3
534.54 59.25 0.57 c p3
534.52 59.25 0.57 c p3
534.51 59.25 0.57 c p3
534.48 59.25 0.57 c p3
534.47 59.25 0.57 c p3
534.46 59.25 0.57 c p3
534.43 71.95 0.57 c p3
534.39 59.25 0.57 c p3
534.38 59.25 0.57 c p3
534.35 59.25 0.57 c p3
534.34 64.72 0.57 c p3
534.33 59.25 0.57 c p3
534.30 64.72 0.57 c p3
534.28 70.19 0.57 c p3
534.25 59.25 0.57 c p3
534.21 64.72 0.57 c p3
534.19 64.72 0.57 c p3
534.13 59.25 0.57 c p3
534.11 59.25 0.57 c p3
534.08 59.25 0.57 c p3
534.07 59.25 0.57 c p3
534.05 59.25 0.57 c p3
534.04 59.25 0.57 c p3
534.03 59.25 0.57 c p3
534.01 59.25 0.57 c p3
533.97 64.72 0.57 c p3
533.96 59.25 0.57 c p3
533.95 59.25 0.57 c p3
533.92 59.25 0.57 c p3
533.91 59.25 0.57 c p3
533.89 59.25 0.57 c p3
533.88 67.92 0.57 c p3
533.81 67.92 0.57 c p3
533.80 59.25 0.57 c p3
533.78 64.72 0.57 c p3
533.77 64.72 0.57 c p3
533.74 71.95 0.57 c p3
533.71 64.72 0.57 c p3
533.70 64.72 0.57 c p3
533.67 59.25 0.57 c p3
533.66 67.92 0.57 c p3
533.64 64.72 0.57 c p3
533.63 67.92 0.57 c p3
533.61 59.25 0.57 c p3
533.60 59.25 0.57 c p3
533.59 59.25 0.57 c p3
533.57 59.25 0.57 c p3
533.56 59.25 0.57 c p3
533.53 64.72 0.57 c p3
533.51 64.72 0.57 c p3
533.50 64.72 0.57 c p3
533.47 64.72 0.57 c p3
533.46 70.19 0.57 c p3
533.43 73.38 0.57 c p3
533.40 59.25 0.57 c p3
533.37 64.72 0.57 c p3
533.35 73.38 0.57 c p3
533.33 59.25 0.57 c p3
533.31 67.92 0.57 c p3
533.30 73.38 0.57 c p3
533.28 59.25 0.57 c p3
533.27 70.19 0.57 c p3
533.25 59.25 0.57 c p3
533.24 64.72 0.57 c p3
533.22 59.25 0.57 c p3
533.21 64.72 0.57 c p3
533.18 70.19 0.57 c p3
533.15 59.25 0.57 c p3
533.11 70.19 0.57 c p3
533.10 59.25 0.57 c p3
533.08 64.72 0.57 c p3
533.07 59.25 0.57 c p3
533.05 64.72 0.57 c p3
533.04 70.19 0.57 c p3
533.02 64.72 0.57 c p3
532.99 64.72 0.57 c p3
532.98 64.72 0.57 c p3
532.94 59.25 0.57 c p3
532.91 59.25 0.57 c p3
532.90 59.25 0.57 c p3
532.88 59.25 0.57 c p3
532.87 64.72 0.57 c p3
532.85 59.25 0.57 c p3
532.83 59.25 0.57 c p3
532.82 59.25 0.57 c p3
532.80 67.92 0.57 c p3
532.79 64.72 0.57 c p3
532.75 64.72 0.57 c p3
532.74 59.25 0.57 c p3
532.72 64.72 0.57 c p3
532.69 64.72 0.57 c p3
532.67 67.92 0.57 c p3
532.66 67.92 0.57 c p3
532.64 71.95 0.57 c p3
532.62 73.38 0.57 c p3
532.56 67.92 0.57 c p3
532.54 64.72 0.57 c p3
532.53 64.72 0.57 c p3
532.51 64.72 0.57 c p3
532.49 67.92 0.57 c p3
532.48 70.19 0.57 c p3
532.46 67.92 0.57 c p3
532.44 64.72 0.57 c p3
532.43 67.92 0.57 c p3
532.41 59.25 0.57 c p3
532.39 64.72 0.57 c p3
532.37 59.25 0.57 c p3
532.36 64.72 0.57 c p3
532.34 59.25 0.57 c p3
532.32 59.25 0.57 c p3
532.31 64.72 0.57 c p3
532.27 67.92 0.57 c p3
532.24 59.25 0.57 c p3
532.22 59.25 0.57 c p3
532.20 59.25 0.57 c p3
532.17 67.92 0.57 c p3
532.15 70.19 0.57 c p3
532.13 70.19 0.57 c p3
532.11 59.25 0.57 c p3
532.10 70.19 0.57 c p3
532.08 70.19 0.57 c p3
532.06 64.72 0.57 c p3
532.04 59.25 0.57 c p3
532.03 64.72 0.57 c p3
532.01 70.19 0.57 c p3
531.99 67.92 0.57 c p3
531.97 67.92 0.57 c p3
531.95 70.19 0.57 c p3
531.94 71.95 0.57 c p3
531.92 59.25 0.57 c p3
531.90 64.72 0.57 c p3
531.88 67.92 0.57 c p3
531.86 67.92 0.57 c p3
531.84 59.25 0.57 c p3
531.83 59.25 0.57 c p3
531.81 64.72 0.57 c p3
531.79 70.19 0.57 c p3
531.77 70.19 0.57 c p3
531.73 59.25 0.57 c p3
531.72 67.92 0.57 c p3
531.70 73.38 0.57 c p3
531.68 67.92 0.57 c p3
531.66 73.38 0.57 c p3
531.64 64.72 0.57 c p3
531.60 59.25 0.57 c p3
531.58 71.95 0.57 c p3
531.56 64.72 0.57 c p3
531.55 64.72 0.57 c p3
531.53 59.25 0.57 c p3
531.51 64.72 0.57 c p3
531.49 67.92 0.57 c p3
531.47 71.95 0.57 c p3
531.45 71.95 0.57 c p3
531.43 67.92 0.57 c p3
531.41 64.72 0.57 c p3
531.39 75.65 0.57 c p3
531.37 59.25 0.57 c p3
531.35 64.72 0.57 c p3
531.33 64.72 0.57 c p3
531.31 67.92 0.57 c p3
531.29 67.92 0.57 c p3
531.27 70.19 0.57 c p3
531.25 67.92 0.57 c p3
531.23 67.92 0.57 c p3
531.19 67.92 0.57 c p3
531.17 67.92 0.57 c p3
531.15 64.72 0.57 c p3
531.13 67.92 0.57 c p3
531.11 71.95 0.57 c p3
531.09 64.72 0.57 c p3
531.07 73.38 0.57 c p3
531.05 64.72 0.57 c p3
531.03 59.25 0.57 c p3
531.01 67.92 0.57 c p3
530.99 64.72 0.57 c p3
530.97 64.72 0.57 c p3
530.95 67.92 0.57 c p3
530.92 64.72 0.57 c p3
530.90 71.95 0.57 c p3
530.88 70.19 0.57 c p3
530.86 64.72 0.57 c p3
530.84 71.95 0.57 c p3
530.82 70.19 0.57 c p3
530.80 64.72 0.57 c p3
530.78 64.72 0.57 c p3
530.75 70.19 0.57 c p3
530.73 59.25 0.57 c p3
530.71 67.92 0.57 c p3
530.69 70.19 0.57 c p3
530.67 64.72 0.57 c p3
530.65 67.92 0.57 c p3
530.62 67.92 0.57 c p3
530.60 59.25 0.57 c p3
530.58 67.92 0.57 c p3
530.56 64.72 0.57 c p3
530.54 71.95 0.57 c p3
530.51 70.19 0.57 c p3
530.49 64.72 0.57 c p3
530.47 67.92 0.57 c p3
530.45 59.25 0.57 c p3
530.42 64.72 0.57 c p3
530.40 71.95 0.57 c p3
530.38 67.92 0.57 c p3
530.36 71.95 0.57 c p3
530.33 64.72 0.57 c p3
530.31 71.95 0.57 c p3
530.29 71.95 0.57 c p3
530.27 71.95 0.57 c p3
530.24 64.72 0.57 c p3
530.22 70.19 0.57 c p3
530.20 67.92 0.57 c p3
530.17 67.92 0.57 c p3
530.15 70.19 0.57 c p3
530.13 73.38 0.57 c p3
530.10 67.92 0.57 c p3
530.08 70.19 0.57 c p3
530.05 73.38 0.57 c p3
530.03 73.38 0.57 c p3
530.01 71.95 0.57 c p3
529.98 74.60 0.57 c p3
529.96 71.95 0.57 c p3
529.94 70.19 0.57 c p3
529.91 70.19 0.57 c p3
529.89 67.92 0.57 c p3
529.86 67.92 0.57 c p3
529.84 70.19 0.57 c p3
529.81 70.19 0.57 c p3
529.79 70.19 0.57 c p3
529.76 71.95 0.57 c p3
529.74 70.19 0.57 c p3
529.71 70.19 0.57 c p3
529.69 70.19 0.57 c p3
529.66 67.92 0.57 c p3
529.64 74.60 0.57 c p3
529.61 70.19 0.57 c p3
529.59 74.60 0.57 c p3
529.56 71.95 0.57 c p3
529.54 67.92 0.57 c p3
529.51 67.92 0.57 c p3
529.49 70.19 0.57 c p3
529.46 73.38 0.57 c p3
529.43 73.38 0.57 c p3
529.41 64.72 0.57 c p3
529.38 77.42 0.57 c p3
529.36 70.19 0.57 c p3
529.33 71.95 0.57 c p3
529.30 67.92 0.57 c p3
529.28 73.38 0.57 c p3
529.25 70.19 0.57 c p3
529.22 74.60 0.57 c p3
529.20 74.60 0.57 c p3
529.17 74.60 0.57 c p3
529.14 67.92 0.57 c p3
529.11 73.38 0.57 c p3
529.09 70.19 0.57 c p3
529.06 70.19 0.57 c p3
529.03 74.60 0.57 c p3
529.00 67.92 0.57 c p3
528.98 70.19 0.57 c p3
528.95 75.65 0.57 c p3
528.92 73.38 0.57 c p3
528.89 71.95 0.57 c p3
528.87 75.65 0.57 c p3
528.84 67.92 0.57 c p3
528.81 77.42 0.57 c p3
528.78 75.65 0.57 c p3
528.75 76.58 0.57 c p3
528.72 73.38 0.57 c p3
528.69 73.38 0.57 c p3
528.66 70.19 0.57 c p3
528.64 73.38 0.57 c p3
528.61 73.38 0.57 c p3
528.58 74.60 0.57 c p3
528.55 75.65 0.57 c p3
528.52 73.38 0.57 c p3
528.49 77.42 0.57 c p3
528.46 74.60 0.57 c p3
528.43 73.38 0.57 c p3
528.40 75.65 0.57 c p3
528.37 77.42 0.57 c p3
528.34 64.72 0.57 c p3
528.31 73.38 0.57 c p3
528.28 78.85 0.57 c p3
528.25 71.95 0.57 c p3
528.21 70.19 0.57 c p3
528.18 76.58 0.57 c p3
528.15 76.58 0.57 c p3
528.12 78.17 0.57 c p3
528.09 74.60 0.57 c p3
528.06 79.49 0.57 c p3
528.03 67.92 0.57 c p3
527.99 78.85 0.57 c p3
527.96 76.58 0.57 c p3
527.93 78.17 0.57 c p3
527.90 80.61 0.57 c p3
527.87 67.92 0.57 c p3
527.83 71.95 0.57 c p3
527.80 74.60 0.57 c p3
527.77 78.85 0.57 c p3
527.73 74.60 0.57 c p3
527.70 76.58 0.57 c p3
527.67 80.07 0.57 c p3
527.63 78.17 0.57 c p3
527.60 73.38 0.57 c p3
527.57 77.42 0.57 c p3
527.53 75.65 0.57 c p3
527.50 77.42 0.57 c p3
527.46 80.61 0.57 c p3
527.43 78.85 0.57 c p3
527.39 77.42 0.57 c p3
527.36 75.65 0.57 c p3
527.32 78.85 0.57 c p3
527.29 79.49 0.57 c p3
527.25 80.07 0.57 c p3
527.22 81.12 0.57 c p3
527.18 78.85 0.57 c p3
527.14 80.07 0.57 c p3
527.11 74.60 0.57 c p3
527.07 73.38 0.57 c p3
527.03 78.17 0.57 c p3
527.00 77.42 0.57 c p3
526.96 73.38 0.57 c p3
526.92 75.65 0.57 c p3
526.89 79.49 0.57 c p3
526.85 79.49 0.57 c p3
526.81 78.17 0.57 c p3
526.77 77.42 0.57 c p3
526.73 73.38 0.57 c p3
526.70 80.61 0.57 c p3
526.66 78.17 0.57 c p3
526.62 78.85 0.57 c p3
526.58 81.60 0.57 c p3
526.54 79.49 0.57 c p3
526.50 80.07 0.57 c p3
526.46 78.85 0.57 c p3
526.42 82.05 0.57 c p3
526.38 75.65 0.57 c p3
526.34 82.48 0.57 c p3
526.30 81.12 0.57 c p3
526.26 77.42 0.57 c p3
526.22 78.17 0.57 c p3
526.17 78.17 0.57 c p3
526.13 76.58 0.57 c p3
526.09 80.61 0.57 c p3
526.05 81.60 0.57 c p3
526.01 79.49 0.57 c p3
525.96 75.65 0.57 c p3
525.92 81.12 0.57 c p3
525.88 81.12 0.57 c p3
525.83 84.64 0.57 c p3
525.79 82.88 0.57 c p3
525.74 81.60 0.57 c p3
525.70 80.07 0.57 c p3
525.66 83.64 0.57 c p3
525.61 83.99 0.57 c p3
525.56 81.12 0.57 c p3
525.52 83.27 0.57 c p3
525.47 83.27 0.57 c p3
525.43 83.27 0.57 c p3
525.38 80.61 0.57 c p3
525.33 83.64 0.57 c p3
525.29 83.27 0.57 c p3
525.24 83.64 0.57 c p3
525.19 85.25 0.57 c p3
525.14 82.88 0.57 c p3
525.09 82.48 0.57 c p3
525.05 82.48 0.57 c p3
525.00 84.64 0.57 c p3
524.95 85.54 0.57 c p3
524.90 83.64 0.57 c p3
524.85 85.54 0.57 c p3
524.80 85.54 0.57 c p3
524.74 82.88 0.57 c p3
524.69 82.88 0.57 c p3
524.64 85.54 0.57 c p3
524.59 86.08 0.57 c p3
524.54 84.64 0.57 c p3
524.48 81.60 0.57 c p3
524.43 85.54 0.57 c p3
524.38 81.12 0.57 c p3
524.32 86.08 0.57 c p3
524.27 84.64 0.57 c p3
524.21 84.64 0.57 c p3
524.16 84.32 0.57 c p3
524.10 84.95 0.57 c p3
524.04 87.74 0.57 c p3
523.99 84.95 0.57 c p3
523.93 83.64 0.57 c p3
523.87 86.59 0.57 c p3
523.81 87.74 0.57 c p3
523.76 83.64 0.57 c p3
523.70 85.54 0.57 c p3
523.64 88.74 0.57 c p3
523.58 87.07 0.57 c p3
523.51 87.95 0.57 c p3
523.45 85.25 0.57 c p3
523.39 88.74 0.57 c p3
523.33 89.28 0.57 c p3
523.27 87.74 0.57 c p3
523.20 87.95 0.57 c p3
523.14 87.07 0.57 c p3
523.07 89.95 0.57 c p3
523.01 90.11 0.57 c p3
522.94 88.74 0.57 c p3
522.87 87.52 0.57 c p3
522.81 89.95 0.57 c p3
522.74 88.55 0.57 c p3
522.67 89.46 0.57 c p3
522.60 89.79 0.57 c p3
522.53 91.68 0.57 c p3
522.46 89.79 0.57 c p3
522.39 91.68 0.57 c p3
522.32 92.18 0.57 c p3
522.24 90.57 0.57 c p3
522.17 90.11 0.57 c p3
522.09 90.72 0.57 c p3
522.02 92.18 0.57 c p3
521.94 90.57 0.57 c p3
521.86 91.28 0.57 c p3
521.79 92.30 0.57 c p3
521.71 89.63 0.57 c p3
521.63 91.68 0.57 c p3
521.55 91.94 0.57 c p3
521.46 93.72 0.57 c p3
521.38 90.11 0.57 c p3
521.30 93.62 0.57 c p3
521.21 92.65 0.57 c p3
521.13 92.42 0.57 c p3
521.04 92.18 0.57 c p3
520.95 95.09 0.57 c p3
520.86 92.99 0.57 c p3
520.77 94.66 0.57 c p3
520.68 93.21 0.57 c p3
520.59 95.18 0.57 c p3
520.49 94.11 0.57 c p3
520.40 94.57 0.57 c p3
520.30 94.92 0.57 c p3
520.20 95.18 0.57 c p3
520.10 95.66 0.57 c p3
520.00 97.02 0.57 c p3
519.90 95.89 0.57 c p3
519.80 95.97 0.57 c p3
519.69 96.75 0.57 c p3
519.58 97.41 0.57 c p3
519.48 97.77 0.57 c p3
519.37 96.41 0.57 c p3
519.25 96.62 0.57 c p3
519.14 98.99 0.57 c p3
519.02 98.94 0.57 c p3
518.90 98.24 0.57 c p3
518.78 98.73 0.57 c p3
518.66 97.71 0.57 c p3
518.54 98.99 0.57 c p3
518.41 99.44 0.57 c p3
518.28 99.95 0.57 c p3
518.15 100.39 0.57 c p3
518.01 100.81 0.57 c p3
517.88 100.85 0.57 c p3
517.74 100.97 0.57 c p3
517.60 101.66 0.57 c p3
517.45 101.73 0.57 c p3
517.30 102.09 0.57 c p3
517.15 101.98 0.57 c p3
516.99 102.87 0.57 c p3
516.84 103.15 0.57 c p3
516.67 102.91 0.57 c p3
516.51 103.71 0.57 c p3
516.34 103.54 0.57 c p3
516.16 104.59 0.57 c p3
515.98 105.19 0.57 c p3
515.80 104.78 0.57 c p3
515.61 106.72 0.57 c p3
515.41 106.28 0.57 c p3
515.21 107.22 0.57 c p3
515.01 108.12 0.57 c p3
514.79 107.61 0.57 c p3
514.57 108.47 0.57 c p3
514.35 108.45 0.57 c p3
514.11 108.92 0.57 c p3
513.87 110.04 0.57 c p3
513.62 110.24 0.57 c p3
513.36 110.80 0.57 c p3
513.09 111.33 0.57 c p3
512.80 111.79 0.57 c p3
512.51 112.80 0.57 c p3
512.20 113.30 0.57 c p3
511.88 114.36 0.57 c p3
511.54 114.20 0.57 c p3
511.19 115.36 0.57 c p3
510.81 116.25 0.57 c p3
510.42 117.34 0.57 c p3
510.00 118.25 0.57 c p3
509.55 118.78 0.57 c p3
509.08 119.95 0.57 c p3
508.56 120.62 0.57 c p3
508.01 122.51 0.57 c p3
507.41 123.34 0.57 c p3
506.75 124.44 0.57 c p3
506.02 126.19 0.57 c p3
505.21 127.82 0.57 c p3
504.28 129.58 0.57 c p3
503.22 131.60 0.57 c p3
501.96 133.91 0.57 c p3
500.42 136.69 0.57 c p3
498.43 140.16 0.57 c p3
495.62 144.87 0.57 c p3
490.83 153.03 0.57 c p3
0.4980 0.4980 0.4980 srgb
1.07 setlinewidth
[] 0 setdash
486.14 54.56 103.16 103.16 r p1
0.00 0.00 595.28 198.43 cl
0.00 0.00 595.28 198.43 cl
0.00 0.00 595.28 198.43 cl
0.00 0.00 595.28 198.43 cl
0.00 0.00 595.28 198.43 cl
0.00 0.00 595.28 198.43 cl
/Font1 findfont 12 s
0 0 0 srgb
21.77 81.16 (10) 0 0 t
/Font1 findfont 8 s
35.11 87.12 (-) 0 0 t
39.78 87.12 (4) 0 0 t
/Font1 findfont 12 s
21.77 117.49 (10) 0 0 t
/Font1 findfont 8 s
35.11 123.45 (-) 0 0 t
39.78 123.45 (2) 0 0 t
0.00 0.00 595.28 198.43 cl
0.00 0.00 595.28 198.43 cl
0 0 0 srgb
1.07 setlinewidth
[] 0 setdash
0 setlinecap
1 setlinejoin
10.00 setmiterlimit
np
46.62 86.84 m
2.99 0 l
o
np
46.62 123.17 m
2.99 0 l
o
0.00 0.00 595.28 198.43 cl
0.00 0.00 595.28 198.43 cl
0.00 0.00 595.28 198.43 cl
0.00 0.00 595.28 198.43 cl
0.00 0.00 595.28 198.43 cl
0.00 0.00 595.28 198.43 cl
0.00 0.00 595.28 198.43 cl
0.00 0.00 595.28 198.43 cl
0 0 0 srgb
1.07 setlinewidth
[] 0 setdash
0 setlinecap
1 setlinejoin
10.00 setmiterlimit
np
70.22 51.57 m
0 2.99 l
o
np
102.06 51.57 m
0 2.99 l
o
np
133.90 51.57 m
0 2.99 l
o
0.00 0.00 595.28 198.43 cl
0.00 0.00 595.28 198.43 cl
/Font1 findfont 12 s
0 0 0 srgb
61.32 37.59 (10) 0 0 t
/Font1 findfont 8 s
74.67 43.56 (1) 0 0 t
/Font1 findfont 12 s
93.16 37.59 (10) 0 0 t
/Font1 findfont 8 s
106.51 43.56 (3) 0 0 t
/Font1 findfont 12 s
125.00 37.71 (10) 0 0 t
/Font1 findfont 8 s
138.34 43.68 (5) 0 0 t
0.00 0.00 595.28 198.43 cl
0.00 0.00 595.28 198.43 cl
0.00 0.00 595.28 198.43 cl
0.00 0.00 595.28 198.43 cl
0.00 0.00 595.28 198.43 cl
0.00 0.00 595.28 198.43 cl
0.00 0.00 595.28 198.43 cl
0.00 0.00 595.28 198.43 cl
0 0 0 srgb
1.07 setlinewidth
[] 0 setdash
0 setlinecap
1 setlinejoin
10.00 setmiterlimit
np
179.35 51.57 m
0 2.99 l
o
np
211.19 51.57 m
0 2.99 l
o
np
243.03 51.57 m
0 2.99 l
o
0.00 0.00 595.28 198.43 cl
0.00 0.00 595.28 198.43 cl
/Font1 findfont 12 s
0 0 0 srgb
170.46 37.59 (10) 0 0 t
/Font1 findfont 8 s
183.80 43.56 (1) 0 0 t
/Font1 findfont 12 s
202.29 37.59 (10) 0 0 t
/Font1 findfont 8 s
215.64 43.56 (3) 0 0 t
/Font1 findfont 12 s
234.13 37.71 (10) 0 0 t
/Font1 findfont 8 s
247.48 43.68 (5) 0 0 t
0.00 0.00 595.28 198.43 cl
0.00 0.00 595.28 198.43 cl
0.00 0.00 595.28 198.43 cl
0.00 0.00 595.28 198.43 cl
0.00 0.00 595.28 198.43 cl
0.00 0.00 595.28 198.43 cl
0.00 0.00 595.28 198.43 cl
0.00 0.00 595.28 198.43 cl
0 0 0 srgb
1.07 setlinewidth
[] 0 setdash
0 setlinecap
1 setlinejoin
10.00 setmiterlimit
np
288.48 51.57 m
0 2.99 l
o
np
320.32 51.57 m
0 2.99 l
o
np
352.16 51.57 m
0 2.99 l
o
0.00 0.00 595.28 198.43 cl
0.00 0.00 595.28 198.43 cl
/Font1 findfont 12 s
0 0 0 srgb
279.59 37.59 (10) 0 0 t
/Font1 findfont 8 s
292.93 43.56 (1) 0 0 t
/Font1 findfont 12 s
311.43 37.59 (10) 0 0 t
/Font1 findfont 8 s
324.77 43.56 (3) 0 0 t
/Font1 findfont 12 s
343.27 37.71 (10) 0 0 t
/Font1 findfont 8 s
356.61 43.68 (5) 0 0 t
0.00 0.00 595.28 198.43 cl
0.00 0.00 595.28 198.43 cl
0.00 0.00 595.28 198.43 cl
0.00 0.00 595.28 198.43 cl
0.00 0.00 595.28 198.43 cl
0.00 0.00 595.28 198.43 cl
0.00 0.00 595.28 198.43 cl
0.00 0.00 595.28 198.43 cl
0 0 0 srgb
1.07 setlinewidth
[] 0 setdash
0 setlinecap
1 setlinejoin
10.00 setmiterlimit
np
397.62 51.57 m
0 2.99 l
o
np
429.46 51.57 m
0 2.99 l
o
np
461.29 51.57 m
0 2.99 l
o
0.00 0.00 595.28 198.43 cl
0.00 0.00 595.28 198.43 cl
/Font1 findfont 12 s
0 0 0 srgb
388.72 37.59 (10) 0 0 t
/Font1 findfont 8 s
402.07 43.56 (1) 0 0 t
/Font1 findfont 12 s
420.56 37.59 (10) 0 0 t
/Font1 findfont 8 s
433.90 43.56 (3) 0 0 t
/Font1 findfont 12 s
452.40 37.71 (10) 0 0 t
/Font1 findfont 8 s
465.74 43.68 (5) 0 0 t
0.00 0.00 595.28 198.43 cl
0.00 0.00 595.28 198.43 cl
0.00 0.00 595.28 198.43 cl
0.00 0.00 595.28 198.43 cl
0.00 0.00 595.28 198.43 cl
0.00 0.00 595.28 198.43 cl
0.00 0.00 595.28 198.43 cl
0.00 0.00 595.28 198.43 cl
0 0 0 srgb
1.07 setlinewidth
[] 0 setdash
0 setlinecap
1 setlinejoin
10.00 setmiterlimit
np
506.75 51.57 m
0 2.99 l
o
np
538.59 51.57 m
0 2.99 l
o
np
570.43 51.57 m
0 2.99 l
o
0.00 0.00 595.28 198.43 cl
0.00 0.00 595.28 198.43 cl
/Font1 findfont 12 s
0 0 0 srgb
497.85 37.59 (10) 0 0 t
/Font1 findfont 8 s
511.20 43.56 (1) 0 0 t
/Font1 findfont 12 s
529.69 37.59 (10) 0 0 t
/Font1 findfont 8 s
543.04 43.56 (3) 0 0 t
/Font1 findfont 12 s
561.53 37.71 (10) 0 0 t
/Font1 findfont 8 s
574.88 43.68 (5) 0 0 t
0.00 0.00 595.28 198.43 cl
0.00 0.00 595.28 198.43 cl
0.00 0.00 595.28 198.43 cl
0.00 0.00 595.28 198.43 cl
/Font1 findfont 12 s
0 0 0 srgb
319.45 23.97 (posts) .5 0 t
0.00 0.00 595.28 198.43 cl
0.00 0.00 595.28 198.43 cl
/Font1 findfont 12 s
0 0 0 srgb
16.98 106.14 (probability) .5 90 t
0.00 0.00 595.28 198.43 cl
0.00 0.00 595.28 198.43 cl
0.00 0.00 595.28 198.43 cl
0.00 0.00 595.28 198.43 cl
ep
%%Trailer
%%Pages: 1
%%EOF
