%!PS-Adobe-3.0 EPSF-3.0
%%DocumentNeededResources: font Helvetica
%%+ font Helvetica-Bold
%%+ font Helvetica-Oblique
%%+ font Helvetica-BoldOblique
%%+ font Symbol
%%Title: R Graphics Output
%%Creator: R Software
%%Pages: (atend)
%%BoundingBox: 0 0 595 198
%%EndComments
%%BeginProlog
/bp  { gs sRGB gs } def
% begin .ps.prolog
/gs  { gsave } bind def
/gr  { grestore } bind def
/ep  { showpage gr gr } bind def
/m   { moveto } bind def
/l  { rlineto } bind def
/np  { newpath } bind def
/cp  { closepath } bind def
/f   { fill } bind def
/o   { stroke } bind def
/c   { newpath 0 360 arc } bind def
/r   { 4 2 roll moveto 1 copy 3 -1 roll exch 0 exch rlineto 0 rlineto -1 mul 0 exch rlineto closepath } bind def
/p1  { stroke } bind def
/p2  { gsave bg fill grestore newpath } bind def
/p3  { gsave bg fill grestore stroke } bind def
/p6  { gsave bg eofill grestore newpath } bind def
/p7  { gsave bg eofill grestore stroke } bind def
/t   { 5 -2 roll moveto gsave rotate
       1 index stringwidth pop
       mul neg 0 rmoveto show grestore } bind def
/ta  { 4 -2 roll moveto gsave rotate show } bind def
/tb  { 2 -1 roll 0 rmoveto show } bind def
/cl  { grestore gsave newpath 3 index 3 index moveto 1 index
       4 -1 roll lineto  exch 1 index lineto lineto
       closepath clip newpath } bind def
/rgb { setrgbcolor } bind def
/s   { scalefont setfont } bind def
% end   .ps.prolog
/sRGB { [ /CIEBasedABC
          << /DecodeLMN
               [ { dup 0.03928 le
                        {12.92321 div}
                        {0.055 add 1.055 div 2.4 exp }
                     ifelse
                 } bind dup dup
               ]
             /MatrixLMN [0.412457 0.212673 0.019334
                         0.357576 0.715152 0.119192
                         0.180437 0.072175 0.950301]
             /WhitePoint [0.9505 1.0 1.0890]
           >>
         ] setcolorspace } bind def
/srgb { setcolor } bind def
%%IncludeResource: font Helvetica
/Helvetica findfont
dup length dict begin
  {1 index /FID ne {def} {pop pop} ifelse} forall
  /Encoding ISOLatin1Encoding def
  currentdict
  end
/Font1 exch definefont pop
%%IncludeResource: font Helvetica-Bold
/Helvetica-Bold findfont
dup length dict begin
  {1 index /FID ne {def} {pop pop} ifelse} forall
  /Encoding ISOLatin1Encoding def
  currentdict
  end
/Font2 exch definefont pop
%%IncludeResource: font Helvetica-Oblique
/Helvetica-Oblique findfont
dup length dict begin
  {1 index /FID ne {def} {pop pop} ifelse} forall
  /Encoding ISOLatin1Encoding def
  currentdict
  end
/Font3 exch definefont pop
%%IncludeResource: font Helvetica-BoldOblique
/Helvetica-BoldOblique findfont
dup length dict begin
  {1 index /FID ne {def} {pop pop} ifelse} forall
  /Encoding ISOLatin1Encoding def
  currentdict
  end
/Font4 exch definefont pop
%%IncludeResource: font Symbol
/Symbol findfont
dup length dict begin
  {1 index /FID ne {def} {pop pop} ifelse} forall
  currentdict
  end
/Font5 exch definefont pop
%%EndProlog
%%Page: 1 1
bp
0.00 0.00 595.28 198.43 cl
0.00 0.00 595.28 198.43 cl
0.00 0.00 595.28 198.43 cl
0.00 0.00 595.28 198.43 cl
0.00 0.00 595.28 198.43 cl
0.00 0.00 595.28 198.43 cl
0.00 0.00 595.28 198.43 cl
0.00 0.00 595.28 198.43 cl
0.00 0.00 595.28 198.43 cl
0.00 0.00 595.28 198.43 cl
0.00 0.00 595.28 198.43 cl
0.00 0.00 595.28 198.43 cl
0.00 0.00 595.28 198.43 cl
0.00 0.00 595.28 198.43 cl
0.00 0.00 595.28 198.43 cl
0.00 0.00 595.28 198.43 cl
0.00 0.00 595.28 198.43 cl
0.00 15.13 595.28 183.29 cl
/bg { 1 1 1 srgb } def
1 1 1 srgb
1.07 setlinewidth
[] 0 setdash
1 setlinecap
1 setlinejoin
10.00 setmiterlimit
0.00 15.13 595.28 168.16 r p3
0.00 0.00 595.28 198.43 cl
44.94 158.18 149.03 177.32 cl
/bg { 1 1 1 srgb } def
0.4980 0.4980 0.4980 srgb
0.43 setlinewidth
[] 0 setdash
1 setlinecap
1 setlinejoin
10.00 setmiterlimit
44.94 158.18 104.09 19.14 r p3
/Font1 findfont 10 s
0.1020 0.1020 0.1020 srgb
83.09 164.16 (fr) 0 ta
-0.100 (ance) tb gr
44.94 158.18 149.03 177.32 cl
0.00 0.00 595.28 198.43 cl
155.01 158.18 259.10 177.32 cl
/bg { 1 1 1 srgb } def
0.4980 0.4980 0.4980 srgb
0.43 setlinewidth
[] 0 setdash
1 setlinecap
1 setlinejoin
10.00 setmiterlimit
155.01 158.18 104.09 19.14 r p3
/Font1 findfont 10 s
0.1020 0.1020 0.1020 srgb
207.05 164.16 (gameofthrones) .5 0 t
155.01 158.18 259.10 177.32 cl
0.00 0.00 595.28 198.43 cl
265.07 158.18 369.16 177.32 cl
/bg { 1 1 1 srgb } def
0.4980 0.4980 0.4980 srgb
0.43 setlinewidth
[] 0 setdash
1 setlinecap
1 setlinejoin
10.00 setmiterlimit
265.07 158.18 104.09 19.14 r p3
/Font1 findfont 10 s
0.1020 0.1020 0.1020 srgb
278.77 164.16 (MachineLear) 0 ta
0.250 (ning) tb gr
265.07 158.18 369.16 177.32 cl
0.00 0.00 595.28 198.43 cl
375.14 158.18 479.23 177.32 cl
/bg { 1 1 1 srgb } def
0.4980 0.4980 0.4980 srgb
0.43 setlinewidth
[] 0 setdash
1 setlinecap
1 setlinejoin
10.00 setmiterlimit
375.14 158.18 104.09 19.14 r p3
/Font1 findfont 10 s
0.1020 0.1020 0.1020 srgb
427.19 164.16 (podemos) .5 0 t
375.14 158.18 479.23 177.32 cl
0.00 0.00 595.28 198.43 cl
485.21 158.18 589.30 177.32 cl
/bg { 1 1 1 srgb } def
0.4980 0.4980 0.4980 srgb
0.43 setlinewidth
[] 0 setdash
1 setlinecap
1 setlinejoin
10.00 setmiterlimit
485.21 158.18 104.09 19.14 r p3
/Font1 findfont 10 s
0.1020 0.1020 0.1020 srgb
491.97 164.16 (T) 0 ta
-1.200 (w) tb
-0.100 (oXChromosomes) tb gr
485.21 158.18 589.30 177.32 cl
0.00 0.00 595.28 198.43 cl
44.94 54.09 149.03 158.18 cl
/bg { 1 1 1 srgb } def
44.94 54.09 104.09 104.09 r p2
0.9804 0.9804 0.9804 srgb
1.07 setlinewidth
[] 0 setdash
0 setlinecap
1 setlinejoin
10.00 setmiterlimit
np
49.67 54.09 m
0 104.09 l
o
np
81.80 54.09 m
0 104.09 l
o
np
113.92 54.09 m
0 104.09 l
o
np
146.05 54.09 m
0 104.09 l
o
0.8980 0.8980 0.8980 srgb
0.43 setlinewidth
[] 0 setdash
np
44.94 153.45 m
104.09 0 l
o
np
65.73 54.09 m
0 104.09 l
o
np
97.86 54.09 m
0 104.09 l
o
np
129.99 54.09 m
0 104.09 l
o
/bg { 0 0 0 srgb } def
0 0 0 srgb
0.71 setlinewidth
[] 0 setdash
1 setlinecap
128.15 153.45 0.57 c p3
117.70 153.45 0.57 c p3
115.54 153.44 0.57 c p3
115.19 153.44 0.57 c p3
113.38 153.43 0.57 c p3
112.54 153.43 0.57 c p3
111.97 153.43 0.57 c p3
111.86 153.42 0.57 c p3
111.83 153.42 0.57 c p3
111.82 153.41 0.57 c p3
111.73 153.41 0.57 c p3
111.60 153.40 0.57 c p3
111.42 153.40 0.57 c p3
111.17 153.40 0.57 c p3
111.13 153.39 0.57 c p3
110.98 153.39 0.57 c p3
110.55 153.38 0.57 c p3
109.74 153.38 0.57 c p3
109.68 153.37 0.57 c p3
109.54 153.37 0.57 c p3
109.45 153.37 0.57 c p3
109.14 153.36 0.57 c p3
109.13 153.36 0.57 c p3
108.92 153.35 0.57 c p3
108.86 153.35 0.57 c p3
108.75 153.35 0.57 c p3
108.40 153.34 0.57 c p3
108.24 153.34 0.57 c p3
108.07 153.33 0.57 c p3
108.00 153.33 0.57 c p3
107.98 153.32 0.57 c p3
107.93 153.32 0.57 c p3
107.47 153.32 0.57 c p3
107.26 153.31 0.57 c p3
107.05 153.31 0.57 c p3
106.94 153.30 0.57 c p3
106.69 153.30 0.57 c p3
106.54 153.30 0.57 c p3
106.54 153.29 0.57 c p3
106.46 153.29 0.57 c p3
106.27 153.28 0.57 c p3
106.04 153.28 0.57 c p3
105.81 153.27 0.57 c p3
105.79 153.27 0.57 c p3
105.60 153.27 0.57 c p3
105.46 153.26 0.57 c p3
105.41 153.26 0.57 c p3
105.25 153.25 0.57 c p3
105.24 153.25 0.57 c p3
105.12 153.25 0.57 c p3
105.06 153.24 0.57 c p3
104.99 153.24 0.57 c p3
104.53 153.23 0.57 c p3
104.53 153.23 0.57 c p3
104.46 153.22 0.57 c p3
104.43 153.22 0.57 c p3
104.37 153.22 0.57 c p3
104.33 153.21 0.57 c p3
104.31 153.21 0.57 c p3
104.26 153.20 0.57 c p3
104.24 153.19 0.57 c p3
104.09 153.19 0.57 c p3
104.05 153.19 0.57 c p3
103.92 153.18 0.57 c p3
103.72 153.18 0.57 c p3
103.70 153.17 0.57 c p3
103.50 153.17 0.57 c p3
103.42 153.17 0.57 c p3
103.38 153.16 0.57 c p3
103.25 153.16 0.57 c p3
103.21 153.15 0.57 c p3
103.20 153.15 0.57 c p3
103.07 153.14 0.57 c p3
103.07 153.14 0.57 c p3
102.90 153.14 0.57 c p3
102.87 153.13 0.57 c p3
102.62 153.13 0.57 c p3
102.61 153.12 0.57 c p3
102.57 153.12 0.57 c p3
102.54 153.12 0.57 c p3
102.54 153.11 0.57 c p3
102.48 153.11 0.57 c p3
102.22 153.10 0.57 c p3
102.06 153.10 0.57 c p3
102.05 153.09 0.57 c p3
102.03 153.09 0.57 c p3
101.98 153.09 0.57 c p3
101.91 153.08 0.57 c p3
101.90 153.08 0.57 c p3
101.86 153.07 0.57 c p3
101.74 153.07 0.57 c p3
101.74 153.07 0.57 c p3
101.71 153.06 0.57 c p3
101.53 153.06 0.57 c p3
101.52 153.05 0.57 c p3
101.48 153.05 0.57 c p3
101.46 153.04 0.57 c p3
101.45 153.04 0.57 c p3
101.39 153.04 0.57 c p3
101.34 153.03 0.57 c p3
101.29 153.03 0.57 c p3
101.26 153.02 0.57 c p3
101.23 153.02 0.57 c p3
101.20 153.01 0.57 c p3
101.19 153.01 0.57 c p3
101.11 153.01 0.57 c p3
101.08 153.00 0.57 c p3
101.07 153.00 0.57 c p3
101.01 152.99 0.57 c p3
100.94 152.99 0.57 c p3
100.90 152.99 0.57 c p3
100.82 152.98 0.57 c p3
100.82 152.98 0.57 c p3
100.67 152.97 0.57 c p3
100.66 152.97 0.57 c p3
100.65 152.96 0.57 c p3
100.61 152.96 0.57 c p3
100.57 152.96 0.57 c p3
100.55 152.95 0.57 c p3
100.46 152.95 0.57 c p3
100.45 152.94 0.57 c p3
100.44 152.94 0.57 c p3
100.40 152.93 0.57 c p3
100.38 152.93 0.57 c p3
100.37 152.93 0.57 c p3
100.31 152.92 0.57 c p3
100.23 152.92 0.57 c p3
100.02 152.91 0.57 c p3
99.92 152.91 0.57 c p3
99.89 152.91 0.57 c p3
99.89 152.90 0.57 c p3
99.87 152.90 0.57 c p3
99.84 152.89 0.57 c p3
99.81 152.89 0.57 c p3
99.77 152.88 0.57 c p3
99.73 152.88 0.57 c p3
99.70 152.88 0.57 c p3
99.59 152.87 0.57 c p3
99.57 152.87 0.57 c p3
99.52 152.86 0.57 c p3
99.45 152.86 0.57 c p3
99.44 152.86 0.57 c p3
99.43 152.85 0.57 c p3
99.42 152.85 0.57 c p3
99.36 152.84 0.57 c p3
99.32 152.84 0.57 c p3
99.25 152.83 0.57 c p3
99.24 152.83 0.57 c p3
99.22 152.83 0.57 c p3
99.07 152.82 0.57 c p3
98.99 152.82 0.57 c p3
98.90 152.81 0.57 c p3
98.87 152.81 0.57 c p3
98.85 152.80 0.57 c p3
98.77 152.80 0.57 c p3
98.75 152.80 0.57 c p3
98.69 152.79 0.57 c p3
98.66 152.79 0.57 c p3
98.64 152.78 0.57 c p3
98.63 152.78 0.57 c p3
98.54 152.78 0.57 c p3
98.52 152.77 0.57 c p3
98.40 152.77 0.57 c p3
98.40 152.76 0.57 c p3
98.27 152.76 0.57 c p3
98.27 152.75 0.57 c p3
98.26 152.75 0.57 c p3
98.25 152.74 0.57 c p3
98.19 152.74 0.57 c p3
98.11 152.73 0.57 c p3
98.09 152.73 0.57 c p3
98.08 152.72 0.57 c p3
98.07 152.72 0.57 c p3
97.96 152.71 0.57 c p3
97.96 152.71 0.57 c p3
97.95 152.70 0.57 c p3
97.93 152.70 0.57 c p3
97.84 152.70 0.57 c p3
97.75 152.69 0.57 c p3
97.74 152.69 0.57 c p3
97.73 152.68 0.57 c p3
97.68 152.68 0.57 c p3
97.67 152.67 0.57 c p3
97.66 152.67 0.57 c p3
97.56 152.67 0.57 c p3
97.52 152.66 0.57 c p3
97.46 152.65 0.57 c p3
97.41 152.64 0.57 c p3
97.38 152.64 0.57 c p3
97.37 152.63 0.57 c p3
97.35 152.62 0.57 c p3
97.34 152.62 0.57 c p3
97.32 152.62 0.57 c p3
97.23 152.61 0.57 c p3
97.23 152.61 0.57 c p3
97.21 152.60 0.57 c p3
97.19 152.60 0.57 c p3
97.15 152.59 0.57 c p3
97.13 152.59 0.57 c p3
97.10 152.58 0.57 c p3
97.06 152.58 0.57 c p3
97.02 152.57 0.57 c p3
96.92 152.56 0.57 c p3
96.91 152.56 0.57 c p3
96.81 152.56 0.57 c p3
96.75 152.55 0.57 c p3
96.71 152.55 0.57 c p3
96.64 152.54 0.57 c p3
96.59 152.54 0.57 c p3
96.55 152.54 0.57 c p3
96.43 152.53 0.57 c p3
96.42 152.53 0.57 c p3
96.35 152.52 0.57 c p3
96.30 152.52 0.57 c p3
96.28 152.51 0.57 c p3
96.26 152.51 0.57 c p3
96.24 152.51 0.57 c p3
96.22 152.50 0.57 c p3
96.21 152.50 0.57 c p3
96.12 152.49 0.57 c p3
96.11 152.48 0.57 c p3
96.07 152.48 0.57 c p3
96.06 152.48 0.57 c p3
96.03 152.47 0.57 c p3
95.95 152.47 0.57 c p3
95.94 152.46 0.57 c p3
95.92 152.46 0.57 c p3
95.91 152.46 0.57 c p3
95.84 152.45 0.57 c p3
95.74 152.44 0.57 c p3
95.66 152.44 0.57 c p3
95.62 152.43 0.57 c p3
95.57 152.43 0.57 c p3
95.56 152.42 0.57 c p3
95.50 152.42 0.57 c p3
95.48 152.41 0.57 c p3
95.47 152.41 0.57 c p3
95.40 152.40 0.57 c p3
95.35 152.40 0.57 c p3
95.34 152.40 0.57 c p3
95.32 152.39 0.57 c p3
95.25 152.39 0.57 c p3
95.24 152.38 0.57 c p3
95.23 152.38 0.57 c p3
95.19 152.37 0.57 c p3
95.18 152.37 0.57 c p3
95.13 152.37 0.57 c p3
95.12 152.36 0.57 c p3
95.11 152.36 0.57 c p3
95.09 152.35 0.57 c p3
95.08 152.35 0.57 c p3
95.07 152.35 0.57 c p3
95.06 152.34 0.57 c p3
95.05 152.34 0.57 c p3
94.97 152.33 0.57 c p3
94.95 152.32 0.57 c p3
94.94 152.32 0.57 c p3
94.90 152.32 0.57 c p3
94.88 152.31 0.57 c p3
94.87 152.30 0.57 c p3
94.86 152.29 0.57 c p3
94.84 152.29 0.57 c p3
94.80 152.28 0.57 c p3
94.76 152.28 0.57 c p3
94.68 152.27 0.57 c p3
94.67 152.27 0.57 c p3
94.61 152.26 0.57 c p3
94.60 152.26 0.57 c p3
94.59 152.25 0.57 c p3
94.58 152.24 0.57 c p3
94.55 152.24 0.57 c p3
94.50 152.24 0.57 c p3
94.48 152.23 0.57 c p3
94.47 152.23 0.57 c p3
94.46 152.22 0.57 c p3
94.43 152.21 0.57 c p3
94.38 152.21 0.57 c p3
94.37 152.20 0.57 c p3
94.33 152.20 0.57 c p3
94.32 152.19 0.57 c p3
94.30 152.19 0.57 c p3
94.26 152.18 0.57 c p3
94.25 152.18 0.57 c p3
94.19 152.18 0.57 c p3
94.16 152.17 0.57 c p3
94.14 152.17 0.57 c p3
94.13 152.16 0.57 c p3
94.11 152.15 0.57 c p3
94.05 152.15 0.57 c p3
94.04 152.15 0.57 c p3
94.02 152.14 0.57 c p3
93.99 152.14 0.57 c p3
93.98 152.13 0.57 c p3
93.96 152.13 0.57 c p3
93.94 152.11 0.57 c p3
93.93 152.11 0.57 c p3
93.89 152.10 0.57 c p3
93.88 152.10 0.57 c p3
93.85 152.10 0.57 c p3
93.80 152.09 0.57 c p3
93.77 152.09 0.57 c p3
93.71 152.08 0.57 c p3
93.64 152.08 0.57 c p3
93.59 152.07 0.57 c p3
93.55 152.06 0.57 c p3
93.48 152.05 0.57 c p3
93.47 152.05 0.57 c p3
93.46 152.04 0.57 c p3
93.43 152.04 0.57 c p3
93.42 152.03 0.57 c p3
93.39 152.03 0.57 c p3
93.38 152.02 0.57 c p3
93.35 152.02 0.57 c p3
93.33 152.01 0.57 c p3
93.28 152.01 0.57 c p3
93.24 152.00 0.57 c p3
93.18 151.99 0.57 c p3
93.16 151.99 0.57 c p3
93.12 151.98 0.57 c p3
93.09 151.98 0.57 c p3
93.08 151.97 0.57 c p3
93.05 151.97 0.57 c p3
92.97 151.96 0.57 c p3
92.95 151.96 0.57 c p3
92.94 151.95 0.57 c p3
92.87 151.94 0.57 c p3
92.84 151.93 0.57 c p3
92.81 151.92 0.57 c p3
92.80 151.92 0.57 c p3
92.78 151.91 0.57 c p3
92.75 151.90 0.57 c p3
92.65 151.90 0.57 c p3
92.64 151.89 0.57 c p3
92.61 151.89 0.57 c p3
92.53 151.88 0.57 c p3
92.46 151.87 0.57 c p3
92.44 151.86 0.57 c p3
92.40 151.86 0.57 c p3
92.35 151.85 0.57 c p3
92.32 151.85 0.57 c p3
92.31 151.85 0.57 c p3
92.26 151.84 0.57 c p3
92.24 151.83 0.57 c p3
92.16 151.82 0.57 c p3
92.13 151.81 0.57 c p3
92.12 151.80 0.57 c p3
92.10 151.80 0.57 c p3
92.07 151.79 0.57 c p3
92.05 151.78 0.57 c p3
92.02 151.78 0.57 c p3
92.00 151.77 0.57 c p3
91.99 151.77 0.57 c p3
91.97 151.76 0.57 c p3
91.94 151.76 0.57 c p3
91.92 151.76 0.57 c p3
91.87 151.75 0.57 c p3
91.86 151.75 0.57 c p3
91.82 151.74 0.57 c p3
91.76 151.74 0.57 c p3
91.72 151.73 0.57 c p3
91.69 151.72 0.57 c p3
91.67 151.71 0.57 c p3
91.64 151.71 0.57 c p3
91.62 151.70 0.57 c p3
91.59 151.70 0.57 c p3
91.54 151.69 0.57 c p3
91.50 151.69 0.57 c p3
91.49 151.68 0.57 c p3
91.47 151.68 0.57 c p3
91.45 151.67 0.57 c p3
91.43 151.65 0.57 c p3
91.40 151.64 0.57 c p3
91.34 151.63 0.57 c p3
91.33 151.63 0.57 c p3
91.31 151.62 0.57 c p3
91.29 151.61 0.57 c p3
91.18 151.60 0.57 c p3
91.17 151.60 0.57 c p3
91.15 151.59 0.57 c p3
91.13 151.58 0.57 c p3
91.02 151.58 0.57 c p3
91.00 151.57 0.57 c p3
90.98 151.56 0.57 c p3
90.92 151.56 0.57 c p3
90.89 151.55 0.57 c p3
90.87 151.55 0.57 c p3
90.85 151.54 0.57 c p3
90.83 151.54 0.57 c p3
90.81 151.53 0.57 c p3
90.75 151.53 0.57 c p3
90.69 151.53 0.57 c p3
90.67 151.52 0.57 c p3
90.66 151.51 0.57 c p3
90.64 151.50 0.57 c p3
90.62 151.49 0.57 c p3
90.60 151.48 0.57 c p3
90.58 151.47 0.57 c p3
90.54 151.47 0.57 c p3
90.52 151.46 0.57 c p3
90.50 151.45 0.57 c p3
90.48 151.44 0.57 c p3
90.46 151.43 0.57 c p3
90.44 151.42 0.57 c p3
90.42 151.42 0.57 c p3
90.40 151.41 0.57 c p3
90.38 151.39 0.57 c p3
90.35 151.39 0.57 c p3
90.31 151.38 0.57 c p3
90.27 151.36 0.57 c p3
90.23 151.36 0.57 c p3
90.21 151.35 0.57 c p3
90.19 151.34 0.57 c p3
90.17 151.34 0.57 c p3
90.15 151.33 0.57 c p3
90.13 151.33 0.57 c p3
90.08 151.32 0.57 c p3
90.06 151.31 0.57 c p3
90.04 151.30 0.57 c p3
90.02 151.30 0.57 c p3
90.00 151.29 0.57 c p3
89.98 151.29 0.57 c p3
89.93 151.28 0.57 c p3
89.91 151.27 0.57 c p3
89.89 151.26 0.57 c p3
89.87 151.24 0.57 c p3
89.85 151.24 0.57 c p3
89.78 151.23 0.57 c p3
89.73 151.23 0.57 c p3
89.71 151.22 0.57 c p3
89.64 151.22 0.57 c p3
89.62 151.21 0.57 c p3
89.60 151.20 0.57 c p3
89.58 151.19 0.57 c p3
89.55 151.17 0.57 c p3
89.53 151.17 0.57 c p3
89.48 151.16 0.57 c p3
89.46 151.15 0.57 c p3
89.44 151.15 0.57 c p3
89.39 151.14 0.57 c p3
89.34 151.13 0.57 c p3
89.32 151.12 0.57 c p3
89.30 151.11 0.57 c p3
89.27 151.10 0.57 c p3
89.22 151.09 0.57 c p3
89.20 151.09 0.57 c p3
89.18 151.08 0.57 c p3
89.15 151.07 0.57 c p3
89.13 151.07 0.57 c p3
89.10 151.06 0.57 c p3
89.08 151.05 0.57 c p3
89.05 151.04 0.57 c p3
89.03 151.03 0.57 c p3
89.00 151.02 0.57 c p3
88.98 151.01 0.57 c p3
88.95 151.00 0.57 c p3
88.93 150.99 0.57 c p3
88.90 150.98 0.57 c p3
88.88 150.96 0.57 c p3
88.85 150.96 0.57 c p3
88.83 150.94 0.57 c p3
88.78 150.93 0.57 c p3
88.75 150.92 0.57 c p3
88.73 150.91 0.57 c p3
88.67 150.90 0.57 c p3
88.65 150.89 0.57 c p3
88.62 150.88 0.57 c p3
88.60 150.86 0.57 c p3
88.52 150.85 0.57 c p3
88.49 150.84 0.57 c p3
88.46 150.82 0.57 c p3
88.44 150.80 0.57 c p3
88.41 150.80 0.57 c p3
88.38 150.79 0.57 c p3
88.30 150.79 0.57 c p3
88.27 150.77 0.57 c p3
88.22 150.75 0.57 c p3
88.19 150.73 0.57 c p3
88.16 150.72 0.57 c p3
88.10 150.71 0.57 c p3
88.08 150.70 0.57 c p3
88.05 150.68 0.57 c p3
88.02 150.67 0.57 c p3
87.99 150.65 0.57 c p3
87.96 150.65 0.57 c p3
87.90 150.63 0.57 c p3
87.88 150.63 0.57 c p3
87.85 150.62 0.57 c p3
87.82 150.60 0.57 c p3
87.76 150.60 0.57 c p3
87.73 150.59 0.57 c p3
87.70 150.58 0.57 c p3
87.67 150.55 0.57 c p3
87.64 150.54 0.57 c p3
87.61 150.53 0.57 c p3
87.58 150.53 0.57 c p3
87.55 150.52 0.57 c p3
87.52 150.51 0.57 c p3
87.45 150.50 0.57 c p3
87.42 150.48 0.57 c p3
87.39 150.48 0.57 c p3
87.36 150.47 0.57 c p3
87.33 150.46 0.57 c p3
87.30 150.45 0.57 c p3
87.27 150.45 0.57 c p3
87.23 150.44 0.57 c p3
87.20 150.43 0.57 c p3
87.17 150.42 0.57 c p3
87.14 150.41 0.57 c p3
87.10 150.39 0.57 c p3
87.07 150.38 0.57 c p3
87.04 150.37 0.57 c p3
87.01 150.35 0.57 c p3
86.97 150.33 0.57 c p3
86.94 150.30 0.57 c p3
86.91 150.28 0.57 c p3
86.87 150.26 0.57 c p3
86.84 150.26 0.57 c p3
86.80 150.25 0.57 c p3
86.77 150.24 0.57 c p3
86.74 150.23 0.57 c p3
86.70 150.22 0.57 c p3
86.67 150.21 0.57 c p3
86.63 150.20 0.57 c p3
86.60 150.17 0.57 c p3
86.56 150.17 0.57 c p3
86.53 150.14 0.57 c p3
86.49 150.13 0.57 c p3
86.46 150.12 0.57 c p3
86.42 150.09 0.57 c p3
86.38 150.08 0.57 c p3
86.35 150.07 0.57 c p3
86.31 150.05 0.57 c p3
86.24 150.03 0.57 c p3
86.20 150.01 0.57 c p3
86.16 150.01 0.57 c p3
86.13 149.98 0.57 c p3
86.09 149.97 0.57 c p3
86.05 149.94 0.57 c p3
86.01 149.92 0.57 c p3
85.97 149.91 0.57 c p3
85.94 149.90 0.57 c p3
85.90 149.88 0.57 c p3
85.86 149.88 0.57 c p3
85.82 149.87 0.57 c p3
85.78 149.85 0.57 c p3
85.74 149.81 0.57 c p3
85.70 149.78 0.57 c p3
85.66 149.76 0.57 c p3
85.58 149.75 0.57 c p3
85.54 149.70 0.57 c p3
85.46 149.68 0.57 c p3
85.42 149.68 0.57 c p3
85.37 149.66 0.57 c p3
85.33 149.65 0.57 c p3
85.29 149.65 0.57 c p3
85.25 149.62 0.57 c p3
85.21 149.61 0.57 c p3
85.16 149.60 0.57 c p3
85.12 149.57 0.57 c p3
85.08 149.56 0.57 c p3
85.03 149.55 0.57 c p3
84.99 149.54 0.57 c p3
84.94 149.51 0.57 c p3
84.90 149.48 0.57 c p3
84.85 149.46 0.57 c p3
84.81 149.45 0.57 c p3
84.76 149.43 0.57 c p3
84.72 149.40 0.57 c p3
84.67 149.38 0.57 c p3
84.63 149.36 0.57 c p3
84.58 149.34 0.57 c p3
84.53 149.33 0.57 c p3
84.48 149.29 0.57 c p3
84.44 149.28 0.57 c p3
84.39 149.25 0.57 c p3
84.34 149.23 0.57 c p3
84.29 149.21 0.57 c p3
84.24 149.19 0.57 c p3
84.19 149.17 0.57 c p3
84.14 149.15 0.57 c p3
84.09 149.13 0.57 c p3
84.04 149.12 0.57 c p3
83.99 149.11 0.57 c p3
83.94 149.09 0.57 c p3
83.89 149.06 0.57 c p3
83.84 149.04 0.57 c p3
83.79 149.01 0.57 c p3
83.73 148.99 0.57 c p3
83.68 148.97 0.57 c p3
83.63 148.96 0.57 c p3
83.57 148.94 0.57 c p3
83.52 148.92 0.57 c p3
83.46 148.89 0.57 c p3
83.41 148.88 0.57 c p3
83.35 148.84 0.57 c p3
83.30 148.82 0.57 c p3
83.24 148.80 0.57 c p3
83.18 148.77 0.57 c p3
83.13 148.74 0.57 c p3
83.07 148.72 0.57 c p3
83.01 148.69 0.57 c p3
82.95 148.68 0.57 c p3
82.89 148.67 0.57 c p3
82.83 148.65 0.57 c p3
82.77 148.62 0.57 c p3
82.71 148.58 0.57 c p3
82.65 148.56 0.57 c p3
82.59 148.53 0.57 c p3
82.52 148.50 0.57 c p3
82.46 148.46 0.57 c p3
82.40 148.43 0.57 c p3
82.33 148.42 0.57 c p3
82.27 148.39 0.57 c p3
82.20 148.34 0.57 c p3
82.14 148.28 0.57 c p3
82.07 148.24 0.57 c p3
82.00 148.20 0.57 c p3
81.93 148.15 0.57 c p3
81.87 148.10 0.57 c p3
81.80 148.07 0.57 c p3
81.73 148.05 0.57 c p3
81.66 147.98 0.57 c p3
81.58 147.95 0.57 c p3
81.51 147.90 0.57 c p3
81.44 147.84 0.57 c p3
81.37 147.78 0.57 c p3
81.29 147.76 0.57 c p3
81.22 147.72 0.57 c p3
81.14 147.66 0.57 c p3
81.06 147.62 0.57 c p3
80.98 147.59 0.57 c p3
80.91 147.57 0.57 c p3
80.83 147.53 0.57 c p3
80.74 147.47 0.57 c p3
80.66 147.44 0.57 c p3
80.58 147.37 0.57 c p3
80.50 147.33 0.57 c p3
80.41 147.27 0.57 c p3
80.33 147.21 0.57 c p3
80.24 147.15 0.57 c p3
80.15 147.10 0.57 c p3
80.06 147.07 0.57 c p3
79.97 147.00 0.57 c p3
79.88 146.94 0.57 c p3
79.79 146.90 0.57 c p3
79.70 146.87 0.57 c p3
79.60 146.82 0.57 c p3
79.51 146.76 0.57 c p3
79.41 146.72 0.57 c p3
79.31 146.66 0.57 c p3
79.21 146.60 0.57 c p3
79.11 146.54 0.57 c p3
79.00 146.49 0.57 c p3
78.90 146.44 0.57 c p3
78.79 146.40 0.57 c p3
78.68 146.32 0.57 c p3
78.57 146.26 0.57 c p3
78.46 146.18 0.57 c p3
78.35 146.08 0.57 c p3
78.23 146.04 0.57 c p3
78.12 145.99 0.57 c p3
78.00 145.89 0.57 c p3
77.88 145.80 0.57 c p3
77.75 145.72 0.57 c p3
77.63 145.65 0.57 c p3
77.50 145.59 0.57 c p3
77.37 145.50 0.57 c p3
77.23 145.43 0.57 c p3
77.10 145.35 0.57 c p3
76.96 145.28 0.57 c p3
76.82 145.18 0.57 c p3
76.68 145.06 0.57 c p3
76.53 144.95 0.57 c p3
76.38 144.84 0.57 c p3
76.23 144.73 0.57 c p3
76.07 144.61 0.57 c p3
75.91 144.47 0.57 c p3
75.74 144.35 0.57 c p3
75.58 144.25 0.57 c p3
75.40 144.10 0.57 c p3
75.23 143.95 0.57 c p3
75.05 143.83 0.57 c p3
74.86 143.70 0.57 c p3
74.67 143.54 0.57 c p3
74.47 143.35 0.57 c p3
74.27 143.19 0.57 c p3
74.06 143.04 0.57 c p3
73.85 142.86 0.57 c p3
73.63 142.61 0.57 c p3
73.40 142.32 0.57 c p3
73.16 142.04 0.57 c p3
72.92 141.73 0.57 c p3
72.66 141.48 0.57 c p3
72.40 141.21 0.57 c p3
72.13 140.90 0.57 c p3
71.84 140.57 0.57 c p3
71.54 140.22 0.57 c p3
71.23 139.84 0.57 c p3
70.91 139.49 0.57 c p3
70.57 139.06 0.57 c p3
70.21 138.58 0.57 c p3
69.83 138.03 0.57 c p3
69.44 137.55 0.57 c p3
69.01 136.95 0.57 c p3
68.56 136.28 0.57 c p3
68.08 135.52 0.57 c p3
67.56 134.68 0.57 c p3
67.01 133.75 0.57 c p3
66.40 132.69 0.57 c p3
65.73 131.38 0.57 c p3
65.00 129.84 0.57 c p3
64.18 128.04 0.57 c p3
63.25 125.91 0.57 c p3
62.17 123.25 0.57 c p3
60.90 119.47 0.57 c p3
59.34 114.06 0.57 c p3
57.33 106.49 0.57 c p3
54.51 93.00 0.57 c p3
49.67 61.65 0.57 c p3
0.4980 0.4980 0.4980 srgb
1.07 setlinewidth
[] 0 setdash
44.94 54.09 104.09 104.09 r p1
0.00 0.00 595.28 198.43 cl
155.01 54.09 259.10 158.18 cl
/bg { 1 1 1 srgb } def
155.01 54.09 104.09 104.09 r p2
0.9804 0.9804 0.9804 srgb
1.07 setlinewidth
[] 0 setdash
0 setlinecap
1 setlinejoin
10.00 setmiterlimit
np
159.74 54.09 m
0 104.09 l
o
np
191.86 54.09 m
0 104.09 l
o
np
223.99 54.09 m
0 104.09 l
o
np
256.12 54.09 m
0 104.09 l
o
0.8980 0.8980 0.8980 srgb
0.43 setlinewidth
[] 0 setdash
np
155.01 153.45 m
104.09 0 l
o
np
175.80 54.09 m
0 104.09 l
o
np
207.93 54.09 m
0 104.09 l
o
np
240.05 54.09 m
0 104.09 l
o
/bg { 0 0 0 srgb } def
0 0 0 srgb
0.71 setlinewidth
[] 0 setdash
1 setlinecap
249.08 153.45 0.57 c p3
238.38 153.45 0.57 c p3
225.00 153.45 0.57 c p3
221.41 153.45 0.57 c p3
219.59 153.45 0.57 c p3
219.04 153.45 0.57 c p3
217.92 153.45 0.57 c p3
214.51 153.45 0.57 c p3
214.12 153.45 0.57 c p3
213.98 153.45 0.57 c p3
213.71 153.45 0.57 c p3
213.49 153.45 0.57 c p3
213.44 153.45 0.57 c p3
213.39 153.45 0.57 c p3
212.62 153.45 0.57 c p3
212.09 153.44 0.57 c p3
211.91 153.44 0.57 c p3
211.85 153.44 0.57 c p3
211.80 153.44 0.57 c p3
211.60 153.44 0.57 c p3
211.58 153.44 0.57 c p3
211.43 153.44 0.57 c p3
211.38 153.44 0.57 c p3
211.30 153.44 0.57 c p3
211.10 153.44 0.57 c p3
211.09 153.44 0.57 c p3
210.91 153.44 0.57 c p3
210.70 153.44 0.57 c p3
210.67 153.44 0.57 c p3
210.54 153.44 0.57 c p3
210.53 153.44 0.57 c p3
210.47 153.44 0.57 c p3
210.45 153.44 0.57 c p3
210.35 153.44 0.57 c p3
210.29 153.44 0.57 c p3
210.16 153.44 0.57 c p3
210.09 153.44 0.57 c p3
210.07 153.44 0.57 c p3
210.06 153.44 0.57 c p3
209.94 153.44 0.57 c p3
209.84 153.44 0.57 c p3
209.70 153.44 0.57 c p3
209.55 153.44 0.57 c p3
209.50 153.43 0.57 c p3
209.45 153.43 0.57 c p3
209.29 153.43 0.57 c p3
209.09 153.43 0.57 c p3
209.08 153.43 0.57 c p3
209.05 153.43 0.57 c p3
209.02 153.43 0.57 c p3
208.96 153.43 0.57 c p3
208.86 153.43 0.57 c p3
208.83 153.43 0.57 c p3
208.74 153.43 0.57 c p3
208.69 153.43 0.57 c p3
208.64 153.43 0.57 c p3
208.62 153.43 0.57 c p3
208.59 153.43 0.57 c p3
208.56 153.43 0.57 c p3
208.46 153.43 0.57 c p3
208.45 153.43 0.57 c p3
208.41 153.43 0.57 c p3
208.37 153.43 0.57 c p3
208.26 153.43 0.57 c p3
208.21 153.43 0.57 c p3
208.13 153.43 0.57 c p3
208.12 153.43 0.57 c p3
207.86 153.43 0.57 c p3
207.83 153.43 0.57 c p3
207.82 153.43 0.57 c p3
207.79 153.43 0.57 c p3
207.77 153.42 0.57 c p3
207.72 153.42 0.57 c p3
207.66 153.42 0.57 c p3
207.63 153.42 0.57 c p3
207.61 153.42 0.57 c p3
207.60 153.42 0.57 c p3
207.58 153.42 0.57 c p3
207.57 153.42 0.57 c p3
207.54 153.42 0.57 c p3
207.48 153.42 0.57 c p3
207.47 153.42 0.57 c p3
207.43 153.42 0.57 c p3
207.41 153.42 0.57 c p3
207.40 153.42 0.57 c p3
207.35 153.42 0.57 c p3
207.24 153.42 0.57 c p3
207.23 153.42 0.57 c p3
207.22 153.42 0.57 c p3
207.18 153.42 0.57 c p3
207.18 153.42 0.57 c p3
207.15 153.42 0.57 c p3
207.11 153.42 0.57 c p3
207.11 153.42 0.57 c p3
207.10 153.42 0.57 c p3
207.03 153.42 0.57 c p3
207.00 153.42 0.57 c p3
206.88 153.42 0.57 c p3
206.88 153.41 0.57 c p3
206.82 153.41 0.57 c p3
206.79 153.41 0.57 c p3
206.76 153.41 0.57 c p3
206.74 153.41 0.57 c p3
206.68 153.41 0.57 c p3
206.57 153.41 0.57 c p3
206.56 153.41 0.57 c p3
206.53 153.41 0.57 c p3
206.50 153.41 0.57 c p3
206.45 153.41 0.57 c p3
206.43 153.41 0.57 c p3
206.38 153.41 0.57 c p3
206.35 153.41 0.57 c p3
206.32 153.41 0.57 c p3
206.29 153.41 0.57 c p3
206.26 153.41 0.57 c p3
206.19 153.41 0.57 c p3
206.18 153.41 0.57 c p3
206.16 153.41 0.57 c p3
206.10 153.41 0.57 c p3
206.05 153.41 0.57 c p3
206.03 153.41 0.57 c p3
206.00 153.41 0.57 c p3
205.99 153.41 0.57 c p3
205.95 153.41 0.57 c p3
205.89 153.41 0.57 c p3
205.87 153.40 0.57 c p3
205.86 153.40 0.57 c p3
205.86 153.40 0.57 c p3
205.75 153.40 0.57 c p3
205.71 153.40 0.57 c p3
205.69 153.40 0.57 c p3
205.64 153.40 0.57 c p3
205.59 153.40 0.57 c p3
205.58 153.40 0.57 c p3
205.56 153.40 0.57 c p3
205.53 153.40 0.57 c p3
205.50 153.40 0.57 c p3
205.49 153.40 0.57 c p3
205.43 153.40 0.57 c p3
205.38 153.40 0.57 c p3
205.35 153.40 0.57 c p3
205.32 153.40 0.57 c p3
205.31 153.40 0.57 c p3
205.29 153.40 0.57 c p3
205.28 153.40 0.57 c p3
205.26 153.40 0.57 c p3
205.24 153.40 0.57 c p3
205.23 153.40 0.57 c p3
205.22 153.40 0.57 c p3
205.21 153.40 0.57 c p3
205.20 153.40 0.57 c p3
205.19 153.39 0.57 c p3
205.17 153.39 0.57 c p3
205.14 153.39 0.57 c p3
205.13 153.39 0.57 c p3
205.09 153.39 0.57 c p3
205.03 153.39 0.57 c p3
204.98 153.39 0.57 c p3
204.97 153.39 0.57 c p3
204.91 153.39 0.57 c p3
204.86 153.39 0.57 c p3
204.85 153.39 0.57 c p3
204.84 153.39 0.57 c p3
204.83 153.39 0.57 c p3
204.78 153.39 0.57 c p3
204.77 153.39 0.57 c p3
204.75 153.39 0.57 c p3
204.72 153.39 0.57 c p3
204.65 153.39 0.57 c p3
204.64 153.38 0.57 c p3
204.63 153.38 0.57 c p3
204.60 153.38 0.57 c p3
204.59 153.38 0.57 c p3
204.57 153.38 0.57 c p3
204.56 153.38 0.57 c p3
204.54 153.38 0.57 c p3
204.52 153.38 0.57 c p3
204.50 153.38 0.57 c p3
204.48 153.38 0.57 c p3
204.47 153.38 0.57 c p3
204.46 153.38 0.57 c p3
204.44 153.38 0.57 c p3
204.43 153.38 0.57 c p3
204.40 153.38 0.57 c p3
204.39 153.38 0.57 c p3
204.38 153.38 0.57 c p3
204.35 153.38 0.57 c p3
204.33 153.38 0.57 c p3
204.31 153.38 0.57 c p3
204.28 153.38 0.57 c p3
204.26 153.38 0.57 c p3
204.25 153.38 0.57 c p3
204.22 153.37 0.57 c p3
204.21 153.37 0.57 c p3
204.16 153.37 0.57 c p3
204.10 153.37 0.57 c p3
204.06 153.37 0.57 c p3
204.04 153.37 0.57 c p3
204.03 153.37 0.57 c p3
204.02 153.37 0.57 c p3
203.99 153.37 0.57 c p3
203.98 153.37 0.57 c p3
203.94 153.37 0.57 c p3
203.92 153.37 0.57 c p3
203.90 153.37 0.57 c p3
203.87 153.37 0.57 c p3
203.86 153.37 0.57 c p3
203.83 153.37 0.57 c p3
203.78 153.37 0.57 c p3
203.77 153.37 0.57 c p3
203.74 153.37 0.57 c p3
203.73 153.37 0.57 c p3
203.72 153.37 0.57 c p3
203.71 153.37 0.57 c p3
203.69 153.36 0.57 c p3
203.68 153.36 0.57 c p3
203.67 153.36 0.57 c p3
203.65 153.36 0.57 c p3
203.63 153.36 0.57 c p3
203.62 153.36 0.57 c p3
203.60 153.36 0.57 c p3
203.56 153.36 0.57 c p3
203.55 153.36 0.57 c p3
203.54 153.36 0.57 c p3
203.51 153.36 0.57 c p3
203.46 153.36 0.57 c p3
203.45 153.36 0.57 c p3
203.43 153.36 0.57 c p3
203.42 153.36 0.57 c p3
203.41 153.36 0.57 c p3
203.38 153.36 0.57 c p3
203.35 153.35 0.57 c p3
203.34 153.35 0.57 c p3
203.30 153.35 0.57 c p3
203.28 153.35 0.57 c p3
203.24 153.35 0.57 c p3
203.23 153.35 0.57 c p3
203.22 153.35 0.57 c p3
203.20 153.35 0.57 c p3
203.19 153.35 0.57 c p3
203.18 153.35 0.57 c p3
203.15 153.35 0.57 c p3
203.13 153.35 0.57 c p3
203.12 153.35 0.57 c p3
203.11 153.35 0.57 c p3
203.09 153.34 0.57 c p3
203.08 153.34 0.57 c p3
203.04 153.34 0.57 c p3
203.02 153.34 0.57 c p3
202.97 153.34 0.57 c p3
202.95 153.34 0.57 c p3
202.94 153.34 0.57 c p3
202.92 153.34 0.57 c p3
202.89 153.34 0.57 c p3
202.87 153.34 0.57 c p3
202.84 153.34 0.57 c p3
202.82 153.34 0.57 c p3
202.81 153.34 0.57 c p3
202.79 153.34 0.57 c p3
202.78 153.34 0.57 c p3
202.76 153.34 0.57 c p3
202.75 153.34 0.57 c p3
202.73 153.33 0.57 c p3
202.72 153.33 0.57 c p3
202.70 153.33 0.57 c p3
202.68 153.33 0.57 c p3
202.66 153.33 0.57 c p3
202.65 153.33 0.57 c p3
202.63 153.33 0.57 c p3
202.62 153.33 0.57 c p3
202.60 153.33 0.57 c p3
202.59 153.33 0.57 c p3
202.57 153.33 0.57 c p3
202.56 153.33 0.57 c p3
202.54 153.32 0.57 c p3
202.53 153.32 0.57 c p3
202.51 153.32 0.57 c p3
202.46 153.32 0.57 c p3
202.42 153.32 0.57 c p3
202.40 153.32 0.57 c p3
202.37 153.32 0.57 c p3
202.36 153.32 0.57 c p3
202.34 153.32 0.57 c p3
202.33 153.32 0.57 c p3
202.31 153.32 0.57 c p3
202.29 153.32 0.57 c p3
202.28 153.32 0.57 c p3
202.26 153.32 0.57 c p3
202.25 153.32 0.57 c p3
202.22 153.32 0.57 c p3
202.20 153.31 0.57 c p3
202.18 153.31 0.57 c p3
202.17 153.31 0.57 c p3
202.14 153.31 0.57 c p3
202.12 153.31 0.57 c p3
202.10 153.31 0.57 c p3
202.07 153.31 0.57 c p3
202.04 153.31 0.57 c p3
202.02 153.31 0.57 c p3
202.01 153.31 0.57 c p3
201.99 153.31 0.57 c p3
201.93 153.31 0.57 c p3
201.88 153.30 0.57 c p3
201.86 153.30 0.57 c p3
201.84 153.30 0.57 c p3
201.83 153.30 0.57 c p3
201.81 153.30 0.57 c p3
201.79 153.30 0.57 c p3
201.78 153.30 0.57 c p3
201.76 153.30 0.57 c p3
201.74 153.30 0.57 c p3
201.72 153.30 0.57 c p3
201.71 153.30 0.57 c p3
201.69 153.30 0.57 c p3
201.67 153.29 0.57 c p3
201.66 153.29 0.57 c p3
201.64 153.29 0.57 c p3
201.62 153.29 0.57 c p3
201.60 153.29 0.57 c p3
201.57 153.29 0.57 c p3
201.55 153.29 0.57 c p3
201.54 153.29 0.57 c p3
201.52 153.29 0.57 c p3
201.50 153.29 0.57 c p3
201.48 153.28 0.57 c p3
201.47 153.28 0.57 c p3
201.45 153.28 0.57 c p3
201.43 153.28 0.57 c p3
201.41 153.28 0.57 c p3
201.39 153.28 0.57 c p3
201.38 153.28 0.57 c p3
201.36 153.28 0.57 c p3
201.34 153.28 0.57 c p3
201.32 153.28 0.57 c p3
201.30 153.28 0.57 c p3
201.29 153.27 0.57 c p3
201.27 153.27 0.57 c p3
201.25 153.27 0.57 c p3
201.23 153.27 0.57 c p3
201.21 153.27 0.57 c p3
201.20 153.27 0.57 c p3
201.18 153.27 0.57 c p3
201.16 153.27 0.57 c p3
201.14 153.27 0.57 c p3
201.10 153.27 0.57 c p3
201.09 153.27 0.57 c p3
201.07 153.27 0.57 c p3
201.05 153.26 0.57 c p3
201.03 153.26 0.57 c p3
201.01 153.26 0.57 c p3
200.99 153.26 0.57 c p3
200.97 153.26 0.57 c p3
200.95 153.26 0.57 c p3
200.93 153.26 0.57 c p3
200.92 153.26 0.57 c p3
200.90 153.26 0.57 c p3
200.88 153.26 0.57 c p3
200.86 153.26 0.57 c p3
200.84 153.26 0.57 c p3
200.82 153.26 0.57 c p3
200.80 153.25 0.57 c p3
200.78 153.25 0.57 c p3
200.76 153.25 0.57 c p3
200.74 153.25 0.57 c p3
200.72 153.25 0.57 c p3
200.70 153.25 0.57 c p3
200.68 153.25 0.57 c p3
200.66 153.25 0.57 c p3
200.64 153.25 0.57 c p3
200.62 153.25 0.57 c p3
200.60 153.24 0.57 c p3
200.58 153.24 0.57 c p3
200.56 153.24 0.57 c p3
200.54 153.24 0.57 c p3
200.52 153.24 0.57 c p3
200.50 153.24 0.57 c p3
200.48 153.24 0.57 c p3
200.46 153.24 0.57 c p3
200.44 153.24 0.57 c p3
200.42 153.23 0.57 c p3
200.40 153.23 0.57 c p3
200.38 153.23 0.57 c p3
200.34 153.23 0.57 c p3
200.32 153.23 0.57 c p3
200.30 153.23 0.57 c p3
200.28 153.23 0.57 c p3
200.26 153.23 0.57 c p3
200.24 153.22 0.57 c p3
200.21 153.22 0.57 c p3
200.19 153.22 0.57 c p3
200.17 153.22 0.57 c p3
200.15 153.22 0.57 c p3
200.13 153.22 0.57 c p3
200.11 153.22 0.57 c p3
200.07 153.22 0.57 c p3
200.04 153.22 0.57 c p3
200.02 153.21 0.57 c p3
200.00 153.21 0.57 c p3
199.98 153.21 0.57 c p3
199.96 153.21 0.57 c p3
199.93 153.21 0.57 c p3
199.91 153.21 0.57 c p3
199.89 153.21 0.57 c p3
199.87 153.21 0.57 c p3
199.85 153.21 0.57 c p3
199.82 153.21 0.57 c p3
199.80 153.20 0.57 c p3
199.78 153.20 0.57 c p3
199.76 153.20 0.57 c p3
199.73 153.20 0.57 c p3
199.71 153.20 0.57 c p3
199.69 153.20 0.57 c p3
199.67 153.20 0.57 c p3
199.64 153.19 0.57 c p3
199.62 153.19 0.57 c p3
199.60 153.19 0.57 c p3
199.57 153.19 0.57 c p3
199.55 153.19 0.57 c p3
199.53 153.18 0.57 c p3
199.51 153.18 0.57 c p3
199.48 153.18 0.57 c p3
199.46 153.18 0.57 c p3
199.43 153.18 0.57 c p3
199.41 153.18 0.57 c p3
199.39 153.17 0.57 c p3
199.36 153.17 0.57 c p3
199.34 153.17 0.57 c p3
199.32 153.17 0.57 c p3
199.29 153.17 0.57 c p3
199.27 153.17 0.57 c p3
199.24 153.16 0.57 c p3
199.22 153.16 0.57 c p3
199.20 153.16 0.57 c p3
199.17 153.16 0.57 c p3
199.15 153.16 0.57 c p3
199.12 153.15 0.57 c p3
199.10 153.15 0.57 c p3
199.07 153.15 0.57 c p3
199.05 153.15 0.57 c p3
199.02 153.15 0.57 c p3
199.00 153.14 0.57 c p3
198.97 153.14 0.57 c p3
198.95 153.14 0.57 c p3
198.92 153.14 0.57 c p3
198.90 153.14 0.57 c p3
198.87 153.14 0.57 c p3
198.84 153.13 0.57 c p3
198.82 153.13 0.57 c p3
198.79 153.13 0.57 c p3
198.77 153.13 0.57 c p3
198.74 153.13 0.57 c p3
198.72 153.12 0.57 c p3
198.69 153.12 0.57 c p3
198.66 153.12 0.57 c p3
198.64 153.12 0.57 c p3
198.61 153.11 0.57 c p3
198.58 153.11 0.57 c p3
198.56 153.11 0.57 c p3
198.53 153.11 0.57 c p3
198.50 153.10 0.57 c p3
198.48 153.10 0.57 c p3
198.45 153.10 0.57 c p3
198.42 153.10 0.57 c p3
198.39 153.10 0.57 c p3
198.37 153.09 0.57 c p3
198.34 153.09 0.57 c p3
198.31 153.09 0.57 c p3
198.28 153.08 0.57 c p3
198.26 153.08 0.57 c p3
198.23 153.08 0.57 c p3
198.20 153.08 0.57 c p3
198.17 153.07 0.57 c p3
198.14 153.07 0.57 c p3
198.12 153.07 0.57 c p3
198.09 153.06 0.57 c p3
198.06 153.06 0.57 c p3
198.03 153.06 0.57 c p3
198.00 153.06 0.57 c p3
197.97 153.06 0.57 c p3
197.94 153.05 0.57 c p3
197.91 153.05 0.57 c p3
197.88 153.04 0.57 c p3
197.85 153.04 0.57 c p3
197.82 153.04 0.57 c p3
197.80 153.04 0.57 c p3
197.77 153.03 0.57 c p3
197.74 153.03 0.57 c p3
197.71 153.03 0.57 c p3
197.67 153.03 0.57 c p3
197.64 153.02 0.57 c p3
197.61 153.02 0.57 c p3
197.58 153.02 0.57 c p3
197.55 153.01 0.57 c p3
197.52 153.01 0.57 c p3
197.49 153.01 0.57 c p3
197.46 153.00 0.57 c p3
197.43 153.00 0.57 c p3
197.40 153.00 0.57 c p3
197.36 152.99 0.57 c p3
197.33 152.99 0.57 c p3
197.30 152.99 0.57 c p3
197.27 152.98 0.57 c p3
197.24 152.98 0.57 c p3
197.20 152.97 0.57 c p3
197.17 152.97 0.57 c p3
197.14 152.97 0.57 c p3
197.11 152.97 0.57 c p3
197.07 152.96 0.57 c p3
197.04 152.96 0.57 c p3
197.01 152.95 0.57 c p3
196.97 152.95 0.57 c p3
196.94 152.95 0.57 c p3
196.91 152.94 0.57 c p3
196.87 152.94 0.57 c p3
196.84 152.93 0.57 c p3
196.80 152.93 0.57 c p3
196.77 152.92 0.57 c p3
196.73 152.92 0.57 c p3
196.70 152.91 0.57 c p3
196.66 152.91 0.57 c p3
196.63 152.91 0.57 c p3
196.59 152.90 0.57 c p3
196.56 152.89 0.57 c p3
196.52 152.89 0.57 c p3
196.49 152.88 0.57 c p3
196.45 152.88 0.57 c p3
196.42 152.88 0.57 c p3
196.38 152.87 0.57 c p3
196.34 152.86 0.57 c p3
196.31 152.86 0.57 c p3
196.27 152.85 0.57 c p3
196.23 152.85 0.57 c p3
196.19 152.84 0.57 c p3
196.16 152.84 0.57 c p3
196.12 152.83 0.57 c p3
196.08 152.82 0.57 c p3
196.04 152.82 0.57 c p3
196.00 152.81 0.57 c p3
195.96 152.81 0.57 c p3
195.93 152.80 0.57 c p3
195.89 152.80 0.57 c p3
195.85 152.79 0.57 c p3
195.81 152.79 0.57 c p3
195.77 152.78 0.57 c p3
195.73 152.77 0.57 c p3
195.69 152.77 0.57 c p3
195.65 152.76 0.57 c p3
195.61 152.75 0.57 c p3
195.57 152.75 0.57 c p3
195.52 152.74 0.57 c p3
195.48 152.74 0.57 c p3
195.44 152.73 0.57 c p3
195.40 152.72 0.57 c p3
195.36 152.72 0.57 c p3
195.32 152.71 0.57 c p3
195.27 152.70 0.57 c p3
195.23 152.69 0.57 c p3
195.19 152.69 0.57 c p3
195.14 152.68 0.57 c p3
195.10 152.67 0.57 c p3
195.06 152.66 0.57 c p3
195.01 152.65 0.57 c p3
194.97 152.65 0.57 c p3
194.92 152.64 0.57 c p3
194.88 152.63 0.57 c p3
194.83 152.62 0.57 c p3
194.79 152.62 0.57 c p3
194.74 152.61 0.57 c p3
194.69 152.60 0.57 c p3
194.65 152.59 0.57 c p3
194.60 152.58 0.57 c p3
194.55 152.57 0.57 c p3
194.50 152.56 0.57 c p3
194.46 152.55 0.57 c p3
194.41 152.55 0.57 c p3
194.36 152.53 0.57 c p3
194.31 152.52 0.57 c p3
194.26 152.51 0.57 c p3
194.21 152.50 0.57 c p3
194.16 152.49 0.57 c p3
194.11 152.48 0.57 c p3
194.06 152.47 0.57 c p3
194.01 152.46 0.57 c p3
193.96 152.45 0.57 c p3
193.91 152.44 0.57 c p3
193.85 152.43 0.57 c p3
193.80 152.42 0.57 c p3
193.75 152.41 0.57 c p3
193.69 152.39 0.57 c p3
193.64 152.38 0.57 c p3
193.59 152.37 0.57 c p3
193.53 152.35 0.57 c p3
193.48 152.34 0.57 c p3
193.42 152.32 0.57 c p3
193.36 152.31 0.57 c p3
193.31 152.30 0.57 c p3
193.25 152.29 0.57 c p3
193.19 152.27 0.57 c p3
193.14 152.26 0.57 c p3
193.08 152.24 0.57 c p3
193.02 152.23 0.57 c p3
192.96 152.21 0.57 c p3
192.90 152.20 0.57 c p3
192.84 152.18 0.57 c p3
192.78 152.17 0.57 c p3
192.72 152.15 0.57 c p3
192.65 152.14 0.57 c p3
192.59 152.12 0.57 c p3
192.53 152.11 0.57 c p3
192.47 152.09 0.57 c p3
192.40 152.07 0.57 c p3
192.34 152.06 0.57 c p3
192.27 152.04 0.57 c p3
192.20 152.02 0.57 c p3
192.14 152.01 0.57 c p3
192.07 151.99 0.57 c p3
192.00 151.97 0.57 c p3
191.93 151.95 0.57 c p3
191.86 151.93 0.57 c p3
191.79 151.91 0.57 c p3
191.72 151.90 0.57 c p3
191.65 151.87 0.57 c p3
191.58 151.85 0.57 c p3
191.51 151.83 0.57 c p3
191.43 151.81 0.57 c p3
191.36 151.79 0.57 c p3
191.28 151.76 0.57 c p3
191.21 151.74 0.57 c p3
191.13 151.72 0.57 c p3
191.05 151.69 0.57 c p3
190.97 151.66 0.57 c p3
190.89 151.64 0.57 c p3
190.81 151.60 0.57 c p3
190.73 151.58 0.57 c p3
190.65 151.55 0.57 c p3
190.56 151.52 0.57 c p3
190.48 151.49 0.57 c p3
190.39 151.46 0.57 c p3
190.31 151.43 0.57 c p3
190.22 151.40 0.57 c p3
190.13 151.36 0.57 c p3
190.04 151.33 0.57 c p3
189.95 151.29 0.57 c p3
189.86 151.26 0.57 c p3
189.76 151.22 0.57 c p3
189.67 151.18 0.57 c p3
189.57 151.15 0.57 c p3
189.47 151.10 0.57 c p3
189.38 151.06 0.57 c p3
189.28 151.02 0.57 c p3
189.17 150.98 0.57 c p3
189.07 150.93 0.57 c p3
188.97 150.88 0.57 c p3
188.86 150.84 0.57 c p3
188.75 150.78 0.57 c p3
188.64 150.74 0.57 c p3
188.53 150.69 0.57 c p3
188.42 150.64 0.57 c p3
188.30 150.59 0.57 c p3
188.18 150.54 0.57 c p3
188.06 150.48 0.57 c p3
187.94 150.42 0.57 c p3
187.82 150.36 0.57 c p3
187.69 150.29 0.57 c p3
187.57 150.22 0.57 c p3
187.44 150.14 0.57 c p3
187.30 150.07 0.57 c p3
187.17 150.00 0.57 c p3
187.03 149.92 0.57 c p3
186.89 149.84 0.57 c p3
186.74 149.74 0.57 c p3
186.60 149.64 0.57 c p3
186.45 149.54 0.57 c p3
186.29 149.45 0.57 c p3
186.14 149.35 0.57 c p3
185.98 149.26 0.57 c p3
185.81 149.14 0.57 c p3
185.64 149.03 0.57 c p3
185.47 148.90 0.57 c p3
185.30 148.77 0.57 c p3
185.11 148.62 0.57 c p3
184.93 148.48 0.57 c p3
184.74 148.33 0.57 c p3
184.54 148.17 0.57 c p3
184.34 148.00 0.57 c p3
184.13 147.81 0.57 c p3
183.92 147.61 0.57 c p3
183.69 147.41 0.57 c p3
183.46 147.21 0.57 c p3
183.23 147.01 0.57 c p3
182.98 146.77 0.57 c p3
182.73 146.52 0.57 c p3
182.47 146.26 0.57 c p3
182.19 145.97 0.57 c p3
181.91 145.64 0.57 c p3
181.61 145.29 0.57 c p3
181.30 144.94 0.57 c p3
180.98 144.55 0.57 c p3
180.64 144.13 0.57 c p3
180.28 143.66 0.57 c p3
179.90 143.17 0.57 c p3
179.50 142.60 0.57 c p3
179.08 142.00 0.57 c p3
178.63 141.29 0.57 c p3
178.15 140.53 0.57 c p3
177.63 139.65 0.57 c p3
177.07 138.64 0.57 c p3
176.47 137.48 0.57 c p3
175.80 136.11 0.57 c p3
175.07 134.49 0.57 c p3
174.24 132.58 0.57 c p3
173.31 130.15 0.57 c p3
172.24 127.11 0.57 c p3
170.97 123.06 0.57 c p3
169.41 117.41 0.57 c p3
167.40 109.04 0.57 c p3
164.57 94.45 0.57 c p3
159.74 61.59 0.57 c p3
0.4980 0.4980 0.4980 srgb
1.07 setlinewidth
[] 0 setdash
155.01 54.09 104.09 104.09 r p1
0.00 0.00 595.28 198.43 cl
265.07 54.09 369.16 158.18 cl
/bg { 1 1 1 srgb } def
265.07 54.09 104.09 104.09 r p2
0.9804 0.9804 0.9804 srgb
1.07 setlinewidth
[] 0 setdash
0 setlinecap
1 setlinejoin
10.00 setmiterlimit
np
269.80 54.09 m
0 104.09 l
o
np
301.93 54.09 m
0 104.09 l
o
np
334.06 54.09 m
0 104.09 l
o
np
366.19 54.09 m
0 104.09 l
o
0.8980 0.8980 0.8980 srgb
0.43 setlinewidth
[] 0 setdash
np
265.07 153.45 m
104.09 0 l
o
np
285.87 54.09 m
0 104.09 l
o
np
318.00 54.09 m
0 104.09 l
o
np
350.12 54.09 m
0 104.09 l
o
/bg { 0 0 0 srgb } def
0 0 0 srgb
0.71 setlinewidth
[] 0 setdash
1 setlinecap
332.19 153.45 0.57 c p3
319.90 153.44 0.57 c p3
319.47 153.44 0.57 c p3
318.30 153.43 0.57 c p3
316.24 153.42 0.57 c p3
316.08 153.42 0.57 c p3
314.56 153.41 0.57 c p3
314.30 153.40 0.57 c p3
313.93 153.39 0.57 c p3
313.67 153.39 0.57 c p3
313.63 153.38 0.57 c p3
313.46 153.37 0.57 c p3
312.82 153.37 0.57 c p3
312.71 153.36 0.57 c p3
311.26 153.35 0.57 c p3
310.79 153.35 0.57 c p3
310.47 153.34 0.57 c p3
310.43 153.33 0.57 c p3
310.37 153.33 0.57 c p3
310.34 153.32 0.57 c p3
309.98 153.31 0.57 c p3
309.80 153.31 0.57 c p3
309.76 153.30 0.57 c p3
309.41 153.29 0.57 c p3
309.38 153.28 0.57 c p3
309.34 153.28 0.57 c p3
309.16 153.27 0.57 c p3
309.09 153.26 0.57 c p3
309.06 153.26 0.57 c p3
308.89 153.25 0.57 c p3
308.46 153.24 0.57 c p3
308.18 153.23 0.57 c p3
308.07 153.22 0.57 c p3
307.92 153.22 0.57 c p3
307.86 153.21 0.57 c p3
307.77 153.20 0.57 c p3
307.71 153.19 0.57 c p3
307.65 153.19 0.57 c p3
307.27 153.18 0.57 c p3
307.17 153.17 0.57 c p3
307.14 153.17 0.57 c p3
306.97 153.16 0.57 c p3
306.80 153.15 0.57 c p3
306.73 153.14 0.57 c p3
306.70 153.13 0.57 c p3
306.59 153.13 0.57 c p3
306.55 153.12 0.57 c p3
306.48 153.11 0.57 c p3
306.45 153.10 0.57 c p3
306.30 153.10 0.57 c p3
306.11 153.08 0.57 c p3
306.03 153.08 0.57 c p3
305.88 153.07 0.57 c p3
305.84 153.06 0.57 c p3
305.72 153.06 0.57 c p3
305.59 153.05 0.57 c p3
305.47 153.04 0.57 c p3
305.38 153.03 0.57 c p3
305.30 153.02 0.57 c p3
305.21 153.01 0.57 c p3
305.03 153.01 0.57 c p3
304.90 153.00 0.57 c p3
304.85 152.99 0.57 c p3
304.28 152.97 0.57 c p3
304.23 152.96 0.57 c p3
304.08 152.94 0.57 c p3
303.97 152.93 0.57 c p3
303.92 152.92 0.57 c p3
303.87 152.91 0.57 c p3
303.76 152.90 0.57 c p3
303.71 152.90 0.57 c p3
303.60 152.88 0.57 c p3
303.54 152.87 0.57 c p3
303.32 152.86 0.57 c p3
303.26 152.85 0.57 c p3
303.20 152.83 0.57 c p3
303.15 152.82 0.57 c p3
303.09 152.81 0.57 c p3
303.03 152.81 0.57 c p3
302.97 152.78 0.57 c p3
302.91 152.77 0.57 c p3
302.72 152.76 0.57 c p3
302.53 152.74 0.57 c p3
302.47 152.74 0.57 c p3
302.34 152.73 0.57 c p3
302.27 152.71 0.57 c p3
302.14 152.69 0.57 c p3
302.07 152.68 0.57 c p3
302.00 152.66 0.57 c p3
301.93 152.64 0.57 c p3
301.65 152.63 0.57 c p3
301.57 152.60 0.57 c p3
301.50 152.59 0.57 c p3
301.43 152.56 0.57 c p3
301.35 152.55 0.57 c p3
301.20 152.53 0.57 c p3
301.12 152.52 0.57 c p3
301.04 152.49 0.57 c p3
300.96 152.46 0.57 c p3
300.88 152.44 0.57 c p3
300.80 152.42 0.57 c p3
300.72 152.42 0.57 c p3
300.63 152.40 0.57 c p3
300.55 152.35 0.57 c p3
300.37 152.33 0.57 c p3
300.29 152.33 0.57 c p3
300.20 152.30 0.57 c p3
300.11 152.30 0.57 c p3
300.02 152.28 0.57 c p3
299.92 152.23 0.57 c p3
299.83 152.21 0.57 c p3
299.74 152.19 0.57 c p3
299.64 152.16 0.57 c p3
299.54 152.15 0.57 c p3
299.44 152.14 0.57 c p3
299.24 152.12 0.57 c p3
299.14 152.07 0.57 c p3
299.03 152.06 0.57 c p3
298.93 152.04 0.57 c p3
298.82 152.02 0.57 c p3
298.71 152.01 0.57 c p3
298.60 152.00 0.57 c p3
298.48 151.98 0.57 c p3
298.37 151.91 0.57 c p3
298.25 151.88 0.57 c p3
298.13 151.84 0.57 c p3
298.01 151.79 0.57 c p3
297.89 151.74 0.57 c p3
297.76 151.74 0.57 c p3
297.63 151.67 0.57 c p3
297.50 151.62 0.57 c p3
297.37 151.55 0.57 c p3
297.23 151.50 0.57 c p3
297.10 151.44 0.57 c p3
296.96 151.38 0.57 c p3
296.81 151.34 0.57 c p3
296.66 151.28 0.57 c p3
296.51 151.22 0.57 c p3
296.36 151.17 0.57 c p3
296.20 151.12 0.57 c p3
296.04 151.04 0.57 c p3
295.88 150.98 0.57 c p3
295.71 150.90 0.57 c p3
295.54 150.85 0.57 c p3
295.36 150.78 0.57 c p3
295.18 150.66 0.57 c p3
295.00 150.61 0.57 c p3
294.80 150.55 0.57 c p3
294.61 150.44 0.57 c p3
294.41 150.36 0.57 c p3
294.20 150.30 0.57 c p3
293.98 150.22 0.57 c p3
293.76 150.11 0.57 c p3
293.53 149.93 0.57 c p3
293.30 149.79 0.57 c p3
293.05 149.62 0.57 c p3
292.80 149.44 0.57 c p3
292.53 149.22 0.57 c p3
292.26 149.06 0.57 c p3
291.98 148.83 0.57 c p3
291.68 148.59 0.57 c p3
291.37 148.35 0.57 c p3
291.04 148.11 0.57 c p3
290.70 147.89 0.57 c p3
290.35 147.58 0.57 c p3
289.97 147.26 0.57 c p3
289.57 146.87 0.57 c p3
289.15 146.42 0.57 c p3
288.70 145.87 0.57 c p3
288.22 145.37 0.57 c p3
287.70 144.60 0.57 c p3
287.14 143.88 0.57 c p3
286.53 142.97 0.57 c p3
285.87 142.00 0.57 c p3
285.13 140.63 0.57 c p3
284.31 138.91 0.57 c p3
283.38 136.87 0.57 c p3
282.30 134.31 0.57 c p3
281.03 130.78 0.57 c p3
279.48 125.42 0.57 c p3
277.47 117.20 0.57 c p3
274.64 102.64 0.57 c p3
269.80 69.16 0.57 c p3
0.4980 0.4980 0.4980 srgb
1.07 setlinewidth
[] 0 setdash
265.07 54.09 104.09 104.09 r p1
0.00 0.00 595.28 198.43 cl
375.14 54.09 479.23 158.18 cl
/bg { 1 1 1 srgb } def
375.14 54.09 104.09 104.09 r p2
0.9804 0.9804 0.9804 srgb
1.07 setlinewidth
[] 0 setdash
0 setlinecap
1 setlinejoin
10.00 setmiterlimit
np
379.87 54.09 m
0 104.09 l
o
np
412.00 54.09 m
0 104.09 l
o
np
444.13 54.09 m
0 104.09 l
o
np
476.25 54.09 m
0 104.09 l
o
0.8980 0.8980 0.8980 srgb
0.43 setlinewidth
[] 0 setdash
np
375.14 153.45 m
104.09 0 l
o
np
395.94 54.09 m
0 104.09 l
o
np
428.06 54.09 m
0 104.09 l
o
np
460.19 54.09 m
0 104.09 l
o
/bg { 0 0 0 srgb } def
0 0 0 srgb
0.71 setlinewidth
[] 0 setdash
1 setlinecap
459.70 153.45 0.57 c p3
450.59 153.45 0.57 c p3
450.57 153.44 0.57 c p3
448.29 153.44 0.57 c p3
447.90 153.44 0.57 c p3
445.84 153.43 0.57 c p3
444.84 153.43 0.57 c p3
444.14 153.43 0.57 c p3
443.34 153.42 0.57 c p3
443.04 153.42 0.57 c p3
442.89 153.42 0.57 c p3
442.42 153.42 0.57 c p3
442.17 153.41 0.57 c p3
441.66 153.41 0.57 c p3
441.51 153.41 0.57 c p3
440.73 153.40 0.57 c p3
440.73 153.40 0.57 c p3
440.22 153.40 0.57 c p3
440.11 153.39 0.57 c p3
440.01 153.39 0.57 c p3
440.00 153.39 0.57 c p3
439.65 153.38 0.57 c p3
439.14 153.38 0.57 c p3
439.01 153.38 0.57 c p3
438.86 153.37 0.57 c p3
438.76 153.37 0.57 c p3
438.69 153.37 0.57 c p3
438.68 153.36 0.57 c p3
438.66 153.36 0.57 c p3
438.50 153.36 0.57 c p3
438.44 153.36 0.57 c p3
438.43 153.35 0.57 c p3
438.41 153.35 0.57 c p3
438.39 153.35 0.57 c p3
438.33 153.34 0.57 c p3
438.00 153.34 0.57 c p3
437.82 153.34 0.57 c p3
437.72 153.33 0.57 c p3
437.46 153.33 0.57 c p3
437.45 153.33 0.57 c p3
437.45 153.32 0.57 c p3
437.34 153.32 0.57 c p3
437.29 153.32 0.57 c p3
437.23 153.31 0.57 c p3
437.07 153.31 0.57 c p3
437.05 153.31 0.57 c p3
436.98 153.30 0.57 c p3
436.95 153.30 0.57 c p3
436.91 153.30 0.57 c p3
436.90 153.29 0.57 c p3
436.86 153.29 0.57 c p3
436.72 153.29 0.57 c p3
436.62 153.28 0.57 c p3
436.45 153.28 0.57 c p3
436.41 153.28 0.57 c p3
436.39 153.27 0.57 c p3
435.99 153.27 0.57 c p3
435.93 153.27 0.57 c p3
435.85 153.26 0.57 c p3
435.81 153.26 0.57 c p3
435.80 153.26 0.57 c p3
435.77 153.25 0.57 c p3
435.71 153.25 0.57 c p3
435.51 153.25 0.57 c p3
435.27 153.24 0.57 c p3
435.18 153.24 0.57 c p3
435.13 153.24 0.57 c p3
435.13 153.23 0.57 c p3
435.08 153.23 0.57 c p3
435.07 153.23 0.57 c p3
435.05 153.22 0.57 c p3
435.00 153.22 0.57 c p3
434.82 153.22 0.57 c p3
434.81 153.21 0.57 c p3
434.77 153.21 0.57 c p3
434.64 153.21 0.57 c p3
434.64 153.20 0.57 c p3
434.57 153.20 0.57 c p3
434.44 153.20 0.57 c p3
434.30 153.19 0.57 c p3
434.22 153.19 0.57 c p3
434.20 153.19 0.57 c p3
434.15 153.18 0.57 c p3
434.10 153.18 0.57 c p3
434.00 153.18 0.57 c p3
433.93 153.18 0.57 c p3
433.92 153.17 0.57 c p3
433.88 153.17 0.57 c p3
433.87 153.17 0.57 c p3
433.74 153.16 0.57 c p3
433.67 153.16 0.57 c p3
433.66 153.16 0.57 c p3
433.54 153.15 0.57 c p3
433.44 153.15 0.57 c p3
433.43 153.15 0.57 c p3
433.43 153.14 0.57 c p3
433.39 153.14 0.57 c p3
433.36 153.14 0.57 c p3
433.34 153.13 0.57 c p3
433.34 153.13 0.57 c p3
433.34 153.13 0.57 c p3
433.18 153.12 0.57 c p3
433.12 153.12 0.57 c p3
433.10 153.12 0.57 c p3
433.02 153.11 0.57 c p3
433.01 153.11 0.57 c p3
432.94 153.11 0.57 c p3
432.92 153.11 0.57 c p3
432.84 153.10 0.57 c p3
432.83 153.10 0.57 c p3
432.68 153.10 0.57 c p3
432.65 153.09 0.57 c p3
432.38 153.09 0.57 c p3
432.35 153.09 0.57 c p3
432.22 153.08 0.57 c p3
432.16 153.08 0.57 c p3
432.16 153.08 0.57 c p3
432.15 153.07 0.57 c p3
432.09 153.07 0.57 c p3
431.99 153.07 0.57 c p3
431.99 153.06 0.57 c p3
431.96 153.06 0.57 c p3
431.89 153.06 0.57 c p3
431.84 153.05 0.57 c p3
431.83 153.05 0.57 c p3
431.81 153.05 0.57 c p3
431.74 153.05 0.57 c p3
431.63 153.04 0.57 c p3
431.53 153.04 0.57 c p3
431.43 153.04 0.57 c p3
431.38 153.03 0.57 c p3
431.29 153.03 0.57 c p3
431.23 153.03 0.57 c p3
431.21 153.02 0.57 c p3
431.12 153.02 0.57 c p3
431.10 153.02 0.57 c p3
431.08 153.01 0.57 c p3
430.93 153.01 0.57 c p3
430.92 153.00 0.57 c p3
430.91 153.00 0.57 c p3
430.89 152.99 0.57 c p3
430.83 152.99 0.57 c p3
430.78 152.99 0.57 c p3
430.77 152.98 0.57 c p3
430.74 152.98 0.57 c p3
430.70 152.98 0.57 c p3
430.64 152.98 0.57 c p3
430.63 152.97 0.57 c p3
430.57 152.97 0.57 c p3
430.56 152.97 0.57 c p3
430.47 152.96 0.57 c p3
430.43 152.96 0.57 c p3
430.32 152.96 0.57 c p3
430.26 152.95 0.57 c p3
430.14 152.95 0.57 c p3
430.14 152.95 0.57 c p3
430.06 152.94 0.57 c p3
430.05 152.94 0.57 c p3
430.03 152.93 0.57 c p3
429.99 152.93 0.57 c p3
429.93 152.93 0.57 c p3
429.92 152.92 0.57 c p3
429.89 152.92 0.57 c p3
429.84 152.92 0.57 c p3
429.81 152.91 0.57 c p3
429.77 152.91 0.57 c p3
429.74 152.90 0.57 c p3
429.74 152.90 0.57 c p3
429.72 152.90 0.57 c p3
429.70 152.89 0.57 c p3
429.63 152.89 0.57 c p3
429.61 152.89 0.57 c p3
429.60 152.88 0.57 c p3
429.59 152.88 0.57 c p3
429.56 152.88 0.57 c p3
429.55 152.87 0.57 c p3
429.48 152.87 0.57 c p3
429.42 152.87 0.57 c p3
429.41 152.86 0.57 c p3
429.35 152.86 0.57 c p3
429.34 152.85 0.57 c p3
429.32 152.85 0.57 c p3
429.26 152.85 0.57 c p3
429.18 152.85 0.57 c p3
429.10 152.84 0.57 c p3
429.05 152.84 0.57 c p3
429.03 152.83 0.57 c p3
428.97 152.83 0.57 c p3
428.92 152.82 0.57 c p3
428.91 152.82 0.57 c p3
428.86 152.82 0.57 c p3
428.83 152.81 0.57 c p3
428.73 152.81 0.57 c p3
428.73 152.81 0.57 c p3
428.68 152.80 0.57 c p3
428.67 152.80 0.57 c p3
428.65 152.80 0.57 c p3
428.62 152.79 0.57 c p3
428.57 152.79 0.57 c p3
428.53 152.79 0.57 c p3
428.52 152.78 0.57 c p3
428.50 152.78 0.57 c p3
428.46 152.78 0.57 c p3
428.42 152.77 0.57 c p3
428.40 152.77 0.57 c p3
428.38 152.77 0.57 c p3
428.34 152.76 0.57 c p3
428.32 152.76 0.57 c p3
428.30 152.76 0.57 c p3
428.29 152.75 0.57 c p3
428.25 152.75 0.57 c p3
428.23 152.75 0.57 c p3
428.17 152.74 0.57 c p3
428.02 152.74 0.57 c p3
428.00 152.74 0.57 c p3
427.98 152.73 0.57 c p3
427.91 152.73 0.57 c p3
427.79 152.73 0.57 c p3
427.76 152.72 0.57 c p3
427.68 152.72 0.57 c p3
427.65 152.72 0.57 c p3
427.62 152.71 0.57 c p3
427.58 152.71 0.57 c p3
427.50 152.71 0.57 c p3
427.44 152.70 0.57 c p3
427.43 152.70 0.57 c p3
427.37 152.69 0.57 c p3
427.36 152.69 0.57 c p3
427.32 152.68 0.57 c p3
427.30 152.68 0.57 c p3
427.25 152.67 0.57 c p3
427.24 152.67 0.57 c p3
427.19 152.66 0.57 c p3
427.17 152.66 0.57 c p3
427.15 152.66 0.57 c p3
427.12 152.65 0.57 c p3
427.12 152.65 0.57 c p3
427.10 152.65 0.57 c p3
427.09 152.64 0.57 c p3
426.99 152.64 0.57 c p3
426.90 152.64 0.57 c p3
426.88 152.64 0.57 c p3
426.86 152.63 0.57 c p3
426.85 152.63 0.57 c p3
426.80 152.63 0.57 c p3
426.80 152.62 0.57 c p3
426.75 152.62 0.57 c p3
426.70 152.62 0.57 c p3
426.68 152.61 0.57 c p3
426.64 152.60 0.57 c p3
426.64 152.60 0.57 c p3
426.59 152.60 0.57 c p3
426.58 152.59 0.57 c p3
426.56 152.59 0.57 c p3
426.51 152.59 0.57 c p3
426.51 152.58 0.57 c p3
426.48 152.58 0.57 c p3
426.47 152.57 0.57 c p3
426.46 152.57 0.57 c p3
426.45 152.56 0.57 c p3
426.43 152.55 0.57 c p3
426.41 152.54 0.57 c p3
426.38 152.54 0.57 c p3
426.37 152.54 0.57 c p3
426.34 152.53 0.57 c p3
426.32 152.53 0.57 c p3
426.28 152.53 0.57 c p3
426.26 152.52 0.57 c p3
426.18 152.52 0.57 c p3
426.16 152.52 0.57 c p3
426.11 152.51 0.57 c p3
426.08 152.50 0.57 c p3
426.05 152.50 0.57 c p3
426.02 152.50 0.57 c p3
426.00 152.49 0.57 c p3
425.99 152.49 0.57 c p3
425.98 152.49 0.57 c p3
425.95 152.48 0.57 c p3
425.89 152.48 0.57 c p3
425.88 152.47 0.57 c p3
425.83 152.47 0.57 c p3
425.74 152.47 0.57 c p3
425.70 152.46 0.57 c p3
425.68 152.46 0.57 c p3
425.62 152.46 0.57 c p3
425.58 152.45 0.57 c p3
425.54 152.44 0.57 c p3
425.53 152.44 0.57 c p3
425.48 152.43 0.57 c p3
425.46 152.43 0.57 c p3
425.44 152.43 0.57 c p3
425.43 152.42 0.57 c p3
425.41 152.42 0.57 c p3
425.40 152.42 0.57 c p3
425.39 152.42 0.57 c p3
425.37 152.41 0.57 c p3
425.33 152.40 0.57 c p3
425.28 152.39 0.57 c p3
425.26 152.39 0.57 c p3
425.24 152.39 0.57 c p3
425.21 152.38 0.57 c p3
425.17 152.38 0.57 c p3
425.14 152.38 0.57 c p3
425.13 152.37 0.57 c p3
425.10 152.37 0.57 c p3
425.08 152.37 0.57 c p3
425.07 152.36 0.57 c p3
425.06 152.36 0.57 c p3
425.05 152.35 0.57 c p3
425.04 152.35 0.57 c p3
425.03 152.35 0.57 c p3
425.01 152.35 0.57 c p3
425.00 152.34 0.57 c p3
424.98 152.34 0.57 c p3
424.95 152.34 0.57 c p3
424.93 152.33 0.57 c p3
424.92 152.33 0.57 c p3
424.89 152.32 0.57 c p3
424.86 152.32 0.57 c p3
424.84 152.31 0.57 c p3
424.76 152.31 0.57 c p3
424.74 152.31 0.57 c p3
424.73 152.30 0.57 c p3
424.72 152.30 0.57 c p3
424.67 152.29 0.57 c p3
424.61 152.29 0.57 c p3
424.60 152.28 0.57 c p3
424.58 152.28 0.57 c p3
424.56 152.28 0.57 c p3
424.53 152.27 0.57 c p3
424.50 152.27 0.57 c p3
424.46 152.27 0.57 c p3
424.44 152.27 0.57 c p3
424.42 152.26 0.57 c p3
424.41 152.26 0.57 c p3
424.39 152.26 0.57 c p3
424.37 152.25 0.57 c p3
424.32 152.25 0.57 c p3
424.27 152.24 0.57 c p3
424.26 152.23 0.57 c p3
424.24 152.22 0.57 c p3
424.23 152.22 0.57 c p3
424.21 152.22 0.57 c p3
424.19 152.21 0.57 c p3
424.07 152.20 0.57 c p3
424.04 152.20 0.57 c p3
424.02 152.20 0.57 c p3
424.01 152.19 0.57 c p3
423.98 152.19 0.57 c p3
423.96 152.19 0.57 c p3
423.94 152.18 0.57 c p3
423.93 152.18 0.57 c p3
423.90 152.17 0.57 c p3
423.89 152.17 0.57 c p3
423.88 152.16 0.57 c p3
423.85 152.16 0.57 c p3
423.83 152.15 0.57 c p3
423.80 152.14 0.57 c p3
423.79 152.14 0.57 c p3
423.75 152.13 0.57 c p3
423.74 152.13 0.57 c p3
423.71 152.13 0.57 c p3
423.70 152.12 0.57 c p3
423.67 152.12 0.57 c p3
423.63 152.11 0.57 c p3
423.62 152.11 0.57 c p3
423.61 152.11 0.57 c p3
423.58 152.10 0.57 c p3
423.57 152.10 0.57 c p3
423.55 152.10 0.57 c p3
423.53 152.09 0.57 c p3
423.46 152.09 0.57 c p3
423.43 152.08 0.57 c p3
423.35 152.08 0.57 c p3
423.31 152.08 0.57 c p3
423.27 152.07 0.57 c p3
423.25 152.07 0.57 c p3
423.23 152.07 0.57 c p3
423.18 152.06 0.57 c p3
423.13 152.06 0.57 c p3
423.11 152.05 0.57 c p3
423.09 152.05 0.57 c p3
423.06 152.04 0.57 c p3
423.03 152.04 0.57 c p3
423.00 152.03 0.57 c p3
422.96 152.03 0.57 c p3
422.94 152.02 0.57 c p3
422.93 152.02 0.57 c p3
422.90 152.02 0.57 c p3
422.88 152.01 0.57 c p3
422.87 152.01 0.57 c p3
422.85 152.00 0.57 c p3
422.78 152.00 0.57 c p3
422.77 151.99 0.57 c p3
422.75 151.99 0.57 c p3
422.72 151.98 0.57 c p3
422.68 151.98 0.57 c p3
422.66 151.97 0.57 c p3
422.65 151.96 0.57 c p3
422.61 151.96 0.57 c p3
422.60 151.96 0.57 c p3
422.58 151.95 0.57 c p3
422.57 151.95 0.57 c p3
422.55 151.95 0.57 c p3
422.52 151.95 0.57 c p3
422.51 151.94 0.57 c p3
422.48 151.94 0.57 c p3
422.46 151.94 0.57 c p3
422.45 151.93 0.57 c p3
422.43 151.92 0.57 c p3
422.41 151.92 0.57 c p3
422.37 151.92 0.57 c p3
422.35 151.91 0.57 c p3
422.34 151.91 0.57 c p3
422.30 151.90 0.57 c p3
422.29 151.89 0.57 c p3
422.26 151.88 0.57 c p3
422.24 151.88 0.57 c p3
422.22 151.87 0.57 c p3
422.21 151.87 0.57 c p3
422.19 151.87 0.57 c p3
422.16 151.86 0.57 c p3
422.14 151.86 0.57 c p3
422.13 151.85 0.57 c p3
422.09 151.84 0.57 c p3
422.06 151.84 0.57 c p3
422.04 151.84 0.57 c p3
421.99 151.83 0.57 c p3
421.98 151.82 0.57 c p3
421.96 151.82 0.57 c p3
421.93 151.81 0.57 c p3
421.88 151.81 0.57 c p3
421.86 151.80 0.57 c p3
421.84 151.80 0.57 c p3
421.83 151.79 0.57 c p3
421.81 151.79 0.57 c p3
421.77 151.78 0.57 c p3
421.69 151.77 0.57 c p3
421.64 151.77 0.57 c p3
421.62 151.77 0.57 c p3
421.58 151.76 0.57 c p3
421.56 151.76 0.57 c p3
421.55 151.75 0.57 c p3
421.53 151.74 0.57 c p3
421.51 151.74 0.57 c p3
421.49 151.73 0.57 c p3
421.48 151.72 0.57 c p3
421.42 151.72 0.57 c p3
421.40 151.72 0.57 c p3
421.39 151.71 0.57 c p3
421.35 151.71 0.57 c p3
421.31 151.70 0.57 c p3
421.28 151.69 0.57 c p3
421.26 151.68 0.57 c p3
421.24 151.68 0.57 c p3
421.22 151.67 0.57 c p3
421.20 151.67 0.57 c p3
421.15 151.66 0.57 c p3
421.13 151.66 0.57 c p3
421.11 151.65 0.57 c p3
421.09 151.65 0.57 c p3
421.07 151.64 0.57 c p3
421.03 151.64 0.57 c p3
421.01 151.64 0.57 c p3
420.99 151.63 0.57 c p3
420.94 151.63 0.57 c p3
420.92 151.62 0.57 c p3
420.88 151.62 0.57 c p3
420.86 151.61 0.57 c p3
420.84 151.61 0.57 c p3
420.82 151.60 0.57 c p3
420.80 151.60 0.57 c p3
420.78 151.60 0.57 c p3
420.76 151.59 0.57 c p3
420.74 151.58 0.57 c p3
420.72 151.58 0.57 c p3
420.70 151.57 0.57 c p3
420.68 151.57 0.57 c p3
420.64 151.57 0.57 c p3
420.62 151.55 0.57 c p3
420.60 151.54 0.57 c p3
420.58 151.54 0.57 c p3
420.56 151.53 0.57 c p3
420.54 151.53 0.57 c p3
420.47 151.52 0.57 c p3
420.45 151.51 0.57 c p3
420.43 151.50 0.57 c p3
420.41 151.50 0.57 c p3
420.39 151.49 0.57 c p3
420.37 151.49 0.57 c p3
420.35 151.49 0.57 c p3
420.33 151.48 0.57 c p3
420.31 151.47 0.57 c p3
420.29 151.47 0.57 c p3
420.24 151.47 0.57 c p3
420.22 151.46 0.57 c p3
420.20 151.45 0.57 c p3
420.18 151.45 0.57 c p3
420.16 151.44 0.57 c p3
420.14 151.44 0.57 c p3
420.11 151.43 0.57 c p3
420.09 151.43 0.57 c p3
420.07 151.41 0.57 c p3
420.05 151.41 0.57 c p3
420.03 151.40 0.57 c p3
420.00 151.39 0.57 c p3
419.98 151.38 0.57 c p3
419.96 151.38 0.57 c p3
419.94 151.37 0.57 c p3
419.89 151.36 0.57 c p3
419.87 151.36 0.57 c p3
419.85 151.35 0.57 c p3
419.82 151.34 0.57 c p3
419.80 151.33 0.57 c p3
419.76 151.33 0.57 c p3
419.73 151.32 0.57 c p3
419.71 151.32 0.57 c p3
419.69 151.31 0.57 c p3
419.66 151.31 0.57 c p3
419.64 151.30 0.57 c p3
419.62 151.29 0.57 c p3
419.59 151.29 0.57 c p3
419.57 151.28 0.57 c p3
419.55 151.28 0.57 c p3
419.52 151.27 0.57 c p3
419.50 151.27 0.57 c p3
419.47 151.26 0.57 c p3
419.45 151.25 0.57 c p3
419.43 151.25 0.57 c p3
419.40 151.24 0.57 c p3
419.38 151.22 0.57 c p3
419.35 151.22 0.57 c p3
419.26 151.21 0.57 c p3
419.23 151.21 0.57 c p3
419.21 151.20 0.57 c p3
419.18 151.19 0.57 c p3
419.16 151.18 0.57 c p3
419.13 151.17 0.57 c p3
419.11 151.17 0.57 c p3
419.08 151.16 0.57 c p3
419.06 151.15 0.57 c p3
419.03 151.14 0.57 c p3
419.01 151.14 0.57 c p3
418.95 151.13 0.57 c p3
418.93 151.13 0.57 c p3
418.90 151.12 0.57 c p3
418.88 151.12 0.57 c p3
418.85 151.11 0.57 c p3
418.82 151.10 0.57 c p3
418.80 151.09 0.57 c p3
418.77 151.08 0.57 c p3
418.75 151.08 0.57 c p3
418.72 151.07 0.57 c p3
418.69 151.06 0.57 c p3
418.66 151.05 0.57 c p3
418.64 151.04 0.57 c p3
418.61 151.03 0.57 c p3
418.58 151.02 0.57 c p3
418.56 151.02 0.57 c p3
418.53 151.00 0.57 c p3
418.50 151.00 0.57 c p3
418.47 150.99 0.57 c p3
418.45 150.98 0.57 c p3
418.42 150.97 0.57 c p3
418.39 150.97 0.57 c p3
418.36 150.96 0.57 c p3
418.34 150.95 0.57 c p3
418.31 150.94 0.57 c p3
418.28 150.93 0.57 c p3
418.25 150.92 0.57 c p3
418.19 150.92 0.57 c p3
418.16 150.91 0.57 c p3
418.14 150.89 0.57 c p3
418.11 150.88 0.57 c p3
418.08 150.87 0.57 c p3
418.05 150.86 0.57 c p3
418.02 150.85 0.57 c p3
417.99 150.85 0.57 c p3
417.96 150.83 0.57 c p3
417.93 150.82 0.57 c p3
417.90 150.81 0.57 c p3
417.87 150.81 0.57 c p3
417.84 150.80 0.57 c p3
417.81 150.79 0.57 c p3
417.75 150.78 0.57 c p3
417.72 150.78 0.57 c p3
417.69 150.77 0.57 c p3
417.66 150.75 0.57 c p3
417.63 150.74 0.57 c p3
417.59 150.74 0.57 c p3
417.56 150.72 0.57 c p3
417.53 150.71 0.57 c p3
417.50 150.71 0.57 c p3
417.47 150.70 0.57 c p3
417.44 150.69 0.57 c p3
417.40 150.68 0.57 c p3
417.37 150.68 0.57 c p3
417.34 150.67 0.57 c p3
417.31 150.66 0.57 c p3
417.27 150.66 0.57 c p3
417.24 150.65 0.57 c p3
417.21 150.64 0.57 c p3
417.18 150.63 0.57 c p3
417.14 150.63 0.57 c p3
417.11 150.62 0.57 c p3
417.07 150.59 0.57 c p3
417.01 150.58 0.57 c p3
416.97 150.57 0.57 c p3
416.94 150.57 0.57 c p3
416.90 150.56 0.57 c p3
416.87 150.55 0.57 c p3
416.83 150.54 0.57 c p3
416.80 150.53 0.57 c p3
416.76 150.51 0.57 c p3
416.73 150.48 0.57 c p3
416.69 150.46 0.57 c p3
416.66 150.44 0.57 c p3
416.62 150.43 0.57 c p3
416.59 150.42 0.57 c p3
416.55 150.41 0.57 c p3
416.51 150.39 0.57 c p3
416.48 150.39 0.57 c p3
416.44 150.38 0.57 c p3
416.40 150.38 0.57 c p3
416.37 150.36 0.57 c p3
416.33 150.34 0.57 c p3
416.29 150.34 0.57 c p3
416.25 150.32 0.57 c p3
416.21 150.30 0.57 c p3
416.18 150.29 0.57 c p3
416.14 150.28 0.57 c p3
416.10 150.27 0.57 c p3
416.06 150.25 0.57 c p3
416.02 150.23 0.57 c p3
415.98 150.22 0.57 c p3
415.94 150.19 0.57 c p3
415.90 150.19 0.57 c p3
415.86 150.17 0.57 c p3
415.82 150.15 0.57 c p3
415.78 150.15 0.57 c p3
415.74 150.14 0.57 c p3
415.70 150.11 0.57 c p3
415.66 150.09 0.57 c p3
415.62 150.07 0.57 c p3
415.58 150.05 0.57 c p3
415.53 150.04 0.57 c p3
415.49 150.02 0.57 c p3
415.45 150.00 0.57 c p3
415.41 149.98 0.57 c p3
415.36 149.97 0.57 c p3
415.32 149.96 0.57 c p3
415.28 149.94 0.57 c p3
415.23 149.91 0.57 c p3
415.19 149.90 0.57 c p3
415.15 149.88 0.57 c p3
415.10 149.86 0.57 c p3
415.06 149.85 0.57 c p3
415.01 149.81 0.57 c p3
414.97 149.79 0.57 c p3
414.92 149.78 0.57 c p3
414.87 149.75 0.57 c p3
414.83 149.73 0.57 c p3
414.78 149.70 0.57 c p3
414.73 149.69 0.57 c p3
414.69 149.68 0.57 c p3
414.64 149.65 0.57 c p3
414.59 149.65 0.57 c p3
414.54 149.63 0.57 c p3
414.49 149.61 0.57 c p3
414.45 149.59 0.57 c p3
414.40 149.56 0.57 c p3
414.35 149.55 0.57 c p3
414.30 149.53 0.57 c p3
414.25 149.51 0.57 c p3
414.20 149.49 0.57 c p3
414.14 149.48 0.57 c p3
414.09 149.46 0.57 c p3
414.04 149.44 0.57 c p3
413.99 149.43 0.57 c p3
413.94 149.41 0.57 c p3
413.88 149.37 0.57 c p3
413.83 149.35 0.57 c p3
413.78 149.32 0.57 c p3
413.72 149.30 0.57 c p3
413.67 149.28 0.57 c p3
413.61 149.27 0.57 c p3
413.56 149.25 0.57 c p3
413.50 149.23 0.57 c p3
413.44 149.20 0.57 c p3
413.39 149.17 0.57 c p3
413.33 149.15 0.57 c p3
413.27 149.13 0.57 c p3
413.21 149.13 0.57 c p3
413.15 149.12 0.57 c p3
413.09 149.09 0.57 c p3
413.03 149.07 0.57 c p3
412.97 149.02 0.57 c p3
412.91 148.99 0.57 c p3
412.85 148.95 0.57 c p3
412.79 148.93 0.57 c p3
412.73 148.90 0.57 c p3
412.66 148.86 0.57 c p3
412.60 148.84 0.57 c p3
412.54 148.82 0.57 c p3
412.47 148.76 0.57 c p3
412.41 148.73 0.57 c p3
412.34 148.69 0.57 c p3
412.27 148.65 0.57 c p3
412.21 148.62 0.57 c p3
412.14 148.58 0.57 c p3
412.07 148.53 0.57 c p3
412.00 148.50 0.57 c p3
411.93 148.46 0.57 c p3
411.86 148.41 0.57 c p3
411.79 148.39 0.57 c p3
411.71 148.36 0.57 c p3
411.64 148.33 0.57 c p3
411.57 148.28 0.57 c p3
411.49 148.25 0.57 c p3
411.42 148.22 0.57 c p3
411.34 148.15 0.57 c p3
411.26 148.11 0.57 c p3
411.19 148.08 0.57 c p3
411.11 148.05 0.57 c p3
411.03 148.00 0.57 c p3
410.95 147.95 0.57 c p3
410.87 147.91 0.57 c p3
410.78 147.87 0.57 c p3
410.70 147.81 0.57 c p3
410.61 147.77 0.57 c p3
410.53 147.73 0.57 c p3
410.44 147.68 0.57 c p3
410.35 147.62 0.57 c p3
410.27 147.54 0.57 c p3
410.18 147.49 0.57 c p3
410.08 147.45 0.57 c p3
409.99 147.39 0.57 c p3
409.90 147.33 0.57 c p3
409.80 147.29 0.57 c p3
409.71 147.22 0.57 c p3
409.61 147.15 0.57 c p3
409.51 147.10 0.57 c p3
409.41 147.05 0.57 c p3
409.31 146.98 0.57 c p3
409.21 146.91 0.57 c p3
409.10 146.85 0.57 c p3
408.99 146.78 0.57 c p3
408.89 146.71 0.57 c p3
408.78 146.67 0.57 c p3
408.66 146.60 0.57 c p3
408.55 146.55 0.57 c p3
408.44 146.44 0.57 c p3
408.32 146.38 0.57 c p3
408.20 146.28 0.57 c p3
408.08 146.21 0.57 c p3
407.95 146.12 0.57 c p3
407.83 146.04 0.57 c p3
407.70 145.99 0.57 c p3
407.57 145.91 0.57 c p3
407.44 145.81 0.57 c p3
407.30 145.72 0.57 c p3
407.16 145.65 0.57 c p3
407.02 145.54 0.57 c p3
406.88 145.45 0.57 c p3
406.73 145.32 0.57 c p3
406.58 145.17 0.57 c p3
406.43 145.03 0.57 c p3
406.27 144.85 0.57 c p3
406.11 144.71 0.57 c p3
405.95 144.54 0.57 c p3
405.78 144.38 0.57 c p3
405.61 144.22 0.57 c p3
405.43 144.09 0.57 c p3
405.25 143.94 0.57 c p3
405.06 143.75 0.57 c p3
404.87 143.54 0.57 c p3
404.68 143.37 0.57 c p3
404.47 143.12 0.57 c p3
404.26 142.94 0.57 c p3
404.05 142.73 0.57 c p3
403.83 142.50 0.57 c p3
403.60 142.32 0.57 c p3
403.36 142.09 0.57 c p3
403.12 141.88 0.57 c p3
402.86 141.62 0.57 c p3
402.60 141.29 0.57 c p3
402.33 140.99 0.57 c p3
402.04 140.61 0.57 c p3
401.75 140.20 0.57 c p3
401.44 139.85 0.57 c p3
401.11 139.40 0.57 c p3
400.77 138.88 0.57 c p3
400.41 138.36 0.57 c p3
400.04 137.77 0.57 c p3
399.64 137.14 0.57 c p3
399.21 136.45 0.57 c p3
398.76 135.76 0.57 c p3
398.28 134.95 0.57 c p3
397.77 134.08 0.57 c p3
397.21 132.92 0.57 c p3
396.60 131.74 0.57 c p3
395.94 130.32 0.57 c p3
395.20 128.53 0.57 c p3
394.38 126.47 0.57 c p3
393.45 124.13 0.57 c p3
392.37 121.11 0.57 c p3
391.10 117.39 0.57 c p3
389.54 112.16 0.57 c p3
387.54 104.31 0.57 c p3
384.71 90.29 0.57 c p3
379.87 58.82 0.57 c p3
0.4980 0.4980 0.4980 srgb
1.07 setlinewidth
[] 0 setdash
375.14 54.09 104.09 104.09 r p1
0.00 0.00 595.28 198.43 cl
485.21 54.09 589.30 158.18 cl
/bg { 1 1 1 srgb } def
485.21 54.09 104.09 104.09 r p2
0.9804 0.9804 0.9804 srgb
1.07 setlinewidth
[] 0 setdash
0 setlinecap
1 setlinejoin
10.00 setmiterlimit
np
489.94 54.09 m
0 104.09 l
o
np
522.07 54.09 m
0 104.09 l
o
np
554.19 54.09 m
0 104.09 l
o
np
586.32 54.09 m
0 104.09 l
o
0.8980 0.8980 0.8980 srgb
0.43 setlinewidth
[] 0 setdash
np
485.21 153.45 m
104.09 0 l
o
np
506.00 54.09 m
0 104.09 l
o
np
538.13 54.09 m
0 104.09 l
o
np
570.26 54.09 m
0 104.09 l
o
/bg { 0 0 0 srgb } def
0 0 0 srgb
0.71 setlinewidth
[] 0 setdash
1 setlinecap
584.57 153.45 0.57 c p3
554.61 153.45 0.57 c p3
552.55 153.45 0.57 c p3
550.79 153.45 0.57 c p3
550.14 153.45 0.57 c p3
549.95 153.45 0.57 c p3
549.43 153.45 0.57 c p3
548.99 153.45 0.57 c p3
548.21 153.45 0.57 c p3
548.16 153.45 0.57 c p3
547.90 153.45 0.57 c p3
546.99 153.45 0.57 c p3
546.79 153.45 0.57 c p3
546.72 153.45 0.57 c p3
546.65 153.45 0.57 c p3
546.58 153.45 0.57 c p3
545.82 153.45 0.57 c p3
545.82 153.45 0.57 c p3
545.15 153.44 0.57 c p3
545.08 153.44 0.57 c p3
544.92 153.44 0.57 c p3
544.64 153.44 0.57 c p3
544.51 153.44 0.57 c p3
544.03 153.44 0.57 c p3
543.97 153.44 0.57 c p3
543.50 153.44 0.57 c p3
543.03 153.44 0.57 c p3
542.94 153.44 0.57 c p3
542.78 153.44 0.57 c p3
542.70 153.44 0.57 c p3
542.55 153.44 0.57 c p3
542.40 153.44 0.57 c p3
542.22 153.44 0.57 c p3
542.17 153.44 0.57 c p3
542.08 153.44 0.57 c p3
542.03 153.44 0.57 c p3
541.97 153.44 0.57 c p3
541.94 153.44 0.57 c p3
541.93 153.44 0.57 c p3
541.83 153.44 0.57 c p3
541.80 153.44 0.57 c p3
541.70 153.44 0.57 c p3
541.69 153.44 0.57 c p3
541.64 153.44 0.57 c p3
541.62 153.44 0.57 c p3
541.52 153.44 0.57 c p3
541.51 153.44 0.57 c p3
541.50 153.44 0.57 c p3
541.50 153.44 0.57 c p3
541.40 153.44 0.57 c p3
541.40 153.44 0.57 c p3
541.28 153.44 0.57 c p3
541.26 153.43 0.57 c p3
541.21 153.43 0.57 c p3
541.14 153.43 0.57 c p3
540.91 153.43 0.57 c p3
540.84 153.43 0.57 c p3
540.79 153.43 0.57 c p3
540.69 153.43 0.57 c p3
540.62 153.43 0.57 c p3
540.61 153.43 0.57 c p3
540.56 153.43 0.57 c p3
540.48 153.43 0.57 c p3
540.42 153.43 0.57 c p3
540.33 153.43 0.57 c p3
540.31 153.43 0.57 c p3
540.24 153.43 0.57 c p3
540.21 153.43 0.57 c p3
540.19 153.43 0.57 c p3
540.12 153.43 0.57 c p3
540.11 153.43 0.57 c p3
540.09 153.43 0.57 c p3
540.01 153.43 0.57 c p3
540.00 153.43 0.57 c p3
539.99 153.43 0.57 c p3
539.96 153.43 0.57 c p3
539.91 153.43 0.57 c p3
539.91 153.43 0.57 c p3
539.86 153.43 0.57 c p3
539.84 153.43 0.57 c p3
539.78 153.43 0.57 c p3
539.73 153.43 0.57 c p3
539.68 153.43 0.57 c p3
539.60 153.43 0.57 c p3
539.58 153.42 0.57 c p3
539.51 153.42 0.57 c p3
539.50 153.42 0.57 c p3
539.49 153.42 0.57 c p3
539.38 153.42 0.57 c p3
539.33 153.42 0.57 c p3
539.30 153.42 0.57 c p3
539.27 153.42 0.57 c p3
539.26 153.42 0.57 c p3
539.24 153.42 0.57 c p3
539.20 153.42 0.57 c p3
539.20 153.42 0.57 c p3
539.18 153.42 0.57 c p3
539.17 153.42 0.57 c p3
539.15 153.42 0.57 c p3
539.13 153.42 0.57 c p3
539.06 153.42 0.57 c p3
539.04 153.42 0.57 c p3
539.02 153.42 0.57 c p3
539.01 153.42 0.57 c p3
539.00 153.42 0.57 c p3
538.99 153.42 0.57 c p3
538.99 153.42 0.57 c p3
538.98 153.42 0.57 c p3
538.93 153.42 0.57 c p3
538.91 153.42 0.57 c p3
538.83 153.42 0.57 c p3
538.82 153.42 0.57 c p3
538.80 153.42 0.57 c p3
538.78 153.42 0.57 c p3
538.78 153.41 0.57 c p3
538.76 153.41 0.57 c p3
538.71 153.41 0.57 c p3
538.69 153.41 0.57 c p3
538.65 153.41 0.57 c p3
538.61 153.41 0.57 c p3
538.56 153.41 0.57 c p3
538.51 153.41 0.57 c p3
538.50 153.41 0.57 c p3
538.49 153.41 0.57 c p3
538.48 153.41 0.57 c p3
538.34 153.41 0.57 c p3
538.27 153.41 0.57 c p3
538.27 153.41 0.57 c p3
538.26 153.41 0.57 c p3
538.21 153.41 0.57 c p3
538.14 153.41 0.57 c p3
538.12 153.41 0.57 c p3
538.08 153.41 0.57 c p3
538.05 153.41 0.57 c p3
538.00 153.41 0.57 c p3
537.99 153.41 0.57 c p3
537.97 153.41 0.57 c p3
537.95 153.41 0.57 c p3
537.93 153.41 0.57 c p3
537.91 153.41 0.57 c p3
537.90 153.41 0.57 c p3
537.90 153.41 0.57 c p3
537.87 153.41 0.57 c p3
537.83 153.41 0.57 c p3
537.82 153.40 0.57 c p3
537.79 153.40 0.57 c p3
537.77 153.40 0.57 c p3
537.76 153.40 0.57 c p3
537.75 153.40 0.57 c p3
537.71 153.40 0.57 c p3
537.70 153.40 0.57 c p3
537.68 153.40 0.57 c p3
537.65 153.40 0.57 c p3
537.59 153.40 0.57 c p3
537.56 153.40 0.57 c p3
537.54 153.40 0.57 c p3
537.52 153.40 0.57 c p3
537.51 153.40 0.57 c p3
537.50 153.40 0.57 c p3
537.44 153.40 0.57 c p3
537.43 153.40 0.57 c p3
537.39 153.40 0.57 c p3
537.38 153.40 0.57 c p3
537.34 153.40 0.57 c p3
537.31 153.40 0.57 c p3
537.30 153.40 0.57 c p3
537.29 153.40 0.57 c p3
537.21 153.40 0.57 c p3
537.19 153.40 0.57 c p3
537.18 153.40 0.57 c p3
537.15 153.39 0.57 c p3
537.09 153.39 0.57 c p3
537.06 153.39 0.57 c p3
537.05 153.39 0.57 c p3
537.05 153.39 0.57 c p3
537.04 153.39 0.57 c p3
537.03 153.39 0.57 c p3
537.00 153.39 0.57 c p3
536.96 153.39 0.57 c p3
536.91 153.39 0.57 c p3
536.90 153.39 0.57 c p3
536.86 153.39 0.57 c p3
536.85 153.39 0.57 c p3
536.84 153.39 0.57 c p3
536.80 153.39 0.57 c p3
536.74 153.39 0.57 c p3
536.72 153.39 0.57 c p3
536.70 153.39 0.57 c p3
536.61 153.39 0.57 c p3
536.58 153.39 0.57 c p3
536.54 153.39 0.57 c p3
536.53 153.39 0.57 c p3
536.52 153.39 0.57 c p3
536.51 153.39 0.57 c p3
536.49 153.39 0.57 c p3
536.47 153.39 0.57 c p3
536.45 153.39 0.57 c p3
536.44 153.39 0.57 c p3
536.41 153.39 0.57 c p3
536.39 153.39 0.57 c p3
536.38 153.39 0.57 c p3
536.36 153.39 0.57 c p3
536.35 153.38 0.57 c p3
536.32 153.38 0.57 c p3
536.32 153.38 0.57 c p3
536.31 153.38 0.57 c p3
536.29 153.38 0.57 c p3
536.21 153.38 0.57 c p3
536.19 153.38 0.57 c p3
536.18 153.38 0.57 c p3
536.17 153.38 0.57 c p3
536.15 153.38 0.57 c p3
536.13 153.38 0.57 c p3
536.11 153.38 0.57 c p3
536.10 153.38 0.57 c p3
536.05 153.38 0.57 c p3
536.02 153.38 0.57 c p3
536.01 153.38 0.57 c p3
536.00 153.38 0.57 c p3
535.98 153.38 0.57 c p3
535.97 153.38 0.57 c p3
535.95 153.38 0.57 c p3
535.94 153.38 0.57 c p3
535.93 153.38 0.57 c p3
535.92 153.38 0.57 c p3
535.89 153.38 0.57 c p3
535.85 153.37 0.57 c p3
535.83 153.37 0.57 c p3
535.81 153.37 0.57 c p3
535.79 153.37 0.57 c p3
535.78 153.37 0.57 c p3
535.75 153.37 0.57 c p3
535.74 153.37 0.57 c p3
535.70 153.37 0.57 c p3
535.67 153.37 0.57 c p3
535.63 153.37 0.57 c p3
535.62 153.37 0.57 c p3
535.57 153.37 0.57 c p3
535.55 153.37 0.57 c p3
535.52 153.37 0.57 c p3
535.50 153.37 0.57 c p3
535.49 153.37 0.57 c p3
535.48 153.37 0.57 c p3
535.46 153.37 0.57 c p3
535.45 153.37 0.57 c p3
535.42 153.37 0.57 c p3
535.40 153.37 0.57 c p3
535.38 153.37 0.57 c p3
535.37 153.37 0.57 c p3
535.35 153.37 0.57 c p3
535.33 153.37 0.57 c p3
535.30 153.37 0.57 c p3
535.26 153.37 0.57 c p3
535.25 153.36 0.57 c p3
535.23 153.36 0.57 c p3
535.22 153.36 0.57 c p3
535.21 153.36 0.57 c p3
535.17 153.36 0.57 c p3
535.16 153.36 0.57 c p3
535.14 153.36 0.57 c p3
535.10 153.36 0.57 c p3
535.06 153.36 0.57 c p3
535.05 153.36 0.57 c p3
535.03 153.36 0.57 c p3
535.01 153.36 0.57 c p3
534.99 153.36 0.57 c p3
534.95 153.36 0.57 c p3
534.94 153.36 0.57 c p3
534.93 153.36 0.57 c p3
534.85 153.36 0.57 c p3
534.80 153.36 0.57 c p3
534.78 153.36 0.57 c p3
534.76 153.36 0.57 c p3
534.74 153.36 0.57 c p3
534.73 153.36 0.57 c p3
534.72 153.36 0.57 c p3
534.69 153.36 0.57 c p3
534.67 153.35 0.57 c p3
534.66 153.35 0.57 c p3
534.65 153.35 0.57 c p3
534.64 153.35 0.57 c p3
534.57 153.35 0.57 c p3
534.55 153.35 0.57 c p3
534.53 153.35 0.57 c p3
534.51 153.35 0.57 c p3
534.50 153.35 0.57 c p3
534.47 153.35 0.57 c p3
534.45 153.35 0.57 c p3
534.43 153.35 0.57 c p3
534.41 153.35 0.57 c p3
534.40 153.35 0.57 c p3
534.39 153.35 0.57 c p3
534.38 153.35 0.57 c p3
534.37 153.35 0.57 c p3
534.35 153.35 0.57 c p3
534.33 153.35 0.57 c p3
534.32 153.35 0.57 c p3
534.31 153.35 0.57 c p3
534.29 153.35 0.57 c p3
534.27 153.35 0.57 c p3
534.26 153.35 0.57 c p3
534.23 153.35 0.57 c p3
534.18 153.34 0.57 c p3
534.16 153.34 0.57 c p3
534.15 153.34 0.57 c p3
534.13 153.34 0.57 c p3
534.11 153.34 0.57 c p3
534.10 153.34 0.57 c p3
534.08 153.34 0.57 c p3
534.07 153.34 0.57 c p3
534.05 153.34 0.57 c p3
534.02 153.34 0.57 c p3
534.01 153.34 0.57 c p3
533.98 153.34 0.57 c p3
533.97 153.34 0.57 c p3
533.96 153.34 0.57 c p3
533.93 153.34 0.57 c p3
533.90 153.34 0.57 c p3
533.88 153.34 0.57 c p3
533.86 153.34 0.57 c p3
533.84 153.34 0.57 c p3
533.83 153.34 0.57 c p3
533.81 153.34 0.57 c p3
533.78 153.34 0.57 c p3
533.75 153.33 0.57 c p3
533.71 153.33 0.57 c p3
533.69 153.33 0.57 c p3
533.63 153.33 0.57 c p3
533.61 153.33 0.57 c p3
533.58 153.33 0.57 c p3
533.57 153.33 0.57 c p3
533.55 153.33 0.57 c p3
533.54 153.33 0.57 c p3
533.53 153.33 0.57 c p3
533.51 153.33 0.57 c p3
533.47 153.33 0.57 c p3
533.46 153.33 0.57 c p3
533.45 153.33 0.57 c p3
533.42 153.33 0.57 c p3
533.41 153.33 0.57 c p3
533.39 153.33 0.57 c p3
533.38 153.33 0.57 c p3
533.31 153.33 0.57 c p3
533.29 153.33 0.57 c p3
533.28 153.33 0.57 c p3
533.27 153.33 0.57 c p3
533.24 153.33 0.57 c p3
533.21 153.32 0.57 c p3
533.20 153.32 0.57 c p3
533.17 153.32 0.57 c p3
533.15 153.32 0.57 c p3
533.14 153.32 0.57 c p3
533.12 153.32 0.57 c p3
533.11 153.32 0.57 c p3
533.10 153.32 0.57 c p3
533.08 153.32 0.57 c p3
533.07 153.32 0.57 c p3
533.05 153.32 0.57 c p3
533.02 153.32 0.57 c p3
533.01 153.32 0.57 c p3
533.00 153.32 0.57 c p3
532.97 153.32 0.57 c p3
532.95 153.32 0.57 c p3
532.92 153.32 0.57 c p3
532.89 153.31 0.57 c p3
532.86 153.31 0.57 c p3
532.85 153.31 0.57 c p3
532.82 153.31 0.57 c p3
532.80 153.31 0.57 c p3
532.79 153.31 0.57 c p3
532.77 153.31 0.57 c p3
532.76 153.31 0.57 c p3
532.74 153.31 0.57 c p3
532.73 153.31 0.57 c p3
532.71 153.31 0.57 c p3
532.70 153.31 0.57 c p3
532.67 153.30 0.57 c p3
532.64 153.30 0.57 c p3
532.61 153.30 0.57 c p3
532.59 153.30 0.57 c p3
532.57 153.30 0.57 c p3
532.56 153.30 0.57 c p3
532.54 153.30 0.57 c p3
532.53 153.30 0.57 c p3
532.51 153.30 0.57 c p3
532.48 153.30 0.57 c p3
532.47 153.30 0.57 c p3
532.43 153.30 0.57 c p3
532.40 153.30 0.57 c p3
532.39 153.30 0.57 c p3
532.37 153.30 0.57 c p3
532.35 153.30 0.57 c p3
532.34 153.30 0.57 c p3
532.32 153.30 0.57 c p3
532.31 153.29 0.57 c p3
532.29 153.29 0.57 c p3
532.27 153.29 0.57 c p3
532.24 153.29 0.57 c p3
532.23 153.29 0.57 c p3
532.21 153.29 0.57 c p3
532.18 153.29 0.57 c p3
532.16 153.29 0.57 c p3
532.14 153.29 0.57 c p3
532.13 153.29 0.57 c p3
532.11 153.29 0.57 c p3
532.04 153.29 0.57 c p3
532.03 153.29 0.57 c p3
532.01 153.28 0.57 c p3
531.99 153.28 0.57 c p3
531.98 153.28 0.57 c p3
531.96 153.28 0.57 c p3
531.94 153.28 0.57 c p3
531.93 153.28 0.57 c p3
531.91 153.28 0.57 c p3
531.89 153.28 0.57 c p3
531.88 153.28 0.57 c p3
531.86 153.28 0.57 c p3
531.84 153.28 0.57 c p3
531.82 153.28 0.57 c p3
531.81 153.28 0.57 c p3
531.79 153.28 0.57 c p3
531.76 153.28 0.57 c p3
531.72 153.28 0.57 c p3
531.70 153.28 0.57 c p3
531.69 153.27 0.57 c p3
531.65 153.27 0.57 c p3
531.63 153.27 0.57 c p3
531.61 153.27 0.57 c p3
531.60 153.27 0.57 c p3
531.58 153.27 0.57 c p3
531.56 153.27 0.57 c p3
531.54 153.27 0.57 c p3
531.53 153.27 0.57 c p3
531.51 153.27 0.57 c p3
531.49 153.27 0.57 c p3
531.47 153.27 0.57 c p3
531.45 153.27 0.57 c p3
531.43 153.26 0.57 c p3
531.42 153.26 0.57 c p3
531.40 153.26 0.57 c p3
531.38 153.26 0.57 c p3
531.36 153.26 0.57 c p3
531.34 153.26 0.57 c p3
531.32 153.26 0.57 c p3
531.31 153.26 0.57 c p3
531.29 153.26 0.57 c p3
531.27 153.26 0.57 c p3
531.25 153.26 0.57 c p3
531.21 153.26 0.57 c p3
531.19 153.26 0.57 c p3
531.17 153.25 0.57 c p3
531.16 153.25 0.57 c p3
531.14 153.25 0.57 c p3
531.12 153.25 0.57 c p3
531.08 153.25 0.57 c p3
531.06 153.25 0.57 c p3
531.04 153.25 0.57 c p3
531.02 153.25 0.57 c p3
531.00 153.25 0.57 c p3
530.98 153.25 0.57 c p3
530.96 153.25 0.57 c p3
530.94 153.24 0.57 c p3
530.92 153.24 0.57 c p3
530.91 153.24 0.57 c p3
530.89 153.24 0.57 c p3
530.87 153.24 0.57 c p3
530.85 153.24 0.57 c p3
530.83 153.24 0.57 c p3
530.81 153.24 0.57 c p3
530.79 153.24 0.57 c p3
530.77 153.24 0.57 c p3
530.75 153.23 0.57 c p3
530.73 153.23 0.57 c p3
530.71 153.23 0.57 c p3
530.67 153.23 0.57 c p3
530.64 153.23 0.57 c p3
530.62 153.23 0.57 c p3
530.60 153.23 0.57 c p3
530.58 153.23 0.57 c p3
530.56 153.23 0.57 c p3
530.54 153.23 0.57 c p3
530.52 153.23 0.57 c p3
530.50 153.22 0.57 c p3
530.48 153.22 0.57 c p3
530.46 153.22 0.57 c p3
530.44 153.22 0.57 c p3
530.42 153.22 0.57 c p3
530.40 153.22 0.57 c p3
530.37 153.22 0.57 c p3
530.35 153.22 0.57 c p3
530.33 153.22 0.57 c p3
530.31 153.22 0.57 c p3
530.29 153.22 0.57 c p3
530.27 153.21 0.57 c p3
530.25 153.21 0.57 c p3
530.22 153.21 0.57 c p3
530.20 153.21 0.57 c p3
530.18 153.21 0.57 c p3
530.16 153.21 0.57 c p3
530.14 153.21 0.57 c p3
530.12 153.21 0.57 c p3
530.09 153.21 0.57 c p3
530.07 153.21 0.57 c p3
530.05 153.21 0.57 c p3
530.03 153.21 0.57 c p3
530.00 153.21 0.57 c p3
529.98 153.20 0.57 c p3
529.96 153.20 0.57 c p3
529.94 153.20 0.57 c p3
529.91 153.20 0.57 c p3
529.89 153.20 0.57 c p3
529.87 153.20 0.57 c p3
529.85 153.20 0.57 c p3
529.82 153.20 0.57 c p3
529.80 153.20 0.57 c p3
529.78 153.20 0.57 c p3
529.75 153.20 0.57 c p3
529.73 153.19 0.57 c p3
529.71 153.19 0.57 c p3
529.68 153.19 0.57 c p3
529.66 153.19 0.57 c p3
529.64 153.19 0.57 c p3
529.61 153.19 0.57 c p3
529.59 153.19 0.57 c p3
529.57 153.19 0.57 c p3
529.54 153.19 0.57 c p3
529.52 153.18 0.57 c p3
529.49 153.18 0.57 c p3
529.47 153.18 0.57 c p3
529.45 153.18 0.57 c p3
529.42 153.18 0.57 c p3
529.40 153.18 0.57 c p3
529.37 153.17 0.57 c p3
529.35 153.17 0.57 c p3
529.32 153.17 0.57 c p3
529.30 153.17 0.57 c p3
529.27 153.17 0.57 c p3
529.25 153.17 0.57 c p3
529.22 153.17 0.57 c p3
529.20 153.17 0.57 c p3
529.17 153.17 0.57 c p3
529.15 153.16 0.57 c p3
529.12 153.16 0.57 c p3
529.10 153.16 0.57 c p3
529.07 153.16 0.57 c p3
529.05 153.16 0.57 c p3
529.02 153.16 0.57 c p3
529.00 153.16 0.57 c p3
528.97 153.15 0.57 c p3
528.94 153.15 0.57 c p3
528.92 153.15 0.57 c p3
528.89 153.15 0.57 c p3
528.87 153.15 0.57 c p3
528.84 153.15 0.57 c p3
528.81 153.15 0.57 c p3
528.79 153.14 0.57 c p3
528.76 153.14 0.57 c p3
528.73 153.14 0.57 c p3
528.71 153.14 0.57 c p3
528.68 153.14 0.57 c p3
528.65 153.14 0.57 c p3
528.62 153.14 0.57 c p3
528.60 153.13 0.57 c p3
528.57 153.13 0.57 c p3
528.54 153.13 0.57 c p3
528.51 153.13 0.57 c p3
528.49 153.13 0.57 c p3
528.46 153.13 0.57 c p3
528.43 153.13 0.57 c p3
528.40 153.12 0.57 c p3
528.37 153.12 0.57 c p3
528.35 153.12 0.57 c p3
528.32 153.12 0.57 c p3
528.29 153.12 0.57 c p3
528.26 153.12 0.57 c p3
528.23 153.11 0.57 c p3
528.20 153.11 0.57 c p3
528.17 153.11 0.57 c p3
528.14 153.11 0.57 c p3
528.12 153.10 0.57 c p3
528.09 153.10 0.57 c p3
528.06 153.10 0.57 c p3
528.03 153.10 0.57 c p3
528.00 153.10 0.57 c p3
527.97 153.09 0.57 c p3
527.94 153.09 0.57 c p3
527.91 153.09 0.57 c p3
527.88 153.09 0.57 c p3
527.85 153.09 0.57 c p3
527.82 153.08 0.57 c p3
527.79 153.08 0.57 c p3
527.75 153.08 0.57 c p3
527.72 153.08 0.57 c p3
527.69 153.08 0.57 c p3
527.66 153.07 0.57 c p3
527.63 153.07 0.57 c p3
527.60 153.07 0.57 c p3
527.57 153.07 0.57 c p3
527.54 153.06 0.57 c p3
527.50 153.06 0.57 c p3
527.47 153.06 0.57 c p3
527.44 153.06 0.57 c p3
527.41 153.05 0.57 c p3
527.37 153.05 0.57 c p3
527.34 153.05 0.57 c p3
527.31 153.04 0.57 c p3
527.28 153.04 0.57 c p3
527.24 153.04 0.57 c p3
527.21 153.04 0.57 c p3
527.18 153.04 0.57 c p3
527.14 153.03 0.57 c p3
527.11 153.03 0.57 c p3
527.07 153.03 0.57 c p3
527.04 153.02 0.57 c p3
527.01 153.02 0.57 c p3
526.97 153.02 0.57 c p3
526.94 153.02 0.57 c p3
526.90 153.01 0.57 c p3
526.87 153.01 0.57 c p3
526.83 153.01 0.57 c p3
526.80 153.00 0.57 c p3
526.76 153.00 0.57 c p3
526.73 153.00 0.57 c p3
526.69 152.99 0.57 c p3
526.65 152.99 0.57 c p3
526.62 152.98 0.57 c p3
526.58 152.98 0.57 c p3
526.54 152.98 0.57 c p3
526.51 152.98 0.57 c p3
526.47 152.97 0.57 c p3
526.43 152.97 0.57 c p3
526.40 152.97 0.57 c p3
526.36 152.97 0.57 c p3
526.32 152.96 0.57 c p3
526.28 152.96 0.57 c p3
526.24 152.96 0.57 c p3
526.21 152.95 0.57 c p3
526.17 152.95 0.57 c p3
526.13 152.95 0.57 c p3
526.09 152.94 0.57 c p3
526.05 152.94 0.57 c p3
526.01 152.94 0.57 c p3
525.97 152.93 0.57 c p3
525.93 152.93 0.57 c p3
525.89 152.92 0.57 c p3
525.85 152.92 0.57 c p3
525.81 152.92 0.57 c p3
525.77 152.91 0.57 c p3
525.73 152.91 0.57 c p3
525.69 152.90 0.57 c p3
525.64 152.90 0.57 c p3
525.60 152.90 0.57 c p3
525.56 152.89 0.57 c p3
525.52 152.89 0.57 c p3
525.47 152.89 0.57 c p3
525.43 152.88 0.57 c p3
525.39 152.88 0.57 c p3
525.35 152.88 0.57 c p3
525.30 152.87 0.57 c p3
525.26 152.87 0.57 c p3
525.21 152.86 0.57 c p3
525.17 152.85 0.57 c p3
525.12 152.85 0.57 c p3
525.08 152.84 0.57 c p3
525.03 152.84 0.57 c p3
524.99 152.83 0.57 c p3
524.94 152.83 0.57 c p3
524.90 152.82 0.57 c p3
524.85 152.81 0.57 c p3
524.80 152.81 0.57 c p3
524.75 152.80 0.57 c p3
524.71 152.80 0.57 c p3
524.66 152.79 0.57 c p3
524.61 152.78 0.57 c p3
524.56 152.78 0.57 c p3
524.51 152.77 0.57 c p3
524.46 152.76 0.57 c p3
524.41 152.76 0.57 c p3
524.36 152.75 0.57 c p3
524.31 152.74 0.57 c p3
524.26 152.74 0.57 c p3
524.21 152.73 0.57 c p3
524.16 152.72 0.57 c p3
524.11 152.71 0.57 c p3
524.06 152.71 0.57 c p3
524.00 152.70 0.57 c p3
523.95 152.69 0.57 c p3
523.90 152.68 0.57 c p3
523.84 152.68 0.57 c p3
523.79 152.67 0.57 c p3
523.73 152.67 0.57 c p3
523.68 152.66 0.57 c p3
523.62 152.65 0.57 c p3
523.57 152.64 0.57 c p3
523.51 152.64 0.57 c p3
523.45 152.63 0.57 c p3
523.40 152.62 0.57 c p3
523.34 152.61 0.57 c p3
523.28 152.60 0.57 c p3
523.22 152.59 0.57 c p3
523.16 152.58 0.57 c p3
523.10 152.58 0.57 c p3
523.04 152.57 0.57 c p3
522.98 152.56 0.57 c p3
522.92 152.55 0.57 c p3
522.86 152.54 0.57 c p3
522.79 152.53 0.57 c p3
522.73 152.52 0.57 c p3
522.67 152.50 0.57 c p3
522.60 152.49 0.57 c p3
522.54 152.48 0.57 c p3
522.47 152.47 0.57 c p3
522.41 152.46 0.57 c p3
522.34 152.44 0.57 c p3
522.27 152.43 0.57 c p3
522.20 152.42 0.57 c p3
522.14 152.40 0.57 c p3
522.07 152.39 0.57 c p3
522.00 152.38 0.57 c p3
521.93 152.36 0.57 c p3
521.85 152.35 0.57 c p3
521.78 152.33 0.57 c p3
521.71 152.31 0.57 c p3
521.63 152.30 0.57 c p3
521.56 152.28 0.57 c p3
521.48 152.26 0.57 c p3
521.41 152.25 0.57 c p3
521.33 152.23 0.57 c p3
521.25 152.21 0.57 c p3
521.17 152.20 0.57 c p3
521.09 152.18 0.57 c p3
521.01 152.16 0.57 c p3
520.93 152.15 0.57 c p3
520.85 152.13 0.57 c p3
520.77 152.10 0.57 c p3
520.68 152.09 0.57 c p3
520.60 152.07 0.57 c p3
520.51 152.05 0.57 c p3
520.42 152.03 0.57 c p3
520.33 152.01 0.57 c p3
520.24 151.98 0.57 c p3
520.15 151.96 0.57 c p3
520.06 151.93 0.57 c p3
519.97 151.91 0.57 c p3
519.87 151.88 0.57 c p3
519.77 151.86 0.57 c p3
519.68 151.83 0.57 c p3
519.58 151.80 0.57 c p3
519.48 151.78 0.57 c p3
519.38 151.75 0.57 c p3
519.27 151.71 0.57 c p3
519.17 151.68 0.57 c p3
519.06 151.65 0.57 c p3
518.95 151.62 0.57 c p3
518.84 151.58 0.57 c p3
518.73 151.54 0.57 c p3
518.62 151.51 0.57 c p3
518.50 151.47 0.57 c p3
518.39 151.43 0.57 c p3
518.27 151.38 0.57 c p3
518.14 151.34 0.57 c p3
518.02 151.30 0.57 c p3
517.90 151.26 0.57 c p3
517.77 151.21 0.57 c p3
517.64 151.16 0.57 c p3
517.50 151.11 0.57 c p3
517.37 151.06 0.57 c p3
517.23 151.00 0.57 c p3
517.09 150.94 0.57 c p3
516.95 150.88 0.57 c p3
516.80 150.82 0.57 c p3
516.65 150.75 0.57 c p3
516.50 150.68 0.57 c p3
516.34 150.62 0.57 c p3
516.18 150.54 0.57 c p3
516.01 150.46 0.57 c p3
515.85 150.39 0.57 c p3
515.67 150.30 0.57 c p3
515.50 150.22 0.57 c p3
515.32 150.13 0.57 c p3
515.13 150.02 0.57 c p3
514.94 149.93 0.57 c p3
514.74 149.80 0.57 c p3
514.54 149.69 0.57 c p3
514.33 149.55 0.57 c p3
514.12 149.41 0.57 c p3
513.90 149.27 0.57 c p3
513.67 149.11 0.57 c p3
513.43 148.96 0.57 c p3
513.19 148.79 0.57 c p3
512.93 148.60 0.57 c p3
512.67 148.40 0.57 c p3
512.40 148.19 0.57 c p3
512.11 147.97 0.57 c p3
511.81 147.73 0.57 c p3
511.50 147.45 0.57 c p3
511.18 147.16 0.57 c p3
510.84 146.83 0.57 c p3
510.48 146.50 0.57 c p3
510.10 146.11 0.57 c p3
509.70 145.68 0.57 c p3
509.28 145.18 0.57 c p3
508.83 144.62 0.57 c p3
508.35 144.02 0.57 c p3
507.83 143.31 0.57 c p3
507.27 142.54 0.57 c p3
506.67 141.54 0.57 c p3
506.00 140.43 0.57 c p3
505.27 139.13 0.57 c p3
504.45 137.49 0.57 c p3
503.51 135.42 0.57 c p3
502.44 132.78 0.57 c p3
501.17 129.25 0.57 c p3
499.61 124.32 0.57 c p3
497.60 116.82 0.57 c p3
494.78 103.90 0.57 c p3
489.94 74.75 0.57 c p3
0.4980 0.4980 0.4980 srgb
1.07 setlinewidth
[] 0 setdash
485.21 54.09 104.09 104.09 r p1
0.00 0.00 595.28 198.43 cl
0.00 0.00 595.28 198.43 cl
0.00 0.00 595.28 198.43 cl
0.00 0.00 595.28 198.43 cl
0.00 0.00 595.28 198.43 cl
0.00 0.00 595.28 198.43 cl
/Font1 findfont 12 s
0 0 0 srgb
21.77 147.77 (10) 0 0 t
/Font1 findfont 8 s
35.11 153.73 (0) 0 0 t
0.00 0.00 595.28 198.43 cl
0.00 0.00 595.28 198.43 cl
0 0 0 srgb
1.07 setlinewidth
[] 0 setdash
0 setlinecap
1 setlinejoin
10.00 setmiterlimit
np
41.95 153.45 m
2.99 0 l
o
0.00 0.00 595.28 198.43 cl
0.00 0.00 595.28 198.43 cl
0.00 0.00 595.28 198.43 cl
0.00 0.00 595.28 198.43 cl
0.00 0.00 595.28 198.43 cl
0.00 0.00 595.28 198.43 cl
0.00 0.00 595.28 198.43 cl
0.00 0.00 595.28 198.43 cl
0 0 0 srgb
1.07 setlinewidth
[] 0 setdash
0 setlinecap
1 setlinejoin
10.00 setmiterlimit
np
65.73 51.10 m
0 2.99 l
o
np
97.86 51.10 m
0 2.99 l
o
np
129.99 51.10 m
0 2.99 l
o
0.00 0.00 595.28 198.43 cl
0.00 0.00 595.28 198.43 cl
/Font1 findfont 12 s
0 0 0 srgb
56.84 37.13 (10) 0 0 t
/Font1 findfont 8 s
70.18 43.09 (1) 0 0 t
/Font1 findfont 12 s
88.96 37.13 (10) 0 0 t
/Font1 findfont 8 s
102.31 43.09 (3) 0 0 t
/Font1 findfont 12 s
121.09 37.25 (10) 0 0 t
/Font1 findfont 8 s
134.44 43.21 (5) 0 0 t
0.00 0.00 595.28 198.43 cl
0.00 0.00 595.28 198.43 cl
0.00 0.00 595.28 198.43 cl
0.00 0.00 595.28 198.43 cl
0.00 0.00 595.28 198.43 cl
0.00 0.00 595.28 198.43 cl
0.00 0.00 595.28 198.43 cl
0.00 0.00 595.28 198.43 cl
0 0 0 srgb
1.07 setlinewidth
[] 0 setdash
0 setlinecap
1 setlinejoin
10.00 setmiterlimit
np
175.80 51.10 m
0 2.99 l
o
np
207.93 51.10 m
0 2.99 l
o
np
240.05 51.10 m
0 2.99 l
o
0.00 0.00 595.28 198.43 cl
0.00 0.00 595.28 198.43 cl
/Font1 findfont 12 s
0 0 0 srgb
166.90 37.13 (10) 0 0 t
/Font1 findfont 8 s
180.25 43.09 (1) 0 0 t
/Font1 findfont 12 s
199.03 37.13 (10) 0 0 t
/Font1 findfont 8 s
212.38 43.09 (3) 0 0 t
/Font1 findfont 12 s
231.16 37.25 (10) 0 0 t
/Font1 findfont 8 s
244.50 43.21 (5) 0 0 t
0.00 0.00 595.28 198.43 cl
0.00 0.00 595.28 198.43 cl
0.00 0.00 595.28 198.43 cl
0.00 0.00 595.28 198.43 cl
0.00 0.00 595.28 198.43 cl
0.00 0.00 595.28 198.43 cl
0.00 0.00 595.28 198.43 cl
0.00 0.00 595.28 198.43 cl
0 0 0 srgb
1.07 setlinewidth
[] 0 setdash
0 setlinecap
1 setlinejoin
10.00 setmiterlimit
np
285.87 51.10 m
0 2.99 l
o
np
318.00 51.10 m
0 2.99 l
o
np
350.12 51.10 m
0 2.99 l
o
0.00 0.00 595.28 198.43 cl
0.00 0.00 595.28 198.43 cl
/Font1 findfont 12 s
0 0 0 srgb
276.97 37.13 (10) 0 0 t
/Font1 findfont 8 s
290.32 43.09 (1) 0 0 t
/Font1 findfont 12 s
309.10 37.13 (10) 0 0 t
/Font1 findfont 8 s
322.44 43.09 (3) 0 0 t
/Font1 findfont 12 s
341.23 37.25 (10) 0 0 t
/Font1 findfont 8 s
354.57 43.21 (5) 0 0 t
0.00 0.00 595.28 198.43 cl
0.00 0.00 595.28 198.43 cl
0.00 0.00 595.28 198.43 cl
0.00 0.00 595.28 198.43 cl
0.00 0.00 595.28 198.43 cl
0.00 0.00 595.28 198.43 cl
0.00 0.00 595.28 198.43 cl
0.00 0.00 595.28 198.43 cl
0 0 0 srgb
1.07 setlinewidth
[] 0 setdash
0 setlinecap
1 setlinejoin
10.00 setmiterlimit
np
395.94 51.10 m
0 2.99 l
o
np
428.06 51.10 m
0 2.99 l
o
np
460.19 51.10 m
0 2.99 l
o
0.00 0.00 595.28 198.43 cl
0.00 0.00 595.28 198.43 cl
/Font1 findfont 12 s
0 0 0 srgb
387.04 37.13 (10) 0 0 t
/Font1 findfont 8 s
400.38 43.09 (1) 0 0 t
/Font1 findfont 12 s
419.17 37.13 (10) 0 0 t
/Font1 findfont 8 s
432.51 43.09 (3) 0 0 t
/Font1 findfont 12 s
451.29 37.25 (10) 0 0 t
/Font1 findfont 8 s
464.64 43.21 (5) 0 0 t
0.00 0.00 595.28 198.43 cl
0.00 0.00 595.28 198.43 cl
0.00 0.00 595.28 198.43 cl
0.00 0.00 595.28 198.43 cl
0.00 0.00 595.28 198.43 cl
0.00 0.00 595.28 198.43 cl
0.00 0.00 595.28 198.43 cl
0.00 0.00 595.28 198.43 cl
0 0 0 srgb
1.07 setlinewidth
[] 0 setdash
0 setlinecap
1 setlinejoin
10.00 setmiterlimit
np
506.00 51.10 m
0 2.99 l
o
np
538.13 51.10 m
0 2.99 l
o
np
570.26 51.10 m
0 2.99 l
o
0.00 0.00 595.28 198.43 cl
0.00 0.00 595.28 198.43 cl
/Font1 findfont 12 s
0 0 0 srgb
497.11 37.13 (10) 0 0 t
/Font1 findfont 8 s
510.45 43.09 (1) 0 0 t
/Font1 findfont 12 s
529.23 37.13 (10) 0 0 t
/Font1 findfont 8 s
542.58 43.09 (3) 0 0 t
/Font1 findfont 12 s
561.36 37.25 (10) 0 0 t
/Font1 findfont 8 s
574.70 43.21 (5) 0 0 t
0.00 0.00 595.28 198.43 cl
0.00 0.00 595.28 198.43 cl
0.00 0.00 595.28 198.43 cl
0.00 0.00 595.28 198.43 cl
/Font1 findfont 12 s
0 0 0 srgb
317.12 23.50 (posts) .5 0 t
0.00 0.00 595.28 198.43 cl
0.00 0.00 595.28 198.43 cl
/Font1 findfont 12 s
0 0 0 srgb
16.98 106.14 (cdf) .5 90 t
0.00 0.00 595.28 198.43 cl
0.00 0.00 595.28 198.43 cl
0.00 0.00 595.28 198.43 cl
0.00 0.00 595.28 198.43 cl
ep
%%Trailer
%%Pages: 1
%%EOF
