%!PS-Adobe-3.0 EPSF-3.0
%%DocumentNeededResources: font Helvetica
%%+ font Helvetica-Bold
%%+ font Helvetica-Oblique
%%+ font Helvetica-BoldOblique
%%+ font Symbol
%%Title: R Graphics Output
%%Creator: R Software
%%Pages: (atend)
%%BoundingBox: 0 0 595 198
%%EndComments
%%BeginProlog
/bp  { gs sRGB gs } def
% begin .ps.prolog
/gs  { gsave } bind def
/gr  { grestore } bind def
/ep  { showpage gr gr } bind def
/m   { moveto } bind def
/l  { rlineto } bind def
/np  { newpath } bind def
/cp  { closepath } bind def
/f   { fill } bind def
/o   { stroke } bind def
/c   { newpath 0 360 arc } bind def
/r   { 4 2 roll moveto 1 copy 3 -1 roll exch 0 exch rlineto 0 rlineto -1 mul 0 exch rlineto closepath } bind def
/p1  { stroke } bind def
/p2  { gsave bg fill grestore newpath } bind def
/p3  { gsave bg fill grestore stroke } bind def
/p6  { gsave bg eofill grestore newpath } bind def
/p7  { gsave bg eofill grestore stroke } bind def
/t   { 5 -2 roll moveto gsave rotate
       1 index stringwidth pop
       mul neg 0 rmoveto show grestore } bind def
/ta  { 4 -2 roll moveto gsave rotate show } bind def
/tb  { 2 -1 roll 0 rmoveto show } bind def
/cl  { grestore gsave newpath 3 index 3 index moveto 1 index
       4 -1 roll lineto  exch 1 index lineto lineto
       closepath clip newpath } bind def
/rgb { setrgbcolor } bind def
/s   { scalefont setfont } bind def
% end   .ps.prolog
/sRGB { [ /CIEBasedABC
          << /DecodeLMN
               [ { dup 0.03928 le
                        {12.92321 div}
                        {0.055 add 1.055 div 2.4 exp }
                     ifelse
                 } bind dup dup
               ]
             /MatrixLMN [0.412457 0.212673 0.019334
                         0.357576 0.715152 0.119192
                         0.180437 0.072175 0.950301]
             /WhitePoint [0.9505 1.0 1.0890]
           >>
         ] setcolorspace } bind def
/srgb { setcolor } bind def
%%IncludeResource: font Helvetica
/Helvetica findfont
dup length dict begin
  {1 index /FID ne {def} {pop pop} ifelse} forall
  /Encoding ISOLatin1Encoding def
  currentdict
  end
/Font1 exch definefont pop
%%IncludeResource: font Helvetica-Bold
/Helvetica-Bold findfont
dup length dict begin
  {1 index /FID ne {def} {pop pop} ifelse} forall
  /Encoding ISOLatin1Encoding def
  currentdict
  end
/Font2 exch definefont pop
%%IncludeResource: font Helvetica-Oblique
/Helvetica-Oblique findfont
dup length dict begin
  {1 index /FID ne {def} {pop pop} ifelse} forall
  /Encoding ISOLatin1Encoding def
  currentdict
  end
/Font3 exch definefont pop
%%IncludeResource: font Helvetica-BoldOblique
/Helvetica-BoldOblique findfont
dup length dict begin
  {1 index /FID ne {def} {pop pop} ifelse} forall
  /Encoding ISOLatin1Encoding def
  currentdict
  end
/Font4 exch definefont pop
%%IncludeResource: font Symbol
/Symbol findfont
dup length dict begin
  {1 index /FID ne {def} {pop pop} ifelse} forall
  currentdict
  end
/Font5 exch definefont pop
%%EndProlog
%%Page: 1 1
bp
0.00 0.00 595.28 198.43 cl
0.00 0.00 595.28 198.43 cl
0.00 0.00 595.28 198.43 cl
0.00 0.00 595.28 198.43 cl
0.00 0.00 595.28 198.43 cl
0.00 0.00 595.28 198.43 cl
0.00 0.00 595.28 198.43 cl
0.00 0.00 595.28 198.43 cl
0.00 0.00 595.28 198.43 cl
0.00 0.00 595.28 198.43 cl
0.00 0.00 595.28 198.43 cl
0.00 0.00 595.28 198.43 cl
0.00 0.00 595.28 198.43 cl
0.00 0.00 595.28 198.43 cl
0.00 0.00 595.28 198.43 cl
0.00 0.00 595.28 198.43 cl
0.00 0.00 595.28 198.43 cl
0.00 15.60 595.28 182.83 cl
/bg { 1 1 1 srgb } def
1 1 1 srgb
1.07 setlinewidth
[] 0 setdash
1 setlinecap
1 setlinejoin
10.00 setmiterlimit
0.00 15.60 595.28 167.23 r p3
0.00 0.00 595.28 198.43 cl
49.61 157.71 152.77 176.85 cl
/bg { 1 1 1 srgb } def
0.4980 0.4980 0.4980 srgb
0.43 setlinewidth
[] 0 setdash
1 setlinecap
1 setlinejoin
10.00 setmiterlimit
49.61 157.71 103.16 19.14 r p3
/Font1 findfont 10 s
0.1020 0.1020 0.1020 srgb
87.29 163.69 (fr) 0 ta
-0.100 (ance) tb gr
49.61 157.71 152.77 176.85 cl
0.00 0.00 595.28 198.43 cl
158.74 157.71 261.90 176.85 cl
/bg { 1 1 1 srgb } def
0.4980 0.4980 0.4980 srgb
0.43 setlinewidth
[] 0 setdash
1 setlinecap
1 setlinejoin
10.00 setmiterlimit
158.74 157.71 103.16 19.14 r p3
/Font1 findfont 10 s
0.1020 0.1020 0.1020 srgb
210.32 163.69 (gameofthrones) .5 0 t
158.74 157.71 261.90 176.85 cl
0.00 0.00 595.28 198.43 cl
267.88 157.71 371.03 176.85 cl
/bg { 1 1 1 srgb } def
0.4980 0.4980 0.4980 srgb
0.43 setlinewidth
[] 0 setdash
1 setlinecap
1 setlinejoin
10.00 setmiterlimit
267.88 157.71 103.16 19.14 r p3
/Font1 findfont 10 s
0.1020 0.1020 0.1020 srgb
281.10 163.69 (MachineLear) 0 ta
0.250 (ning) tb gr
267.88 157.71 371.03 176.85 cl
0.00 0.00 595.28 198.43 cl
377.01 157.71 480.16 176.85 cl
/bg { 1 1 1 srgb } def
0.4980 0.4980 0.4980 srgb
0.43 setlinewidth
[] 0 setdash
1 setlinecap
1 setlinejoin
10.00 setmiterlimit
377.01 157.71 103.16 19.14 r p3
/Font1 findfont 10 s
0.1020 0.1020 0.1020 srgb
428.59 163.69 (podemos) .5 0 t
377.01 157.71 480.16 176.85 cl
0.00 0.00 595.28 198.43 cl
486.14 157.71 589.30 176.85 cl
/bg { 1 1 1 srgb } def
0.4980 0.4980 0.4980 srgb
0.43 setlinewidth
[] 0 setdash
1 setlinecap
1 setlinejoin
10.00 setmiterlimit
486.14 157.71 103.16 19.14 r p3
/Font1 findfont 10 s
0.1020 0.1020 0.1020 srgb
492.44 163.69 (T) 0 ta
-1.200 (w) tb
-0.100 (oXChromosomes) tb gr
486.14 157.71 589.30 176.85 cl
0.00 0.00 595.28 198.43 cl
49.61 54.56 152.77 157.71 cl
/bg { 1 1 1 srgb } def
49.61 54.56 103.16 103.16 r p2
0.9804 0.9804 0.9804 srgb
1.07 setlinewidth
[] 0 setdash
0 setlinecap
1 setlinejoin
10.00 setmiterlimit
np
49.61 68.06 m
103.16 0 l
o
np
49.61 102.05 m
103.16 0 l
o
np
49.61 136.03 m
103.16 0 l
o
np
54.30 54.56 m
0 103.15 l
o
np
86.14 54.56 m
0 103.15 l
o
np
117.98 54.56 m
0 103.15 l
o
np
149.82 54.56 m
0 103.15 l
o
0.8980 0.8980 0.8980 srgb
0.43 setlinewidth
[] 0 setdash
np
49.61 85.05 m
103.16 0 l
o
np
49.61 119.04 m
103.16 0 l
o
np
49.61 153.03 m
103.16 0 l
o
np
70.22 54.56 m
0 103.15 l
o
np
102.06 54.56 m
0 103.15 l
o
np
133.90 54.56 m
0 103.15 l
o
/bg { 0 0 0 srgb } def
0 0 0 srgb
0.71 setlinewidth
[] 0 setdash
1 setlinecap
132.07 78.92 0.57 c p3
121.72 84.04 0.57 c p3
119.58 87.03 0.57 c p3
119.23 89.15 0.57 c p3
117.44 90.80 0.57 c p3
116.60 92.15 0.57 c p3
116.04 93.28 0.57 c p3
115.93 94.27 0.57 c p3
115.90 95.14 0.57 c p3
115.89 95.92 0.57 c p3
115.80 96.62 0.57 c p3
115.67 97.26 0.57 c p3
115.50 97.85 0.57 c p3
115.25 98.40 0.57 c p3
115.20 98.91 0.57 c p3
115.06 99.39 0.57 c p3
114.64 99.83 0.57 c p3
113.83 100.25 0.57 c p3
113.78 100.65 0.57 c p3
113.63 101.03 0.57 c p3
113.55 101.39 0.57 c p3
113.24 101.74 0.57 c p3
113.23 102.06 0.57 c p3
113.02 102.38 0.57 c p3
112.96 102.68 0.57 c p3
112.85 102.97 0.57 c p3
112.51 103.25 0.57 c p3
112.34 103.52 0.57 c p3
112.17 103.77 0.57 c p3
112.11 104.02 0.57 c p3
112.09 104.27 0.57 c p3
112.04 104.50 0.57 c p3
111.58 104.73 0.57 c p3
111.37 104.95 0.57 c p3
111.17 105.16 0.57 c p3
111.06 105.37 0.57 c p3
110.81 105.57 0.57 c p3
110.66 105.77 0.57 c p3
110.65 105.96 0.57 c p3
110.58 106.15 0.57 c p3
110.39 106.33 0.57 c p3
110.16 106.51 0.57 c p3
109.94 106.68 0.57 c p3
109.91 106.85 0.57 c p3
109.73 107.02 0.57 c p3
109.59 107.18 0.57 c p3
109.54 107.34 0.57 c p3
109.38 107.49 0.57 c p3
109.37 107.65 0.57 c p3
109.26 107.79 0.57 c p3
109.19 107.94 0.57 c p3
109.12 108.08 0.57 c p3
108.67 108.22 0.57 c p3
108.67 108.36 0.57 c p3
108.60 108.50 0.57 c p3
108.57 108.63 0.57 c p3
108.51 108.76 0.57 c p3
108.47 108.89 0.57 c p3
108.45 109.02 0.57 c p3
108.40 109.26 0.57 c p3
108.38 109.38 0.57 c p3
108.23 109.50 0.57 c p3
108.19 109.62 0.57 c p3
108.07 109.73 0.57 c p3
107.86 109.84 0.57 c p3
107.85 109.95 0.57 c p3
107.64 110.06 0.57 c p3
107.57 110.17 0.57 c p3
107.52 110.28 0.57 c p3
107.39 110.38 0.57 c p3
107.36 110.49 0.57 c p3
107.35 110.59 0.57 c p3
107.22 110.69 0.57 c p3
107.22 110.79 0.57 c p3
107.05 110.88 0.57 c p3
107.03 110.98 0.57 c p3
106.77 111.08 0.57 c p3
106.77 111.17 0.57 c p3
106.72 111.26 0.57 c p3
106.70 111.35 0.57 c p3
106.70 111.45 0.57 c p3
106.64 111.53 0.57 c p3
106.37 111.62 0.57 c p3
106.22 111.71 0.57 c p3
106.21 111.80 0.57 c p3
106.19 111.88 0.57 c p3
106.14 111.97 0.57 c p3
106.07 112.05 0.57 c p3
106.06 112.13 0.57 c p3
106.02 112.21 0.57 c p3
105.91 112.29 0.57 c p3
105.90 112.37 0.57 c p3
105.87 112.45 0.57 c p3
105.70 112.53 0.57 c p3
105.68 112.61 0.57 c p3
105.65 112.69 0.57 c p3
105.63 112.76 0.57 c p3
105.62 112.84 0.57 c p3
105.55 112.91 0.57 c p3
105.50 112.98 0.57 c p3
105.45 113.06 0.57 c p3
105.43 113.13 0.57 c p3
105.40 113.20 0.57 c p3
105.36 113.27 0.57 c p3
105.35 113.34 0.57 c p3
105.28 113.41 0.57 c p3
105.25 113.48 0.57 c p3
105.24 113.55 0.57 c p3
105.18 113.61 0.57 c p3
105.11 113.68 0.57 c p3
105.07 113.75 0.57 c p3
104.99 113.81 0.57 c p3
104.99 113.88 0.57 c p3
104.85 113.94 0.57 c p3
104.83 114.01 0.57 c p3
104.82 114.07 0.57 c p3
104.79 114.13 0.57 c p3
104.74 114.19 0.57 c p3
104.72 114.26 0.57 c p3
104.64 114.32 0.57 c p3
104.62 114.38 0.57 c p3
104.61 114.44 0.57 c p3
104.57 114.50 0.57 c p3
104.56 114.56 0.57 c p3
104.54 114.62 0.57 c p3
104.49 114.67 0.57 c p3
104.40 114.73 0.57 c p3
104.19 114.79 0.57 c p3
104.10 114.85 0.57 c p3
104.07 114.90 0.57 c p3
104.07 114.96 0.57 c p3
104.05 115.01 0.57 c p3
104.02 115.07 0.57 c p3
103.99 115.12 0.57 c p3
103.95 115.18 0.57 c p3
103.91 115.23 0.57 c p3
103.88 115.29 0.57 c p3
103.77 115.34 0.57 c p3
103.75 115.39 0.57 c p3
103.70 115.45 0.57 c p3
103.63 115.50 0.57 c p3
103.63 115.55 0.57 c p3
103.62 115.60 0.57 c p3
103.60 115.65 0.57 c p3
103.54 115.70 0.57 c p3
103.51 115.75 0.57 c p3
103.43 115.80 0.57 c p3
103.43 115.85 0.57 c p3
103.41 115.90 0.57 c p3
103.25 115.95 0.57 c p3
103.17 116.00 0.57 c p3
103.08 116.05 0.57 c p3
103.05 116.10 0.57 c p3
103.04 116.14 0.57 c p3
102.96 116.19 0.57 c p3
102.94 116.24 0.57 c p3
102.88 116.29 0.57 c p3
102.85 116.33 0.57 c p3
102.83 116.38 0.57 c p3
102.82 116.42 0.57 c p3
102.73 116.47 0.57 c p3
102.71 116.52 0.57 c p3
102.60 116.56 0.57 c p3
102.59 116.61 0.57 c p3
102.47 116.65 0.57 c p3
102.46 116.74 0.57 c p3
102.45 116.78 0.57 c p3
102.45 116.83 0.57 c p3
102.39 116.87 0.57 c p3
102.30 116.91 0.57 c p3
102.28 117.00 0.57 c p3
102.28 117.04 0.57 c p3
102.26 117.08 0.57 c p3
102.16 117.12 0.57 c p3
102.15 117.17 0.57 c p3
102.15 117.21 0.57 c p3
102.13 117.25 0.57 c p3
102.04 117.29 0.57 c p3
101.95 117.33 0.57 c p3
101.94 117.37 0.57 c p3
101.93 117.41 0.57 c p3
101.88 117.45 0.57 c p3
101.87 117.49 0.57 c p3
101.86 117.53 0.57 c p3
101.76 117.61 0.57 c p3
101.72 117.69 0.57 c p3
101.66 117.72 0.57 c p3
101.61 117.76 0.57 c p3
101.58 117.84 0.57 c p3
101.57 117.91 0.57 c p3
101.55 117.95 0.57 c p3
101.54 117.99 0.57 c p3
101.53 118.03 0.57 c p3
101.44 118.06 0.57 c p3
101.43 118.10 0.57 c p3
101.41 118.14 0.57 c p3
101.39 118.17 0.57 c p3
101.35 118.24 0.57 c p3
101.34 118.28 0.57 c p3
101.31 118.32 0.57 c p3
101.27 118.35 0.57 c p3
101.23 118.42 0.57 c p3
101.13 118.46 0.57 c p3
101.12 118.49 0.57 c p3
101.01 118.52 0.57 c p3
100.96 118.56 0.57 c p3
100.92 118.59 0.57 c p3
100.84 118.63 0.57 c p3
100.79 118.66 0.57 c p3
100.76 118.70 0.57 c p3
100.64 118.73 0.57 c p3
100.63 118.76 0.57 c p3
100.56 118.80 0.57 c p3
100.51 118.83 0.57 c p3
100.49 118.86 0.57 c p3
100.47 118.89 0.57 c p3
100.45 118.93 0.57 c p3
100.43 118.96 0.57 c p3
100.42 118.99 0.57 c p3
100.33 119.06 0.57 c p3
100.32 119.09 0.57 c p3
100.29 119.12 0.57 c p3
100.28 119.15 0.57 c p3
100.24 119.18 0.57 c p3
100.17 119.22 0.57 c p3
100.15 119.25 0.57 c p3
100.13 119.28 0.57 c p3
100.12 119.34 0.57 c p3
100.06 119.37 0.57 c p3
99.96 119.40 0.57 c p3
99.87 119.46 0.57 c p3
99.83 119.49 0.57 c p3
99.79 119.52 0.57 c p3
99.78 119.55 0.57 c p3
99.72 119.58 0.57 c p3
99.70 119.61 0.57 c p3
99.69 119.64 0.57 c p3
99.62 119.67 0.57 c p3
99.57 119.70 0.57 c p3
99.56 119.73 0.57 c p3
99.54 119.76 0.57 c p3
99.47 119.79 0.57 c p3
99.46 119.82 0.57 c p3
99.45 119.85 0.57 c p3
99.41 119.88 0.57 c p3
99.40 119.90 0.57 c p3
99.35 119.93 0.57 c p3
99.34 119.96 0.57 c p3
99.33 119.99 0.57 c p3
99.31 120.02 0.57 c p3
99.30 120.05 0.57 c p3
99.29 120.07 0.57 c p3
99.28 120.10 0.57 c p3
99.27 120.16 0.57 c p3
99.19 120.19 0.57 c p3
99.17 120.21 0.57 c p3
99.16 120.24 0.57 c p3
99.12 120.27 0.57 c p3
99.10 120.32 0.57 c p3
99.09 120.38 0.57 c p3
99.08 120.40 0.57 c p3
99.07 120.46 0.57 c p3
99.03 120.48 0.57 c p3
98.98 120.51 0.57 c p3
98.91 120.54 0.57 c p3
98.90 120.56 0.57 c p3
98.84 120.59 0.57 c p3
98.83 120.64 0.57 c p3
98.82 120.69 0.57 c p3
98.81 120.72 0.57 c p3
98.77 120.74 0.57 c p3
98.73 120.77 0.57 c p3
98.71 120.79 0.57 c p3
98.70 120.84 0.57 c p3
98.69 120.89 0.57 c p3
98.66 120.92 0.57 c p3
98.61 120.94 0.57 c p3
98.59 120.97 0.57 c p3
98.56 120.99 0.57 c p3
98.55 121.02 0.57 c p3
98.53 121.04 0.57 c p3
98.49 121.07 0.57 c p3
98.48 121.09 0.57 c p3
98.42 121.12 0.57 c p3
98.39 121.14 0.57 c p3
98.37 121.19 0.57 c p3
98.36 121.21 0.57 c p3
98.34 121.24 0.57 c p3
98.28 121.26 0.57 c p3
98.27 121.28 0.57 c p3
98.26 121.31 0.57 c p3
98.22 121.33 0.57 c p3
98.21 121.35 0.57 c p3
98.20 121.45 0.57 c p3
98.17 121.47 0.57 c p3
98.16 121.49 0.57 c p3
98.12 121.52 0.57 c p3
98.11 121.54 0.57 c p3
98.09 121.56 0.57 c p3
98.04 121.59 0.57 c p3
98.00 121.61 0.57 c p3
97.95 121.63 0.57 c p3
97.87 121.65 0.57 c p3
97.82 121.72 0.57 c p3
97.78 121.77 0.57 c p3
97.72 121.79 0.57 c p3
97.71 121.83 0.57 c p3
97.69 121.85 0.57 c p3
97.67 121.88 0.57 c p3
97.65 121.90 0.57 c p3
97.63 121.92 0.57 c p3
97.62 121.94 0.57 c p3
97.59 121.98 0.57 c p3
97.56 122.01 0.57 c p3
97.52 122.05 0.57 c p3
97.48 122.09 0.57 c p3
97.42 122.11 0.57 c p3
97.40 122.13 0.57 c p3
97.36 122.16 0.57 c p3
97.33 122.18 0.57 c p3
97.32 122.20 0.57 c p3
97.29 122.22 0.57 c p3
97.21 122.26 0.57 c p3
97.20 122.30 0.57 c p3
97.18 122.34 0.57 c p3
97.11 122.38 0.57 c p3
97.08 122.42 0.57 c p3
97.05 122.45 0.57 c p3
97.04 122.47 0.57 c p3
97.03 122.51 0.57 c p3
97.00 122.53 0.57 c p3
96.90 122.57 0.57 c p3
96.88 122.59 0.57 c p3
96.85 122.65 0.57 c p3
96.78 122.68 0.57 c p3
96.70 122.70 0.57 c p3
96.69 122.72 0.57 c p3
96.64 122.74 0.57 c p3
96.60 122.76 0.57 c p3
96.57 122.78 0.57 c p3
96.55 122.80 0.57 c p3
96.51 122.84 0.57 c p3
96.49 122.90 0.57 c p3
96.41 122.94 0.57 c p3
96.38 122.97 0.57 c p3
96.37 122.99 0.57 c p3
96.35 123.01 0.57 c p3
96.32 123.07 0.57 c p3
96.30 123.09 0.57 c p3
96.27 123.10 0.57 c p3
96.25 123.12 0.57 c p3
96.24 123.14 0.57 c p3
96.22 123.16 0.57 c p3
96.19 123.18 0.57 c p3
96.17 123.20 0.57 c p3
96.13 123.21 0.57 c p3
96.11 123.23 0.57 c p3
96.08 123.25 0.57 c p3
96.01 123.27 0.57 c p3
95.98 123.34 0.57 c p3
95.94 123.36 0.57 c p3
95.93 123.38 0.57 c p3
95.89 123.41 0.57 c p3
95.88 123.43 0.57 c p3
95.84 123.45 0.57 c p3
95.79 123.47 0.57 c p3
95.76 123.48 0.57 c p3
95.74 123.52 0.57 c p3
95.72 123.55 0.57 c p3
95.71 123.61 0.57 c p3
95.69 123.66 0.57 c p3
95.65 123.69 0.57 c p3
95.60 123.71 0.57 c p3
95.58 123.76 0.57 c p3
95.56 123.79 0.57 c p3
95.55 123.81 0.57 c p3
95.44 123.83 0.57 c p3
95.42 123.88 0.57 c p3
95.40 123.89 0.57 c p3
95.39 123.91 0.57 c p3
95.28 123.94 0.57 c p3
95.26 123.96 0.57 c p3
95.24 123.99 0.57 c p3
95.18 124.01 0.57 c p3
95.15 124.03 0.57 c p3
95.13 124.04 0.57 c p3
95.11 124.06 0.57 c p3
95.09 124.08 0.57 c p3
95.07 124.09 0.57 c p3
95.01 124.11 0.57 c p3
94.96 124.12 0.57 c p3
94.94 124.16 0.57 c p3
94.92 124.20 0.57 c p3
94.90 124.24 0.57 c p3
94.88 124.27 0.57 c p3
94.86 124.32 0.57 c p3
94.84 124.33 0.57 c p3
94.80 124.36 0.57 c p3
94.78 124.39 0.57 c p3
94.76 124.44 0.57 c p3
94.74 124.47 0.57 c p3
94.72 124.49 0.57 c p3
94.70 124.50 0.57 c p3
94.68 124.55 0.57 c p3
94.66 124.59 0.57 c p3
94.64 124.62 0.57 c p3
94.62 124.65 0.57 c p3
94.58 124.71 0.57 c p3
94.54 124.73 0.57 c p3
94.50 124.74 0.57 c p3
94.48 124.77 0.57 c p3
94.45 124.79 0.57 c p3
94.43 124.82 0.57 c p3
94.41 124.83 0.57 c p3
94.39 124.86 0.57 c p3
94.35 124.88 0.57 c p3
94.33 124.92 0.57 c p3
94.31 124.93 0.57 c p3
94.29 124.95 0.57 c p3
94.27 124.96 0.57 c p3
94.24 124.99 0.57 c p3
94.20 125.01 0.57 c p3
94.18 125.06 0.57 c p3
94.16 125.12 0.57 c p3
94.14 125.13 0.57 c p3
94.11 125.15 0.57 c p3
94.05 125.16 0.57 c p3
94.00 125.18 0.57 c p3
93.98 125.19 0.57 c p3
93.92 125.20 0.57 c p3
93.89 125.26 0.57 c p3
93.87 125.29 0.57 c p3
93.85 125.34 0.57 c p3
93.82 125.36 0.57 c p3
93.80 125.38 0.57 c p3
93.76 125.40 0.57 c p3
93.73 125.42 0.57 c p3
93.71 125.45 0.57 c p3
93.66 125.48 0.57 c p3
93.62 125.50 0.57 c p3
93.59 125.54 0.57 c p3
93.57 125.57 0.57 c p3
93.55 125.60 0.57 c p3
93.50 125.61 0.57 c p3
93.48 125.64 0.57 c p3
93.45 125.65 0.57 c p3
93.43 125.66 0.57 c p3
93.40 125.69 0.57 c p3
93.38 125.72 0.57 c p3
93.35 125.74 0.57 c p3
93.33 125.79 0.57 c p3
93.31 125.82 0.57 c p3
93.28 125.84 0.57 c p3
93.26 125.87 0.57 c p3
93.23 125.90 0.57 c p3
93.21 125.93 0.57 c p3
93.18 125.98 0.57 c p3
93.16 126.00 0.57 c p3
93.13 126.05 0.57 c p3
93.11 126.08 0.57 c p3
93.06 126.10 0.57 c p3
93.03 126.15 0.57 c p3
93.00 126.16 0.57 c p3
92.95 126.18 0.57 c p3
92.93 126.23 0.57 c p3
92.90 126.28 0.57 c p3
92.88 126.29 0.57 c p3
92.80 126.34 0.57 c p3
92.77 126.39 0.57 c p3
92.74 126.43 0.57 c p3
92.72 126.45 0.57 c p3
92.69 126.46 0.57 c p3
92.66 126.47 0.57 c p3
92.58 126.53 0.57 c p3
92.56 126.59 0.57 c p3
92.50 126.62 0.57 c p3
92.47 126.66 0.57 c p3
92.45 126.69 0.57 c p3
92.39 126.72 0.57 c p3
92.36 126.77 0.57 c p3
92.33 126.80 0.57 c p3
92.30 126.84 0.57 c p3
92.28 126.85 0.57 c p3
92.25 126.89 0.57 c p3
92.19 126.90 0.57 c p3
92.16 126.93 0.57 c p3
92.13 126.97 0.57 c p3
92.10 126.98 0.57 c p3
92.05 126.99 0.57 c p3
92.02 127.02 0.57 c p3
91.99 127.10 0.57 c p3
91.96 127.13 0.57 c p3
91.93 127.14 0.57 c p3
91.90 127.15 0.57 c p3
91.87 127.19 0.57 c p3
91.84 127.20 0.57 c p3
91.81 127.22 0.57 c p3
91.74 127.26 0.57 c p3
91.71 127.28 0.57 c p3
91.68 127.30 0.57 c p3
91.65 127.31 0.57 c p3
91.62 127.33 0.57 c p3
91.59 127.34 0.57 c p3
91.56 127.38 0.57 c p3
91.53 127.39 0.57 c p3
91.49 127.42 0.57 c p3
91.46 127.45 0.57 c p3
91.43 127.48 0.57 c p3
91.40 127.52 0.57 c p3
91.37 127.54 0.57 c p3
91.33 127.58 0.57 c p3
91.30 127.62 0.57 c p3
91.27 127.69 0.57 c p3
91.23 127.74 0.57 c p3
91.20 127.79 0.57 c p3
91.17 127.80 0.57 c p3
91.13 127.82 0.57 c p3
91.10 127.84 0.57 c p3
91.07 127.86 0.57 c p3
91.03 127.89 0.57 c p3
91.00 127.91 0.57 c p3
90.96 127.94 0.57 c p3
90.93 127.98 0.57 c p3
90.90 128.00 0.57 c p3
90.86 128.06 0.57 c p3
90.83 128.08 0.57 c p3
90.79 128.11 0.57 c p3
90.76 128.16 0.57 c p3
90.72 128.18 0.57 c p3
90.68 128.22 0.57 c p3
90.65 128.26 0.57 c p3
90.61 128.29 0.57 c p3
90.54 128.33 0.57 c p3
90.50 128.35 0.57 c p3
90.47 128.39 0.57 c p3
90.43 128.42 0.57 c p3
90.39 128.47 0.57 c p3
90.35 128.53 0.57 c p3
90.32 128.55 0.57 c p3
90.28 128.57 0.57 c p3
90.24 128.60 0.57 c p3
90.20 128.62 0.57 c p3
90.16 128.63 0.57 c p3
90.12 128.67 0.57 c p3
90.09 128.75 0.57 c p3
90.05 128.81 0.57 c p3
90.01 128.85 0.57 c p3
89.97 128.88 0.57 c p3
89.89 128.96 0.57 c p3
89.85 128.99 0.57 c p3
89.77 129.00 0.57 c p3
89.72 129.03 0.57 c p3
89.68 129.05 0.57 c p3
89.64 129.06 0.57 c p3
89.60 129.11 0.57 c p3
89.56 129.13 0.57 c p3
89.52 129.16 0.57 c p3
89.47 129.22 0.57 c p3
89.43 129.23 0.57 c p3
89.39 129.24 0.57 c p3
89.34 129.27 0.57 c p3
89.30 129.33 0.57 c p3
89.26 129.37 0.57 c p3
89.21 129.41 0.57 c p3
89.17 129.43 0.57 c p3
89.12 129.47 0.57 c p3
89.08 129.52 0.57 c p3
89.03 129.56 0.57 c p3
88.99 129.59 0.57 c p3
88.94 129.63 0.57 c p3
88.89 129.65 0.57 c p3
88.85 129.71 0.57 c p3
88.80 129.74 0.57 c p3
88.75 129.78 0.57 c p3
88.71 129.82 0.57 c p3
88.66 129.86 0.57 c p3
88.61 129.88 0.57 c p3
88.56 129.93 0.57 c p3
88.51 129.95 0.57 c p3
88.46 129.99 0.57 c p3
88.41 130.00 0.57 c p3
88.36 130.02 0.57 c p3
88.31 130.06 0.57 c p3
88.26 130.11 0.57 c p3
88.21 130.13 0.57 c p3
88.16 130.19 0.57 c p3
88.11 130.22 0.57 c p3
88.06 130.24 0.57 c p3
88.00 130.26 0.57 c p3
87.95 130.30 0.57 c p3
87.90 130.33 0.57 c p3
87.84 130.38 0.57 c p3
87.79 130.40 0.57 c p3
87.74 130.45 0.57 c p3
87.68 130.48 0.57 c p3
87.63 130.51 0.57 c p3
87.57 130.57 0.57 c p3
87.51 130.61 0.57 c p3
87.46 130.63 0.57 c p3
87.40 130.68 0.57 c p3
87.34 130.69 0.57 c p3
87.28 130.72 0.57 c p3
87.22 130.75 0.57 c p3
87.16 130.79 0.57 c p3
87.10 130.85 0.57 c p3
87.04 130.88 0.57 c p3
86.98 130.93 0.57 c p3
86.92 130.97 0.57 c p3
86.86 131.02 0.57 c p3
86.80 131.06 0.57 c p3
86.73 131.09 0.57 c p3
86.67 131.12 0.57 c p3
86.61 131.19 0.57 c p3
86.54 131.27 0.57 c p3
86.48 131.33 0.57 c p3
86.41 131.39 0.57 c p3
86.34 131.46 0.57 c p3
86.27 131.52 0.57 c p3
86.21 131.56 0.57 c p3
86.14 131.59 0.57 c p3
86.07 131.68 0.57 c p3
86.00 131.72 0.57 c p3
85.93 131.79 0.57 c p3
85.86 131.87 0.57 c p3
85.78 131.94 0.57 c p3
85.71 131.97 0.57 c p3
85.64 132.02 0.57 c p3
85.56 132.10 0.57 c p3
85.49 132.14 0.57 c p3
85.41 132.18 0.57 c p3
85.33 132.20 0.57 c p3
85.25 132.25 0.57 c p3
85.18 132.32 0.57 c p3
85.10 132.35 0.57 c p3
85.01 132.44 0.57 c p3
84.93 132.49 0.57 c p3
84.85 132.55 0.57 c p3
84.77 132.63 0.57 c p3
84.68 132.69 0.57 c p3
84.60 132.75 0.57 c p3
84.51 132.78 0.57 c p3
84.42 132.86 0.57 c p3
84.33 132.93 0.57 c p3
84.24 132.97 0.57 c p3
84.15 133.01 0.57 c p3
84.06 133.06 0.57 c p3
83.96 133.12 0.57 c p3
83.87 133.17 0.57 c p3
83.77 133.23 0.57 c p3
83.67 133.29 0.57 c p3
83.57 133.35 0.57 c p3
83.47 133.40 0.57 c p3
83.37 133.46 0.57 c p3
83.27 133.50 0.57 c p3
83.16 133.58 0.57 c p3
83.05 133.64 0.57 c p3
82.94 133.72 0.57 c p3
82.83 133.81 0.57 c p3
82.72 133.85 0.57 c p3
82.61 133.90 0.57 c p3
82.49 134.00 0.57 c p3
82.37 134.08 0.57 c p3
82.25 134.15 0.57 c p3
82.13 134.21 0.57 c p3
82.00 134.27 0.57 c p3
81.88 134.35 0.57 c p3
81.75 134.42 0.57 c p3
81.62 134.48 0.57 c p3
81.48 134.54 0.57 c p3
81.35 134.63 0.57 c p3
81.21 134.73 0.57 c p3
81.06 134.82 0.57 c p3
80.92 134.91 0.57 c p3
80.77 135.00 0.57 c p3
80.62 135.10 0.57 c p3
80.46 135.21 0.57 c p3
80.30 135.30 0.57 c p3
80.14 135.38 0.57 c p3
79.97 135.49 0.57 c p3
79.80 135.61 0.57 c p3
79.63 135.70 0.57 c p3
79.45 135.79 0.57 c p3
79.26 135.90 0.57 c p3
79.07 136.03 0.57 c p3
78.88 136.14 0.57 c p3
78.68 136.25 0.57 c p3
78.47 136.37 0.57 c p3
78.26 136.53 0.57 c p3
78.04 136.71 0.57 c p3
77.81 136.89 0.57 c p3
77.58 137.07 0.57 c p3
77.34 137.21 0.57 c p3
77.09 137.37 0.57 c p3
76.82 137.55 0.57 c p3
76.55 137.72 0.57 c p3
76.27 137.91 0.57 c p3
75.98 138.10 0.57 c p3
75.67 138.28 0.57 c p3
75.35 138.48 0.57 c p3
75.01 138.71 0.57 c p3
74.66 138.95 0.57 c p3
74.28 139.16 0.57 c p3
73.89 139.41 0.57 c p3
73.47 139.69 0.57 c p3
73.02 139.98 0.57 c p3
72.54 140.28 0.57 c p3
72.03 140.60 0.57 c p3
71.48 140.95 0.57 c p3
70.88 141.36 0.57 c p3
70.22 141.80 0.57 c p3
69.49 142.27 0.57 c p3
68.68 142.79 0.57 c p3
67.75 143.37 0.57 c p3
66.69 144.10 0.57 c p3
65.43 145.00 0.57 c p3
63.88 146.03 0.57 c p3
61.89 147.42 0.57 c p3
59.09 149.45 0.57 c p3
54.30 153.03 0.57 c p3
0.4980 0.4980 0.4980 srgb
1.07 setlinewidth
[] 0 setdash
49.61 54.56 103.16 103.16 r p1
0.00 0.00 595.28 198.43 cl
158.74 54.56 261.90 157.71 cl
/bg { 1 1 1 srgb } def
158.74 54.56 103.16 103.16 r p2
0.9804 0.9804 0.9804 srgb
1.07 setlinewidth
[] 0 setdash
0 setlinecap
1 setlinejoin
10.00 setmiterlimit
np
158.74 68.06 m
103.16 0 l
o
np
158.74 102.05 m
103.16 0 l
o
np
158.74 136.03 m
103.16 0 l
o
np
163.43 54.56 m
0 103.15 l
o
np
195.27 54.56 m
0 103.15 l
o
np
227.11 54.56 m
0 103.15 l
o
np
258.95 54.56 m
0 103.15 l
o
0.8980 0.8980 0.8980 srgb
0.43 setlinewidth
[] 0 setdash
np
158.74 85.05 m
103.16 0 l
o
np
158.74 119.04 m
103.16 0 l
o
np
158.74 153.03 m
103.16 0 l
o
np
179.35 54.56 m
0 103.15 l
o
np
211.19 54.56 m
0 103.15 l
o
np
243.03 54.56 m
0 103.15 l
o
/bg { 0 0 0 srgb } def
0 0 0 srgb
0.71 setlinewidth
[] 0 setdash
1 setlinecap
251.98 60.51 0.57 c p3
241.37 65.63 0.57 c p3
228.10 68.62 0.57 c p3
224.55 70.74 0.57 c p3
222.75 72.39 0.57 c p3
222.20 73.74 0.57 c p3
221.09 74.87 0.57 c p3
217.71 75.86 0.57 c p3
217.33 76.73 0.57 c p3
217.19 77.51 0.57 c p3
216.92 78.21 0.57 c p3
216.70 78.85 0.57 c p3
216.65 79.44 0.57 c p3
216.61 79.99 0.57 c p3
215.84 80.50 0.57 c p3
215.31 80.98 0.57 c p3
215.13 81.42 0.57 c p3
215.08 81.85 0.57 c p3
215.03 82.24 0.57 c p3
214.83 82.62 0.57 c p3
214.81 82.98 0.57 c p3
214.67 83.33 0.57 c p3
214.61 83.65 0.57 c p3
214.53 83.97 0.57 c p3
214.33 84.27 0.57 c p3
214.32 84.56 0.57 c p3
214.14 85.11 0.57 c p3
213.93 85.36 0.57 c p3
213.91 85.62 0.57 c p3
213.78 85.86 0.57 c p3
213.77 86.09 0.57 c p3
213.71 86.32 0.57 c p3
213.69 86.54 0.57 c p3
213.59 86.75 0.57 c p3
213.53 86.96 0.57 c p3
213.41 87.16 0.57 c p3
213.33 87.36 0.57 c p3
213.32 87.55 0.57 c p3
213.30 87.74 0.57 c p3
213.19 87.92 0.57 c p3
213.08 88.10 0.57 c p3
212.95 88.27 0.57 c p3
212.79 88.44 0.57 c p3
212.74 88.61 0.57 c p3
212.70 88.77 0.57 c p3
212.54 88.93 0.57 c p3
212.34 89.08 0.57 c p3
212.33 89.24 0.57 c p3
212.31 89.38 0.57 c p3
212.27 89.53 0.57 c p3
212.22 89.67 0.57 c p3
212.11 89.81 0.57 c p3
212.08 89.95 0.57 c p3
211.99 90.09 0.57 c p3
211.94 90.22 0.57 c p3
211.89 90.35 0.57 c p3
211.88 90.48 0.57 c p3
211.85 90.61 0.57 c p3
211.82 90.73 0.57 c p3
211.72 90.85 0.57 c p3
211.71 90.97 0.57 c p3
211.67 91.09 0.57 c p3
211.63 91.21 0.57 c p3
211.52 91.32 0.57 c p3
211.47 91.43 0.57 c p3
211.39 91.54 0.57 c p3
211.38 91.65 0.57 c p3
211.12 91.87 0.57 c p3
211.09 91.97 0.57 c p3
211.08 92.08 0.57 c p3
211.05 92.18 0.57 c p3
211.04 92.28 0.57 c p3
210.99 92.38 0.57 c p3
210.92 92.48 0.57 c p3
210.89 92.57 0.57 c p3
210.88 92.67 0.57 c p3
210.86 92.76 0.57 c p3
210.84 92.85 0.57 c p3
210.84 92.95 0.57 c p3
210.81 93.04 0.57 c p3
210.75 93.13 0.57 c p3
210.74 93.21 0.57 c p3
210.70 93.30 0.57 c p3
210.68 93.39 0.57 c p3
210.67 93.47 0.57 c p3
210.62 93.56 0.57 c p3
210.51 93.64 0.57 c p3
210.50 93.80 0.57 c p3
210.48 93.89 0.57 c p3
210.45 94.04 0.57 c p3
210.45 94.12 0.57 c p3
210.42 94.20 0.57 c p3
210.38 94.28 0.57 c p3
210.38 94.35 0.57 c p3
210.37 94.43 0.57 c p3
210.30 94.50 0.57 c p3
210.27 94.57 0.57 c p3
210.16 94.65 0.57 c p3
210.15 94.72 0.57 c p3
210.09 94.79 0.57 c p3
210.07 94.86 0.57 c p3
210.03 94.93 0.57 c p3
210.01 95.00 0.57 c p3
209.95 95.07 0.57 c p3
209.84 95.14 0.57 c p3
209.84 95.20 0.57 c p3
209.80 95.40 0.57 c p3
209.78 95.47 0.57 c p3
209.72 95.53 0.57 c p3
209.71 95.60 0.57 c p3
209.66 95.66 0.57 c p3
209.63 95.72 0.57 c p3
209.60 95.78 0.57 c p3
209.57 95.85 0.57 c p3
209.53 95.91 0.57 c p3
209.46 95.97 0.57 c p3
209.45 96.03 0.57 c p3
209.44 96.09 0.57 c p3
209.37 96.15 0.57 c p3
209.33 96.21 0.57 c p3
209.31 96.26 0.57 c p3
209.28 96.32 0.57 c p3
209.27 96.38 0.57 c p3
209.23 96.44 0.57 c p3
209.17 96.49 0.57 c p3
209.16 96.55 0.57 c p3
209.15 96.61 0.57 c p3
209.14 96.72 0.57 c p3
209.03 96.77 0.57 c p3
209.00 96.82 0.57 c p3
208.98 96.88 0.57 c p3
208.92 96.93 0.57 c p3
208.87 96.98 0.57 c p3
208.86 97.04 0.57 c p3
208.84 97.09 0.57 c p3
208.81 97.14 0.57 c p3
208.78 97.19 0.57 c p3
208.77 97.24 0.57 c p3
208.71 97.29 0.57 c p3
208.66 97.34 0.57 c p3
208.63 97.39 0.57 c p3
208.60 97.49 0.57 c p3
208.59 97.54 0.57 c p3
208.57 97.59 0.57 c p3
208.56 97.64 0.57 c p3
208.54 97.73 0.57 c p3
208.52 97.78 0.57 c p3
208.51 97.83 0.57 c p3
208.50 97.88 0.57 c p3
208.49 97.92 0.57 c p3
208.48 98.02 0.57 c p3
208.47 98.06 0.57 c p3
208.45 98.15 0.57 c p3
208.43 98.20 0.57 c p3
208.42 98.29 0.57 c p3
208.38 98.33 0.57 c p3
208.32 98.46 0.57 c p3
208.26 98.50 0.57 c p3
208.25 98.55 0.57 c p3
208.20 98.59 0.57 c p3
208.15 98.63 0.57 c p3
208.14 98.67 0.57 c p3
208.13 98.76 0.57 c p3
208.12 98.80 0.57 c p3
208.07 98.88 0.57 c p3
208.06 98.96 0.57 c p3
208.04 99.00 0.57 c p3
208.01 99.16 0.57 c p3
207.94 99.24 0.57 c p3
207.93 99.28 0.57 c p3
207.92 99.31 0.57 c p3
207.90 99.35 0.57 c p3
207.89 99.39 0.57 c p3
207.86 99.47 0.57 c p3
207.85 99.54 0.57 c p3
207.83 99.58 0.57 c p3
207.82 99.62 0.57 c p3
207.80 99.65 0.57 c p3
207.77 99.69 0.57 c p3
207.76 99.73 0.57 c p3
207.75 99.76 0.57 c p3
207.74 99.80 0.57 c p3
207.73 99.83 0.57 c p3
207.69 99.87 0.57 c p3
207.68 99.94 0.57 c p3
207.67 99.98 0.57 c p3
207.65 100.01 0.57 c p3
207.62 100.05 0.57 c p3
207.60 100.08 0.57 c p3
207.58 100.15 0.57 c p3
207.55 100.22 0.57 c p3
207.54 100.25 0.57 c p3
207.52 100.32 0.57 c p3
207.51 100.35 0.57 c p3
207.46 100.39 0.57 c p3
207.40 100.42 0.57 c p3
207.35 100.45 0.57 c p3
207.34 100.52 0.57 c p3
207.33 100.58 0.57 c p3
207.32 100.62 0.57 c p3
207.29 100.65 0.57 c p3
207.28 100.71 0.57 c p3
207.24 100.77 0.57 c p3
207.22 100.81 0.57 c p3
207.19 100.84 0.57 c p3
207.17 100.87 0.57 c p3
207.16 100.90 0.57 c p3
207.13 100.96 0.57 c p3
207.08 100.99 0.57 c p3
207.07 101.02 0.57 c p3
207.04 101.05 0.57 c p3
207.03 101.08 0.57 c p3
207.02 101.14 0.57 c p3
207.01 101.23 0.57 c p3
206.99 101.26 0.57 c p3
206.98 101.35 0.57 c p3
206.97 101.41 0.57 c p3
206.96 101.44 0.57 c p3
206.93 101.47 0.57 c p3
206.92 101.52 0.57 c p3
206.90 101.55 0.57 c p3
206.87 101.61 0.57 c p3
206.85 101.64 0.57 c p3
206.84 101.69 0.57 c p3
206.81 101.72 0.57 c p3
206.76 101.75 0.57 c p3
206.75 101.78 0.57 c p3
206.74 101.83 0.57 c p3
206.72 101.94 0.57 c p3
206.71 101.97 0.57 c p3
206.68 102.05 0.57 c p3
206.66 102.10 0.57 c p3
206.64 102.20 0.57 c p3
206.60 102.23 0.57 c p3
206.59 102.31 0.57 c p3
206.55 102.33 0.57 c p3
206.53 102.36 0.57 c p3
206.52 102.41 0.57 c p3
206.51 102.51 0.57 c p3
206.49 102.53 0.57 c p3
206.48 102.56 0.57 c p3
206.45 102.63 0.57 c p3
206.44 102.68 0.57 c p3
206.43 102.71 0.57 c p3
206.41 102.73 0.57 c p3
206.40 102.80 0.57 c p3
206.38 102.83 0.57 c p3
206.34 102.87 0.57 c p3
206.33 102.92 0.57 c p3
206.27 102.97 0.57 c p3
206.26 103.01 0.57 c p3
206.24 103.06 0.57 c p3
206.23 103.08 0.57 c p3
206.20 103.13 0.57 c p3
206.17 103.22 0.57 c p3
206.14 103.27 0.57 c p3
206.13 103.29 0.57 c p3
206.12 103.31 0.57 c p3
206.10 103.33 0.57 c p3
206.09 103.36 0.57 c p3
206.07 103.38 0.57 c p3
206.06 103.47 0.57 c p3
206.04 103.51 0.57 c p3
206.03 103.55 0.57 c p3
206.01 103.64 0.57 c p3
205.98 103.66 0.57 c p3
205.97 103.75 0.57 c p3
205.96 103.77 0.57 c p3
205.94 103.81 0.57 c p3
205.93 103.83 0.57 c p3
205.91 103.89 0.57 c p3
205.90 103.93 0.57 c p3
205.88 103.95 0.57 c p3
205.87 104.02 0.57 c p3
205.85 104.04 0.57 c p3
205.84 104.06 0.57 c p3
205.82 104.08 0.57 c p3
205.78 104.12 0.57 c p3
205.73 104.16 0.57 c p3
205.72 104.20 0.57 c p3
205.68 104.22 0.57 c p3
205.67 104.26 0.57 c p3
205.65 104.33 0.57 c p3
205.64 104.35 0.57 c p3
205.62 104.37 0.57 c p3
205.61 104.39 0.57 c p3
205.59 104.45 0.57 c p3
205.58 104.47 0.57 c p3
205.56 104.49 0.57 c p3
205.53 104.58 0.57 c p3
205.51 104.60 0.57 c p3
205.50 104.66 0.57 c p3
205.48 104.69 0.57 c p3
205.45 104.73 0.57 c p3
205.44 104.75 0.57 c p3
205.42 104.84 0.57 c p3
205.39 104.86 0.57 c p3
205.36 104.91 0.57 c p3
205.34 104.95 0.57 c p3
205.32 105.04 0.57 c p3
205.31 105.06 0.57 c p3
205.24 105.11 0.57 c p3
205.19 105.18 0.57 c p3
205.18 105.23 0.57 c p3
205.16 105.27 0.57 c p3
205.14 105.28 0.57 c p3
205.13 105.33 0.57 c p3
205.11 105.35 0.57 c p3
205.09 105.38 0.57 c p3
205.08 105.40 0.57 c p3
205.06 105.47 0.57 c p3
205.04 105.53 0.57 c p3
205.03 105.57 0.57 c p3
205.01 105.60 0.57 c p3
204.99 105.65 0.57 c p3
204.98 105.70 0.57 c p3
204.96 105.71 0.57 c p3
204.94 105.79 0.57 c p3
204.92 105.89 0.57 c p3
204.89 105.95 0.57 c p3
204.87 105.98 0.57 c p3
204.86 106.00 0.57 c p3
204.84 106.05 0.57 c p3
204.82 106.09 0.57 c p3
204.80 106.11 0.57 c p3
204.79 106.12 0.57 c p3
204.77 106.17 0.57 c p3
204.75 106.24 0.57 c p3
204.73 106.29 0.57 c p3
204.72 106.32 0.57 c p3
204.70 106.33 0.57 c p3
204.68 106.36 0.57 c p3
204.66 106.41 0.57 c p3
204.64 106.45 0.57 c p3
204.63 106.50 0.57 c p3
204.61 106.54 0.57 c p3
204.59 106.57 0.57 c p3
204.57 106.58 0.57 c p3
204.56 106.60 0.57 c p3
204.54 106.62 0.57 c p3
204.52 106.67 0.57 c p3
204.50 106.71 0.57 c p3
204.48 106.75 0.57 c p3
204.46 106.81 0.57 c p3
204.43 106.84 0.57 c p3
204.41 106.86 0.57 c p3
204.39 106.93 0.57 c p3
204.37 106.96 0.57 c p3
204.35 106.97 0.57 c p3
204.33 107.00 0.57 c p3
204.32 107.01 0.57 c p3
204.30 107.04 0.57 c p3
204.28 107.08 0.57 c p3
204.26 107.14 0.57 c p3
204.24 107.15 0.57 c p3
204.22 107.16 0.57 c p3
204.20 107.17 0.57 c p3
204.18 107.25 0.57 c p3
204.17 107.27 0.57 c p3
204.15 107.32 0.57 c p3
204.13 107.36 0.57 c p3
204.11 107.40 0.57 c p3
204.09 107.44 0.57 c p3
204.07 107.47 0.57 c p3
204.05 107.49 0.57 c p3
204.03 107.52 0.57 c p3
204.01 107.56 0.57 c p3
203.99 107.61 0.57 c p3
203.97 107.64 0.57 c p3
203.95 107.66 0.57 c p3
203.93 107.67 0.57 c p3
203.91 107.70 0.57 c p3
203.89 107.74 0.57 c p3
203.87 107.77 0.57 c p3
203.85 107.82 0.57 c p3
203.83 107.85 0.57 c p3
203.81 107.87 0.57 c p3
203.79 107.94 0.57 c p3
203.77 108.01 0.57 c p3
203.75 108.08 0.57 c p3
203.73 108.11 0.57 c p3
203.71 108.15 0.57 c p3
203.67 108.21 0.57 c p3
203.65 108.23 0.57 c p3
203.63 108.28 0.57 c p3
203.61 108.33 0.57 c p3
203.59 108.37 0.57 c p3
203.57 108.39 0.57 c p3
203.55 108.42 0.57 c p3
203.53 108.46 0.57 c p3
203.50 108.50 0.57 c p3
203.48 108.53 0.57 c p3
203.46 108.57 0.57 c p3
203.44 108.59 0.57 c p3
203.40 108.64 0.57 c p3
203.38 108.69 0.57 c p3
203.36 108.70 0.57 c p3
203.33 108.74 0.57 c p3
203.31 108.77 0.57 c p3
203.29 108.81 0.57 c p3
203.27 108.82 0.57 c p3
203.25 108.84 0.57 c p3
203.23 108.88 0.57 c p3
203.20 108.89 0.57 c p3
203.18 108.96 0.57 c p3
203.16 109.00 0.57 c p3
203.14 109.05 0.57 c p3
203.12 109.09 0.57 c p3
203.09 109.14 0.57 c p3
203.07 109.18 0.57 c p3
203.05 109.21 0.57 c p3
203.03 109.22 0.57 c p3
203.00 109.33 0.57 c p3
202.98 109.37 0.57 c p3
202.96 109.41 0.57 c p3
202.94 109.48 0.57 c p3
202.91 109.54 0.57 c p3
202.89 109.56 0.57 c p3
202.87 109.59 0.57 c p3
202.84 109.64 0.57 c p3
202.82 109.66 0.57 c p3
202.80 109.72 0.57 c p3
202.77 109.77 0.57 c p3
202.75 109.82 0.57 c p3
202.73 109.86 0.57 c p3
202.70 109.87 0.57 c p3
202.68 109.93 0.57 c p3
202.66 110.00 0.57 c p3
202.63 110.06 0.57 c p3
202.61 110.10 0.57 c p3
202.58 110.15 0.57 c p3
202.56 110.21 0.57 c p3
202.54 110.24 0.57 c p3
202.51 110.29 0.57 c p3
202.49 110.35 0.57 c p3
202.46 110.41 0.57 c p3
202.44 110.44 0.57 c p3
202.41 110.47 0.57 c p3
202.39 110.54 0.57 c p3
202.36 110.61 0.57 c p3
202.34 110.65 0.57 c p3
202.31 110.67 0.57 c p3
202.29 110.72 0.57 c p3
202.26 110.77 0.57 c p3
202.24 110.81 0.57 c p3
202.21 110.83 0.57 c p3
202.19 110.84 0.57 c p3
202.16 110.88 0.57 c p3
202.14 110.92 0.57 c p3
202.11 110.99 0.57 c p3
202.09 111.08 0.57 c p3
202.06 111.13 0.57 c p3
202.03 111.19 0.57 c p3
202.01 111.25 0.57 c p3
201.98 111.29 0.57 c p3
201.96 111.34 0.57 c p3
201.93 111.40 0.57 c p3
201.90 111.43 0.57 c p3
201.88 111.52 0.57 c p3
201.85 111.57 0.57 c p3
201.82 111.58 0.57 c p3
201.80 111.62 0.57 c p3
201.77 111.69 0.57 c p3
201.74 111.75 0.57 c p3
201.72 111.83 0.57 c p3
201.69 111.84 0.57 c p3
201.66 111.91 0.57 c p3
201.63 111.97 0.57 c p3
201.61 112.05 0.57 c p3
201.58 112.10 0.57 c p3
201.55 112.14 0.57 c p3
201.52 112.18 0.57 c p3
201.49 112.29 0.57 c p3
201.47 112.34 0.57 c p3
201.44 112.40 0.57 c p3
201.41 112.42 0.57 c p3
201.38 112.47 0.57 c p3
201.35 112.48 0.57 c p3
201.32 112.56 0.57 c p3
201.29 112.63 0.57 c p3
201.27 112.69 0.57 c p3
201.24 112.73 0.57 c p3
201.21 112.76 0.57 c p3
201.18 112.81 0.57 c p3
201.15 112.86 0.57 c p3
201.12 112.89 0.57 c p3
201.09 112.94 0.57 c p3
201.06 113.00 0.57 c p3
201.03 113.06 0.57 c p3
201.00 113.11 0.57 c p3
200.97 113.16 0.57 c p3
200.94 113.24 0.57 c p3
200.91 113.31 0.57 c p3
200.88 113.36 0.57 c p3
200.85 113.41 0.57 c p3
200.82 113.45 0.57 c p3
200.78 113.52 0.57 c p3
200.75 113.59 0.57 c p3
200.72 113.63 0.57 c p3
200.69 113.66 0.57 c p3
200.66 113.72 0.57 c p3
200.63 113.80 0.57 c p3
200.60 113.88 0.57 c p3
200.56 113.92 0.57 c p3
200.53 113.93 0.57 c p3
200.50 113.99 0.57 c p3
200.47 114.03 0.57 c p3
200.43 114.08 0.57 c p3
200.40 114.15 0.57 c p3
200.37 114.22 0.57 c p3
200.33 114.29 0.57 c p3
200.30 114.34 0.57 c p3
200.27 114.41 0.57 c p3
200.23 114.50 0.57 c p3
200.20 114.57 0.57 c p3
200.17 114.64 0.57 c p3
200.13 114.69 0.57 c p3
200.10 114.73 0.57 c p3
200.06 114.80 0.57 c p3
200.03 114.85 0.57 c p3
199.99 114.94 0.57 c p3
199.96 115.02 0.57 c p3
199.92 115.10 0.57 c p3
199.89 115.14 0.57 c p3
199.85 115.19 0.57 c p3
199.82 115.24 0.57 c p3
199.78 115.34 0.57 c p3
199.74 115.42 0.57 c p3
199.71 115.47 0.57 c p3
199.67 115.53 0.57 c p3
199.64 115.61 0.57 c p3
199.60 115.67 0.57 c p3
199.56 115.72 0.57 c p3
199.52 115.80 0.57 c p3
199.49 115.86 0.57 c p3
199.45 115.93 0.57 c p3
199.41 116.01 0.57 c p3
199.37 116.07 0.57 c p3
199.33 116.11 0.57 c p3
199.30 116.16 0.57 c p3
199.26 116.23 0.57 c p3
199.22 116.30 0.57 c p3
199.18 116.36 0.57 c p3
199.14 116.44 0.57 c p3
199.10 116.53 0.57 c p3
199.06 116.59 0.57 c p3
199.02 116.66 0.57 c p3
198.98 116.72 0.57 c p3
198.94 116.78 0.57 c p3
198.90 116.84 0.57 c p3
198.86 116.89 0.57 c p3
198.82 116.97 0.57 c p3
198.77 117.05 0.57 c p3
198.73 117.10 0.57 c p3
198.69 117.19 0.57 c p3
198.65 117.26 0.57 c p3
198.61 117.32 0.57 c p3
198.56 117.42 0.57 c p3
198.52 117.50 0.57 c p3
198.48 117.57 0.57 c p3
198.43 117.65 0.57 c p3
198.39 117.71 0.57 c p3
198.35 117.77 0.57 c p3
198.30 117.85 0.57 c p3
198.26 117.92 0.57 c p3
198.21 117.98 0.57 c p3
198.17 118.08 0.57 c p3
198.12 118.15 0.57 c p3
198.07 118.24 0.57 c p3
198.03 118.31 0.57 c p3
197.98 118.40 0.57 c p3
197.93 118.47 0.57 c p3
197.89 118.52 0.57 c p3
197.84 118.58 0.57 c p3
197.79 118.68 0.57 c p3
197.74 118.74 0.57 c p3
197.70 118.84 0.57 c p3
197.65 118.91 0.57 c p3
197.60 119.00 0.57 c p3
197.55 119.06 0.57 c p3
197.50 119.16 0.57 c p3
197.45 119.22 0.57 c p3
197.40 119.31 0.57 c p3
197.35 119.40 0.57 c p3
197.29 119.48 0.57 c p3
197.24 119.55 0.57 c p3
197.19 119.61 0.57 c p3
197.14 119.71 0.57 c p3
197.08 119.80 0.57 c p3
197.03 119.91 0.57 c p3
196.98 119.99 0.57 c p3
196.92 120.08 0.57 c p3
196.87 120.18 0.57 c p3
196.81 120.28 0.57 c p3
196.76 120.36 0.57 c p3
196.70 120.42 0.57 c p3
196.65 120.53 0.57 c p3
196.59 120.61 0.57 c p3
196.53 120.71 0.57 c p3
196.47 120.80 0.57 c p3
196.42 120.87 0.57 c p3
196.36 120.97 0.57 c p3
196.30 121.04 0.57 c p3
196.24 121.13 0.57 c p3
196.18 121.23 0.57 c p3
196.12 121.31 0.57 c p3
196.05 121.39 0.57 c p3
195.99 121.48 0.57 c p3
195.93 121.57 0.57 c p3
195.87 121.66 0.57 c p3
195.80 121.75 0.57 c p3
195.74 121.84 0.57 c p3
195.67 121.94 0.57 c p3
195.61 121.99 0.57 c p3
195.54 122.09 0.57 c p3
195.48 122.20 0.57 c p3
195.41 122.31 0.57 c p3
195.34 122.39 0.57 c p3
195.27 122.46 0.57 c p3
195.20 122.55 0.57 c p3
195.13 122.65 0.57 c p3
195.06 122.75 0.57 c p3
194.99 122.84 0.57 c p3
194.92 122.94 0.57 c p3
194.84 123.04 0.57 c p3
194.77 123.15 0.57 c p3
194.69 123.24 0.57 c p3
194.62 123.35 0.57 c p3
194.54 123.46 0.57 c p3
194.47 123.58 0.57 c p3
194.39 123.68 0.57 c p3
194.31 123.81 0.57 c p3
194.23 123.92 0.57 c p3
194.15 124.01 0.57 c p3
194.07 124.13 0.57 c p3
193.98 124.25 0.57 c p3
193.90 124.35 0.57 c p3
193.81 124.47 0.57 c p3
193.73 124.58 0.57 c p3
193.64 124.71 0.57 c p3
193.55 124.81 0.57 c p3
193.46 124.94 0.57 c p3
193.37 125.06 0.57 c p3
193.28 125.17 0.57 c p3
193.19 125.32 0.57 c p3
193.10 125.43 0.57 c p3
193.00 125.58 0.57 c p3
192.90 125.69 0.57 c p3
192.81 125.81 0.57 c p3
192.71 125.94 0.57 c p3
192.60 126.08 0.57 c p3
192.50 126.21 0.57 c p3
192.40 126.35 0.57 c p3
192.29 126.49 0.57 c p3
192.19 126.60 0.57 c p3
192.08 126.74 0.57 c p3
191.97 126.88 0.57 c p3
191.85 127.01 0.57 c p3
191.74 127.13 0.57 c p3
191.62 127.28 0.57 c p3
191.50 127.42 0.57 c p3
191.38 127.57 0.57 c p3
191.26 127.72 0.57 c p3
191.14 127.89 0.57 c p3
191.01 128.06 0.57 c p3
190.88 128.21 0.57 c p3
190.75 128.37 0.57 c p3
190.62 128.52 0.57 c p3
190.48 128.70 0.57 c p3
190.34 128.89 0.57 c p3
190.20 129.07 0.57 c p3
190.05 129.27 0.57 c p3
189.90 129.43 0.57 c p3
189.75 129.61 0.57 c p3
189.59 129.77 0.57 c p3
189.44 129.97 0.57 c p3
189.27 130.16 0.57 c p3
189.11 130.35 0.57 c p3
188.94 130.57 0.57 c p3
188.76 130.79 0.57 c p3
188.58 131.00 0.57 c p3
188.40 131.21 0.57 c p3
188.21 131.44 0.57 c p3
188.01 131.66 0.57 c p3
187.81 131.90 0.57 c p3
187.61 132.15 0.57 c p3
187.39 132.39 0.57 c p3
187.17 132.62 0.57 c p3
186.95 132.86 0.57 c p3
186.71 133.11 0.57 c p3
186.47 133.37 0.57 c p3
186.22 133.63 0.57 c p3
185.96 133.92 0.57 c p3
185.69 134.23 0.57 c p3
185.40 134.53 0.57 c p3
185.11 134.83 0.57 c p3
184.80 135.14 0.57 c p3
184.48 135.47 0.57 c p3
184.14 135.81 0.57 c p3
183.79 136.16 0.57 c p3
183.42 136.53 0.57 c p3
183.02 136.91 0.57 c p3
182.60 137.33 0.57 c p3
182.15 137.75 0.57 c p3
181.68 138.20 0.57 c p3
181.17 138.68 0.57 c p3
180.61 139.20 0.57 c p3
180.01 139.75 0.57 c p3
179.35 140.35 0.57 c p3
178.62 140.99 0.57 c p3
177.81 141.71 0.57 c p3
176.89 142.50 0.57 c p3
175.82 143.41 0.57 c p3
174.56 144.46 0.57 c p3
173.02 145.70 0.57 c p3
171.03 147.29 0.57 c p3
168.22 149.46 0.57 c p3
163.43 153.03 0.57 c p3
0.4980 0.4980 0.4980 srgb
1.07 setlinewidth
[] 0 setdash
158.74 54.56 103.16 103.16 r p1
0.00 0.00 595.28 198.43 cl
267.88 54.56 371.03 157.71 cl
/bg { 1 1 1 srgb } def
267.88 54.56 103.16 103.16 r p2
0.9804 0.9804 0.9804 srgb
1.07 setlinewidth
[] 0 setdash
0 setlinecap
1 setlinejoin
10.00 setmiterlimit
np
267.88 68.06 m
103.15 0 l
o
np
267.88 102.05 m
103.15 0 l
o
np
267.88 136.03 m
103.15 0 l
o
np
272.57 54.56 m
0 103.15 l
o
np
304.40 54.56 m
0 103.15 l
o
np
336.24 54.56 m
0 103.15 l
o
np
368.08 54.56 m
0 103.15 l
o
0.8980 0.8980 0.8980 srgb
0.43 setlinewidth
[] 0 setdash
np
267.88 85.05 m
103.15 0 l
o
np
267.88 119.04 m
103.15 0 l
o
np
267.88 153.03 m
103.15 0 l
o
np
288.48 54.56 m
0 103.15 l
o
np
320.32 54.56 m
0 103.15 l
o
np
352.16 54.56 m
0 103.15 l
o
/bg { 0 0 0 srgb } def
0 0 0 srgb
0.71 setlinewidth
[] 0 setdash
1 setlinecap
334.39 82.63 0.57 c p3
322.21 87.75 0.57 c p3
321.79 90.74 0.57 c p3
320.62 92.86 0.57 c p3
318.59 94.51 0.57 c p3
318.43 95.85 0.57 c p3
316.92 96.99 0.57 c p3
316.66 97.98 0.57 c p3
316.29 98.85 0.57 c p3
316.04 99.62 0.57 c p3
316.00 100.33 0.57 c p3
315.83 100.97 0.57 c p3
315.19 101.56 0.57 c p3
315.09 102.11 0.57 c p3
313.65 102.62 0.57 c p3
313.18 103.09 0.57 c p3
312.86 103.54 0.57 c p3
312.82 103.96 0.57 c p3
312.76 104.36 0.57 c p3
312.74 104.74 0.57 c p3
312.38 105.10 0.57 c p3
312.20 105.44 0.57 c p3
312.16 105.77 0.57 c p3
311.81 106.09 0.57 c p3
311.79 106.39 0.57 c p3
311.74 106.68 0.57 c p3
311.57 106.95 0.57 c p3
311.50 107.22 0.57 c p3
311.47 107.48 0.57 c p3
311.30 107.97 0.57 c p3
310.88 108.21 0.57 c p3
310.60 108.44 0.57 c p3
310.49 108.66 0.57 c p3
310.34 108.87 0.57 c p3
310.28 109.08 0.57 c p3
310.19 109.28 0.57 c p3
310.13 109.48 0.57 c p3
310.07 109.67 0.57 c p3
309.70 109.86 0.57 c p3
309.60 110.04 0.57 c p3
309.57 110.22 0.57 c p3
309.40 110.56 0.57 c p3
309.23 110.72 0.57 c p3
309.16 110.89 0.57 c p3
309.13 111.05 0.57 c p3
309.02 111.20 0.57 c p3
308.99 111.35 0.57 c p3
308.91 111.50 0.57 c p3
308.88 111.65 0.57 c p3
308.73 111.93 0.57 c p3
308.54 112.07 0.57 c p3
308.47 112.21 0.57 c p3
308.31 112.34 0.57 c p3
308.27 112.47 0.57 c p3
308.15 112.60 0.57 c p3
308.03 112.72 0.57 c p3
307.91 112.97 0.57 c p3
307.82 113.09 0.57 c p3
307.74 113.21 0.57 c p3
307.65 113.32 0.57 c p3
307.48 113.44 0.57 c p3
307.34 113.66 0.57 c p3
307.30 113.88 0.57 c p3
306.73 114.09 0.57 c p3
306.68 114.30 0.57 c p3
306.53 114.49 0.57 c p3
306.43 114.59 0.57 c p3
306.38 114.78 0.57 c p3
306.32 114.88 0.57 c p3
306.22 114.97 0.57 c p3
306.16 115.24 0.57 c p3
306.06 115.33 0.57 c p3
306.00 115.42 0.57 c p3
305.78 115.59 0.57 c p3
305.72 115.76 0.57 c p3
305.66 115.92 0.57 c p3
305.61 116.00 0.57 c p3
305.55 116.08 0.57 c p3
305.49 116.39 0.57 c p3
305.43 116.47 0.57 c p3
305.37 116.54 0.57 c p3
305.19 116.76 0.57 c p3
305.00 116.84 0.57 c p3
304.94 116.91 0.57 c p3
304.81 117.12 0.57 c p3
304.74 117.32 0.57 c p3
304.61 117.39 0.57 c p3
304.54 117.58 0.57 c p3
304.47 117.78 0.57 c p3
304.40 117.90 0.57 c p3
304.12 118.09 0.57 c p3
304.05 118.21 0.57 c p3
303.98 118.44 0.57 c p3
303.90 118.55 0.57 c p3
303.83 118.67 0.57 c p3
303.68 118.78 0.57 c p3
303.60 118.99 0.57 c p3
303.52 119.26 0.57 c p3
303.44 119.41 0.57 c p3
303.36 119.51 0.57 c p3
303.28 119.56 0.57 c p3
303.20 119.71 0.57 c p3
303.12 120.04 0.57 c p3
303.03 120.13 0.57 c p3
302.86 120.18 0.57 c p3
302.77 120.31 0.57 c p3
302.69 120.36 0.57 c p3
302.60 120.49 0.57 c p3
302.51 120.75 0.57 c p3
302.42 120.91 0.57 c p3
302.32 121.04 0.57 c p3
302.23 121.16 0.57 c p3
302.13 121.24 0.57 c p3
302.04 121.32 0.57 c p3
301.94 121.43 0.57 c p3
301.74 121.66 0.57 c p3
301.64 121.73 0.57 c p3
301.53 121.84 0.57 c p3
301.43 121.92 0.57 c p3
301.32 121.99 0.57 c p3
301.21 122.06 0.57 c p3
301.10 122.13 0.57 c p3
300.99 122.50 0.57 c p3
300.87 122.64 0.57 c p3
300.76 122.83 0.57 c p3
300.64 123.05 0.57 c p3
300.52 123.23 0.57 c p3
300.40 123.26 0.57 c p3
300.27 123.56 0.57 c p3
300.14 123.75 0.57 c p3
300.01 124.03 0.57 c p3
299.88 124.22 0.57 c p3
299.75 124.42 0.57 c p3
299.61 124.63 0.57 c p3
299.47 124.77 0.57 c p3
299.33 124.99 0.57 c p3
299.18 125.20 0.57 c p3
299.04 125.36 0.57 c p3
298.88 125.52 0.57 c p3
298.73 125.76 0.57 c p3
298.57 125.93 0.57 c p3
298.41 126.17 0.57 c p3
298.24 126.31 0.57 c p3
298.07 126.49 0.57 c p3
297.89 126.81 0.57 c p3
297.71 126.96 0.57 c p3
297.53 127.10 0.57 c p3
297.34 127.37 0.57 c p3
297.15 127.57 0.57 c p3
296.95 127.70 0.57 c p3
296.74 127.88 0.57 c p3
296.53 128.13 0.57 c p3
296.31 128.50 0.57 c p3
296.08 128.78 0.57 c p3
295.85 129.12 0.57 c p3
295.60 129.45 0.57 c p3
295.35 129.84 0.57 c p3
295.09 130.11 0.57 c p3
294.82 130.47 0.57 c p3
294.54 130.84 0.57 c p3
294.24 131.18 0.57 c p3
293.94 131.52 0.57 c p3
293.61 131.81 0.57 c p3
293.28 132.19 0.57 c p3
292.92 132.57 0.57 c p3
292.55 133.00 0.57 c p3
292.15 133.48 0.57 c p3
291.73 134.01 0.57 c p3
291.29 134.46 0.57 c p3
290.81 135.11 0.57 c p3
290.30 135.66 0.57 c p3
289.75 136.29 0.57 c p3
289.14 136.91 0.57 c p3
288.48 137.69 0.57 c p3
287.76 138.55 0.57 c p3
286.94 139.45 0.57 c p3
286.02 140.41 0.57 c p3
284.95 141.53 0.57 c p3
283.69 142.90 0.57 c p3
282.15 144.50 0.57 c p3
280.16 146.47 0.57 c p3
277.36 149.07 0.57 c p3
272.57 153.03 0.57 c p3
0.4980 0.4980 0.4980 srgb
1.07 setlinewidth
[] 0 setdash
267.88 54.56 103.16 103.16 r p1
0.00 0.00 595.28 198.43 cl
377.01 54.56 480.16 157.71 cl
/bg { 1 1 1 srgb } def
377.01 54.56 103.16 103.16 r p2
0.9804 0.9804 0.9804 srgb
1.07 setlinewidth
[] 0 setdash
0 setlinecap
1 setlinejoin
10.00 setmiterlimit
np
377.01 68.06 m
103.15 0 l
o
np
377.01 102.05 m
103.15 0 l
o
np
377.01 136.03 m
103.15 0 l
o
np
381.70 54.56 m
0 103.15 l
o
np
413.54 54.56 m
0 103.15 l
o
np
445.38 54.56 m
0 103.15 l
o
np
477.21 54.56 m
0 103.15 l
o
0.8980 0.8980 0.8980 srgb
0.43 setlinewidth
[] 0 setdash
np
377.01 85.05 m
103.15 0 l
o
np
377.01 119.04 m
103.15 0 l
o
np
377.01 153.03 m
103.15 0 l
o
np
397.62 54.56 m
0 103.15 l
o
np
429.46 54.56 m
0 103.15 l
o
np
461.29 54.56 m
0 103.15 l
o
/bg { 0 0 0 srgb } def
0 0 0 srgb
0.71 setlinewidth
[] 0 setdash
1 setlinecap
460.81 76.86 0.57 c p3
451.78 81.97 0.57 c p3
451.76 84.97 0.57 c p3
449.50 87.09 0.57 c p3
449.12 88.74 0.57 c p3
447.08 90.08 0.57 c p3
446.09 91.22 0.57 c p3
445.39 92.20 0.57 c p3
444.60 93.07 0.57 c p3
444.30 93.85 0.57 c p3
444.15 94.55 0.57 c p3
443.68 95.20 0.57 c p3
443.43 95.79 0.57 c p3
442.94 96.33 0.57 c p3
442.78 96.84 0.57 c p3
442.01 97.32 0.57 c p3
442.01 97.77 0.57 c p3
441.51 98.19 0.57 c p3
441.40 98.59 0.57 c p3
441.29 98.97 0.57 c p3
441.29 99.33 0.57 c p3
440.94 99.67 0.57 c p3
440.44 100.00 0.57 c p3
440.31 100.31 0.57 c p3
440.15 100.61 0.57 c p3
440.05 100.90 0.57 c p3
439.99 101.18 0.57 c p3
439.98 101.45 0.57 c p3
439.96 101.71 0.57 c p3
439.80 101.96 0.57 c p3
439.74 102.20 0.57 c p3
439.73 102.44 0.57 c p3
439.71 102.66 0.57 c p3
439.69 102.88 0.57 c p3
439.63 103.10 0.57 c p3
439.30 103.30 0.57 c p3
439.13 103.51 0.57 c p3
439.03 103.70 0.57 c p3
438.77 103.90 0.57 c p3
438.76 104.08 0.57 c p3
438.75 104.26 0.57 c p3
438.65 104.44 0.57 c p3
438.60 104.62 0.57 c p3
438.54 104.79 0.57 c p3
438.38 104.95 0.57 c p3
438.36 105.11 0.57 c p3
438.29 105.27 0.57 c p3
438.26 105.43 0.57 c p3
438.23 105.73 0.57 c p3
438.21 105.88 0.57 c p3
438.17 106.02 0.57 c p3
438.03 106.16 0.57 c p3
437.94 106.30 0.57 c p3
437.76 106.43 0.57 c p3
437.73 106.57 0.57 c p3
437.71 106.70 0.57 c p3
437.31 106.82 0.57 c p3
437.25 106.95 0.57 c p3
437.18 107.07 0.57 c p3
437.13 107.20 0.57 c p3
437.12 107.32 0.57 c p3
437.09 107.43 0.57 c p3
437.04 107.55 0.57 c p3
436.83 107.67 0.57 c p3
436.60 107.78 0.57 c p3
436.51 108.00 0.57 c p3
436.46 108.11 0.57 c p3
436.46 108.21 0.57 c p3
436.41 108.32 0.57 c p3
436.40 108.42 0.57 c p3
436.38 108.52 0.57 c p3
436.34 108.62 0.57 c p3
436.15 108.72 0.57 c p3
436.14 108.82 0.57 c p3
436.10 108.92 0.57 c p3
435.98 109.01 0.57 c p3
435.97 109.10 0.57 c p3
435.90 109.20 0.57 c p3
435.78 109.29 0.57 c p3
435.64 109.38 0.57 c p3
435.56 109.47 0.57 c p3
435.53 109.56 0.57 c p3
435.49 109.64 0.57 c p3
435.44 109.73 0.57 c p3
435.34 109.82 0.57 c p3
435.27 109.90 0.57 c p3
435.27 109.98 0.57 c p3
435.22 110.07 0.57 c p3
435.21 110.15 0.57 c p3
435.08 110.23 0.57 c p3
435.02 110.31 0.57 c p3
435.00 110.39 0.57 c p3
434.89 110.47 0.57 c p3
434.78 110.54 0.57 c p3
434.77 110.62 0.57 c p3
434.77 110.70 0.57 c p3
434.74 110.77 0.57 c p3
434.71 110.84 0.57 c p3
434.69 110.92 0.57 c p3
434.69 110.99 0.57 c p3
434.68 111.06 0.57 c p3
434.53 111.13 0.57 c p3
434.47 111.20 0.57 c p3
434.45 111.27 0.57 c p3
434.37 111.34 0.57 c p3
434.35 111.41 0.57 c p3
434.29 111.48 0.57 c p3
434.27 111.55 0.57 c p3
434.19 111.61 0.57 c p3
434.18 111.68 0.57 c p3
434.03 111.75 0.57 c p3
434.00 111.81 0.57 c p3
433.73 111.88 0.57 c p3
433.71 111.94 0.57 c p3
433.57 112.00 0.57 c p3
433.52 112.07 0.57 c p3
433.52 112.13 0.57 c p3
433.50 112.19 0.57 c p3
433.44 112.25 0.57 c p3
433.35 112.31 0.57 c p3
433.35 112.37 0.57 c p3
433.32 112.43 0.57 c p3
433.25 112.49 0.57 c p3
433.20 112.55 0.57 c p3
433.19 112.61 0.57 c p3
433.17 112.67 0.57 c p3
433.10 112.72 0.57 c p3
432.99 112.78 0.57 c p3
432.89 112.84 0.57 c p3
432.80 112.89 0.57 c p3
432.74 112.95 0.57 c p3
432.65 113.00 0.57 c p3
432.60 113.06 0.57 c p3
432.57 113.11 0.57 c p3
432.49 113.17 0.57 c p3
432.47 113.22 0.57 c p3
432.45 113.27 0.57 c p3
432.30 113.38 0.57 c p3
432.29 113.48 0.57 c p3
432.27 113.54 0.57 c p3
432.26 113.59 0.57 c p3
432.20 113.64 0.57 c p3
432.15 113.69 0.57 c p3
432.14 113.74 0.57 c p3
432.11 113.79 0.57 c p3
432.07 113.84 0.57 c p3
432.01 113.89 0.57 c p3
432.00 113.93 0.57 c p3
431.94 113.98 0.57 c p3
431.93 114.03 0.57 c p3
431.84 114.08 0.57 c p3
431.81 114.13 0.57 c p3
431.70 114.17 0.57 c p3
431.63 114.22 0.57 c p3
431.52 114.27 0.57 c p3
431.51 114.36 0.57 c p3
431.43 114.40 0.57 c p3
431.42 114.45 0.57 c p3
431.41 114.50 0.57 c p3
431.37 114.54 0.57 c p3
431.30 114.58 0.57 c p3
431.30 114.63 0.57 c p3
431.27 114.72 0.57 c p3
431.22 114.76 0.57 c p3
431.18 114.80 0.57 c p3
431.15 114.89 0.57 c p3
431.12 114.93 0.57 c p3
431.11 114.97 0.57 c p3
431.10 115.02 0.57 c p3
431.08 115.06 0.57 c p3
431.01 115.10 0.57 c p3
430.99 115.14 0.57 c p3
430.98 115.18 0.57 c p3
430.97 115.22 0.57 c p3
430.94 115.26 0.57 c p3
430.93 115.30 0.57 c p3
430.86 115.34 0.57 c p3
430.80 115.42 0.57 c p3
430.79 115.46 0.57 c p3
430.73 115.50 0.57 c p3
430.72 115.54 0.57 c p3
430.71 115.58 0.57 c p3
430.65 115.62 0.57 c p3
430.56 115.70 0.57 c p3
430.48 115.74 0.57 c p3
430.43 115.77 0.57 c p3
430.41 115.81 0.57 c p3
430.36 115.89 0.57 c p3
430.30 115.92 0.57 c p3
430.30 115.96 0.57 c p3
430.25 116.00 0.57 c p3
430.22 116.03 0.57 c p3
430.12 116.07 0.57 c p3
430.12 116.11 0.57 c p3
430.06 116.14 0.57 c p3
430.06 116.18 0.57 c p3
430.04 116.21 0.57 c p3
430.01 116.25 0.57 c p3
429.96 116.28 0.57 c p3
429.92 116.35 0.57 c p3
429.91 116.39 0.57 c p3
429.89 116.42 0.57 c p3
429.85 116.46 0.57 c p3
429.81 116.49 0.57 c p3
429.79 116.53 0.57 c p3
429.77 116.56 0.57 c p3
429.73 116.60 0.57 c p3
429.71 116.63 0.57 c p3
429.69 116.66 0.57 c p3
429.68 116.70 0.57 c p3
429.64 116.73 0.57 c p3
429.63 116.76 0.57 c p3
429.56 116.80 0.57 c p3
429.41 116.83 0.57 c p3
429.39 116.86 0.57 c p3
429.37 116.89 0.57 c p3
429.30 116.93 0.57 c p3
429.18 116.96 0.57 c p3
429.15 116.99 0.57 c p3
429.07 117.02 0.57 c p3
429.04 117.06 0.57 c p3
429.01 117.09 0.57 c p3
428.98 117.12 0.57 c p3
428.89 117.18 0.57 c p3
428.84 117.24 0.57 c p3
428.83 117.27 0.57 c p3
428.77 117.31 0.57 c p3
428.76 117.37 0.57 c p3
428.72 117.40 0.57 c p3
428.70 117.46 0.57 c p3
428.65 117.49 0.57 c p3
428.64 117.55 0.57 c p3
428.59 117.58 0.57 c p3
428.57 117.61 0.57 c p3
428.56 117.64 0.57 c p3
428.53 117.67 0.57 c p3
428.52 117.69 0.57 c p3
428.50 117.72 0.57 c p3
428.49 117.75 0.57 c p3
428.39 117.78 0.57 c p3
428.31 117.81 0.57 c p3
428.28 117.84 0.57 c p3
428.27 117.87 0.57 c p3
428.25 117.90 0.57 c p3
428.21 117.92 0.57 c p3
428.20 117.95 0.57 c p3
428.15 117.98 0.57 c p3
428.11 118.06 0.57 c p3
428.08 118.09 0.57 c p3
428.05 118.12 0.57 c p3
428.04 118.15 0.57 c p3
428.00 118.17 0.57 c p3
427.98 118.20 0.57 c p3
427.97 118.23 0.57 c p3
427.92 118.28 0.57 c p3
427.91 118.31 0.57 c p3
427.89 118.36 0.57 c p3
427.88 118.42 0.57 c p3
427.87 118.47 0.57 c p3
427.86 118.52 0.57 c p3
427.84 118.60 0.57 c p3
427.82 118.63 0.57 c p3
427.79 118.65 0.57 c p3
427.78 118.68 0.57 c p3
427.75 118.70 0.57 c p3
427.73 118.73 0.57 c p3
427.69 118.75 0.57 c p3
427.67 118.78 0.57 c p3
427.59 118.80 0.57 c p3
427.57 118.85 0.57 c p3
427.52 118.90 0.57 c p3
427.49 118.95 0.57 c p3
427.46 118.98 0.57 c p3
427.43 119.00 0.57 c p3
427.41 119.03 0.57 c p3
427.40 119.05 0.57 c p3
427.39 119.07 0.57 c p3
427.37 119.12 0.57 c p3
427.30 119.15 0.57 c p3
427.29 119.17 0.57 c p3
427.24 119.19 0.57 c p3
427.16 119.22 0.57 c p3
427.12 119.24 0.57 c p3
427.10 119.27 0.57 c p3
427.04 119.29 0.57 c p3
427.00 119.36 0.57 c p3
426.96 119.41 0.57 c p3
426.95 119.43 0.57 c p3
426.90 119.45 0.57 c p3
426.88 119.47 0.57 c p3
426.86 119.50 0.57 c p3
426.85 119.52 0.57 c p3
426.83 119.54 0.57 c p3
426.82 119.57 0.57 c p3
426.81 119.59 0.57 c p3
426.79 119.70 0.57 c p3
426.75 119.72 0.57 c p3
426.70 119.74 0.57 c p3
426.68 119.77 0.57 c p3
426.66 119.79 0.57 c p3
426.63 119.81 0.57 c p3
426.59 119.83 0.57 c p3
426.56 119.85 0.57 c p3
426.55 119.88 0.57 c p3
426.52 119.90 0.57 c p3
426.50 119.94 0.57 c p3
426.49 119.96 0.57 c p3
426.48 119.98 0.57 c p3
426.47 120.01 0.57 c p3
426.46 120.03 0.57 c p3
426.45 120.05 0.57 c p3
426.44 120.07 0.57 c p3
426.42 120.09 0.57 c p3
426.40 120.11 0.57 c p3
426.37 120.15 0.57 c p3
426.35 120.17 0.57 c p3
426.34 120.22 0.57 c p3
426.32 120.24 0.57 c p3
426.28 120.26 0.57 c p3
426.26 120.28 0.57 c p3
426.18 120.30 0.57 c p3
426.16 120.32 0.57 c p3
426.15 120.34 0.57 c p3
426.14 120.40 0.57 c p3
426.10 120.42 0.57 c p3
426.04 120.44 0.57 c p3
426.03 120.46 0.57 c p3
426.00 120.48 0.57 c p3
425.98 120.50 0.57 c p3
425.96 120.52 0.57 c p3
425.92 120.54 0.57 c p3
425.89 120.56 0.57 c p3
425.87 120.58 0.57 c p3
425.84 120.60 0.57 c p3
425.83 120.62 0.57 c p3
425.82 120.66 0.57 c p3
425.80 120.68 0.57 c p3
425.75 120.72 0.57 c p3
425.70 120.77 0.57 c p3
425.69 120.81 0.57 c p3
425.67 120.83 0.57 c p3
425.65 120.85 0.57 c p3
425.64 120.91 0.57 c p3
425.62 120.93 0.57 c p3
425.50 120.95 0.57 c p3
425.47 120.96 0.57 c p3
425.45 121.00 0.57 c p3
425.44 121.02 0.57 c p3
425.41 121.04 0.57 c p3
425.39 121.08 0.57 c p3
425.37 121.09 0.57 c p3
425.36 121.13 0.57 c p3
425.34 121.15 0.57 c p3
425.32 121.17 0.57 c p3
425.31 121.19 0.57 c p3
425.29 121.22 0.57 c p3
425.26 121.28 0.57 c p3
425.23 121.29 0.57 c p3
425.22 121.33 0.57 c p3
425.18 121.35 0.57 c p3
425.17 121.36 0.57 c p3
425.14 121.38 0.57 c p3
425.13 121.40 0.57 c p3
425.11 121.44 0.57 c p3
425.07 121.45 0.57 c p3
425.05 121.49 0.57 c p3
425.04 121.51 0.57 c p3
425.01 121.52 0.57 c p3
425.00 121.54 0.57 c p3
424.99 121.56 0.57 c p3
424.96 121.57 0.57 c p3
424.90 121.61 0.57 c p3
424.87 121.63 0.57 c p3
424.79 121.64 0.57 c p3
424.75 121.66 0.57 c p3
424.71 121.68 0.57 c p3
424.69 121.69 0.57 c p3
424.66 121.73 0.57 c p3
424.62 121.75 0.57 c p3
424.57 121.76 0.57 c p3
424.55 121.80 0.57 c p3
424.52 121.81 0.57 c p3
424.50 121.85 0.57 c p3
424.47 121.88 0.57 c p3
424.44 121.90 0.57 c p3
424.40 121.93 0.57 c p3
424.38 121.94 0.57 c p3
424.37 121.96 0.57 c p3
424.34 121.99 0.57 c p3
424.32 122.01 0.57 c p3
424.31 122.04 0.57 c p3
424.29 122.06 0.57 c p3
424.22 122.07 0.57 c p3
424.21 122.11 0.57 c p3
424.19 122.14 0.57 c p3
424.16 122.15 0.57 c p3
424.12 122.17 0.57 c p3
424.10 122.22 0.57 c p3
424.09 122.23 0.57 c p3
424.06 122.25 0.57 c p3
424.04 122.27 0.57 c p3
424.03 122.28 0.57 c p3
424.01 122.30 0.57 c p3
424.00 122.31 0.57 c p3
423.97 122.33 0.57 c p3
423.95 122.34 0.57 c p3
423.92 122.36 0.57 c p3
423.90 122.37 0.57 c p3
423.89 122.42 0.57 c p3
423.87 122.44 0.57 c p3
423.86 122.45 0.57 c p3
423.81 122.47 0.57 c p3
423.80 122.48 0.57 c p3
423.78 122.53 0.57 c p3
423.75 122.56 0.57 c p3
423.73 122.62 0.57 c p3
423.70 122.63 0.57 c p3
423.69 122.65 0.57 c p3
423.67 122.66 0.57 c p3
423.65 122.68 0.57 c p3
423.64 122.69 0.57 c p3
423.61 122.74 0.57 c p3
423.59 122.77 0.57 c p3
423.57 122.80 0.57 c p3
423.54 122.81 0.57 c p3
423.51 122.82 0.57 c p3
423.49 122.84 0.57 c p3
423.44 122.88 0.57 c p3
423.43 122.90 0.57 c p3
423.41 122.93 0.57 c p3
423.38 122.95 0.57 c p3
423.33 122.98 0.57 c p3
423.31 123.00 0.57 c p3
423.29 123.01 0.57 c p3
423.28 123.04 0.57 c p3
423.26 123.05 0.57 c p3
423.22 123.10 0.57 c p3
423.14 123.11 0.57 c p3
423.09 123.12 0.57 c p3
423.07 123.15 0.57 c p3
423.03 123.17 0.57 c p3
423.02 123.21 0.57 c p3
423.00 123.24 0.57 c p3
422.98 123.26 0.57 c p3
422.96 123.30 0.57 c p3
422.95 123.32 0.57 c p3
422.93 123.33 0.57 c p3
422.88 123.34 0.57 c p3
422.86 123.37 0.57 c p3
422.84 123.39 0.57 c p3
422.80 123.43 0.57 c p3
422.77 123.45 0.57 c p3
422.73 123.49 0.57 c p3
422.71 123.52 0.57 c p3
422.69 123.55 0.57 c p3
422.68 123.56 0.57 c p3
422.66 123.57 0.57 c p3
422.60 123.60 0.57 c p3
422.58 123.61 0.57 c p3
422.56 123.64 0.57 c p3
422.54 123.65 0.57 c p3
422.53 123.66 0.57 c p3
422.49 123.68 0.57 c p3
422.47 123.69 0.57 c p3
422.45 123.70 0.57 c p3
422.39 123.74 0.57 c p3
422.37 123.75 0.57 c p3
422.34 123.77 0.57 c p3
422.32 123.78 0.57 c p3
422.30 123.80 0.57 c p3
422.28 123.82 0.57 c p3
422.26 123.83 0.57 c p3
422.24 123.87 0.57 c p3
422.22 123.89 0.57 c p3
422.20 123.92 0.57 c p3
422.18 123.93 0.57 c p3
422.16 123.94 0.57 c p3
422.14 123.96 0.57 c p3
422.10 124.01 0.57 c p3
422.08 124.06 0.57 c p3
422.06 124.07 0.57 c p3
422.04 124.08 0.57 c p3
422.02 124.09 0.57 c p3
422.00 124.13 0.57 c p3
421.94 124.17 0.57 c p3
421.92 124.19 0.57 c p3
421.90 124.20 0.57 c p3
421.87 124.23 0.57 c p3
421.85 124.24 0.57 c p3
421.83 124.25 0.57 c p3
421.81 124.27 0.57 c p3
421.79 124.31 0.57 c p3
421.77 124.32 0.57 c p3
421.75 124.33 0.57 c p3
421.71 124.37 0.57 c p3
421.69 124.38 0.57 c p3
421.66 124.39 0.57 c p3
421.64 124.43 0.57 c p3
421.62 124.44 0.57 c p3
421.60 124.45 0.57 c p3
421.58 124.47 0.57 c p3
421.56 124.52 0.57 c p3
421.54 124.54 0.57 c p3
421.51 124.57 0.57 c p3
421.49 124.62 0.57 c p3
421.47 124.64 0.57 c p3
421.45 124.65 0.57 c p3
421.43 124.67 0.57 c p3
421.40 124.70 0.57 c p3
421.36 124.73 0.57 c p3
421.34 124.75 0.57 c p3
421.31 124.77 0.57 c p3
421.29 124.80 0.57 c p3
421.27 124.83 0.57 c p3
421.22 124.85 0.57 c p3
421.20 124.86 0.57 c p3
421.18 124.88 0.57 c p3
421.16 124.89 0.57 c p3
421.13 124.93 0.57 c p3
421.11 124.94 0.57 c p3
421.09 124.96 0.57 c p3
421.06 124.98 0.57 c p3
421.04 125.00 0.57 c p3
421.02 125.01 0.57 c p3
420.99 125.03 0.57 c p3
420.97 125.07 0.57 c p3
420.95 125.08 0.57 c p3
420.92 125.10 0.57 c p3
420.90 125.12 0.57 c p3
420.87 125.17 0.57 c p3
420.85 125.18 0.57 c p3
420.83 125.21 0.57 c p3
420.73 125.22 0.57 c p3
420.70 125.25 0.57 c p3
420.68 125.29 0.57 c p3
420.66 125.32 0.57 c p3
420.63 125.34 0.57 c p3
420.61 125.35 0.57 c p3
420.58 125.38 0.57 c p3
420.56 125.40 0.57 c p3
420.53 125.43 0.57 c p3
420.51 125.45 0.57 c p3
420.48 125.46 0.57 c p3
420.43 125.48 0.57 c p3
420.40 125.49 0.57 c p3
420.38 125.51 0.57 c p3
420.35 125.55 0.57 c p3
420.33 125.56 0.57 c p3
420.30 125.61 0.57 c p3
420.27 125.62 0.57 c p3
420.25 125.64 0.57 c p3
420.22 125.68 0.57 c p3
420.20 125.68 0.57 c p3
420.17 125.71 0.57 c p3
420.14 125.75 0.57 c p3
420.12 125.78 0.57 c p3
420.09 125.80 0.57 c p3
420.06 125.82 0.57 c p3
420.04 125.87 0.57 c p3
420.01 125.88 0.57 c p3
419.98 125.90 0.57 c p3
419.95 125.92 0.57 c p3
419.93 125.95 0.57 c p3
419.90 125.98 0.57 c p3
419.87 125.99 0.57 c p3
419.84 126.01 0.57 c p3
419.82 126.04 0.57 c p3
419.79 126.08 0.57 c p3
419.76 126.10 0.57 c p3
419.73 126.12 0.57 c p3
419.68 126.14 0.57 c p3
419.65 126.18 0.57 c p3
419.62 126.21 0.57 c p3
419.59 126.26 0.57 c p3
419.56 126.28 0.57 c p3
419.53 126.30 0.57 c p3
419.50 126.31 0.57 c p3
419.47 126.36 0.57 c p3
419.44 126.38 0.57 c p3
419.41 126.41 0.57 c p3
419.39 126.42 0.57 c p3
419.36 126.44 0.57 c p3
419.33 126.46 0.57 c p3
419.30 126.49 0.57 c p3
419.24 126.51 0.57 c p3
419.20 126.53 0.57 c p3
419.17 126.58 0.57 c p3
419.14 126.59 0.57 c p3
419.11 126.61 0.57 c p3
419.08 126.66 0.57 c p3
419.05 126.68 0.57 c p3
419.02 126.70 0.57 c p3
418.99 126.72 0.57 c p3
418.96 126.75 0.57 c p3
418.92 126.76 0.57 c p3
418.89 126.78 0.57 c p3
418.86 126.79 0.57 c p3
418.83 126.81 0.57 c p3
418.80 126.82 0.57 c p3
418.76 126.84 0.57 c p3
418.73 126.86 0.57 c p3
418.70 126.89 0.57 c p3
418.67 126.90 0.57 c p3
418.63 126.93 0.57 c p3
418.60 126.99 0.57 c p3
418.57 127.02 0.57 c p3
418.50 127.04 0.57 c p3
418.47 127.06 0.57 c p3
418.43 127.08 0.57 c p3
418.40 127.11 0.57 c p3
418.36 127.12 0.57 c p3
418.33 127.14 0.57 c p3
418.29 127.20 0.57 c p3
418.26 127.28 0.57 c p3
418.22 127.31 0.57 c p3
418.19 127.37 0.57 c p3
418.15 127.40 0.57 c p3
418.12 127.41 0.57 c p3
418.08 127.44 0.57 c p3
418.05 127.48 0.57 c p3
418.01 127.50 0.57 c p3
417.97 127.51 0.57 c p3
417.94 127.52 0.57 c p3
417.90 127.56 0.57 c p3
417.86 127.60 0.57 c p3
417.83 127.61 0.57 c p3
417.79 127.64 0.57 c p3
417.75 127.69 0.57 c p3
417.72 127.72 0.57 c p3
417.68 127.74 0.57 c p3
417.64 127.76 0.57 c p3
417.60 127.82 0.57 c p3
417.56 127.85 0.57 c p3
417.52 127.88 0.57 c p3
417.48 127.94 0.57 c p3
417.45 127.95 0.57 c p3
417.41 128.00 0.57 c p3
417.37 128.03 0.57 c p3
417.33 128.03 0.57 c p3
417.29 128.05 0.57 c p3
417.25 128.13 0.57 c p3
417.21 128.16 0.57 c p3
417.16 128.21 0.57 c p3
417.12 128.25 0.57 c p3
417.08 128.27 0.57 c p3
417.04 128.31 0.57 c p3
417.00 128.36 0.57 c p3
416.96 128.40 0.57 c p3
416.91 128.42 0.57 c p3
416.87 128.45 0.57 c p3
416.83 128.49 0.57 c p3
416.79 128.55 0.57 c p3
416.74 128.57 0.57 c p3
416.70 128.60 0.57 c p3
416.66 128.65 0.57 c p3
416.61 128.67 0.57 c p3
416.57 128.74 0.57 c p3
416.52 128.79 0.57 c p3
416.48 128.81 0.57 c p3
416.43 128.87 0.57 c p3
416.39 128.90 0.57 c p3
416.34 128.96 0.57 c p3
416.29 128.98 0.57 c p3
416.25 129.01 0.57 c p3
416.20 129.05 0.57 c p3
416.15 129.06 0.57 c p3
416.11 129.10 0.57 c p3
416.06 129.14 0.57 c p3
416.01 129.18 0.57 c p3
415.96 129.23 0.57 c p3
415.91 129.26 0.57 c p3
415.86 129.29 0.57 c p3
415.81 129.32 0.57 c p3
415.76 129.37 0.57 c p3
415.71 129.38 0.57 c p3
415.66 129.42 0.57 c p3
415.61 129.45 0.57 c p3
415.56 129.47 0.57 c p3
415.51 129.50 0.57 c p3
415.46 129.57 0.57 c p3
415.40 129.61 0.57 c p3
415.35 129.67 0.57 c p3
415.30 129.69 0.57 c p3
415.24 129.73 0.57 c p3
415.19 129.75 0.57 c p3
415.13 129.79 0.57 c p3
415.08 129.82 0.57 c p3
415.02 129.87 0.57 c p3
414.97 129.92 0.57 c p3
414.91 129.95 0.57 c p3
414.85 129.98 0.57 c p3
414.80 129.99 0.57 c p3
414.74 130.00 0.57 c p3
414.68 130.05 0.57 c p3
414.62 130.09 0.57 c p3
414.56 130.17 0.57 c p3
414.50 130.22 0.57 c p3
414.44 130.28 0.57 c p3
414.38 130.31 0.57 c p3
414.32 130.37 0.57 c p3
414.26 130.43 0.57 c p3
414.20 130.45 0.57 c p3
414.13 130.49 0.57 c p3
414.07 130.58 0.57 c p3
414.00 130.63 0.57 c p3
413.94 130.69 0.57 c p3
413.87 130.75 0.57 c p3
413.81 130.80 0.57 c p3
413.74 130.85 0.57 c p3
413.67 130.92 0.57 c p3
413.61 130.96 0.57 c p3
413.54 131.02 0.57 c p3
413.47 131.10 0.57 c p3
413.40 131.12 0.57 c p3
413.33 131.17 0.57 c p3
413.25 131.21 0.57 c p3
413.18 131.27 0.57 c p3
413.11 131.32 0.57 c p3
413.04 131.37 0.57 c p3
412.96 131.46 0.57 c p3
412.88 131.51 0.57 c p3
412.81 131.55 0.57 c p3
412.73 131.59 0.57 c p3
412.65 131.65 0.57 c p3
412.57 131.73 0.57 c p3
412.49 131.78 0.57 c p3
412.41 131.83 0.57 c p3
412.33 131.90 0.57 c p3
412.25 131.95 0.57 c p3
412.16 132.01 0.57 c p3
412.08 132.07 0.57 c p3
411.99 132.15 0.57 c p3
411.91 132.23 0.57 c p3
411.82 132.30 0.57 c p3
411.73 132.35 0.57 c p3
411.64 132.42 0.57 c p3
411.55 132.49 0.57 c p3
411.46 132.53 0.57 c p3
411.36 132.61 0.57 c p3
411.27 132.69 0.57 c p3
411.17 132.75 0.57 c p3
411.07 132.80 0.57 c p3
410.97 132.88 0.57 c p3
410.87 132.96 0.57 c p3
410.77 133.03 0.57 c p3
410.66 133.10 0.57 c p3
410.56 133.17 0.57 c p3
410.45 133.22 0.57 c p3
410.34 133.29 0.57 c p3
410.23 133.34 0.57 c p3
410.12 133.46 0.57 c p3
410.01 133.52 0.57 c p3
409.89 133.62 0.57 c p3
409.77 133.68 0.57 c p3
409.65 133.77 0.57 c p3
409.53 133.85 0.57 c p3
409.40 133.90 0.57 c p3
409.28 133.97 0.57 c p3
409.15 134.07 0.57 c p3
409.02 134.15 0.57 c p3
408.88 134.22 0.57 c p3
408.74 134.31 0.57 c p3
408.61 134.39 0.57 c p3
408.46 134.50 0.57 c p3
408.32 134.64 0.57 c p3
408.17 134.76 0.57 c p3
408.02 134.91 0.57 c p3
407.86 135.02 0.57 c p3
407.70 135.15 0.57 c p3
407.54 135.28 0.57 c p3
407.37 135.40 0.57 c p3
407.20 135.50 0.57 c p3
407.03 135.61 0.57 c p3
406.85 135.75 0.57 c p3
406.66 135.90 0.57 c p3
406.47 136.02 0.57 c p3
406.28 136.19 0.57 c p3
406.08 136.31 0.57 c p3
405.87 136.45 0.57 c p3
405.66 136.60 0.57 c p3
405.44 136.71 0.57 c p3
405.21 136.85 0.57 c p3
404.98 136.98 0.57 c p3
404.74 137.14 0.57 c p3
404.48 137.33 0.57 c p3
404.22 137.50 0.57 c p3
403.95 137.70 0.57 c p3
403.67 137.92 0.57 c p3
403.38 138.10 0.57 c p3
403.07 138.32 0.57 c p3
402.75 138.57 0.57 c p3
402.41 138.81 0.57 c p3
402.06 139.07 0.57 c p3
401.68 139.34 0.57 c p3
401.29 139.62 0.57 c p3
400.87 139.88 0.57 c p3
400.42 140.19 0.57 c p3
399.94 140.49 0.57 c p3
399.43 140.88 0.57 c p3
398.88 141.25 0.57 c p3
398.28 141.66 0.57 c p3
397.62 142.15 0.57 c p3
396.89 142.66 0.57 c p3
396.07 143.18 0.57 c p3
395.15 143.80 0.57 c p3
394.09 144.47 0.57 c p3
392.83 145.28 0.57 c p3
391.28 146.28 0.57 c p3
389.29 147.65 0.57 c p3
386.49 149.59 0.57 c p3
381.70 153.03 0.57 c p3
0.4980 0.4980 0.4980 srgb
1.07 setlinewidth
[] 0 setdash
377.01 54.56 103.16 103.16 r p1
0.00 0.00 595.28 198.43 cl
486.14 54.56 589.30 157.71 cl
/bg { 1 1 1 srgb } def
486.14 54.56 103.16 103.16 r p2
0.9804 0.9804 0.9804 srgb
1.07 setlinewidth
[] 0 setdash
0 setlinecap
1 setlinejoin
10.00 setmiterlimit
np
486.14 68.06 m
103.16 0 l
o
np
486.14 102.05 m
103.16 0 l
o
np
486.14 136.03 m
103.16 0 l
o
np
490.83 54.56 m
0 103.15 l
o
np
522.67 54.56 m
0 103.15 l
o
np
554.51 54.56 m
0 103.15 l
o
np
586.35 54.56 m
0 103.15 l
o
0.8980 0.8980 0.8980 srgb
0.43 setlinewidth
[] 0 setdash
np
486.14 85.05 m
103.16 0 l
o
np
486.14 119.04 m
103.16 0 l
o
np
486.14 153.03 m
103.16 0 l
o
np
506.75 54.56 m
0 103.15 l
o
np
538.59 54.56 m
0 103.15 l
o
np
570.43 54.56 m
0 103.15 l
o
/bg { 0 0 0 srgb } def
0 0 0 srgb
0.71 setlinewidth
[] 0 setdash
1 setlinecap
584.61 59.25 0.57 c p3
554.92 64.36 0.57 c p3
552.88 67.36 0.57 c p3
551.13 69.48 0.57 c p3
550.49 71.13 0.57 c p3
550.30 72.47 0.57 c p3
549.79 73.61 0.57 c p3
549.35 74.59 0.57 c p3
548.58 75.46 0.57 c p3
548.53 76.24 0.57 c p3
548.27 76.94 0.57 c p3
547.37 77.59 0.57 c p3
547.17 78.18 0.57 c p3
547.10 78.72 0.57 c p3
547.04 79.23 0.57 c p3
546.97 79.71 0.57 c p3
546.21 80.16 0.57 c p3
546.21 80.58 0.57 c p3
545.55 80.98 0.57 c p3
545.47 81.36 0.57 c p3
545.32 81.72 0.57 c p3
545.04 82.06 0.57 c p3
544.92 82.39 0.57 c p3
544.43 82.70 0.57 c p3
544.38 83.00 0.57 c p3
543.91 83.29 0.57 c p3
543.45 83.57 0.57 c p3
543.36 83.84 0.57 c p3
543.20 84.10 0.57 c p3
543.12 84.35 0.57 c p3
542.97 84.59 0.57 c p3
542.82 84.83 0.57 c p3
542.65 85.05 0.57 c p3
542.59 85.27 0.57 c p3
542.50 85.49 0.57 c p3
542.45 85.69 0.57 c p3
542.40 85.90 0.57 c p3
542.37 86.09 0.57 c p3
542.35 86.29 0.57 c p3
542.25 86.47 0.57 c p3
542.23 86.65 0.57 c p3
542.12 86.83 0.57 c p3
542.12 87.01 0.57 c p3
542.07 87.18 0.57 c p3
542.05 87.34 0.57 c p3
541.95 87.50 0.57 c p3
541.94 87.66 0.57 c p3
541.93 87.82 0.57 c p3
541.92 87.97 0.57 c p3
541.83 88.12 0.57 c p3
541.83 88.26 0.57 c p3
541.71 88.55 0.57 c p3
541.69 88.69 0.57 c p3
541.64 88.82 0.57 c p3
541.57 88.96 0.57 c p3
541.34 89.09 0.57 c p3
541.28 89.21 0.57 c p3
541.23 89.34 0.57 c p3
541.13 89.59 0.57 c p3
541.06 89.71 0.57 c p3
541.05 89.82 0.57 c p3
541.00 89.94 0.57 c p3
540.92 90.05 0.57 c p3
540.86 90.17 0.57 c p3
540.77 90.28 0.57 c p3
540.75 90.39 0.57 c p3
540.68 90.50 0.57 c p3
540.65 90.60 0.57 c p3
540.63 90.71 0.57 c p3
540.56 90.81 0.57 c p3
540.55 90.91 0.57 c p3
540.53 91.01 0.57 c p3
540.46 91.11 0.57 c p3
540.45 91.21 0.57 c p3
540.43 91.31 0.57 c p3
540.40 91.40 0.57 c p3
540.36 91.49 0.57 c p3
540.35 91.59 0.57 c p3
540.30 91.68 0.57 c p3
540.28 91.77 0.57 c p3
540.23 91.95 0.57 c p3
540.17 92.03 0.57 c p3
540.12 92.12 0.57 c p3
540.05 92.21 0.57 c p3
540.03 92.29 0.57 c p3
539.96 92.37 0.57 c p3
539.95 92.54 0.57 c p3
539.94 92.62 0.57 c p3
539.83 92.70 0.57 c p3
539.78 92.78 0.57 c p3
539.75 92.86 0.57 c p3
539.72 93.09 0.57 c p3
539.71 93.16 0.57 c p3
539.69 93.23 0.57 c p3
539.65 93.31 0.57 c p3
539.65 93.45 0.57 c p3
539.63 93.52 0.57 c p3
539.62 93.59 0.57 c p3
539.60 93.66 0.57 c p3
539.58 93.73 0.57 c p3
539.51 93.80 0.57 c p3
539.49 93.87 0.57 c p3
539.47 93.94 0.57 c p3
539.46 94.00 0.57 c p3
539.45 94.07 0.57 c p3
539.45 94.14 0.57 c p3
539.44 94.20 0.57 c p3
539.43 94.27 0.57 c p3
539.38 94.33 0.57 c p3
539.37 94.39 0.57 c p3
539.28 94.46 0.57 c p3
539.27 94.52 0.57 c p3
539.25 94.58 0.57 c p3
539.24 94.64 0.57 c p3
539.23 94.70 0.57 c p3
539.21 94.76 0.57 c p3
539.17 94.82 0.57 c p3
539.15 94.88 0.57 c p3
539.10 95.00 0.57 c p3
539.06 95.06 0.57 c p3
539.02 95.11 0.57 c p3
538.97 95.17 0.57 c p3
538.95 95.23 0.57 c p3
538.95 95.28 0.57 c p3
538.93 95.34 0.57 c p3
538.80 95.39 0.57 c p3
538.73 95.45 0.57 c p3
538.73 95.50 0.57 c p3
538.72 95.56 0.57 c p3
538.66 95.61 0.57 c p3
538.60 95.66 0.57 c p3
538.58 95.72 0.57 c p3
538.54 95.77 0.57 c p3
538.51 95.87 0.57 c p3
538.46 95.98 0.57 c p3
538.45 96.03 0.57 c p3
538.44 96.18 0.57 c p3
538.41 96.23 0.57 c p3
538.39 96.28 0.57 c p3
538.37 96.32 0.57 c p3
538.36 96.37 0.57 c p3
538.36 96.42 0.57 c p3
538.34 96.47 0.57 c p3
538.29 96.52 0.57 c p3
538.28 96.56 0.57 c p3
538.26 96.61 0.57 c p3
538.23 96.70 0.57 c p3
538.23 96.75 0.57 c p3
538.21 96.79 0.57 c p3
538.18 96.84 0.57 c p3
538.16 96.89 0.57 c p3
538.15 96.93 0.57 c p3
538.12 97.02 0.57 c p3
538.05 97.06 0.57 c p3
538.02 97.11 0.57 c p3
538.01 97.19 0.57 c p3
537.98 97.24 0.57 c p3
537.98 97.41 0.57 c p3
537.97 97.45 0.57 c p3
537.91 97.49 0.57 c p3
537.89 97.53 0.57 c p3
537.85 97.57 0.57 c p3
537.85 97.61 0.57 c p3
537.81 97.69 0.57 c p3
537.78 97.73 0.57 c p3
537.77 97.77 0.57 c p3
537.75 97.81 0.57 c p3
537.67 97.85 0.57 c p3
537.66 97.89 0.57 c p3
537.65 97.97 0.57 c p3
537.62 98.05 0.57 c p3
537.56 98.09 0.57 c p3
537.53 98.12 0.57 c p3
537.52 98.16 0.57 c p3
537.51 98.20 0.57 c p3
537.51 98.24 0.57 c p3
537.50 98.28 0.57 c p3
537.47 98.31 0.57 c p3
537.43 98.35 0.57 c p3
537.38 98.39 0.57 c p3
537.37 98.42 0.57 c p3
537.33 98.46 0.57 c p3
537.32 98.50 0.57 c p3
537.31 98.53 0.57 c p3
537.28 98.57 0.57 c p3
537.21 98.60 0.57 c p3
537.19 98.64 0.57 c p3
537.17 98.71 0.57 c p3
537.08 98.74 0.57 c p3
537.06 98.78 0.57 c p3
537.01 98.85 0.57 c p3
537.00 98.88 0.57 c p3
536.99 98.92 0.57 c p3
536.99 98.95 0.57 c p3
536.96 98.99 0.57 c p3
536.94 99.02 0.57 c p3
536.92 99.05 0.57 c p3
536.92 99.09 0.57 c p3
536.88 99.12 0.57 c p3
536.86 99.15 0.57 c p3
536.85 99.19 0.57 c p3
536.84 99.22 0.57 c p3
536.83 99.25 0.57 c p3
536.80 99.28 0.57 c p3
536.79 99.35 0.57 c p3
536.78 99.38 0.57 c p3
536.76 99.41 0.57 c p3
536.68 99.51 0.57 c p3
536.66 99.57 0.57 c p3
536.66 99.60 0.57 c p3
536.65 99.63 0.57 c p3
536.63 99.66 0.57 c p3
536.61 99.70 0.57 c p3
536.59 99.76 0.57 c p3
536.58 99.79 0.57 c p3
536.53 99.85 0.57 c p3
536.50 99.88 0.57 c p3
536.49 99.91 0.57 c p3
536.48 99.94 0.57 c p3
536.46 99.97 0.57 c p3
536.45 100.00 0.57 c p3
536.43 100.03 0.57 c p3
536.42 100.08 0.57 c p3
536.41 100.17 0.57 c p3
536.39 100.23 0.57 c p3
536.37 100.26 0.57 c p3
536.33 100.29 0.57 c p3
536.31 100.34 0.57 c p3
536.29 100.43 0.57 c p3
536.27 100.45 0.57 c p3
536.26 100.51 0.57 c p3
536.23 100.54 0.57 c p3
536.22 100.56 0.57 c p3
536.18 100.62 0.57 c p3
536.15 100.67 0.57 c p3
536.11 100.70 0.57 c p3
536.10 100.73 0.57 c p3
536.05 100.75 0.57 c p3
536.03 100.78 0.57 c p3
536.00 100.83 0.57 c p3
535.98 100.86 0.57 c p3
535.97 100.89 0.57 c p3
535.96 100.91 0.57 c p3
535.94 100.94 0.57 c p3
535.93 100.96 0.57 c p3
535.90 100.99 0.57 c p3
535.88 101.02 0.57 c p3
535.86 101.04 0.57 c p3
535.85 101.07 0.57 c p3
535.83 101.09 0.57 c p3
535.81 101.12 0.57 c p3
535.79 101.14 0.57 c p3
535.75 101.19 0.57 c p3
535.74 101.24 0.57 c p3
535.72 101.27 0.57 c p3
535.71 101.32 0.57 c p3
535.70 101.37 0.57 c p3
535.65 101.42 0.57 c p3
535.64 101.44 0.57 c p3
535.62 101.46 0.57 c p3
535.59 101.49 0.57 c p3
535.55 101.51 0.57 c p3
535.54 101.54 0.57 c p3
535.51 101.56 0.57 c p3
535.49 101.58 0.57 c p3
535.48 101.63 0.57 c p3
535.44 101.66 0.57 c p3
535.43 101.68 0.57 c p3
535.42 101.70 0.57 c p3
535.34 101.75 0.57 c p3
535.28 101.82 0.57 c p3
535.27 101.84 0.57 c p3
535.25 101.86 0.57 c p3
535.23 101.91 0.57 c p3
535.22 101.93 0.57 c p3
535.21 101.96 0.57 c p3
535.18 102.02 0.57 c p3
535.16 102.05 0.57 c p3
535.15 102.07 0.57 c p3
535.14 102.11 0.57 c p3
535.13 102.16 0.57 c p3
535.06 102.18 0.57 c p3
535.05 102.20 0.57 c p3
535.02 102.22 0.57 c p3
535.00 102.27 0.57 c p3
534.99 102.33 0.57 c p3
534.96 102.35 0.57 c p3
534.94 102.39 0.57 c p3
534.92 102.42 0.57 c p3
534.91 102.46 0.57 c p3
534.89 102.48 0.57 c p3
534.88 102.50 0.57 c p3
534.87 102.52 0.57 c p3
534.86 102.54 0.57 c p3
534.85 102.56 0.57 c p3
534.82 102.61 0.57 c p3
534.81 102.63 0.57 c p3
534.80 102.65 0.57 c p3
534.79 102.67 0.57 c p3
534.76 102.69 0.57 c p3
534.75 102.71 0.57 c p3
534.73 102.73 0.57 c p3
534.68 102.79 0.57 c p3
534.65 102.81 0.57 c p3
534.64 102.83 0.57 c p3
534.63 102.85 0.57 c p3
534.61 102.87 0.57 c p3
534.59 102.91 0.57 c p3
534.58 102.97 0.57 c p3
534.57 103.01 0.57 c p3
534.54 103.03 0.57 c p3
534.52 103.05 0.57 c p3
534.51 103.07 0.57 c p3
534.48 103.09 0.57 c p3
534.47 103.11 0.57 c p3
534.46 103.13 0.57 c p3
534.43 103.22 0.57 c p3
534.39 103.24 0.57 c p3
534.38 103.26 0.57 c p3
534.35 103.28 0.57 c p3
534.34 103.32 0.57 c p3
534.33 103.33 0.57 c p3
534.30 103.37 0.57 c p3
534.28 103.45 0.57 c p3
534.25 103.47 0.57 c p3
534.21 103.50 0.57 c p3
534.19 103.54 0.57 c p3
534.13 103.56 0.57 c p3
534.11 103.57 0.57 c p3
534.08 103.59 0.57 c p3
534.07 103.61 0.57 c p3
534.05 103.63 0.57 c p3
534.04 103.65 0.57 c p3
534.03 103.67 0.57 c p3
534.01 103.68 0.57 c p3
533.97 103.72 0.57 c p3
533.96 103.74 0.57 c p3
533.95 103.75 0.57 c p3
533.92 103.77 0.57 c p3
533.91 103.79 0.57 c p3
533.89 103.81 0.57 c p3
533.88 103.86 0.57 c p3
533.81 103.91 0.57 c p3
533.80 103.93 0.57 c p3
533.78 103.96 0.57 c p3
533.77 104.00 0.57 c p3
533.74 104.08 0.57 c p3
533.71 104.12 0.57 c p3
533.70 104.15 0.57 c p3
533.67 104.17 0.57 c p3
533.66 104.22 0.57 c p3
533.64 104.25 0.57 c p3
533.63 104.30 0.57 c p3
533.61 104.32 0.57 c p3
533.60 104.33 0.57 c p3
533.59 104.35 0.57 c p3
533.57 104.37 0.57 c p3
533.56 104.38 0.57 c p3
533.53 104.42 0.57 c p3
533.51 104.45 0.57 c p3
533.50 104.48 0.57 c p3
533.47 104.51 0.57 c p3
533.46 104.58 0.57 c p3
533.43 104.67 0.57 c p3
533.40 104.69 0.57 c p3
533.37 104.72 0.57 c p3
533.35 104.81 0.57 c p3
533.33 104.83 0.57 c p3
533.31 104.87 0.57 c p3
533.30 104.96 0.57 c p3
533.28 104.98 0.57 c p3
533.27 105.04 0.57 c p3
533.25 105.05 0.57 c p3
533.24 105.08 0.57 c p3
533.22 105.10 0.57 c p3
533.21 105.13 0.57 c p3
533.18 105.19 0.57 c p3
533.15 105.20 0.57 c p3
533.11 105.26 0.57 c p3
533.10 105.27 0.57 c p3
533.08 105.30 0.57 c p3
533.07 105.32 0.57 c p3
533.05 105.34 0.57 c p3
533.04 105.40 0.57 c p3
533.02 105.43 0.57 c p3
532.99 105.46 0.57 c p3
532.98 105.49 0.57 c p3
532.94 105.50 0.57 c p3
532.91 105.51 0.57 c p3
532.90 105.53 0.57 c p3
532.88 105.54 0.57 c p3
532.87 105.57 0.57 c p3
532.85 105.58 0.57 c p3
532.83 105.60 0.57 c p3
532.82 105.61 0.57 c p3
532.80 105.65 0.57 c p3
532.79 105.68 0.57 c p3
532.75 105.71 0.57 c p3
532.74 105.72 0.57 c p3
532.72 105.75 0.57 c p3
532.69 105.77 0.57 c p3
532.67 105.82 0.57 c p3
532.66 105.86 0.57 c p3
532.64 105.92 0.57 c p3
532.62 106.00 0.57 c p3
532.56 106.04 0.57 c p3
532.54 106.07 0.57 c p3
532.53 106.09 0.57 c p3
532.51 106.12 0.57 c p3
532.49 106.16 0.57 c p3
532.48 106.21 0.57 c p3
532.46 106.25 0.57 c p3
532.44 106.27 0.57 c p3
532.43 106.31 0.57 c p3
532.41 106.32 0.57 c p3
532.39 106.35 0.57 c p3
532.37 106.36 0.57 c p3
532.36 106.38 0.57 c p3
532.34 106.40 0.57 c p3
532.32 106.41 0.57 c p3
532.31 106.43 0.57 c p3
532.27 106.47 0.57 c p3
532.24 106.48 0.57 c p3
532.22 106.49 0.57 c p3
532.20 106.51 0.57 c p3
532.17 106.54 0.57 c p3
532.15 106.59 0.57 c p3
532.13 106.64 0.57 c p3
532.11 106.65 0.57 c p3
532.10 106.70 0.57 c p3
532.08 106.75 0.57 c p3
532.06 106.77 0.57 c p3
532.04 106.78 0.57 c p3
532.03 106.81 0.57 c p3
532.01 106.85 0.57 c p3
531.99 106.89 0.57 c p3
531.97 106.92 0.57 c p3
531.95 106.97 0.57 c p3
531.94 107.03 0.57 c p3
531.92 107.04 0.57 c p3
531.90 107.06 0.57 c p3
531.88 107.09 0.57 c p3
531.86 107.13 0.57 c p3
531.84 107.14 0.57 c p3
531.83 107.15 0.57 c p3
531.81 107.17 0.57 c p3
531.79 107.22 0.57 c p3
531.77 107.26 0.57 c p3
531.73 107.27 0.57 c p3
531.72 107.30 0.57 c p3
531.70 107.37 0.57 c p3
531.68 107.40 0.57 c p3
531.66 107.47 0.57 c p3
531.64 107.49 0.57 c p3
531.60 107.50 0.57 c p3
531.58 107.55 0.57 c p3
531.56 107.57 0.57 c p3
531.55 107.60 0.57 c p3
531.53 107.61 0.57 c p3
531.51 107.63 0.57 c p3
531.49 107.66 0.57 c p3
531.47 107.71 0.57 c p3
531.45 107.76 0.57 c p3
531.43 107.79 0.57 c p3
531.41 107.81 0.57 c p3
531.39 107.89 0.57 c p3
531.37 107.90 0.57 c p3
531.35 107.92 0.57 c p3
531.33 107.95 0.57 c p3
531.31 107.98 0.57 c p3
531.29 108.01 0.57 c p3
531.27 108.04 0.57 c p3
531.25 108.07 0.57 c p3
531.23 108.10 0.57 c p3
531.19 108.13 0.57 c p3
531.17 108.16 0.57 c p3
531.15 108.18 0.57 c p3
531.13 108.21 0.57 c p3
531.11 108.26 0.57 c p3
531.09 108.28 0.57 c p3
531.07 108.34 0.57 c p3
531.05 108.36 0.57 c p3
531.03 108.37 0.57 c p3
531.01 108.39 0.57 c p3
530.99 108.41 0.57 c p3
530.97 108.43 0.57 c p3
530.95 108.46 0.57 c p3
530.92 108.48 0.57 c p3
530.90 108.52 0.57 c p3
530.88 108.56 0.57 c p3
530.86 108.58 0.57 c p3
530.84 108.63 0.57 c p3
530.82 108.66 0.57 c p3
530.80 108.68 0.57 c p3
530.78 108.70 0.57 c p3
530.75 108.74 0.57 c p3
530.73 108.74 0.57 c p3
530.71 108.77 0.57 c p3
530.69 108.81 0.57 c p3
530.67 108.83 0.57 c p3
530.65 108.85 0.57 c p3
530.62 108.88 0.57 c p3
530.60 108.89 0.57 c p3
530.58 108.91 0.57 c p3
530.56 108.93 0.57 c p3
530.54 108.98 0.57 c p3
530.51 109.01 0.57 c p3
530.49 109.03 0.57 c p3
530.47 109.05 0.57 c p3
530.45 109.06 0.57 c p3
530.42 109.08 0.57 c p3
530.40 109.12 0.57 c p3
530.38 109.15 0.57 c p3
530.36 109.19 0.57 c p3
530.33 109.21 0.57 c p3
530.31 109.25 0.57 c p3
530.29 109.29 0.57 c p3
530.27 109.33 0.57 c p3
530.24 109.35 0.57 c p3
530.22 109.38 0.57 c p3
530.20 109.41 0.57 c p3
530.17 109.43 0.57 c p3
530.15 109.47 0.57 c p3
530.13 109.52 0.57 c p3
530.10 109.54 0.57 c p3
530.08 109.57 0.57 c p3
530.05 109.62 0.57 c p3
530.03 109.67 0.57 c p3
530.01 109.71 0.57 c p3
529.98 109.76 0.57 c p3
529.96 109.80 0.57 c p3
529.94 109.83 0.57 c p3
529.91 109.86 0.57 c p3
529.89 109.89 0.57 c p3
529.86 109.91 0.57 c p3
529.84 109.94 0.57 c p3
529.81 109.97 0.57 c p3
529.79 110.00 0.57 c p3
529.76 110.04 0.57 c p3
529.74 110.07 0.57 c p3
529.71 110.10 0.57 c p3
529.69 110.13 0.57 c p3
529.66 110.15 0.57 c p3
529.64 110.21 0.57 c p3
529.61 110.23 0.57 c p3
529.59 110.29 0.57 c p3
529.56 110.32 0.57 c p3
529.54 110.34 0.57 c p3
529.51 110.37 0.57 c p3
529.49 110.40 0.57 c p3
529.46 110.44 0.57 c p3
529.43 110.48 0.57 c p3
529.41 110.50 0.57 c p3
529.38 110.57 0.57 c p3
529.36 110.59 0.57 c p3
529.33 110.63 0.57 c p3
529.30 110.65 0.57 c p3
529.28 110.69 0.57 c p3
529.25 110.72 0.57 c p3
529.22 110.77 0.57 c p3
529.20 110.82 0.57 c p3
529.17 110.86 0.57 c p3
529.14 110.88 0.57 c p3
529.11 110.92 0.57 c p3
529.09 110.95 0.57 c p3
529.06 110.98 0.57 c p3
529.03 111.02 0.57 c p3
529.00 111.04 0.57 c p3
528.98 111.07 0.57 c p3
528.95 111.12 0.57 c p3
528.92 111.16 0.57 c p3
528.89 111.19 0.57 c p3
528.87 111.25 0.57 c p3
528.84 111.27 0.57 c p3
528.81 111.33 0.57 c p3
528.78 111.38 0.57 c p3
528.75 111.44 0.57 c p3
528.72 111.47 0.57 c p3
528.69 111.51 0.57 c p3
528.66 111.54 0.57 c p3
528.64 111.57 0.57 c p3
528.61 111.61 0.57 c p3
528.58 111.65 0.57 c p3
528.55 111.70 0.57 c p3
528.52 111.74 0.57 c p3
528.49 111.80 0.57 c p3
528.46 111.84 0.57 c p3
528.43 111.87 0.57 c p3
528.40 111.92 0.57 c p3
528.37 111.98 0.57 c p3
528.34 111.99 0.57 c p3
528.31 112.03 0.57 c p3
528.28 112.10 0.57 c p3
528.25 112.12 0.57 c p3
528.21 112.15 0.57 c p3
528.18 112.20 0.57 c p3
528.15 112.25 0.57 c p3
528.12 112.31 0.57 c p3
528.09 112.35 0.57 c p3
528.06 112.42 0.57 c p3
528.03 112.44 0.57 c p3
527.99 112.50 0.57 c p3
527.96 112.55 0.57 c p3
527.93 112.61 0.57 c p3
527.90 112.69 0.57 c p3
527.87 112.71 0.57 c p3
527.83 112.73 0.57 c p3
527.80 112.77 0.57 c p3
527.77 112.83 0.57 c p3
527.73 112.87 0.57 c p3
527.70 112.91 0.57 c p3
527.67 112.98 0.57 c p3
527.63 113.04 0.57 c p3
527.60 113.07 0.57 c p3
527.57 113.12 0.57 c p3
527.53 113.16 0.57 c p3
527.50 113.21 0.57 c p3
527.46 113.28 0.57 c p3
527.43 113.34 0.57 c p3
527.39 113.39 0.57 c p3
527.36 113.43 0.57 c p3
527.32 113.49 0.57 c p3
527.29 113.55 0.57 c p3
527.25 113.61 0.57 c p3
527.22 113.69 0.57 c p3
527.18 113.74 0.57 c p3
527.14 113.81 0.57 c p3
527.11 113.84 0.57 c p3
527.07 113.86 0.57 c p3
527.03 113.91 0.57 c p3
527.00 113.96 0.57 c p3
526.96 113.99 0.57 c p3
526.92 114.02 0.57 c p3
526.89 114.08 0.57 c p3
526.85 114.13 0.57 c p3
526.81 114.18 0.57 c p3
526.77 114.23 0.57 c p3
526.73 114.25 0.57 c p3
526.70 114.32 0.57 c p3
526.66 114.36 0.57 c p3
526.62 114.41 0.57 c p3
526.58 114.48 0.57 c p3
526.54 114.54 0.57 c p3
526.50 114.59 0.57 c p3
526.46 114.64 0.57 c p3
526.42 114.72 0.57 c p3
526.38 114.75 0.57 c p3
526.34 114.82 0.57 c p3
526.30 114.89 0.57 c p3
526.26 114.93 0.57 c p3
526.22 114.97 0.57 c p3
526.17 115.01 0.57 c p3
526.13 115.05 0.57 c p3
526.09 115.10 0.57 c p3
526.05 115.17 0.57 c p3
526.01 115.22 0.57 c p3
525.96 115.25 0.57 c p3
525.92 115.31 0.57 c p3
525.88 115.36 0.57 c p3
525.83 115.46 0.57 c p3
525.79 115.53 0.57 c p3
525.74 115.59 0.57 c p3
525.70 115.64 0.57 c p3
525.66 115.72 0.57 c p3
525.61 115.80 0.57 c p3
525.56 115.85 0.57 c p3
525.52 115.92 0.57 c p3
525.47 116.00 0.57 c p3
525.43 116.07 0.57 c p3
525.38 116.12 0.57 c p3
525.33 116.19 0.57 c p3
525.29 116.26 0.57 c p3
525.24 116.33 0.57 c p3
525.19 116.42 0.57 c p3
525.14 116.48 0.57 c p3
525.09 116.54 0.57 c p3
525.05 116.60 0.57 c p3
525.00 116.68 0.57 c p3
524.95 116.76 0.57 c p3
524.90 116.83 0.57 c p3
524.85 116.91 0.57 c p3
524.80 117.00 0.57 c p3
524.74 117.05 0.57 c p3
524.69 117.11 0.57 c p3
524.64 117.19 0.57 c p3
524.59 117.28 0.57 c p3
524.54 117.35 0.57 c p3
524.48 117.40 0.57 c p3
524.43 117.48 0.57 c p3
524.38 117.52 0.57 c p3
524.32 117.60 0.57 c p3
524.27 117.67 0.57 c p3
524.21 117.74 0.57 c p3
524.16 117.80 0.57 c p3
524.10 117.87 0.57 c p3
524.04 117.96 0.57 c p3
523.99 118.03 0.57 c p3
523.93 118.09 0.57 c p3
523.87 118.17 0.57 c p3
523.81 118.26 0.57 c p3
523.76 118.32 0.57 c p3
523.70 118.38 0.57 c p3
523.64 118.49 0.57 c p3
523.58 118.57 0.57 c p3
523.51 118.66 0.57 c p3
523.45 118.72 0.57 c p3
523.39 118.82 0.57 c p3
523.33 118.92 0.57 c p3
523.27 119.00 0.57 c p3
523.20 119.09 0.57 c p3
523.14 119.16 0.57 c p3
523.07 119.27 0.57 c p3
523.01 119.38 0.57 c p3
522.94 119.47 0.57 c p3
522.87 119.54 0.57 c p3
522.81 119.65 0.57 c p3
522.74 119.73 0.57 c p3
522.67 119.82 0.57 c p3
522.60 119.92 0.57 c p3
522.53 120.04 0.57 c p3
522.46 120.13 0.57 c p3
522.39 120.25 0.57 c p3
522.32 120.37 0.57 c p3
522.24 120.47 0.57 c p3
522.17 120.56 0.57 c p3
522.09 120.66 0.57 c p3
522.02 120.77 0.57 c p3
521.94 120.87 0.57 c p3
521.86 120.97 0.57 c p3
521.79 121.08 0.57 c p3
521.71 121.16 0.57 c p3
521.63 121.26 0.57 c p3
521.55 121.37 0.57 c p3
521.46 121.49 0.57 c p3
521.38 121.57 0.57 c p3
521.30 121.70 0.57 c p3
521.21 121.80 0.57 c p3
521.13 121.90 0.57 c p3
521.04 122.00 0.57 c p3
520.95 122.14 0.57 c p3
520.86 122.25 0.57 c p3
520.77 122.37 0.57 c p3
520.68 122.48 0.57 c p3
520.59 122.61 0.57 c p3
520.49 122.72 0.57 c p3
520.40 122.84 0.57 c p3
520.30 122.97 0.57 c p3
520.20 123.09 0.57 c p3
520.10 123.22 0.57 c p3
520.00 123.37 0.57 c p3
519.90 123.50 0.57 c p3
519.80 123.62 0.57 c p3
519.69 123.76 0.57 c p3
519.58 123.91 0.57 c p3
519.48 124.06 0.57 c p3
519.37 124.19 0.57 c p3
519.25 124.31 0.57 c p3
519.14 124.48 0.57 c p3
519.02 124.64 0.57 c p3
518.90 124.78 0.57 c p3
518.78 124.94 0.57 c p3
518.66 125.07 0.57 c p3
518.54 125.22 0.57 c p3
518.41 125.37 0.57 c p3
518.28 125.54 0.57 c p3
518.15 125.71 0.57 c p3
518.01 125.88 0.57 c p3
517.88 126.05 0.57 c p3
517.74 126.22 0.57 c p3
517.60 126.40 0.57 c p3
517.45 126.58 0.57 c p3
517.30 126.76 0.57 c p3
517.15 126.93 0.57 c p3
516.99 127.12 0.57 c p3
516.84 127.32 0.57 c p3
516.67 127.50 0.57 c p3
516.51 127.69 0.57 c p3
516.34 127.88 0.57 c p3
516.16 128.09 0.57 c p3
515.98 128.31 0.57 c p3
515.80 128.51 0.57 c p3
515.61 128.76 0.57 c p3
515.41 128.99 0.57 c p3
515.21 129.24 0.57 c p3
515.01 129.51 0.57 c p3
514.79 129.75 0.57 c p3
514.57 130.02 0.57 c p3
514.35 130.27 0.57 c p3
514.11 130.53 0.57 c p3
513.87 130.82 0.57 c p3
513.62 131.10 0.57 c p3
513.36 131.40 0.57 c p3
513.09 131.70 0.57 c p3
512.80 132.01 0.57 c p3
512.51 132.34 0.57 c p3
512.20 132.68 0.57 c p3
511.88 133.05 0.57 c p3
511.54 133.40 0.57 c p3
511.19 133.78 0.57 c p3
510.81 134.19 0.57 c p3
510.42 134.63 0.57 c p3
510.00 135.09 0.57 c p3
509.55 135.55 0.57 c p3
509.08 136.06 0.57 c p3
508.56 136.57 0.57 c p3
508.01 137.18 0.57 c p3
507.41 137.80 0.57 c p3
506.75 138.45 0.57 c p3
506.02 139.19 0.57 c p3
505.21 140.01 0.57 c p3
504.28 140.92 0.57 c p3
503.22 141.95 0.57 c p3
501.96 143.14 0.57 c p3
500.42 144.56 0.57 c p3
498.43 146.33 0.57 c p3
495.62 148.75 0.57 c p3
490.83 153.03 0.57 c p3
0.4980 0.4980 0.4980 srgb
1.07 setlinewidth
[] 0 setdash
486.14 54.56 103.16 103.16 r p1
0.00 0.00 595.28 198.43 cl
0.00 0.00 595.28 198.43 cl
0.00 0.00 595.28 198.43 cl
0.00 0.00 595.28 198.43 cl
0.00 0.00 595.28 198.43 cl
0.00 0.00 595.28 198.43 cl
/Font1 findfont 12 s
0 0 0 srgb
21.77 79.37 (10) 0 0 t
/Font1 findfont 8 s
35.11 85.34 (-) 0 0 t
39.78 85.34 (4) 0 0 t
/Font1 findfont 12 s
21.77 113.36 (10) 0 0 t
/Font1 findfont 8 s
35.11 119.32 (-) 0 0 t
39.78 119.32 (2) 0 0 t
/Font1 findfont 12 s
26.44 147.35 (10) 0 0 t
/Font1 findfont 8 s
39.78 153.31 (0) 0 0 t
0.00 0.00 595.28 198.43 cl
0.00 0.00 595.28 198.43 cl
0 0 0 srgb
1.07 setlinewidth
[] 0 setdash
0 setlinecap
1 setlinejoin
10.00 setmiterlimit
np
46.62 85.05 m
2.99 0 l
o
np
46.62 119.04 m
2.99 0 l
o
np
46.62 153.03 m
2.99 0 l
o
0.00 0.00 595.28 198.43 cl
0.00 0.00 595.28 198.43 cl
0.00 0.00 595.28 198.43 cl
0.00 0.00 595.28 198.43 cl
0.00 0.00 595.28 198.43 cl
0.00 0.00 595.28 198.43 cl
0.00 0.00 595.28 198.43 cl
0.00 0.00 595.28 198.43 cl
0 0 0 srgb
1.07 setlinewidth
[] 0 setdash
0 setlinecap
1 setlinejoin
10.00 setmiterlimit
np
70.22 51.57 m
0 2.99 l
o
np
102.06 51.57 m
0 2.99 l
o
np
133.90 51.57 m
0 2.99 l
o
0.00 0.00 595.28 198.43 cl
0.00 0.00 595.28 198.43 cl
/Font1 findfont 12 s
0 0 0 srgb
61.32 37.59 (10) 0 0 t
/Font1 findfont 8 s
74.67 43.56 (1) 0 0 t
/Font1 findfont 12 s
93.16 37.59 (10) 0 0 t
/Font1 findfont 8 s
106.51 43.56 (3) 0 0 t
/Font1 findfont 12 s
125.00 37.71 (10) 0 0 t
/Font1 findfont 8 s
138.34 43.68 (5) 0 0 t
0.00 0.00 595.28 198.43 cl
0.00 0.00 595.28 198.43 cl
0.00 0.00 595.28 198.43 cl
0.00 0.00 595.28 198.43 cl
0.00 0.00 595.28 198.43 cl
0.00 0.00 595.28 198.43 cl
0.00 0.00 595.28 198.43 cl
0.00 0.00 595.28 198.43 cl
0 0 0 srgb
1.07 setlinewidth
[] 0 setdash
0 setlinecap
1 setlinejoin
10.00 setmiterlimit
np
179.35 51.57 m
0 2.99 l
o
np
211.19 51.57 m
0 2.99 l
o
np
243.03 51.57 m
0 2.99 l
o
0.00 0.00 595.28 198.43 cl
0.00 0.00 595.28 198.43 cl
/Font1 findfont 12 s
0 0 0 srgb
170.46 37.59 (10) 0 0 t
/Font1 findfont 8 s
183.80 43.56 (1) 0 0 t
/Font1 findfont 12 s
202.29 37.59 (10) 0 0 t
/Font1 findfont 8 s
215.64 43.56 (3) 0 0 t
/Font1 findfont 12 s
234.13 37.71 (10) 0 0 t
/Font1 findfont 8 s
247.48 43.68 (5) 0 0 t
0.00 0.00 595.28 198.43 cl
0.00 0.00 595.28 198.43 cl
0.00 0.00 595.28 198.43 cl
0.00 0.00 595.28 198.43 cl
0.00 0.00 595.28 198.43 cl
0.00 0.00 595.28 198.43 cl
0.00 0.00 595.28 198.43 cl
0.00 0.00 595.28 198.43 cl
0 0 0 srgb
1.07 setlinewidth
[] 0 setdash
0 setlinecap
1 setlinejoin
10.00 setmiterlimit
np
288.48 51.57 m
0 2.99 l
o
np
320.32 51.57 m
0 2.99 l
o
np
352.16 51.57 m
0 2.99 l
o
0.00 0.00 595.28 198.43 cl
0.00 0.00 595.28 198.43 cl
/Font1 findfont 12 s
0 0 0 srgb
279.59 37.59 (10) 0 0 t
/Font1 findfont 8 s
292.93 43.56 (1) 0 0 t
/Font1 findfont 12 s
311.43 37.59 (10) 0 0 t
/Font1 findfont 8 s
324.77 43.56 (3) 0 0 t
/Font1 findfont 12 s
343.27 37.71 (10) 0 0 t
/Font1 findfont 8 s
356.61 43.68 (5) 0 0 t
0.00 0.00 595.28 198.43 cl
0.00 0.00 595.28 198.43 cl
0.00 0.00 595.28 198.43 cl
0.00 0.00 595.28 198.43 cl
0.00 0.00 595.28 198.43 cl
0.00 0.00 595.28 198.43 cl
0.00 0.00 595.28 198.43 cl
0.00 0.00 595.28 198.43 cl
0 0 0 srgb
1.07 setlinewidth
[] 0 setdash
0 setlinecap
1 setlinejoin
10.00 setmiterlimit
np
397.62 51.57 m
0 2.99 l
o
np
429.46 51.57 m
0 2.99 l
o
np
461.29 51.57 m
0 2.99 l
o
0.00 0.00 595.28 198.43 cl
0.00 0.00 595.28 198.43 cl
/Font1 findfont 12 s
0 0 0 srgb
388.72 37.59 (10) 0 0 t
/Font1 findfont 8 s
402.07 43.56 (1) 0 0 t
/Font1 findfont 12 s
420.56 37.59 (10) 0 0 t
/Font1 findfont 8 s
433.90 43.56 (3) 0 0 t
/Font1 findfont 12 s
452.40 37.71 (10) 0 0 t
/Font1 findfont 8 s
465.74 43.68 (5) 0 0 t
0.00 0.00 595.28 198.43 cl
0.00 0.00 595.28 198.43 cl
0.00 0.00 595.28 198.43 cl
0.00 0.00 595.28 198.43 cl
0.00 0.00 595.28 198.43 cl
0.00 0.00 595.28 198.43 cl
0.00 0.00 595.28 198.43 cl
0.00 0.00 595.28 198.43 cl
0 0 0 srgb
1.07 setlinewidth
[] 0 setdash
0 setlinecap
1 setlinejoin
10.00 setmiterlimit
np
506.75 51.57 m
0 2.99 l
o
np
538.59 51.57 m
0 2.99 l
o
np
570.43 51.57 m
0 2.99 l
o
0.00 0.00 595.28 198.43 cl
0.00 0.00 595.28 198.43 cl
/Font1 findfont 12 s
0 0 0 srgb
497.85 37.59 (10) 0 0 t
/Font1 findfont 8 s
511.20 43.56 (1) 0 0 t
/Font1 findfont 12 s
529.69 37.59 (10) 0 0 t
/Font1 findfont 8 s
543.04 43.56 (3) 0 0 t
/Font1 findfont 12 s
561.53 37.71 (10) 0 0 t
/Font1 findfont 8 s
574.88 43.68 (5) 0 0 t
0.00 0.00 595.28 198.43 cl
0.00 0.00 595.28 198.43 cl
0.00 0.00 595.28 198.43 cl
0.00 0.00 595.28 198.43 cl
/Font1 findfont 12 s
0 0 0 srgb
319.45 23.97 (posts) .5 0 t
0.00 0.00 595.28 198.43 cl
0.00 0.00 595.28 198.43 cl
/Font1 findfont 12 s
0 0 0 srgb
16.98 106.14 (ccdf) .5 90 t
0.00 0.00 595.28 198.43 cl
0.00 0.00 595.28 198.43 cl
0.00 0.00 595.28 198.43 cl
0.00 0.00 595.28 198.43 cl
ep
%%Trailer
%%Pages: 1
%%EOF
