%!PS-Adobe-3.0 EPSF-3.0
%%DocumentNeededResources: font Helvetica
%%+ font Helvetica-Bold
%%+ font Helvetica-Oblique
%%+ font Helvetica-BoldOblique
%%+ font Symbol
%%Title: R Graphics Output
%%Creator: R Software
%%Pages: (atend)
%%BoundingBox: 0 0 595 354
%%EndComments
%%BeginProlog
/bp  { gs sRGB gs } def
% begin .ps.prolog
/gs  { gsave } bind def
/gr  { grestore } bind def
/ep  { showpage gr gr } bind def
/m   { moveto } bind def
/l  { rlineto } bind def
/np  { newpath } bind def
/cp  { closepath } bind def
/f   { fill } bind def
/o   { stroke } bind def
/c   { newpath 0 360 arc } bind def
/r   { 4 2 roll moveto 1 copy 3 -1 roll exch 0 exch rlineto 0 rlineto -1 mul 0 exch rlineto closepath } bind def
/p1  { stroke } bind def
/p2  { gsave bg fill grestore newpath } bind def
/p3  { gsave bg fill grestore stroke } bind def
/p6  { gsave bg eofill grestore newpath } bind def
/p7  { gsave bg eofill grestore stroke } bind def
/t   { 5 -2 roll moveto gsave rotate
       1 index stringwidth pop
       mul neg 0 rmoveto show grestore } bind def
/ta  { 4 -2 roll moveto gsave rotate show } bind def
/tb  { 2 -1 roll 0 rmoveto show } bind def
/cl  { grestore gsave newpath 3 index 3 index moveto 1 index
       4 -1 roll lineto  exch 1 index lineto lineto
       closepath clip newpath } bind def
/rgb { setrgbcolor } bind def
/s   { scalefont setfont } bind def
% end   .ps.prolog
/sRGB { [ /CIEBasedABC
          << /DecodeLMN
               [ { dup 0.03928 le
                        {12.92321 div}
                        {0.055 add 1.055 div 2.4 exp }
                     ifelse
                 } bind dup dup
               ]
             /MatrixLMN [0.412457 0.212673 0.019334
                         0.357576 0.715152 0.119192
                         0.180437 0.072175 0.950301]
             /WhitePoint [0.9505 1.0 1.0890]
           >>
         ] setcolorspace } bind def
/srgb { setcolor } bind def
%%IncludeResource: font Helvetica
/Helvetica findfont
dup length dict begin
  {1 index /FID ne {def} {pop pop} ifelse} forall
  /Encoding ISOLatin1Encoding def
  currentdict
  end
/Font1 exch definefont pop
%%IncludeResource: font Helvetica-Bold
/Helvetica-Bold findfont
dup length dict begin
  {1 index /FID ne {def} {pop pop} ifelse} forall
  /Encoding ISOLatin1Encoding def
  currentdict
  end
/Font2 exch definefont pop
%%IncludeResource: font Helvetica-Oblique
/Helvetica-Oblique findfont
dup length dict begin
  {1 index /FID ne {def} {pop pop} ifelse} forall
  /Encoding ISOLatin1Encoding def
  currentdict
  end
/Font3 exch definefont pop
%%IncludeResource: font Helvetica-BoldOblique
/Helvetica-BoldOblique findfont
dup length dict begin
  {1 index /FID ne {def} {pop pop} ifelse} forall
  /Encoding ISOLatin1Encoding def
  currentdict
  end
/Font4 exch definefont pop
%%IncludeResource: font Symbol
/Symbol findfont
dup length dict begin
  {1 index /FID ne {def} {pop pop} ifelse} forall
  currentdict
  end
/Font5 exch definefont pop
%%EndProlog
%%Page: 1 1
bp
0.00 0.00 595.28 354.33 cl
0.00 0.00 595.28 354.33 cl
0.00 0.00 595.28 354.33 cl
0.00 0.00 595.28 354.33 cl
0.00 0.00 595.28 354.33 cl
0.00 0.00 595.28 354.33 cl
0.00 0.00 595.28 354.33 cl
0.00 0.00 595.28 354.33 cl
0.00 0.00 595.28 354.33 cl
0.00 0.00 595.28 354.33 cl
0.00 0.00 595.28 354.33 cl
0.00 0.00 595.28 354.33 cl
0.00 0.00 595.28 354.33 cl
0.00 0.00 595.28 354.33 cl
/bg { 1 1 1 srgb } def
1 1 1 srgb
1.07 setlinewidth
[] 0 setdash
1 setlinecap
1 setlinejoin
10.00 setmiterlimit
0.00 0.00 595.28 354.33 r p3
0.00 0.00 595.28 354.33 cl
44.94 254.01 570.16 348.35 cl
/bg { 1 1 1 srgb } def
44.94 254.01 525.22 94.34 r p2
0.9804 0.9804 0.9804 srgb
1.07 setlinewidth
[] 0 setdash
0 setlinecap
1 setlinejoin
10.00 setmiterlimit
np
44.94 269.38 m
525.22 0 l
o
np
44.94 291.53 m
525.22 0 l
o
np
44.94 313.68 m
525.22 0 l
o
np
44.94 335.83 m
525.22 0 l
o
np
55.96 254.01 m
0 94.34 l
o
np
67.70 254.01 m
0 94.34 l
o
np
79.62 254.01 m
0 94.34 l
o
np
90.97 254.01 m
0 94.34 l
o
np
102.32 254.01 m
0 94.34 l
o
np
114.05 254.01 m
0 94.34 l
o
np
125.78 254.01 m
0 94.34 l
o
np
137.52 254.01 m
0 94.34 l
o
np
149.25 254.01 m
0 94.34 l
o
np
161.18 254.01 m
0 94.34 l
o
np
172.91 254.01 m
0 94.34 l
o
np
184.64 254.01 m
0 94.34 l
o
np
196.38 254.01 m
0 94.34 l
o
np
208.11 254.01 m
0 94.34 l
o
np
220.03 254.01 m
0 94.34 l
o
np
231.38 254.01 m
0 94.34 l
o
np
242.73 254.01 m
0 94.34 l
o
np
254.46 254.01 m
0 94.34 l
o
np
266.20 254.01 m
0 94.34 l
o
np
277.93 254.01 m
0 94.34 l
o
np
289.66 254.01 m
0 94.34 l
o
np
301.59 254.01 m
0 94.34 l
o
np
313.32 254.01 m
0 94.34 l
o
np
325.05 254.01 m
0 94.34 l
o
np
336.79 254.01 m
0 94.34 l
o
np
348.52 254.01 m
0 94.34 l
o
np
360.45 254.01 m
0 94.34 l
o
np
371.79 254.01 m
0 94.34 l
o
np
383.14 254.01 m
0 94.34 l
o
np
394.88 254.01 m
0 94.34 l
o
np
406.61 254.01 m
0 94.34 l
o
np
418.34 254.01 m
0 94.34 l
o
np
430.07 254.01 m
0 94.34 l
o
np
442.00 254.01 m
0 94.34 l
o
np
453.73 254.01 m
0 94.34 l
o
np
465.47 254.01 m
0 94.34 l
o
np
477.20 254.01 m
0 94.34 l
o
np
488.93 254.01 m
0 94.34 l
o
np
500.86 254.01 m
0 94.34 l
o
np
512.40 254.01 m
0 94.34 l
o
np
523.94 254.01 m
0 94.34 l
o
np
535.67 254.01 m
0 94.34 l
o
np
547.40 254.01 m
0 94.34 l
o
np
559.14 254.01 m
0 94.34 l
o
0.8980 0.8980 0.8980 srgb
0.43 setlinewidth
[] 0 setdash
np
44.94 258.30 m
525.22 0 l
o
np
44.94 280.45 m
525.22 0 l
o
np
44.94 302.60 m
525.22 0 l
o
np
44.94 324.75 m
525.22 0 l
o
np
44.94 346.90 m
525.22 0 l
o
np
50.19 254.01 m
0 94.34 l
o
np
61.73 254.01 m
0 94.34 l
o
np
73.66 254.01 m
0 94.34 l
o
np
85.58 254.01 m
0 94.34 l
o
np
96.36 254.01 m
0 94.34 l
o
np
108.28 254.01 m
0 94.34 l
o
np
119.82 254.01 m
0 94.34 l
o
np
131.75 254.01 m
0 94.34 l
o
np
143.29 254.01 m
0 94.34 l
o
np
155.21 254.01 m
0 94.34 l
o
np
167.14 254.01 m
0 94.34 l
o
np
178.68 254.01 m
0 94.34 l
o
np
190.61 254.01 m
0 94.34 l
o
np
202.15 254.01 m
0 94.34 l
o
np
214.07 254.01 m
0 94.34 l
o
np
226.00 254.01 m
0 94.34 l
o
np
236.77 254.01 m
0 94.34 l
o
np
248.69 254.01 m
0 94.34 l
o
np
260.23 254.01 m
0 94.34 l
o
np
272.16 254.01 m
0 94.34 l
o
np
283.70 254.01 m
0 94.34 l
o
np
295.63 254.01 m
0 94.34 l
o
np
307.55 254.01 m
0 94.34 l
o
np
319.09 254.01 m
0 94.34 l
o
np
331.02 254.01 m
0 94.34 l
o
np
342.56 254.01 m
0 94.34 l
o
np
354.48 254.01 m
0 94.34 l
o
np
366.41 254.01 m
0 94.34 l
o
np
377.18 254.01 m
0 94.34 l
o
np
389.10 254.01 m
0 94.34 l
o
np
400.65 254.01 m
0 94.34 l
o
np
412.57 254.01 m
0 94.34 l
o
np
424.11 254.01 m
0 94.34 l
o
np
436.04 254.01 m
0 94.34 l
o
np
447.96 254.01 m
0 94.34 l
o
np
459.50 254.01 m
0 94.34 l
o
np
471.43 254.01 m
0 94.34 l
o
np
482.97 254.01 m
0 94.34 l
o
np
494.89 254.01 m
0 94.34 l
o
np
506.82 254.01 m
0 94.34 l
o
np
517.98 254.01 m
0 94.34 l
o
np
529.90 254.01 m
0 94.34 l
o
np
541.44 254.01 m
0 94.34 l
o
np
553.37 254.01 m
0 94.34 l
o
np
564.91 254.01 m
0 94.34 l
o
/bg { 0 0 0 srgb } def
0 0 0 srgb
0.71 setlinewidth
[] 0 setdash
1 setlinecap
389.10 311.51 1.95 c p3
541.44 344.07 1.95 c p3
529.90 343.00 1.95 c p3
494.89 338.62 1.95 c p3
529.90 343.00 1.95 c p3
541.44 344.07 1.95 c p3
377.18 298.22 1.95 c p3
541.44 344.07 1.95 c p3
482.97 326.52 1.95 c p3
506.82 330.20 1.95 c p3
494.89 338.62 1.95 c p3
260.23 285.86 1.95 c p3
412.57 318.90 1.95 c p3
482.97 326.52 1.95 c p3
424.11 318.90 1.95 c p3
307.55 290.46 1.95 c p3
471.43 317.18 1.95 c p3
331.02 289.89 1.95 c p3
506.82 330.20 1.95 c p3
482.97 326.52 1.95 c p3
494.89 338.62 1.95 c p3
494.89 338.62 1.95 c p3
424.11 318.90 1.95 c p3
424.11 318.90 1.95 c p3
436.04 309.16 1.95 c p3
354.48 293.70 1.95 c p3
459.50 308.49 1.95 c p3
506.82 330.20 1.95 c p3
494.89 338.62 1.95 c p3
377.18 298.22 1.95 c p3
400.65 304.24 1.95 c p3
529.90 343.00 1.95 c p3
366.41 294.23 1.95 c p3
389.10 311.51 1.95 c p3
471.43 317.18 1.95 c p3
482.97 326.52 1.95 c p3
541.44 344.07 1.95 c p3
331.02 289.89 1.95 c p3
541.44 344.07 1.95 c p3
226.00 280.81 1.95 c p3
331.02 289.89 1.95 c p3
424.11 318.90 1.95 c p3
319.09 287.01 1.95 c p3
471.43 317.18 1.95 c p3
482.97 326.52 1.95 c p3
260.23 285.86 1.95 c p3
389.10 311.51 1.95 c p3
412.57 318.90 1.95 c p3
447.96 308.58 1.95 c p3
459.50 308.49 1.95 c p3
400.65 304.24 1.95 c p3
459.50 308.49 1.95 c p3
471.43 317.18 1.95 c p3
412.57 318.90 1.95 c p3
342.56 290.82 1.95 c p3
412.57 318.90 1.95 c p3
412.57 318.90 1.95 c p3
447.96 308.58 1.95 c p3
506.82 330.20 1.95 c p3
506.82 330.20 1.95 c p3
529.90 343.00 1.95 c p3
447.96 308.58 1.95 c p3
377.18 298.22 1.95 c p3
389.10 311.51 1.95 c p3
447.96 308.58 1.95 c p3
366.41 294.23 1.95 c p3
400.65 304.24 1.95 c p3
377.18 298.22 1.95 c p3
226.00 280.81 1.95 c p3
400.65 304.24 1.95 c p3
529.90 343.00 1.95 c p3
342.56 290.82 1.95 c p3
471.43 317.18 1.95 c p3
342.56 290.82 1.95 c p3
447.96 308.58 1.95 c p3
354.48 293.70 1.95 c p3
342.56 290.82 1.95 c p3
436.04 309.16 1.95 c p3
459.50 308.49 1.95 c p3
436.04 309.16 1.95 c p3
190.61 279.03 1.95 c p3
354.48 293.70 1.95 c p3
459.50 308.49 1.95 c p3
307.55 290.46 1.95 c p3
436.04 309.16 1.95 c p3
248.69 281.96 1.95 c p3
424.11 318.90 1.95 c p3
226.00 280.81 1.95 c p3
436.04 309.16 1.95 c p3
202.15 277.09 1.95 c p3
366.41 294.23 1.95 c p3
190.61 279.03 1.95 c p3
167.14 273.72 1.95 c p3
319.09 287.01 1.95 c p3
331.02 289.89 1.95 c p3
400.65 304.24 1.95 c p3
307.55 290.46 1.95 c p3
248.69 281.96 1.95 c p3
354.48 293.70 1.95 c p3
366.41 294.23 1.95 c p3
295.63 280.54 1.95 c p3
307.55 290.46 1.95 c p3
108.28 275.36 1.95 c p3
248.69 281.96 1.95 c p3
295.63 280.54 1.95 c p3
354.48 293.70 1.95 c p3
236.77 278.37 1.95 c p3
143.29 273.81 1.95 c p3
283.70 280.14 1.95 c p3
202.15 277.09 1.95 c p3
366.41 294.23 1.95 c p3
260.23 285.86 1.95 c p3
155.21 272.83 1.95 c p3
342.56 290.82 1.95 c p3
119.82 273.59 1.95 c p3
202.15 277.09 1.95 c p3
236.77 278.37 1.95 c p3
307.55 290.46 1.95 c p3
73.66 269.38 1.95 c p3
190.61 279.03 1.95 c p3
214.07 277.88 1.95 c p3
272.16 277.97 1.95 c p3
517.98 273.41 1.95 c p3
131.75 275.58 1.95 c p3
178.68 276.02 1.95 c p3
272.16 277.97 1.95 c p3
178.68 276.02 1.95 c p3
178.68 276.02 1.95 c p3
248.69 281.96 1.95 c p3
272.16 277.97 1.95 c p3
319.09 287.01 1.95 c p3
377.18 298.22 1.95 c p3
108.28 275.36 1.95 c p3
155.21 272.83 1.95 c p3
202.15 277.09 1.95 c p3
236.77 278.37 1.95 c p3
131.75 275.58 1.95 c p3
236.77 278.37 1.95 c p3
319.09 287.01 1.95 c p3
143.29 273.81 1.95 c p3
214.07 277.88 1.95 c p3
248.69 281.96 1.95 c p3
283.70 280.14 1.95 c p3
226.00 280.81 1.95 c p3
236.77 278.37 1.95 c p3
295.63 280.54 1.95 c p3
517.98 273.41 1.95 c p3
319.09 287.01 1.95 c p3
119.82 273.59 1.95 c p3
214.07 277.88 1.95 c p3
178.68 276.02 1.95 c p3
119.82 273.59 1.95 c p3
190.61 279.03 1.95 c p3
202.15 277.09 1.95 c p3
73.66 269.38 1.95 c p3
96.36 271.95 1.95 c p3
108.28 275.36 1.95 c p3
143.29 273.81 1.95 c p3
167.14 273.72 1.95 c p3
96.36 271.95 1.95 c p3
108.28 275.36 1.95 c p3
283.70 280.14 1.95 c p3
283.70 280.14 1.95 c p3
295.63 280.54 1.95 c p3
96.36 271.95 1.95 c p3
178.68 276.02 1.95 c p3
226.00 280.81 1.95 c p3
283.70 280.14 1.95 c p3
295.63 280.54 1.95 c p3
190.61 279.03 1.95 c p3
214.07 277.88 1.95 c p3
272.16 277.97 1.95 c p3
85.58 268.85 1.95 c p3
131.75 275.58 1.95 c p3
143.29 273.81 1.95 c p3
272.16 277.97 1.95 c p3
108.28 275.36 1.95 c p3
131.75 275.58 1.95 c p3
143.29 273.81 1.95 c p3
73.66 269.38 1.95 c p3
85.58 268.85 1.95 c p3
214.07 277.88 1.95 c p3
73.66 269.38 1.95 c p3
96.36 271.95 1.95 c p3
155.21 272.83 1.95 c p3
155.21 272.83 1.95 c p3
155.21 272.83 1.95 c p3
85.58 268.85 1.95 c p3
96.36 271.95 1.95 c p3
131.75 275.58 1.95 c p3
73.66 269.38 1.95 c p3
167.14 273.72 1.95 c p3
167.14 273.72 1.95 c p3
167.14 273.72 1.95 c p3
119.82 273.59 1.95 c p3
331.02 289.89 1.95 c p3
517.98 273.41 1.95 c p3
119.82 273.59 1.95 c p3
517.98 273.41 1.95 c p3
517.98 273.41 1.95 c p3
85.58 268.85 1.95 c p3
85.58 268.85 1.95 c p3
389.10 311.51 1.95 c p3
260.23 285.86 1.95 c p3
260.23 285.86 1.95 c p3
1.07 setlinewidth
[ 1.07 3.20] 0 setdash
0 setlinecap
1.00 setmiterlimit
np
73.66 269.38 m
0 0 l
0 0 l
0 0 l
0 0 l
11.92 -0.53 l
0 0 l
0 0 l
0 0 l
0 0 l
10.78 3.10 l
0 0 l
0 0 l
0 0 l
0 0 l
11.92 3.41 l
0 0 l
0 0 l
0 0 l
0 0 l
11.54 -1.77 l
0 0 l
0 0 l
0 0 l
0 0 l
11.93 1.99 l
0 0 l
0 0 l
0 0 l
0 0 l
11.54 -1.77 l
0 0 l
0 0 l
0 0 l
0 0 l
11.92 -0.98 l
0 0 l
0 0 l
0 0 l
0 0 l
11.93 0.89 l
0 0 l
0 0 l
0 0 l
0 0 l
11.54 2.30 l
0 0 l
0 0 l
0 0 l
0 0 l
11.93 3.01 l
0 0 l
0 0 l
0 0 l
0 0 l
11.54 -1.94 l
0 0 l
0 0 l
0 0 l
0 0 l
11.92 0.79 l
0 0 l
0 0 l
0 0 l
0 0 l
11.93 2.93 l
0 0 l
0 0 l
0 0 l
0 0 l
10.77 -2.44 l
0 0 l
0 0 l
0 0 l
0 0 l
11.92 3.59 l
0 0 l
0 0 l
0 0 l
0 0 l
11.54 3.90 l
0 0 l
0 0 l
0 0 l
0 0 l
11.93 -7.89 l
0 0 l
0 0 l
0 0 l
0 0 l
11.54 2.17 l
0 0 l
0 0 l
0 0 l
0 0 l
11.93 0.40 l
0 0 l
0 0 l
0 0 l
0 0 l
307.55 290.46 lineto
0 0 l
0 0 l
0 0 l
0 0 l
11.54 -3.45 l
0 0 l
0 0 l
0 0 l
0 0 l
11.93 2.88 l
0 0 l
0 0 l
0 0 l
0 0 l
11.54 0.93 l
0 0 l
0 0 l
0 0 l
0 0 l
11.92 2.88 l
0 0 l
0 0 l
0 0 l
0 0 l
11.93 0.53 l
0 0 l
0 0 l
0 0 l
0 0 l
10.77 3.99 l
0 0 l
0 0 l
0 0 l
0 0 l
11.92 13.29 l
0 0 l
0 0 l
0 0 l
0 0 l
11.55 -7.27 l
0 0 l
0 0 l
0 0 l
0 0 l
11.92 14.66 l
0 0 l
0 0 l
0 0 l
0 0 l
11.54 0 l
0 0 l
0 0 l
0 0 l
0 0 l
11.93 -9.74 l
0 0 l
0 0 l
0 0 l
0 0 l
11.92 -0.58 l
0 0 l
0 0 l
0 0 l
0 0 l
11.54 -0.09 l
0 0 l
0 0 l
0 0 l
0 0 l
11.93 8.69 l
0 0 l
0 0 l
0 0 l
0 0 l
11.54 9.34 l
0 0 l
0 0 l
0 0 l
0 0 l
11.92 12.10 l
0 0 l
0 0 l
0 0 l
0 0 l
11.93 -8.42 l
0 0 l
0 0 l
0 0 l
0 0 l
11.16 -56.79 l
0 0 l
0 0 l
0 0 l
0 0 l
11.92 69.59 l
0 0 l
0 0 l
0 0 l
0 0 l
541.44 344.07 lineto
0 0 l
0 0 l
0 0 l
0 0 l
o
/bg { 0.9373 0.9529 1 srgb } def
1.07 setlinewidth
[] 0 setdash
10.00 setmiterlimit
68.81 258.30 9.69 2.39 r p3
/bg { 0.7412 0.8431 0.9059 srgb } def
68.81 260.70 9.69 1.82 r p3
/bg { 0.4196 0.6824 0.8392 srgb } def
68.81 262.51 9.69 1.51 r p3
/bg { 0.1922 0.5098 0.7412 srgb } def
68.81 264.02 9.69 1.46 r p3
/bg { 0.0314 0.3176 0.6118 srgb } def
68.81 265.48 9.69 1.37 r p3
/bg { 0.9373 0.9529 1 srgb } def
80.74 258.30 9.69 1.59 r p3
/bg { 0.7412 0.8431 0.9059 srgb } def
80.74 259.90 9.69 1.51 r p3
/bg { 0.4196 0.6824 0.8392 srgb } def
80.74 261.40 9.69 1.42 r p3
/bg { 0.1922 0.5098 0.7412 srgb } def
80.74 262.82 9.69 0.93 r p3
/bg { 0.0314 0.3176 0.6118 srgb } def
80.74 263.75 9.69 0.93 r p3
/bg { 0.9373 0.9529 1 srgb } def
91.51 258.30 9.69 1.82 r p3
/bg { 0.7412 0.8431 0.9059 srgb } def
91.51 260.12 9.69 1.73 r p3
/bg { 0.4196 0.6824 0.8392 srgb } def
91.51 261.85 9.69 1.68 r p3
/bg { 0.1922 0.5098 0.7412 srgb } def
91.51 263.53 9.69 1.46 r p3
/bg { 0.0314 0.3176 0.6118 srgb } def
91.51 264.99 9.69 1.42 r p3
/bg { 0.9373 0.9529 1 srgb } def
103.43 258.30 9.69 2.88 r p3
/bg { 0.7412 0.8431 0.9059 srgb } def
103.43 261.18 9.69 2.17 r p3
/bg { 0.4196 0.6824 0.8392 srgb } def
103.43 263.35 9.69 1.77 r p3
/bg { 0.1922 0.5098 0.7412 srgb } def
103.43 265.12 9.69 1.73 r p3
/bg { 0.0314 0.3176 0.6118 srgb } def
103.43 266.85 9.69 1.55 r p3
/bg { 0.9373 0.9529 1 srgb } def
114.98 258.30 9.69 2.44 r p3
/bg { 0.7412 0.8431 0.9059 srgb } def
114.98 260.74 9.69 1.95 r p3
/bg { 0.4196 0.6824 0.8392 srgb } def
114.98 262.69 9.69 1.86 r p3
/bg { 0.1922 0.5098 0.7412 srgb } def
114.98 264.55 9.69 1.28 r p3
/bg { 0.0314 0.3176 0.6118 srgb } def
114.98 265.83 9.69 1.20 r p3
/bg { 0.9373 0.9529 1 srgb } def
126.90 258.30 9.69 2.26 r p3
/bg { 0.7412 0.8431 0.9059 srgb } def
126.90 260.56 9.69 2.13 r p3
/bg { 0.4196 0.6824 0.8392 srgb } def
126.90 262.69 9.69 1.59 r p3
/bg { 0.1922 0.5098 0.7412 srgb } def
126.90 264.28 9.69 1.55 r p3
/bg { 0.0314 0.3176 0.6118 srgb } def
126.90 265.83 9.69 1.42 r p3
/bg { 0.9373 0.9529 1 srgb } def
138.44 258.30 9.69 2.70 r p3
/bg { 0.7412 0.8431 0.9059 srgb } def
138.44 261.01 9.69 2.08 r p3
/bg { 0.4196 0.6824 0.8392 srgb } def
138.44 263.09 9.69 1.77 r p3
/bg { 0.1922 0.5098 0.7412 srgb } def
138.44 264.86 9.69 1.59 r p3
/bg { 0.0314 0.3176 0.6118 srgb } def
138.44 266.45 9.69 1.55 r p3
/bg { 0.9373 0.9529 1 srgb } def
150.37 258.30 9.69 2.48 r p3
/bg { 0.7412 0.8431 0.9059 srgb } def
150.37 260.78 9.69 2.17 r p3
/bg { 0.4196 0.6824 0.8392 srgb } def
150.37 262.95 9.69 1.46 r p3
/bg { 0.1922 0.5098 0.7412 srgb } def
150.37 264.42 9.69 1.46 r p3
/bg { 0.0314 0.3176 0.6118 srgb } def
150.37 265.88 9.69 1.46 r p3
/bg { 0.9373 0.9529 1 srgb } def
162.29 258.30 9.69 3.15 r p3
/bg { 0.7412 0.8431 0.9059 srgb } def
162.29 261.45 9.69 1.77 r p3
/bg { 0.4196 0.6824 0.8392 srgb } def
162.29 263.22 9.69 1.37 r p3
/bg { 0.1922 0.5098 0.7412 srgb } def
162.29 264.59 9.69 1.37 r p3
/bg { 0.0314 0.3176 0.6118 srgb } def
162.29 265.97 9.69 1.33 r p3
/bg { 0.9373 0.9529 1 srgb } def
173.83 258.30 9.69 2.26 r p3
/bg { 0.7412 0.8431 0.9059 srgb } def
173.83 260.56 9.69 2.21 r p3
/bg { 0.4196 0.6824 0.8392 srgb } def
173.83 262.78 9.69 2.21 r p3
/bg { 0.1922 0.5098 0.7412 srgb } def
173.83 264.99 9.69 1.90 r p3
/bg { 0.0314 0.3176 0.6118 srgb } def
173.83 266.90 9.69 1.68 r p3
/bg { 0.9373 0.9529 1 srgb } def
185.76 258.30 9.69 4.03 r p3
/bg { 0.7412 0.8431 0.9059 srgb } def
185.76 262.33 9.69 3.19 r p3
/bg { 0.4196 0.6824 0.8392 srgb } def
185.76 265.52 9.69 2.39 r p3
/bg { 0.1922 0.5098 0.7412 srgb } def
185.76 267.92 9.69 1.86 r p3
/bg { 0.0314 0.3176 0.6118 srgb } def
185.76 269.78 9.69 1.64 r p3
/bg { 0.9373 0.9529 1 srgb } def
197.30 258.30 9.69 3.37 r p3
/bg { 0.7412 0.8431 0.9059 srgb } def
197.30 261.67 9.69 2.66 r p3
/bg { 0.4196 0.6824 0.8392 srgb } def
197.30 264.33 9.69 2.44 r p3
/bg { 0.1922 0.5098 0.7412 srgb } def
197.30 266.76 9.69 2.17 r p3
/bg { 0.0314 0.3176 0.6118 srgb } def
197.30 268.93 9.69 1.86 r p3
/bg { 0.9373 0.9529 1 srgb } def
209.22 258.30 9.69 2.39 r p3
/bg { 0.7412 0.8431 0.9059 srgb } def
209.22 260.70 9.69 2.08 r p3
/bg { 0.4196 0.6824 0.8392 srgb } def
209.22 262.78 9.69 1.95 r p3
/bg { 0.1922 0.5098 0.7412 srgb } def
209.22 264.73 9.69 1.64 r p3
/bg { 0.0314 0.3176 0.6118 srgb } def
209.22 266.37 9.69 1.51 r p3
/bg { 0.9373 0.9529 1 srgb } def
221.15 258.30 9.69 6.02 r p3
/bg { 0.7412 0.8431 0.9059 srgb } def
221.15 264.33 9.69 4.65 r p3
/bg { 0.4196 0.6824 0.8392 srgb } def
221.15 268.98 9.69 3.54 r p3
/bg { 0.1922 0.5098 0.7412 srgb } def
221.15 272.52 9.69 2.04 r p3
/bg { 0.0314 0.3176 0.6118 srgb } def
221.15 274.56 9.69 1.68 r p3
/bg { 0.9373 0.9529 1 srgb } def
231.92 258.30 9.69 2.75 r p3
/bg { 0.7412 0.8431 0.9059 srgb } def
231.92 261.05 9.69 2.44 r p3
/bg { 0.4196 0.6824 0.8392 srgb } def
231.92 263.49 9.69 2.17 r p3
/bg { 0.1922 0.5098 0.7412 srgb } def
231.92 265.66 9.69 2.13 r p3
/bg { 0.0314 0.3176 0.6118 srgb } def
231.92 267.78 9.69 2.04 r p3
/bg { 0.9373 0.9529 1 srgb } def
243.85 258.30 9.69 3.77 r p3
/bg { 0.7412 0.8431 0.9059 srgb } def
243.85 262.07 9.69 3.06 r p3
/bg { 0.4196 0.6824 0.8392 srgb } def
243.85 265.12 9.69 2.88 r p3
/bg { 0.1922 0.5098 0.7412 srgb } def
243.85 268.00 9.69 2.21 r p3
/bg { 0.0314 0.3176 0.6118 srgb } def
243.85 270.22 9.69 2.08 r p3
/bg { 0.9373 0.9529 1 srgb } def
255.39 258.30 9.69 13.51 r p3
/bg { 0.7412 0.8431 0.9059 srgb } def
255.39 271.81 9.69 5.71 r p3
/bg { 0.4196 0.6824 0.8392 srgb } def
255.39 277.53 9.69 2.53 r p3
/bg { 0.1922 0.5098 0.7412 srgb } def
255.39 280.05 9.69 0.53 r p3
/bg { 0.0314 0.3176 0.6118 srgb } def
255.39 280.59 9.69 0.44 r p3
/bg { 0.9373 0.9529 1 srgb } def
267.31 258.30 9.69 2.39 r p3
/bg { 0.7412 0.8431 0.9059 srgb } def
267.31 260.70 9.69 2.26 r p3
/bg { 0.4196 0.6824 0.8392 srgb } def
267.31 262.95 9.69 2.21 r p3
/bg { 0.1922 0.5098 0.7412 srgb } def
267.31 265.17 9.69 1.64 r p3
/bg { 0.0314 0.3176 0.6118 srgb } def
267.31 266.81 9.69 1.59 r p3
/bg { 0.9373 0.9529 1 srgb } def
278.85 258.30 9.69 2.70 r p3
/bg { 0.7412 0.8431 0.9059 srgb } def
278.85 261.01 9.69 2.08 r p3
/bg { 0.4196 0.6824 0.8392 srgb } def
278.85 263.09 9.69 1.73 r p3
/bg { 0.1922 0.5098 0.7412 srgb } def
278.85 264.81 9.69 1.73 r p3
/bg { 0.0314 0.3176 0.6118 srgb } def
278.85 266.54 9.69 1.68 r p3
/bg { 0.9373 0.9529 1 srgb } def
290.78 258.30 9.69 2.97 r p3
/bg { 0.7412 0.8431 0.9059 srgb } def
290.78 261.27 9.69 2.88 r p3
/bg { 0.4196 0.6824 0.8392 srgb } def
290.78 264.15 9.69 2.04 r p3
/bg { 0.1922 0.5098 0.7412 srgb } def
290.78 266.19 9.69 1.73 r p3
/bg { 0.0314 0.3176 0.6118 srgb } def
290.78 267.92 9.69 1.68 r p3
/bg { 0.9373 0.9529 1 srgb } def
302.70 258.30 9.69 13.02 r p3
/bg { 0.7412 0.8431 0.9059 srgb } def
302.70 271.33 9.69 3.81 r p3
/bg { 0.4196 0.6824 0.8392 srgb } def
302.70 275.14 9.69 3.10 r p3
/bg { 0.1922 0.5098 0.7412 srgb } def
302.70 278.24 9.69 2.97 r p3
/bg { 0.0314 0.3176 0.6118 srgb } def
302.70 281.21 9.69 2.44 r p3
/bg { 0.9373 0.9529 1 srgb } def
314.24 258.30 9.69 5.89 r p3
/bg { 0.7412 0.8431 0.9059 srgb } def
314.24 264.19 9.69 3.15 r p3
/bg { 0.4196 0.6824 0.8392 srgb } def
314.24 267.34 9.69 2.21 r p3
/bg { 0.1922 0.5098 0.7412 srgb } def
314.24 269.55 9.69 2.13 r p3
/bg { 0.0314 0.3176 0.6118 srgb } def
314.24 271.68 9.69 1.99 r p3
/bg { 0.9373 0.9529 1 srgb } def
326.17 258.30 9.69 11.87 r p3
/bg { 0.7412 0.8431 0.9059 srgb } def
326.17 270.17 9.69 6.16 r p3
/bg { 0.4196 0.6824 0.8392 srgb } def
326.17 276.33 9.69 5.94 r p3
/bg { 0.1922 0.5098 0.7412 srgb } def
326.17 282.27 9.69 3.15 r p3
/bg { 0.0314 0.3176 0.6118 srgb } def
326.17 285.41 9.69 1.28 r p3
/bg { 0.9373 0.9529 1 srgb } def
337.71 258.30 9.69 5.36 r p3
/bg { 0.7412 0.8431 0.9059 srgb } def
337.71 263.66 9.69 4.61 r p3
/bg { 0.4196 0.6824 0.8392 srgb } def
337.71 268.27 9.69 4.52 r p3
/bg { 0.1922 0.5098 0.7412 srgb } def
337.71 272.79 9.69 4.30 r p3
/bg { 0.0314 0.3176 0.6118 srgb } def
337.71 277.09 9.69 2.48 r p3
/bg { 0.9373 0.9529 1 srgb } def
349.64 258.30 9.69 8.20 r p3
/bg { 0.7412 0.8431 0.9059 srgb } def
349.64 266.50 9.69 4.39 r p3
/bg { 0.4196 0.6824 0.8392 srgb } def
349.64 270.88 9.69 3.90 r p3
/bg { 0.1922 0.5098 0.7412 srgb } def
349.64 274.78 9.69 3.01 r p3
/bg { 0.0314 0.3176 0.6118 srgb } def
349.64 277.79 9.69 2.88 r p3
/bg { 0.9373 0.9529 1 srgb } def
361.56 258.30 9.69 7.22 r p3
/bg { 0.7412 0.8431 0.9059 srgb } def
361.56 265.52 9.69 4.78 r p3
/bg { 0.4196 0.6824 0.8392 srgb } def
361.56 270.31 9.69 3.28 r p3
/bg { 0.1922 0.5098 0.7412 srgb } def
361.56 273.59 9.69 3.01 r p3
/bg { 0.0314 0.3176 0.6118 srgb } def
361.56 276.60 9.69 2.66 r p3
/bg { 0.9373 0.9529 1 srgb } def
372.33 258.30 9.69 15.68 r p3
/bg { 0.7412 0.8431 0.9059 srgb } def
372.33 273.98 9.69 7.58 r p3
/bg { 0.4196 0.6824 0.8392 srgb } def
372.33 281.56 9.69 4.96 r p3
/bg { 0.1922 0.5098 0.7412 srgb } def
372.33 286.52 9.69 4.70 r p3
/bg { 0.0314 0.3176 0.6118 srgb } def
372.33 291.22 9.69 2.21 r p3
/bg { 0.9373 0.9529 1 srgb } def
384.26 258.30 9.69 31.01 r p3
/bg { 0.7412 0.8431 0.9059 srgb } def
384.26 289.31 9.69 7.22 r p3
/bg { 0.4196 0.6824 0.8392 srgb } def
384.26 296.53 9.69 5.71 r p3
/bg { 0.1922 0.5098 0.7412 srgb } def
384.26 302.25 9.69 4.92 r p3
/bg { 0.0314 0.3176 0.6118 srgb } def
384.26 307.16 9.69 0.84 r p3
/bg { 0.9373 0.9529 1 srgb } def
395.80 258.30 9.69 7.53 r p3
/bg { 0.7412 0.8431 0.9059 srgb } def
395.80 265.83 9.69 5.58 r p3
/bg { 0.4196 0.6824 0.8392 srgb } def
395.80 271.42 9.69 4.74 r p3
/bg { 0.1922 0.5098 0.7412 srgb } def
395.80 276.16 9.69 4.65 r p3
/bg { 0.0314 0.3176 0.6118 srgb } def
395.80 280.81 9.69 3.15 r p3
/bg { 0.9373 0.9529 1 srgb } def
407.72 258.30 9.69 13.51 r p3
/bg { 0.7412 0.8431 0.9059 srgb } def
407.72 271.81 9.69 5.67 r p3
/bg { 0.4196 0.6824 0.8392 srgb } def
407.72 277.48 9.69 5.40 r p3
/bg { 0.1922 0.5098 0.7412 srgb } def
407.72 282.89 9.69 5.32 r p3
/bg { 0.0314 0.3176 0.6118 srgb } def
407.72 288.20 9.69 5.27 r p3
/bg { 0.9373 0.9529 1 srgb } def
419.26 258.30 9.69 13.33 r p3
/bg { 0.7412 0.8431 0.9059 srgb } def
419.26 271.64 9.69 9.44 r p3
/bg { 0.4196 0.6824 0.8392 srgb } def
419.26 281.07 9.69 8.73 r p3
/bg { 0.1922 0.5098 0.7412 srgb } def
419.26 289.80 9.69 5.94 r p3
/bg { 0.0314 0.3176 0.6118 srgb } def
419.26 295.74 9.69 3.72 r p3
/bg { 0.9373 0.9529 1 srgb } def
431.19 258.30 9.69 8.64 r p3
/bg { 0.7412 0.8431 0.9059 srgb } def
431.19 266.94 9.69 4.30 r p3
/bg { 0.4196 0.6824 0.8392 srgb } def
431.19 271.24 9.69 4.08 r p3
/bg { 0.1922 0.5098 0.7412 srgb } def
431.19 275.31 9.69 3.81 r p3
/bg { 0.0314 0.3176 0.6118 srgb } def
431.19 279.12 9.69 3.41 r p3
/bg { 0.9373 0.9529 1 srgb } def
443.12 258.30 9.69 5.67 r p3
/bg { 0.7412 0.8431 0.9059 srgb } def
443.12 263.97 9.69 5.09 r p3
/bg { 0.4196 0.6824 0.8392 srgb } def
443.12 269.07 9.69 5.01 r p3
/bg { 0.1922 0.5098 0.7412 srgb } def
443.12 274.07 9.69 4.83 r p3
/bg { 0.0314 0.3176 0.6118 srgb } def
443.12 278.90 9.69 4.43 r p3
/bg { 0.9373 0.9529 1 srgb } def
454.66 258.30 9.69 8.06 r p3
/bg { 0.7412 0.8431 0.9059 srgb } def
454.66 266.37 9.69 5.63 r p3
/bg { 0.4196 0.6824 0.8392 srgb } def
454.66 271.99 9.69 5.54 r p3
/bg { 0.1922 0.5098 0.7412 srgb } def
454.66 277.53 9.69 4.16 r p3
/bg { 0.0314 0.3176 0.6118 srgb } def
454.66 281.69 9.69 3.90 r p3
/bg { 0.9373 0.9529 1 srgb } def
466.58 258.30 9.69 12.14 r p3
/bg { 0.7412 0.8431 0.9059 srgb } def
466.58 270.44 9.69 6.69 r p3
/bg { 0.4196 0.6824 0.8392 srgb } def
466.58 277.13 9.69 5.80 r p3
/bg { 0.1922 0.5098 0.7412 srgb } def
466.58 282.93 9.69 5.49 r p3
/bg { 0.0314 0.3176 0.6118 srgb } def
466.58 288.43 9.69 4.56 r p3
/bg { 0.9373 0.9529 1 srgb } def
478.12 258.30 9.69 14.62 r p3
/bg { 0.7412 0.8431 0.9059 srgb } def
478.12 272.92 9.69 13.42 r p3
/bg { 0.4196 0.6824 0.8392 srgb } def
478.12 286.34 9.69 9.83 r p3
/bg { 0.1922 0.5098 0.7412 srgb } def
478.12 296.18 9.69 6.51 r p3
/bg { 0.0314 0.3176 0.6118 srgb } def
478.12 302.69 9.69 5.80 r p3
/bg { 0.9373 0.9529 1 srgb } def
490.05 258.30 9.69 16.92 r p3
/bg { 0.7412 0.8431 0.9059 srgb } def
490.05 275.22 9.69 13.60 r p3
/bg { 0.4196 0.6824 0.8392 srgb } def
490.05 288.82 9.69 9.70 r p3
/bg { 0.1922 0.5098 0.7412 srgb } def
490.05 298.53 9.69 9.48 r p3
/bg { 0.0314 0.3176 0.6118 srgb } def
490.05 308.01 9.69 7.89 r p3
/bg { 0.9373 0.9529 1 srgb } def
501.97 258.30 9.69 14.00 r p3
/bg { 0.7412 0.8431 0.9059 srgb } def
501.97 272.30 9.69 10.50 r p3
/bg { 0.4196 0.6824 0.8392 srgb } def
501.97 282.80 9.69 7.93 r p3
/bg { 0.1922 0.5098 0.7412 srgb } def
501.97 290.73 9.69 5.09 r p3
/bg { 0.0314 0.3176 0.6118 srgb } def
501.97 295.82 9.69 5.05 r p3
/bg { 0.9373 0.9529 1 srgb } def
513.13 258.30 9.69 2.30 r p3
/bg { 0.7412 0.8431 0.9059 srgb } def
513.13 260.61 9.69 2.04 r p3
/bg { 0.4196 0.6824 0.8392 srgb } def
513.13 262.64 9.69 1.28 r p3
/bg { 0.1922 0.5098 0.7412 srgb } def
513.13 263.93 9.69 1.15 r p3
/bg { 0.0314 0.3176 0.6118 srgb } def
513.13 265.08 9.69 0.97 r p3
/bg { 0.9373 0.9529 1 srgb } def
525.05 258.30 9.69 18.43 r p3
/bg { 0.7412 0.8431 0.9059 srgb } def
525.05 276.73 9.69 16.70 r p3
/bg { 0.4196 0.6824 0.8392 srgb } def
525.05 293.43 9.69 7.53 r p3
/bg { 0.1922 0.5098 0.7412 srgb } def
525.05 300.96 9.69 5.05 r p3
/bg { 0.0314 0.3176 0.6118 srgb } def
525.05 306.01 9.69 4.65 r p3
/bg { 0.9373 0.9529 1 srgb } def
536.59 258.30 9.69 19.05 r p3
/bg { 0.7412 0.8431 0.9059 srgb } def
536.59 277.35 9.69 15.73 r p3
/bg { 0.4196 0.6824 0.8392 srgb } def
536.59 293.08 9.69 14.75 r p3
/bg { 0.1922 0.5098 0.7412 srgb } def
536.59 307.83 9.69 6.25 r p3
/bg { 0.0314 0.3176 0.6118 srgb } def
536.59 314.07 9.69 6.11 r p3
0.4980 0.4980 0.4980 srgb
1 setlinecap
44.94 254.01 525.22 94.34 r p1
0.00 0.00 595.28 354.33 cl
44.94 153.70 570.16 248.04 cl
/bg { 1 1 1 srgb } def
44.94 153.70 525.22 94.34 r p2
0.9804 0.9804 0.9804 srgb
1.07 setlinewidth
[] 0 setdash
0 setlinecap
1 setlinejoin
10.00 setmiterlimit
np
44.94 168.02 m
525.22 0 l
o
np
44.94 188.09 m
525.22 0 l
o
np
44.94 208.15 m
525.22 0 l
o
np
44.94 228.22 m
525.22 0 l
o
np
55.96 153.70 m
0 94.34 l
o
np
67.70 153.70 m
0 94.34 l
o
np
79.62 153.70 m
0 94.34 l
o
np
90.97 153.70 m
0 94.34 l
o
np
102.32 153.70 m
0 94.34 l
o
np
114.05 153.70 m
0 94.34 l
o
np
125.78 153.70 m
0 94.34 l
o
np
137.52 153.70 m
0 94.34 l
o
np
149.25 153.70 m
0 94.34 l
o
np
161.18 153.70 m
0 94.34 l
o
np
172.91 153.70 m
0 94.34 l
o
np
184.64 153.70 m
0 94.34 l
o
np
196.38 153.70 m
0 94.34 l
o
np
208.11 153.70 m
0 94.34 l
o
np
220.03 153.70 m
0 94.34 l
o
np
231.38 153.70 m
0 94.34 l
o
np
242.73 153.70 m
0 94.34 l
o
np
254.46 153.70 m
0 94.34 l
o
np
266.20 153.70 m
0 94.34 l
o
np
277.93 153.70 m
0 94.34 l
o
np
289.66 153.70 m
0 94.34 l
o
np
301.59 153.70 m
0 94.34 l
o
np
313.32 153.70 m
0 94.34 l
o
np
325.05 153.70 m
0 94.34 l
o
np
336.79 153.70 m
0 94.34 l
o
np
348.52 153.70 m
0 94.34 l
o
np
360.45 153.70 m
0 94.34 l
o
np
371.79 153.70 m
0 94.34 l
o
np
383.14 153.70 m
0 94.34 l
o
np
394.88 153.70 m
0 94.34 l
o
np
406.61 153.70 m
0 94.34 l
o
np
418.34 153.70 m
0 94.34 l
o
np
430.07 153.70 m
0 94.34 l
o
np
442.00 153.70 m
0 94.34 l
o
np
453.73 153.70 m
0 94.34 l
o
np
465.47 153.70 m
0 94.34 l
o
np
477.20 153.70 m
0 94.34 l
o
np
488.93 153.70 m
0 94.34 l
o
np
500.86 153.70 m
0 94.34 l
o
np
512.40 153.70 m
0 94.34 l
o
np
523.94 153.70 m
0 94.34 l
o
np
535.67 153.70 m
0 94.34 l
o
np
547.40 153.70 m
0 94.34 l
o
np
559.14 153.70 m
0 94.34 l
o
0.8980 0.8980 0.8980 srgb
0.43 setlinewidth
[] 0 setdash
np
44.94 157.99 m
525.22 0 l
o
np
44.94 178.05 m
525.22 0 l
o
np
44.94 198.12 m
525.22 0 l
o
np
44.94 218.19 m
525.22 0 l
o
np
44.94 238.25 m
525.22 0 l
o
np
50.19 153.70 m
0 94.34 l
o
np
61.73 153.70 m
0 94.34 l
o
np
73.66 153.70 m
0 94.34 l
o
np
85.58 153.70 m
0 94.34 l
o
np
96.36 153.70 m
0 94.34 l
o
np
108.28 153.70 m
0 94.34 l
o
np
119.82 153.70 m
0 94.34 l
o
np
131.75 153.70 m
0 94.34 l
o
np
143.29 153.70 m
0 94.34 l
o
np
155.21 153.70 m
0 94.34 l
o
np
167.14 153.70 m
0 94.34 l
o
np
178.68 153.70 m
0 94.34 l
o
np
190.61 153.70 m
0 94.34 l
o
np
202.15 153.70 m
0 94.34 l
o
np
214.07 153.70 m
0 94.34 l
o
np
226.00 153.70 m
0 94.34 l
o
np
236.77 153.70 m
0 94.34 l
o
np
248.69 153.70 m
0 94.34 l
o
np
260.23 153.70 m
0 94.34 l
o
np
272.16 153.70 m
0 94.34 l
o
np
283.70 153.70 m
0 94.34 l
o
np
295.63 153.70 m
0 94.34 l
o
np
307.55 153.70 m
0 94.34 l
o
np
319.09 153.70 m
0 94.34 l
o
np
331.02 153.70 m
0 94.34 l
o
np
342.56 153.70 m
0 94.34 l
o
np
354.48 153.70 m
0 94.34 l
o
np
366.41 153.70 m
0 94.34 l
o
np
377.18 153.70 m
0 94.34 l
o
np
389.10 153.70 m
0 94.34 l
o
np
400.65 153.70 m
0 94.34 l
o
np
412.57 153.70 m
0 94.34 l
o
np
424.11 153.70 m
0 94.34 l
o
np
436.04 153.70 m
0 94.34 l
o
np
447.96 153.70 m
0 94.34 l
o
np
459.50 153.70 m
0 94.34 l
o
np
471.43 153.70 m
0 94.34 l
o
np
482.97 153.70 m
0 94.34 l
o
np
494.89 153.70 m
0 94.34 l
o
np
506.82 153.70 m
0 94.34 l
o
np
517.98 153.70 m
0 94.34 l
o
np
529.90 153.70 m
0 94.34 l
o
np
541.44 153.70 m
0 94.34 l
o
np
553.37 153.70 m
0 94.34 l
o
np
564.91 153.70 m
0 94.34 l
o
/bg { 0 0 0 srgb } def
0 0 0 srgb
0.71 setlinewidth
[] 0 setdash
1 setlinecap
471.43 243.75 1.95 c p3
541.44 225.89 1.95 c p3
354.48 223.72 1.95 c p3
506.82 217.50 1.95 c p3
529.90 220.69 1.95 c p3
482.97 218.04 1.95 c p3
494.89 220.27 1.95 c p3
459.50 209.80 1.95 c p3
447.96 206.09 1.95 c p3
436.04 208.27 1.95 c p3
424.11 210.96 1.95 c p3
412.57 208.69 1.95 c p3
400.65 203.64 1.95 c p3
389.10 200.71 1.95 c p3
377.18 201.07 1.95 c p3
366.41 198.70 1.95 c p3
541.44 225.89 1.95 c p3
482.97 218.04 1.95 c p3
471.43 243.75 1.95 c p3
331.02 191.18 1.95 c p3
494.89 220.27 1.95 c p3
541.44 225.89 1.95 c p3
529.90 220.69 1.95 c p3
319.09 188.73 1.95 c p3
506.82 217.50 1.95 c p3
471.43 243.75 1.95 c p3
342.56 192.16 1.95 c p3
342.56 192.16 1.95 c p3
412.57 208.69 1.95 c p3
307.55 184.82 1.95 c p3
389.10 200.71 1.95 c p3
400.65 203.64 1.95 c p3
424.11 210.96 1.95 c p3
436.04 208.27 1.95 c p3
482.97 218.04 1.95 c p3
459.50 209.80 1.95 c p3
354.48 223.72 1.95 c p3
436.04 208.27 1.95 c p3
377.18 201.07 1.95 c p3
447.96 206.09 1.95 c p3
272.16 180.42 1.95 c p3
517.98 174.96 1.95 c p3
529.90 220.69 1.95 c p3
366.41 198.70 1.95 c p3
354.48 223.72 1.95 c p3
424.11 210.96 1.95 c p3
424.11 210.96 1.95 c p3
447.96 206.09 1.95 c p3
295.63 185.94 1.95 c p3
400.65 203.64 1.95 c p3
494.89 220.27 1.95 c p3
331.02 191.18 1.95 c p3
366.41 198.70 1.95 c p3
283.70 185.10 1.95 c p3
331.02 191.18 1.95 c p3
506.82 217.50 1.95 c p3
307.55 184.82 1.95 c p3
260.23 179.56 1.95 c p3
412.57 208.69 1.95 c p3
342.56 192.16 1.95 c p3
342.56 192.16 1.95 c p3
377.18 201.07 1.95 c p3
366.41 198.70 1.95 c p3
272.16 180.42 1.95 c p3
319.09 188.73 1.95 c p3
459.50 209.80 1.95 c p3
295.63 185.94 1.95 c p3
283.70 185.10 1.95 c p3
494.89 220.27 1.95 c p3
389.10 200.71 1.95 c p3
295.63 185.94 1.95 c p3
260.23 179.56 1.95 c p3
283.70 185.10 1.95 c p3
331.02 191.18 1.95 c p3
517.98 174.96 1.95 c p3
108.28 178.61 1.95 c p3
214.07 178.33 1.95 c p3
307.55 184.82 1.95 c p3
295.63 185.94 1.95 c p3
260.23 179.56 1.95 c p3
319.09 188.73 1.95 c p3
377.18 201.07 1.95 c p3
529.90 220.69 1.95 c p3
108.28 178.61 1.95 c p3
202.15 175.93 1.95 c p3
214.07 178.33 1.95 c p3
236.77 176.49 1.95 c p3
412.57 208.69 1.95 c p3
412.57 208.69 1.95 c p3
248.69 177.29 1.95 c p3
248.69 177.29 1.95 c p3
226.00 174.62 1.95 c p3
272.16 180.42 1.95 c p3
236.77 176.49 1.95 c p3
190.61 174.40 1.95 c p3
202.15 175.93 1.95 c p3
248.69 177.29 1.95 c p3
354.48 223.72 1.95 c p3
190.61 174.40 1.95 c p3
307.55 184.82 1.95 c p3
96.36 172.37 1.95 c p3
131.75 174.14 1.95 c p3
202.15 175.93 1.95 c p3
471.43 243.75 1.95 c p3
190.61 174.40 1.95 c p3
260.23 179.56 1.95 c p3
436.04 208.27 1.95 c p3
459.50 209.80 1.95 c p3
236.77 176.49 1.95 c p3
283.70 185.10 1.95 c p3
214.07 178.33 1.95 c p3
354.48 223.72 1.95 c p3
155.21 172.51 1.95 c p3
214.07 178.33 1.95 c p3
119.82 174.24 1.95 c p3
283.70 185.10 1.95 c p3
295.63 185.94 1.95 c p3
331.02 191.18 1.95 c p3
167.14 172.11 1.95 c p3
236.77 176.49 1.95 c p3
319.09 188.73 1.95 c p3
260.23 179.56 1.95 c p3
389.10 200.71 1.95 c p3
226.00 174.62 1.95 c p3
506.82 217.50 1.95 c p3
143.29 172.64 1.95 c p3
517.98 174.96 1.95 c p3
248.69 177.29 1.95 c p3
178.68 173.50 1.95 c p3
108.28 178.61 1.95 c p3
471.43 243.75 1.95 c p3
307.55 184.82 1.95 c p3
108.28 178.61 1.95 c p3
178.68 173.50 1.95 c p3
178.68 173.50 1.95 c p3
108.28 178.61 1.95 c p3
131.75 174.14 1.95 c p3
73.66 171.09 1.95 c p3
155.21 172.51 1.95 c p3
214.07 178.33 1.95 c p3
119.82 174.24 1.95 c p3
272.16 180.42 1.95 c p3
96.36 172.37 1.95 c p3
143.29 172.64 1.95 c p3
226.00 174.62 1.95 c p3
319.09 188.73 1.95 c p3
73.66 171.09 1.95 c p3
131.75 174.14 1.95 c p3
143.29 172.64 1.95 c p3
167.14 172.11 1.95 c p3
248.69 177.29 1.95 c p3
131.75 174.14 1.95 c p3
96.36 172.37 1.95 c p3
119.82 174.24 1.95 c p3
85.58 168.78 1.95 c p3
155.21 172.51 1.95 c p3
342.56 192.16 1.95 c p3
85.58 168.78 1.95 c p3
167.14 172.11 1.95 c p3
190.61 174.40 1.95 c p3
85.58 168.78 1.95 c p3
202.15 175.93 1.95 c p3
366.41 198.70 1.95 c p3
494.89 220.27 1.95 c p3
190.61 174.40 1.95 c p3
155.21 172.51 1.95 c p3
73.66 171.09 1.95 c p3
143.29 172.64 1.95 c p3
202.15 175.93 1.95 c p3
541.44 225.89 1.95 c p3
155.21 172.51 1.95 c p3
73.66 171.09 1.95 c p3
96.36 172.37 1.95 c p3
143.29 172.64 1.95 c p3
167.14 172.11 1.95 c p3
226.00 174.62 1.95 c p3
236.77 176.49 1.95 c p3
447.96 206.09 1.95 c p3
119.82 174.24 1.95 c p3
96.36 172.37 1.95 c p3
119.82 174.24 1.95 c p3
272.16 180.42 1.95 c p3
400.65 203.64 1.95 c p3
178.68 173.50 1.95 c p3
167.14 172.11 1.95 c p3
178.68 173.50 1.95 c p3
400.65 203.64 1.95 c p3
73.66 171.09 1.95 c p3
517.98 174.96 1.95 c p3
131.75 174.14 1.95 c p3
226.00 174.62 1.95 c p3
85.58 168.78 1.95 c p3
424.11 210.96 1.95 c p3
447.96 206.09 1.95 c p3
377.18 201.07 1.95 c p3
85.58 168.78 1.95 c p3
541.44 225.89 1.95 c p3
482.97 218.04 1.95 c p3
517.98 174.96 1.95 c p3
506.82 217.50 1.95 c p3
529.90 220.69 1.95 c p3
436.04 208.27 1.95 c p3
389.10 200.71 1.95 c p3
459.50 209.80 1.95 c p3
482.97 218.04 1.95 c p3
1.07 setlinewidth
[ 1.07 3.20] 0 setdash
0 setlinecap
1.00 setmiterlimit
np
73.66 171.09 m
0 0 l
0 0 l
0 0 l
0 0 l
11.92 -2.31 l
0 0 l
0 0 l
0 0 l
0 0 l
10.78 3.59 l
0 0 l
0 0 l
0 0 l
0 0 l
11.92 6.24 l
0 0 l
0 0 l
0 0 l
0 0 l
11.54 -4.37 l
0 0 l
0 0 l
0 0 l
0 0 l
11.93 -0.10 l
0 0 l
0 0 l
0 0 l
0 0 l
11.54 -1.50 l
0 0 l
0 0 l
0 0 l
0 0 l
11.92 -0.13 l
0 0 l
0 0 l
0 0 l
0 0 l
11.93 -0.40 l
0 0 l
0 0 l
0 0 l
0 0 l
11.54 1.39 l
0 0 l
0 0 l
0 0 l
0 0 l
11.93 0.90 l
0 0 l
0 0 l
0 0 l
0 0 l
11.54 1.53 l
0 0 l
0 0 l
0 0 l
0 0 l
11.92 2.40 l
0 0 l
0 0 l
0 0 l
0 0 l
11.93 -3.71 l
0 0 l
0 0 l
0 0 l
0 0 l
10.77 1.87 l
0 0 l
0 0 l
0 0 l
0 0 l
11.92 0.80 l
0 0 l
0 0 l
0 0 l
0 0 l
11.54 2.27 l
0 0 l
0 0 l
0 0 l
0 0 l
11.93 0.86 l
0 0 l
0 0 l
0 0 l
0 0 l
11.54 4.68 l
0 0 l
0 0 l
0 0 l
0 0 l
11.93 0.84 l
0 0 l
0 0 l
0 0 l
0 0 l
307.55 184.82 lineto
0 0 l
0 0 l
0 0 l
0 0 l
11.54 3.91 l
0 0 l
0 0 l
0 0 l
0 0 l
11.93 2.45 l
0 0 l
0 0 l
0 0 l
0 0 l
11.54 0.98 l
0 0 l
0 0 l
0 0 l
0 0 l
11.92 31.56 l
0 0 l
0 0 l
0 0 l
0 0 l
11.93 -25.02 l
0 0 l
0 0 l
0 0 l
0 0 l
10.77 2.37 l
0 0 l
0 0 l
0 0 l
0 0 l
11.92 -0.36 l
0 0 l
0 0 l
0 0 l
0 0 l
11.55 2.93 l
0 0 l
0 0 l
0 0 l
0 0 l
11.92 5.05 l
0 0 l
0 0 l
0 0 l
0 0 l
11.54 2.27 l
0 0 l
0 0 l
0 0 l
0 0 l
11.93 -2.69 l
0 0 l
0 0 l
0 0 l
0 0 l
11.92 -2.18 l
0 0 l
0 0 l
0 0 l
0 0 l
11.54 3.71 l
0 0 l
0 0 l
0 0 l
0 0 l
11.93 33.95 l
0 0 l
0 0 l
0 0 l
0 0 l
11.54 -25.71 l
0 0 l
0 0 l
0 0 l
0 0 l
11.92 2.23 l
0 0 l
0 0 l
0 0 l
0 0 l
11.93 -2.77 l
0 0 l
0 0 l
0 0 l
0 0 l
11.16 -42.54 l
0 0 l
0 0 l
0 0 l
0 0 l
11.92 45.73 l
0 0 l
0 0 l
0 0 l
0 0 l
541.44 225.89 lineto
0 0 l
0 0 l
0 0 l
0 0 l
o
/bg { 0.9373 0.9529 1 srgb } def
1.07 setlinewidth
[] 0 setdash
10.00 setmiterlimit
68.81 157.99 9.69 2.27 r p3
/bg { 0.7412 0.8431 0.9059 srgb } def
68.81 160.25 9.69 2.07 r p3
/bg { 0.4196 0.6824 0.8392 srgb } def
68.81 162.32 9.69 1.77 r p3
/bg { 0.1922 0.5098 0.7412 srgb } def
68.81 164.09 9.69 1.65 r p3
/bg { 0.0314 0.3176 0.6118 srgb } def
68.81 165.73 9.69 1.40 r p3
/bg { 0.9373 0.9529 1 srgb } def
80.74 157.99 9.69 1.95 r p3
/bg { 0.7412 0.8431 0.9059 srgb } def
80.74 159.93 9.69 1.91 r p3
/bg { 0.4196 0.6824 0.8392 srgb } def
80.74 161.84 9.69 1.87 r p3
/bg { 0.1922 0.5098 0.7412 srgb } def
80.74 163.71 9.69 1.24 r p3
/bg { 0.0314 0.3176 0.6118 srgb } def
80.74 164.95 9.69 0.86 r p3
/bg { 0.9373 0.9529 1 srgb } def
91.51 157.99 9.69 3.29 r p3
/bg { 0.7412 0.8431 0.9059 srgb } def
91.51 161.28 9.69 2.17 r p3
/bg { 0.4196 0.6824 0.8392 srgb } def
91.51 163.44 9.69 1.97 r p3
/bg { 0.1922 0.5098 0.7412 srgb } def
91.51 165.41 9.69 1.65 r p3
/bg { 0.0314 0.3176 0.6118 srgb } def
91.51 167.06 9.69 1.57 r p3
/bg { 0.9373 0.9529 1 srgb } def
103.43 157.99 9.69 4.25 r p3
/bg { 0.7412 0.8431 0.9059 srgb } def
103.43 162.24 9.69 3.93 r p3
/bg { 0.4196 0.6824 0.8392 srgb } def
103.43 166.17 9.69 2.47 r p3
/bg { 0.1922 0.5098 0.7412 srgb } def
103.43 168.64 9.69 2.37 r p3
/bg { 0.0314 0.3176 0.6118 srgb } def
103.43 171.01 9.69 2.29 r p3
/bg { 0.9373 0.9529 1 srgb } def
114.98 157.99 9.69 2.87 r p3
/bg { 0.7412 0.8431 0.9059 srgb } def
114.98 160.86 9.69 2.25 r p3
/bg { 0.4196 0.6824 0.8392 srgb } def
114.98 163.10 9.69 1.97 r p3
/bg { 0.1922 0.5098 0.7412 srgb } def
114.98 165.07 9.69 1.59 r p3
/bg { 0.0314 0.3176 0.6118 srgb } def
114.98 166.66 9.69 1.57 r p3
/bg { 0.9373 0.9529 1 srgb } def
126.90 157.99 9.69 3.29 r p3
/bg { 0.7412 0.8431 0.9059 srgb } def
126.90 161.28 9.69 2.29 r p3
/bg { 0.4196 0.6824 0.8392 srgb } def
126.90 163.57 9.69 2.07 r p3
/bg { 0.1922 0.5098 0.7412 srgb } def
126.90 165.63 9.69 2.01 r p3
/bg { 0.0314 0.3176 0.6118 srgb } def
126.90 167.64 9.69 1.32 r p3
/bg { 0.9373 0.9529 1 srgb } def
138.44 157.99 9.69 2.59 r p3
/bg { 0.7412 0.8431 0.9059 srgb } def
138.44 160.58 9.69 2.17 r p3
/bg { 0.4196 0.6824 0.8392 srgb } def
138.44 162.74 9.69 2.07 r p3
/bg { 0.1922 0.5098 0.7412 srgb } def
138.44 164.81 9.69 1.71 r p3
/bg { 0.0314 0.3176 0.6118 srgb } def
138.44 166.52 9.69 1.65 r p3
/bg { 0.9373 0.9529 1 srgb } def
150.37 157.99 9.69 2.91 r p3
/bg { 0.7412 0.8431 0.9059 srgb } def
150.37 160.90 9.69 2.27 r p3
/bg { 0.4196 0.6824 0.8392 srgb } def
150.37 163.16 9.69 1.95 r p3
/bg { 0.1922 0.5098 0.7412 srgb } def
150.37 165.11 9.69 1.81 r p3
/bg { 0.0314 0.3176 0.6118 srgb } def
150.37 166.92 9.69 1.67 r p3
/bg { 0.9373 0.9529 1 srgb } def
162.29 157.99 9.69 2.83 r p3
/bg { 0.7412 0.8431 0.9059 srgb } def
162.29 160.82 9.69 2.07 r p3
/bg { 0.4196 0.6824 0.8392 srgb } def
162.29 162.88 9.69 1.89 r p3
/bg { 0.1922 0.5098 0.7412 srgb } def
162.29 164.77 9.69 1.65 r p3
/bg { 0.0314 0.3176 0.6118 srgb } def
162.29 166.41 9.69 1.50 r p3
/bg { 0.9373 0.9529 1 srgb } def
173.83 157.99 9.69 2.53 r p3
/bg { 0.7412 0.8431 0.9059 srgb } def
173.83 160.52 9.69 2.35 r p3
/bg { 0.4196 0.6824 0.8392 srgb } def
173.83 162.86 9.69 2.31 r p3
/bg { 0.1922 0.5098 0.7412 srgb } def
173.83 165.17 9.69 1.53 r p3
/bg { 0.0314 0.3176 0.6118 srgb } def
173.83 166.70 9.69 1.44 r p3
/bg { 0.9373 0.9529 1 srgb } def
185.76 157.99 9.69 3.41 r p3
/bg { 0.7412 0.8431 0.9059 srgb } def
185.76 161.40 9.69 3.37 r p3
/bg { 0.4196 0.6824 0.8392 srgb } def
185.76 164.77 9.69 3.23 r p3
/bg { 0.1922 0.5098 0.7412 srgb } def
185.76 168.00 9.69 1.89 r p3
/bg { 0.0314 0.3176 0.6118 srgb } def
185.76 169.89 9.69 1.83 r p3
/bg { 0.9373 0.9529 1 srgb } def
197.30 157.99 9.69 3.91 r p3
/bg { 0.7412 0.8431 0.9059 srgb } def
197.30 161.90 9.69 3.41 r p3
/bg { 0.4196 0.6824 0.8392 srgb } def
197.30 165.31 9.69 3.25 r p3
/bg { 0.1922 0.5098 0.7412 srgb } def
197.30 168.56 9.69 1.87 r p3
/bg { 0.0314 0.3176 0.6118 srgb } def
197.30 170.43 9.69 1.69 r p3
/bg { 0.9373 0.9529 1 srgb } def
209.22 157.99 9.69 4.23 r p3
/bg { 0.7412 0.8431 0.9059 srgb } def
209.22 162.22 9.69 3.83 r p3
/bg { 0.4196 0.6824 0.8392 srgb } def
209.22 166.05 9.69 2.97 r p3
/bg { 0.1922 0.5098 0.7412 srgb } def
209.22 169.02 9.69 2.91 r p3
/bg { 0.0314 0.3176 0.6118 srgb } def
209.22 171.93 9.69 2.27 r p3
/bg { 0.9373 0.9529 1 srgb } def
221.15 157.99 9.69 3.47 r p3
/bg { 0.7412 0.8431 0.9059 srgb } def
221.15 161.46 9.69 2.71 r p3
/bg { 0.4196 0.6824 0.8392 srgb } def
221.15 164.17 9.69 2.17 r p3
/bg { 0.1922 0.5098 0.7412 srgb } def
221.15 166.33 9.69 1.63 r p3
/bg { 0.0314 0.3176 0.6118 srgb } def
221.15 167.96 9.69 1.30 r p3
/bg { 0.9373 0.9529 1 srgb } def
231.92 157.99 9.69 3.75 r p3
/bg { 0.7412 0.8431 0.9059 srgb } def
231.92 161.74 9.69 3.45 r p3
/bg { 0.4196 0.6824 0.8392 srgb } def
231.92 165.19 9.69 3.15 r p3
/bg { 0.1922 0.5098 0.7412 srgb } def
231.92 168.34 9.69 2.79 r p3
/bg { 0.0314 0.3176 0.6118 srgb } def
231.92 171.13 9.69 1.63 r p3
/bg { 0.9373 0.9529 1 srgb } def
243.85 157.99 9.69 3.59 r p3
/bg { 0.7412 0.8431 0.9059 srgb } def
243.85 161.58 9.69 3.59 r p3
/bg { 0.4196 0.6824 0.8392 srgb } def
243.85 165.17 9.69 3.41 r p3
/bg { 0.1922 0.5098 0.7412 srgb } def
243.85 168.58 9.69 2.55 r p3
/bg { 0.0314 0.3176 0.6118 srgb } def
243.85 171.13 9.69 2.03 r p3
/bg { 0.9373 0.9529 1 srgb } def
255.39 157.99 9.69 5.50 r p3
/bg { 0.7412 0.8431 0.9059 srgb } def
255.39 163.49 9.69 4.53 r p3
/bg { 0.4196 0.6824 0.8392 srgb } def
255.39 168.02 9.69 4.01 r p3
/bg { 0.1922 0.5098 0.7412 srgb } def
255.39 172.03 9.69 3.17 r p3
/bg { 0.0314 0.3176 0.6118 srgb } def
255.39 175.20 9.69 2.75 r p3
/bg { 0.9373 0.9529 1 srgb } def
267.31 157.99 9.69 7.83 r p3
/bg { 0.7412 0.8431 0.9059 srgb } def
267.31 165.81 9.69 4.90 r p3
/bg { 0.4196 0.6824 0.8392 srgb } def
267.31 170.71 9.69 3.47 r p3
/bg { 0.1922 0.5098 0.7412 srgb } def
267.31 174.18 9.69 2.19 r p3
/bg { 0.0314 0.3176 0.6118 srgb } def
267.31 176.37 9.69 1.55 r p3
/bg { 0.9373 0.9529 1 srgb } def
278.85 157.99 9.69 5.78 r p3
/bg { 0.7412 0.8431 0.9059 srgb } def
278.85 163.77 9.69 4.72 r p3
/bg { 0.4196 0.6824 0.8392 srgb } def
278.85 168.48 9.69 4.43 r p3
/bg { 0.1922 0.5098 0.7412 srgb } def
278.85 172.92 9.69 3.07 r p3
/bg { 0.0314 0.3176 0.6118 srgb } def
278.85 175.99 9.69 2.85 r p3
/bg { 0.9373 0.9529 1 srgb } def
290.78 157.99 9.69 6.36 r p3
/bg { 0.7412 0.8431 0.9059 srgb } def
290.78 164.35 9.69 4.78 r p3
/bg { 0.4196 0.6824 0.8392 srgb } def
290.78 169.12 9.69 4.55 r p3
/bg { 0.1922 0.5098 0.7412 srgb } def
290.78 173.68 9.69 4.09 r p3
/bg { 0.0314 0.3176 0.6118 srgb } def
290.78 177.77 9.69 2.85 r p3
/bg { 0.9373 0.9529 1 srgb } def
302.70 157.99 9.69 9.27 r p3
/bg { 0.7412 0.8431 0.9059 srgb } def
302.70 167.26 9.69 5.52 r p3
/bg { 0.4196 0.6824 0.8392 srgb } def
302.70 172.78 9.69 4.23 r p3
/bg { 0.1922 0.5098 0.7412 srgb } def
302.70 177.01 9.69 3.31 r p3
/bg { 0.0314 0.3176 0.6118 srgb } def
302.70 180.32 9.69 2.43 r p3
/bg { 0.9373 0.9529 1 srgb } def
314.24 157.99 9.69 10.88 r p3
/bg { 0.7412 0.8431 0.9059 srgb } def
314.24 168.86 9.69 4.88 r p3
/bg { 0.4196 0.6824 0.8392 srgb } def
314.24 173.74 9.69 3.99 r p3
/bg { 0.1922 0.5098 0.7412 srgb } def
314.24 177.73 9.69 2.77 r p3
/bg { 0.0314 0.3176 0.6118 srgb } def
314.24 180.50 9.69 2.17 r p3
/bg { 0.9373 0.9529 1 srgb } def
326.17 157.99 9.69 11.94 r p3
/bg { 0.7412 0.8431 0.9059 srgb } def
326.17 169.93 9.69 6.20 r p3
/bg { 0.4196 0.6824 0.8392 srgb } def
326.17 176.13 9.69 5.78 r p3
/bg { 0.1922 0.5098 0.7412 srgb } def
326.17 181.91 9.69 4.39 r p3
/bg { 0.0314 0.3176 0.6118 srgb } def
326.17 186.30 9.69 2.85 r p3
/bg { 0.9373 0.9529 1 srgb } def
337.71 157.99 9.69 10.11 r p3
/bg { 0.7412 0.8431 0.9059 srgb } def
337.71 168.10 9.69 9.55 r p3
/bg { 0.4196 0.6824 0.8392 srgb } def
337.71 177.65 9.69 5.18 r p3
/bg { 0.1922 0.5098 0.7412 srgb } def
337.71 182.83 9.69 5.18 r p3
/bg { 0.0314 0.3176 0.6118 srgb } def
337.71 188.01 9.69 1.93 r p3
/bg { 0.9373 0.9529 1 srgb } def
349.64 157.99 9.69 38.97 r p3
/bg { 0.7412 0.8431 0.9059 srgb } def
349.64 196.96 9.69 8.71 r p3
/bg { 0.4196 0.6824 0.8392 srgb } def
349.64 205.66 9.69 6.96 r p3
/bg { 0.1922 0.5098 0.7412 srgb } def
349.64 212.63 9.69 3.41 r p3
/bg { 0.0314 0.3176 0.6118 srgb } def
349.64 216.04 9.69 2.95 r p3
/bg { 0.9373 0.9529 1 srgb } def
361.56 157.99 9.69 19.34 r p3
/bg { 0.7412 0.8431 0.9059 srgb } def
361.56 177.33 9.69 7.04 r p3
/bg { 0.4196 0.6824 0.8392 srgb } def
361.56 184.37 9.69 5.88 r p3
/bg { 0.1922 0.5098 0.7412 srgb } def
361.56 190.25 9.69 5.06 r p3
/bg { 0.0314 0.3176 0.6118 srgb } def
361.56 195.31 9.69 1.87 r p3
/bg { 0.9373 0.9529 1 srgb } def
372.33 157.99 9.69 23.08 r p3
/bg { 0.7412 0.8431 0.9059 srgb } def
372.33 181.06 9.69 8.63 r p3
/bg { 0.4196 0.6824 0.8392 srgb } def
372.33 189.69 9.69 5.12 r p3
/bg { 0.1922 0.5098 0.7412 srgb } def
372.33 194.81 9.69 3.95 r p3
/bg { 0.0314 0.3176 0.6118 srgb } def
372.33 198.76 9.69 0.94 r p3
/bg { 0.9373 0.9529 1 srgb } def
384.26 157.99 9.69 24.68 r p3
/bg { 0.7412 0.8431 0.9059 srgb } def
384.26 182.67 9.69 9.25 r p3
/bg { 0.4196 0.6824 0.8392 srgb } def
384.26 191.92 9.69 4.64 r p3
/bg { 0.1922 0.5098 0.7412 srgb } def
384.26 196.55 9.69 2.75 r p3
/bg { 0.0314 0.3176 0.6118 srgb } def
384.26 199.30 9.69 0.14 r p3
/bg { 0.9373 0.9529 1 srgb } def
395.80 157.99 9.69 24.70 r p3
/bg { 0.7412 0.8431 0.9059 srgb } def
395.80 182.69 9.69 9.25 r p3
/bg { 0.4196 0.6824 0.8392 srgb } def
395.80 191.94 9.69 6.32 r p3
/bg { 0.1922 0.5098 0.7412 srgb } def
395.80 198.26 9.69 1.55 r p3
/bg { 0.0314 0.3176 0.6118 srgb } def
395.80 199.80 9.69 1.44 r p3
/bg { 0.9373 0.9529 1 srgb } def
407.72 157.99 9.69 27.59 r p3
/bg { 0.7412 0.8431 0.9059 srgb } def
407.72 185.58 9.69 9.39 r p3
/bg { 0.4196 0.6824 0.8392 srgb } def
407.72 194.97 9.69 5.26 r p3
/bg { 0.1922 0.5098 0.7412 srgb } def
407.72 200.23 9.69 3.69 r p3
/bg { 0.0314 0.3176 0.6118 srgb } def
407.72 203.92 9.69 3.65 r p3
/bg { 0.9373 0.9529 1 srgb } def
419.26 157.99 9.69 27.73 r p3
/bg { 0.7412 0.8431 0.9059 srgb } def
419.26 185.72 9.69 9.15 r p3
/bg { 0.4196 0.6824 0.8392 srgb } def
419.26 194.87 9.69 6.94 r p3
/bg { 0.1922 0.5098 0.7412 srgb } def
419.26 201.81 9.69 6.88 r p3
/bg { 0.0314 0.3176 0.6118 srgb } def
419.26 208.69 9.69 1.18 r p3
/bg { 0.9373 0.9529 1 srgb } def
431.19 157.99 9.69 28.05 r p3
/bg { 0.7412 0.8431 0.9059 srgb } def
431.19 186.04 9.69 9.05 r p3
/bg { 0.4196 0.6824 0.8392 srgb } def
431.19 195.09 9.69 8.65 r p3
/bg { 0.1922 0.5098 0.7412 srgb } def
431.19 203.74 9.69 3.17 r p3
/bg { 0.0314 0.3176 0.6118 srgb } def
431.19 206.91 9.69 0.16 r p3
/bg { 0.9373 0.9529 1 srgb } def
443.12 157.99 9.69 29.74 r p3
/bg { 0.7412 0.8431 0.9059 srgb } def
443.12 187.72 9.69 8.43 r p3
/bg { 0.4196 0.6824 0.8392 srgb } def
443.12 196.15 9.69 6.46 r p3
/bg { 0.1922 0.5098 0.7412 srgb } def
443.12 202.61 9.69 1.61 r p3
/bg { 0.0314 0.3176 0.6118 srgb } def
443.12 204.22 9.69 1.10 r p3
/bg { 0.9373 0.9529 1 srgb } def
454.66 157.99 9.69 33.35 r p3
/bg { 0.7412 0.8431 0.9059 srgb } def
454.66 191.34 9.69 8.83 r p3
/bg { 0.4196 0.6824 0.8392 srgb } def
454.66 200.17 9.69 4.82 r p3
/bg { 0.1922 0.5098 0.7412 srgb } def
454.66 204.98 9.69 3.17 r p3
/bg { 0.0314 0.3176 0.6118 srgb } def
454.66 208.15 9.69 0.14 r p3
/bg { 0.9373 0.9529 1 srgb } def
466.58 157.99 9.69 52.55 r p3
/bg { 0.7412 0.8431 0.9059 srgb } def
466.58 210.54 9.69 12.10 r p3
/bg { 0.4196 0.6824 0.8392 srgb } def
466.58 222.64 9.69 10.43 r p3
/bg { 0.1922 0.5098 0.7412 srgb } def
466.58 233.07 9.69 3.25 r p3
/bg { 0.0314 0.3176 0.6118 srgb } def
466.58 236.32 9.69 2.45 r p3
/bg { 0.9373 0.9529 1 srgb } def
478.12 157.99 9.69 36.74 r p3
/bg { 0.7412 0.8431 0.9059 srgb } def
478.12 194.73 9.69 12.14 r p3
/bg { 0.4196 0.6824 0.8392 srgb } def
478.12 206.87 9.69 9.03 r p3
/bg { 0.1922 0.5098 0.7412 srgb } def
478.12 215.90 9.69 0.52 r p3
/bg { 0.0314 0.3176 0.6118 srgb } def
478.12 216.42 9.69 0.12 r p3
/bg { 0.9373 0.9529 1 srgb } def
490.05 157.99 9.69 35.78 r p3
/bg { 0.7412 0.8431 0.9059 srgb } def
490.05 193.76 9.69 11.52 r p3
/bg { 0.4196 0.6824 0.8392 srgb } def
490.05 205.28 9.69 6.28 r p3
/bg { 0.1922 0.5098 0.7412 srgb } def
490.05 211.56 9.69 4.70 r p3
/bg { 0.0314 0.3176 0.6118 srgb } def
490.05 216.26 9.69 1.85 r p3
/bg { 0.9373 0.9529 1 srgb } def
501.97 157.99 9.69 38.57 r p3
/bg { 0.7412 0.8431 0.9059 srgb } def
501.97 196.55 9.69 10.78 r p3
/bg { 0.4196 0.6824 0.8392 srgb } def
501.97 207.33 9.69 5.66 r p3
/bg { 0.1922 0.5098 0.7412 srgb } def
501.97 212.99 9.69 2.65 r p3
/bg { 0.0314 0.3176 0.6118 srgb } def
501.97 215.64 9.69 0.32 r p3
/bg { 0.9373 0.9529 1 srgb } def
513.13 157.99 9.69 7.54 r p3
/bg { 0.7412 0.8431 0.9059 srgb } def
513.13 165.53 9.69 4.37 r p3
/bg { 0.4196 0.6824 0.8392 srgb } def
513.13 169.91 9.69 2.59 r p3
/bg { 0.1922 0.5098 0.7412 srgb } def
513.13 172.49 9.69 1.40 r p3
/bg { 0.0314 0.3176 0.6118 srgb } def
513.13 173.90 9.69 0.38 r p3
/bg { 0.9373 0.9529 1 srgb } def
525.05 157.99 9.69 37.84 r p3
/bg { 0.7412 0.8431 0.9059 srgb } def
525.05 195.83 9.69 11.32 r p3
/bg { 0.4196 0.6824 0.8392 srgb } def
525.05 207.15 9.69 7.54 r p3
/bg { 0.1922 0.5098 0.7412 srgb } def
525.05 214.69 9.69 3.95 r p3
/bg { 0.0314 0.3176 0.6118 srgb } def
525.05 218.65 9.69 0.26 r p3
/bg { 0.9373 0.9529 1 srgb } def
536.59 157.99 9.69 39.63 r p3
/bg { 0.7412 0.8431 0.9059 srgb } def
536.59 197.62 9.69 12.96 r p3
/bg { 0.4196 0.6824 0.8392 srgb } def
536.59 210.58 9.69 11.48 r p3
/bg { 0.1922 0.5098 0.7412 srgb } def
536.59 222.06 9.69 1.69 r p3
/bg { 0.0314 0.3176 0.6118 srgb } def
536.59 223.74 9.69 0.66 r p3
0.4980 0.4980 0.4980 srgb
1 setlinecap
44.94 153.70 525.22 94.34 r p1
0.00 0.00 595.28 354.33 cl
44.94 53.38 570.16 147.72 cl
/bg { 1 1 1 srgb } def
44.94 53.38 525.22 94.34 r p2
0.9804 0.9804 0.9804 srgb
1.07 setlinewidth
[] 0 setdash
0 setlinecap
1 setlinejoin
10.00 setmiterlimit
np
44.94 71.33 m
525.22 0 l
o
np
44.94 98.65 m
525.22 0 l
o
np
44.94 125.96 m
525.22 0 l
o
np
55.96 53.38 m
0 94.34 l
o
np
67.70 53.38 m
0 94.34 l
o
np
79.62 53.38 m
0 94.34 l
o
np
90.97 53.38 m
0 94.34 l
o
np
102.32 53.38 m
0 94.34 l
o
np
114.05 53.38 m
0 94.34 l
o
np
125.78 53.38 m
0 94.34 l
o
np
137.52 53.38 m
0 94.34 l
o
np
149.25 53.38 m
0 94.34 l
o
np
161.18 53.38 m
0 94.34 l
o
np
172.91 53.38 m
0 94.34 l
o
np
184.64 53.38 m
0 94.34 l
o
np
196.38 53.38 m
0 94.34 l
o
np
208.11 53.38 m
0 94.34 l
o
np
220.03 53.38 m
0 94.34 l
o
np
231.38 53.38 m
0 94.34 l
o
np
242.73 53.38 m
0 94.34 l
o
np
254.46 53.38 m
0 94.34 l
o
np
266.20 53.38 m
0 94.34 l
o
np
277.93 53.38 m
0 94.34 l
o
np
289.66 53.38 m
0 94.34 l
o
np
301.59 53.38 m
0 94.34 l
o
np
313.32 53.38 m
0 94.34 l
o
np
325.05 53.38 m
0 94.34 l
o
np
336.79 53.38 m
0 94.34 l
o
np
348.52 53.38 m
0 94.34 l
o
np
360.45 53.38 m
0 94.34 l
o
np
371.79 53.38 m
0 94.34 l
o
np
383.14 53.38 m
0 94.34 l
o
np
394.88 53.38 m
0 94.34 l
o
np
406.61 53.38 m
0 94.34 l
o
np
418.34 53.38 m
0 94.34 l
o
np
430.07 53.38 m
0 94.34 l
o
np
442.00 53.38 m
0 94.34 l
o
np
453.73 53.38 m
0 94.34 l
o
np
465.47 53.38 m
0 94.34 l
o
np
477.20 53.38 m
0 94.34 l
o
np
488.93 53.38 m
0 94.34 l
o
np
500.86 53.38 m
0 94.34 l
o
np
512.40 53.38 m
0 94.34 l
o
np
523.94 53.38 m
0 94.34 l
o
np
535.67 53.38 m
0 94.34 l
o
np
547.40 53.38 m
0 94.34 l
o
np
559.14 53.38 m
0 94.34 l
o
0.8980 0.8980 0.8980 srgb
0.43 setlinewidth
[] 0 setdash
np
44.94 57.67 m
525.22 0 l
o
np
44.94 84.99 m
525.22 0 l
o
np
44.94 112.31 m
525.22 0 l
o
np
44.94 139.62 m
525.22 0 l
o
np
50.19 53.38 m
0 94.34 l
o
np
61.73 53.38 m
0 94.34 l
o
np
73.66 53.38 m
0 94.34 l
o
np
85.58 53.38 m
0 94.34 l
o
np
96.36 53.38 m
0 94.34 l
o
np
108.28 53.38 m
0 94.34 l
o
np
119.82 53.38 m
0 94.34 l
o
np
131.75 53.38 m
0 94.34 l
o
np
143.29 53.38 m
0 94.34 l
o
np
155.21 53.38 m
0 94.34 l
o
np
167.14 53.38 m
0 94.34 l
o
np
178.68 53.38 m
0 94.34 l
o
np
190.61 53.38 m
0 94.34 l
o
np
202.15 53.38 m
0 94.34 l
o
np
214.07 53.38 m
0 94.34 l
o
np
226.00 53.38 m
0 94.34 l
o
np
236.77 53.38 m
0 94.34 l
o
np
248.69 53.38 m
0 94.34 l
o
np
260.23 53.38 m
0 94.34 l
o
np
272.16 53.38 m
0 94.34 l
o
np
283.70 53.38 m
0 94.34 l
o
np
295.63 53.38 m
0 94.34 l
o
np
307.55 53.38 m
0 94.34 l
o
np
319.09 53.38 m
0 94.34 l
o
np
331.02 53.38 m
0 94.34 l
o
np
342.56 53.38 m
0 94.34 l
o
np
354.48 53.38 m
0 94.34 l
o
np
366.41 53.38 m
0 94.34 l
o
np
377.18 53.38 m
0 94.34 l
o
np
389.10 53.38 m
0 94.34 l
o
np
400.65 53.38 m
0 94.34 l
o
np
412.57 53.38 m
0 94.34 l
o
np
424.11 53.38 m
0 94.34 l
o
np
436.04 53.38 m
0 94.34 l
o
np
447.96 53.38 m
0 94.34 l
o
np
459.50 53.38 m
0 94.34 l
o
np
471.43 53.38 m
0 94.34 l
o
np
482.97 53.38 m
0 94.34 l
o
np
494.89 53.38 m
0 94.34 l
o
np
506.82 53.38 m
0 94.34 l
o
np
517.98 53.38 m
0 94.34 l
o
np
529.90 53.38 m
0 94.34 l
o
np
541.44 53.38 m
0 94.34 l
o
np
553.37 53.38 m
0 94.34 l
o
np
564.91 53.38 m
0 94.34 l
o
/bg { 0 0 0 srgb } def
0 0 0 srgb
0.71 setlinewidth
[] 0 setdash
1 setlinecap
283.70 130.29 1.95 c p3
295.63 143.43 1.95 c p3
331.02 142.38 1.95 c p3
307.55 128.85 1.95 c p3
319.09 134.42 1.95 c p3
366.41 118.96 1.95 c p3
283.70 130.29 1.95 c p3
331.02 142.38 1.95 c p3
319.09 134.42 1.95 c p3
295.63 143.43 1.95 c p3
342.56 113.77 1.95 c p3
377.18 106.32 1.95 c p3
354.48 101.80 1.95 c p3
377.18 106.32 1.95 c p3
424.11 97.69 1.95 c p3
424.11 97.69 1.95 c p3
307.55 128.85 1.95 c p3
389.10 96.19 1.95 c p3
331.02 142.38 1.95 c p3
400.65 95.03 1.95 c p3
366.41 118.96 1.95 c p3
307.55 128.85 1.95 c p3
342.56 113.77 1.95 c p3
436.04 91.35 1.95 c p3
354.48 101.80 1.95 c p3
389.10 96.19 1.95 c p3
447.96 82.07 1.95 c p3
366.41 118.96 1.95 c p3
412.57 92.56 1.95 c p3
342.56 113.77 1.95 c p3
436.04 91.35 1.95 c p3
400.65 95.03 1.95 c p3
459.50 82.27 1.95 c p3
412.57 92.56 1.95 c p3
366.41 118.96 1.95 c p3
436.04 91.35 1.95 c p3
354.48 101.80 1.95 c p3
494.89 75.67 1.95 c p3
377.18 106.32 1.95 c p3
424.11 97.69 1.95 c p3
319.09 134.42 1.95 c p3
400.65 95.03 1.95 c p3
412.57 92.56 1.95 c p3
377.18 106.32 1.95 c p3
307.55 128.85 1.95 c p3
459.50 82.27 1.95 c p3
295.63 143.43 1.95 c p3
307.55 128.85 1.95 c p3
529.90 75.45 1.95 c p3
342.56 113.77 1.95 c p3
319.09 134.42 1.95 c p3
319.09 134.42 1.95 c p3
412.57 92.56 1.95 c p3
295.63 143.43 1.95 c p3
447.96 82.07 1.95 c p3
506.82 73.27 1.95 c p3
529.90 75.45 1.95 c p3
295.63 143.43 1.95 c p3
389.10 96.19 1.95 c p3
272.16 68.00 1.95 c p3
541.44 74.81 1.95 c p3
471.43 76.04 1.95 c p3
342.56 113.77 1.95 c p3
272.16 68.00 1.95 c p3
412.57 92.56 1.95 c p3
424.11 97.69 1.95 c p3
494.89 75.67 1.95 c p3
400.65 95.03 1.95 c p3
471.43 76.04 1.95 c p3
366.41 118.96 1.95 c p3
541.44 74.81 1.95 c p3
389.10 96.19 1.95 c p3
494.89 75.67 1.95 c p3
447.96 82.07 1.95 c p3
354.48 101.80 1.95 c p3
506.82 73.27 1.95 c p3
529.90 75.45 1.95 c p3
331.02 142.38 1.95 c p3
459.50 82.27 1.95 c p3
331.02 142.38 1.95 c p3
389.10 96.19 1.95 c p3
471.43 76.04 1.95 c p3
506.82 73.27 1.95 c p3
354.48 101.80 1.95 c p3
283.70 130.29 1.95 c p3
541.44 74.81 1.95 c p3
400.65 95.03 1.95 c p3
447.96 82.07 1.95 c p3
506.82 73.27 1.95 c p3
459.50 82.27 1.95 c p3
283.70 130.29 1.95 c p3
436.04 91.35 1.95 c p3
529.90 75.45 1.95 c p3
459.50 82.27 1.95 c p3
541.44 74.81 1.95 c p3
471.43 76.04 1.95 c p3
517.98 63.37 1.95 c p3
436.04 91.35 1.95 c p3
424.11 97.69 1.95 c p3
541.44 74.81 1.95 c p3
471.43 76.04 1.95 c p3
377.18 106.32 1.95 c p3
517.98 63.37 1.95 c p3
529.90 75.45 1.95 c p3
447.96 82.07 1.95 c p3
517.98 63.37 1.95 c p3
517.98 63.37 1.95 c p3
517.98 63.37 1.95 c p3
494.89 75.67 1.95 c p3
506.82 73.27 1.95 c p3
494.89 75.67 1.95 c p3
283.70 130.29 1.95 c p3
260.23 57.77 1.95 c p3
272.16 68.00 1.95 c p3
272.16 68.00 1.95 c p3
248.69 57.68 1.95 c p3
260.23 57.77 1.95 c p3
272.16 68.00 1.95 c p3
482.97 58.03 1.95 c p3
482.97 58.03 1.95 c p3
482.97 58.03 1.95 c p3
482.97 58.03 1.95 c p3
482.97 58.03 1.95 c p3
1.07 setlinewidth
[ 1.07 3.20] 0 setdash
0 setlinecap
1.00 setmiterlimit
np
248.69 57.68 m
11.54 0.09 l
0 0 l
11.93 10.23 l
0 0 l
0 0 l
0 0 l
0 0 l
11.54 62.29 l
0 0 l
0 0 l
0 0 l
0 0 l
11.93 13.14 l
0 0 l
0 0 l
0 0 l
0 0 l
11.92 -14.58 l
0 0 l
0 0 l
0 0 l
0 0 l
11.54 5.57 l
0 0 l
0 0 l
0 0 l
0 0 l
11.93 7.96 l
0 0 l
0 0 l
0 0 l
0 0 l
11.54 -28.61 l
0 0 l
0 0 l
0 0 l
0 0 l
11.92 -11.97 l
0 0 l
0 0 l
0 0 l
0 0 l
11.93 17.16 l
0 0 l
0 0 l
0 0 l
0 0 l
10.77 -12.64 l
0 0 l
0 0 l
0 0 l
0 0 l
11.92 -10.13 l
0 0 l
0 0 l
0 0 l
0 0 l
11.55 -1.16 l
0 0 l
0 0 l
0 0 l
0 0 l
11.92 -2.47 l
0 0 l
0 0 l
0 0 l
0 0 l
11.54 5.13 l
0 0 l
0 0 l
0 0 l
0 0 l
11.93 -6.34 l
0 0 l
0 0 l
0 0 l
0 0 l
11.92 -9.28 l
0 0 l
0 0 l
0 0 l
0 0 l
11.54 0.20 l
0 0 l
0 0 l
0 0 l
0 0 l
11.93 -6.23 l
0 0 l
0 0 l
0 0 l
0 0 l
11.54 -18.01 l
0 0 l
0 0 l
0 0 l
0 0 l
11.92 17.64 l
0 0 l
494.89 75.67 lineto
0 0 l
0 0 l
11.93 -2.40 l
0 0 l
0 0 l
0 0 l
0 0 l
11.16 -9.90 l
0 0 l
0 0 l
0 0 l
0 0 l
11.92 12.08 l
0 0 l
0 0 l
0 0 l
0 0 l
11.54 -0.64 l
0 0 l
0 0 l
0 0 l
0 0 l
o
/bg { 0.9373 0.9529 1 srgb } def
1.07 setlinewidth
[] 0 setdash
10.00 setmiterlimit
243.85 57.67 9.69 0.01 r p3
255.39 57.67 9.69 0.08 r p3
/bg { 0.7412 0.8431 0.9059 srgb } def
255.39 57.75 9.69 0.01 r p3
/bg { 0.9373 0.9529 1 srgb } def
267.31 57.67 9.69 5.14 r p3
/bg { 0.7412 0.8431 0.9059 srgb } def
267.31 62.81 9.69 4.93 r p3
/bg { 0.4196 0.6824 0.8392 srgb } def
267.31 67.74 9.69 0.07 r p3
/bg { 0.1922 0.5098 0.7412 srgb } def
267.31 67.81 9.69 0.03 r p3
/bg { 0.0314 0.3176 0.6118 srgb } def
267.31 67.83 9.69 0.01 r p3
/bg { 0.9373 0.9529 1 srgb } def
278.85 57.67 9.69 43.20 r p3
/bg { 0.7412 0.8431 0.9059 srgb } def
278.85 100.87 9.69 23.22 r p3
/bg { 0.4196 0.6824 0.8392 srgb } def
278.85 124.09 9.69 3.14 r p3
/bg { 0.1922 0.5098 0.7412 srgb } def
278.85 127.23 9.69 2.04 r p3
/bg { 0.0314 0.3176 0.6118 srgb } def
278.85 129.27 9.69 0.12 r p3
/bg { 0.9373 0.9529 1 srgb } def
290.78 57.67 9.69 40.48 r p3
/bg { 0.7412 0.8431 0.9059 srgb } def
290.78 98.16 9.69 17.84 r p3
/bg { 0.4196 0.6824 0.8392 srgb } def
290.78 115.99 9.69 6.20 r p3
/bg { 0.1922 0.5098 0.7412 srgb } def
290.78 122.19 9.69 5.40 r p3
/bg { 0.0314 0.3176 0.6118 srgb } def
290.78 127.59 9.69 5.23 r p3
/bg { 0.9373 0.9529 1 srgb } def
302.70 57.67 9.69 29.30 r p3
/bg { 0.7412 0.8431 0.9059 srgb } def
302.70 86.97 9.69 12.42 r p3
/bg { 0.4196 0.6824 0.8392 srgb } def
302.70 99.38 9.69 11.04 r p3
/bg { 0.1922 0.5098 0.7412 srgb } def
302.70 110.42 9.69 6.41 r p3
/bg { 0.0314 0.3176 0.6118 srgb } def
302.70 116.83 9.69 5.87 r p3
/bg { 0.9373 0.9529 1 srgb } def
314.24 57.67 9.69 27.00 r p3
/bg { 0.7412 0.8431 0.9059 srgb } def
314.24 84.67 9.69 18.47 r p3
/bg { 0.4196 0.6824 0.8392 srgb } def
314.24 103.14 9.69 6.97 r p3
/bg { 0.1922 0.5098 0.7412 srgb } def
314.24 110.11 9.69 5.48 r p3
/bg { 0.0314 0.3176 0.6118 srgb } def
314.24 115.58 9.69 5.45 r p3
/bg { 0.9373 0.9529 1 srgb } def
326.17 57.67 9.69 39.81 r p3
/bg { 0.7412 0.8431 0.9059 srgb } def
326.17 97.49 9.69 20.06 r p3
/bg { 0.4196 0.6824 0.8392 srgb } def
326.17 117.55 9.69 11.84 r p3
/bg { 0.1922 0.5098 0.7412 srgb } def
326.17 129.39 9.69 3.82 r p3
/bg { 0.0314 0.3176 0.6118 srgb } def
326.17 133.22 9.69 3.61 r p3
/bg { 0.9373 0.9529 1 srgb } def
337.71 57.67 9.69 17.74 r p3
/bg { 0.7412 0.8431 0.9059 srgb } def
337.71 75.41 9.69 11.02 r p3
/bg { 0.4196 0.6824 0.8392 srgb } def
337.71 86.44 9.69 9.06 r p3
/bg { 0.1922 0.5098 0.7412 srgb } def
337.71 95.49 9.69 5.57 r p3
/bg { 0.0314 0.3176 0.6118 srgb } def
337.71 101.06 9.69 5.03 r p3
/bg { 0.9373 0.9529 1 srgb } def
349.64 57.67 9.69 15.39 r p3
/bg { 0.7412 0.8431 0.9059 srgb } def
349.64 73.06 9.69 9.59 r p3
/bg { 0.4196 0.6824 0.8392 srgb } def
349.64 82.65 9.69 7.36 r p3
/bg { 0.1922 0.5098 0.7412 srgb } def
349.64 90.01 9.69 4.18 r p3
/bg { 0.0314 0.3176 0.6118 srgb } def
349.64 94.19 9.69 3.28 r p3
/bg { 0.9373 0.9529 1 srgb } def
361.56 57.67 9.69 26.06 r p3
/bg { 0.7412 0.8431 0.9059 srgb } def
361.56 83.73 9.69 11.32 r p3
/bg { 0.4196 0.6824 0.8392 srgb } def
361.56 95.05 9.69 9.25 r p3
/bg { 0.1922 0.5098 0.7412 srgb } def
361.56 104.30 9.69 7.51 r p3
/bg { 0.0314 0.3176 0.6118 srgb } def
361.56 111.81 9.69 4.53 r p3
/bg { 0.9373 0.9529 1 srgb } def
372.33 57.67 9.69 16.43 r p3
/bg { 0.7412 0.8431 0.9059 srgb } def
372.33 74.10 9.69 14.92 r p3
/bg { 0.4196 0.6824 0.8392 srgb } def
372.33 89.02 9.69 7.21 r p3
/bg { 0.1922 0.5098 0.7412 srgb } def
372.33 96.23 9.69 6.53 r p3
/bg { 0.0314 0.3176 0.6118 srgb } def
372.33 102.76 9.69 1.24 r p3
/bg { 0.9373 0.9529 1 srgb } def
384.26 57.67 9.69 11.94 r p3
/bg { 0.7412 0.8431 0.9059 srgb } def
384.26 69.61 9.69 9.49 r p3
/bg { 0.4196 0.6824 0.8392 srgb } def
384.26 79.10 9.69 5.22 r p3
/bg { 0.1922 0.5098 0.7412 srgb } def
384.26 84.32 9.69 4.48 r p3
/bg { 0.0314 0.3176 0.6118 srgb } def
384.26 88.80 9.69 3.56 r p3
/bg { 0.9373 0.9529 1 srgb } def
395.80 57.67 9.69 11.35 r p3
/bg { 0.7412 0.8431 0.9059 srgb } def
395.80 69.02 9.69 8.14 r p3
/bg { 0.4196 0.6824 0.8392 srgb } def
395.80 77.16 9.69 6.62 r p3
/bg { 0.1922 0.5098 0.7412 srgb } def
395.80 83.79 9.69 4.56 r p3
/bg { 0.0314 0.3176 0.6118 srgb } def
395.80 88.35 9.69 2.68 r p3
/bg { 0.9373 0.9529 1 srgb } def
407.72 57.67 9.69 9.25 r p3
/bg { 0.7412 0.8431 0.9059 srgb } def
407.72 66.92 9.69 8.03 r p3
/bg { 0.4196 0.6824 0.8392 srgb } def
407.72 74.95 9.69 6.54 r p3
/bg { 0.1922 0.5098 0.7412 srgb } def
407.72 81.49 9.69 5.41 r p3
/bg { 0.0314 0.3176 0.6118 srgb } def
407.72 86.90 9.69 4.85 r p3
/bg { 0.9373 0.9529 1 srgb } def
419.26 57.67 9.69 12.69 r p3
/bg { 0.7412 0.8431 0.9059 srgb } def
419.26 70.36 9.69 12.55 r p3
/bg { 0.4196 0.6824 0.8392 srgb } def
419.26 82.91 9.69 7.09 r p3
/bg { 0.1922 0.5098 0.7412 srgb } def
419.26 90.00 9.69 4.75 r p3
/bg { 0.0314 0.3176 0.6118 srgb } def
419.26 94.75 9.69 1.34 r p3
/bg { 0.9373 0.9529 1 srgb } def
431.19 57.67 9.69 9.96 r p3
/bg { 0.7412 0.8431 0.9059 srgb } def
431.19 67.63 9.69 8.18 r p3
/bg { 0.4196 0.6824 0.8392 srgb } def
431.19 75.81 9.69 7.51 r p3
/bg { 0.1922 0.5098 0.7412 srgb } def
431.19 83.32 9.69 1.98 r p3
/bg { 0.0314 0.3176 0.6118 srgb } def
431.19 85.30 9.69 1.46 r p3
/bg { 0.9373 0.9529 1 srgb } def
443.12 57.67 9.69 9.30 r p3
/bg { 0.7412 0.8431 0.9059 srgb } def
443.12 66.97 9.69 5.35 r p3
/bg { 0.4196 0.6824 0.8392 srgb } def
443.12 72.33 9.69 4.32 r p3
/bg { 0.1922 0.5098 0.7412 srgb } def
443.12 76.64 9.69 2.39 r p3
/bg { 0.0314 0.3176 0.6118 srgb } def
443.12 79.03 9.69 0.90 r p3
/bg { 0.9373 0.9529 1 srgb } def
454.66 57.67 9.69 8.10 r p3
/bg { 0.7412 0.8431 0.9059 srgb } def
454.66 65.77 9.69 6.24 r p3
/bg { 0.4196 0.6824 0.8392 srgb } def
454.66 72.01 9.69 3.63 r p3
/bg { 0.1922 0.5098 0.7412 srgb } def
454.66 75.65 9.69 2.16 r p3
/bg { 0.0314 0.3176 0.6118 srgb } def
454.66 77.80 9.69 1.95 r p3
/bg { 0.9373 0.9529 1 srgb } def
466.58 57.67 9.69 5.12 r p3
/bg { 0.7412 0.8431 0.9059 srgb } def
466.58 62.79 9.69 4.56 r p3
/bg { 0.4196 0.6824 0.8392 srgb } def
466.58 67.36 9.69 3.41 r p3
/bg { 0.1922 0.5098 0.7412 srgb } def
466.58 70.77 9.69 1.87 r p3
/bg { 0.0314 0.3176 0.6118 srgb } def
466.58 72.64 9.69 1.26 r p3
/bg { 0.9373 0.9529 1 srgb } def
478.12 57.67 9.69 0.01 r p3
/bg { 0.7412 0.8431 0.9059 srgb } def
478.12 57.68 9.69 0.01 r p3
/bg { 0.4196 0.6824 0.8392 srgb } def
478.12 57.70 9.69 0.01 r p3
/bg { 0.1922 0.5098 0.7412 srgb } def
478.12 57.71 9.69 0.01 r p3
/bg { 0.0314 0.3176 0.6118 srgb } def
478.12 57.73 9.69 0.01 r p3
/bg { 0.9373 0.9529 1 srgb } def
490.05 57.67 9.69 7.25 r p3
/bg { 0.7412 0.8431 0.9059 srgb } def
490.05 64.92 9.69 4.59 r p3
/bg { 0.4196 0.6824 0.8392 srgb } def
490.05 69.51 9.69 4.47 r p3
/bg { 0.1922 0.5098 0.7412 srgb } def
490.05 73.98 9.69 0.56 r p3
/bg { 0.0314 0.3176 0.6118 srgb } def
490.05 74.54 9.69 0.52 r p3
/bg { 0.9373 0.9529 1 srgb } def
501.97 57.67 9.69 5.26 r p3
/bg { 0.7412 0.8431 0.9059 srgb } def
501.97 62.93 9.69 3.96 r p3
/bg { 0.4196 0.6824 0.8392 srgb } def
501.97 66.89 9.69 3.39 r p3
/bg { 0.1922 0.5098 0.7412 srgb } def
501.97 70.28 9.69 2.17 r p3
/bg { 0.0314 0.3176 0.6118 srgb } def
501.97 72.45 9.69 0.55 r p3
/bg { 0.9373 0.9529 1 srgb } def
513.13 57.67 9.69 1.78 r p3
/bg { 0.7412 0.8431 0.9059 srgb } def
513.13 59.45 9.69 1.20 r p3
/bg { 0.4196 0.6824 0.8392 srgb } def
513.13 60.65 9.69 0.82 r p3
/bg { 0.1922 0.5098 0.7412 srgb } def
513.13 61.47 9.69 0.81 r p3
/bg { 0.0314 0.3176 0.6118 srgb } def
513.13 62.27 9.69 0.71 r p3
/bg { 0.9373 0.9529 1 srgb } def
525.05 57.67 9.69 5.60 r p3
/bg { 0.7412 0.8431 0.9059 srgb } def
525.05 63.27 9.69 5.26 r p3
/bg { 0.4196 0.6824 0.8392 srgb } def
525.05 68.53 9.69 3.87 r p3
/bg { 0.1922 0.5098 0.7412 srgb } def
525.05 72.40 9.69 1.98 r p3
/bg { 0.0314 0.3176 0.6118 srgb } def
525.05 74.38 9.69 0.92 r p3
/bg { 0.9373 0.9529 1 srgb } def
536.59 57.67 9.69 5.14 r p3
/bg { 0.7412 0.8431 0.9059 srgb } def
536.59 62.81 9.69 4.51 r p3
/bg { 0.4196 0.6824 0.8392 srgb } def
536.59 67.31 9.69 2.96 r p3
/bg { 0.1922 0.5098 0.7412 srgb } def
536.59 70.28 9.69 1.90 r p3
/bg { 0.0314 0.3176 0.6118 srgb } def
536.59 72.18 9.69 1.31 r p3
0.4980 0.4980 0.4980 srgb
1 setlinecap
44.94 53.38 525.22 94.34 r p1
0.00 0.00 595.28 354.33 cl
0.00 0.00 595.28 354.33 cl
0.00 0.00 595.28 354.33 cl
0.00 0.00 595.28 354.33 cl
0.00 0.00 595.28 354.33 cl
0.00 0.00 595.28 354.33 cl
/Font1 findfont 8 s
0 0 0 srgb
39.56 255.43 (0) 1 0 t
39.56 277.58 (500) 1 0 t
39.56 299.73 (1000) 1 0 t
39.56 321.88 (1500) 1 0 t
39.56 344.03 (2000) 1 0 t
0.00 0.00 595.28 354.33 cl
0.00 0.00 595.28 354.33 cl
0 0 0 srgb
1.07 setlinewidth
[] 0 setdash
0 setlinecap
1 setlinejoin
10.00 setmiterlimit
np
41.95 258.30 m
2.99 0 l
o
np
41.95 280.45 m
2.99 0 l
o
np
41.95 302.60 m
2.99 0 l
o
np
41.95 324.75 m
2.99 0 l
o
np
41.95 346.90 m
2.99 0 l
o
0.00 0.00 595.28 354.33 cl
0.00 0.00 595.28 354.33 cl
0.00 0.00 595.28 354.33 cl
0.00 0.00 595.28 354.33 cl
0.00 0.00 595.28 354.33 cl
0.00 0.00 595.28 354.33 cl
0.00 0.00 595.28 354.33 cl
0.00 0.00 595.28 354.33 cl
/Font1 findfont 8 s
0 0 0 srgb
39.56 155.12 (0) 1 0 t
39.56 175.18 (1000) 1 0 t
39.56 195.25 (2000) 1 0 t
39.56 215.31 (3000) 1 0 t
39.56 235.38 (4000) 1 0 t
0.00 0.00 595.28 354.33 cl
0.00 0.00 595.28 354.33 cl
0 0 0 srgb
1.07 setlinewidth
[] 0 setdash
0 setlinecap
1 setlinejoin
10.00 setmiterlimit
np
41.95 157.99 m
2.99 0 l
o
np
41.95 178.05 m
2.99 0 l
o
np
41.95 198.12 m
2.99 0 l
o
np
41.95 218.19 m
2.99 0 l
o
np
41.95 238.25 m
2.99 0 l
o
0.00 0.00 595.28 354.33 cl
0.00 0.00 595.28 354.33 cl
0.00 0.00 595.28 354.33 cl
0.00 0.00 595.28 354.33 cl
0.00 0.00 595.28 354.33 cl
0.00 0.00 595.28 354.33 cl
0.00 0.00 595.28 354.33 cl
0.00 0.00 595.28 354.33 cl
/Font1 findfont 8 s
0 0 0 srgb
39.56 54.80 (0) 1 0 t
39.56 82.12 (2000) 1 0 t
39.56 109.43 (4000) 1 0 t
39.56 136.75 (6000) 1 0 t
0.00 0.00 595.28 354.33 cl
0.00 0.00 595.28 354.33 cl
0 0 0 srgb
1.07 setlinewidth
[] 0 setdash
0 setlinecap
1 setlinejoin
10.00 setmiterlimit
np
41.95 57.67 m
2.99 0 l
o
np
41.95 84.99 m
2.99 0 l
o
np
41.95 112.31 m
2.99 0 l
o
np
41.95 139.62 m
2.99 0 l
o
0.00 0.00 595.28 354.33 cl
0.00 0.00 595.28 354.33 cl
0.00 0.00 595.28 354.33 cl
570.16 254.01 589.30 348.35 cl
/bg { 1 1 1 srgb } def
0.4980 0.4980 0.4980 srgb
0.43 setlinewidth
[] 0 setdash
1 setlinecap
1 setlinejoin
10.00 setmiterlimit
570.16 254.01 19.14 94.34 r p3
/Font1 findfont 10 s
0.1020 0.1020 0.1020 srgb
576.14 339.53 (MachineLear) -90.00 ta
0.250 (ning) tb gr
570.16 254.01 589.30 348.35 cl
0.00 0.00 595.28 354.33 cl
570.16 153.70 589.30 248.04 cl
/bg { 1 1 1 srgb } def
0.4980 0.4980 0.4980 srgb
0.43 setlinewidth
[] 0 setdash
1 setlinecap
1 setlinejoin
10.00 setmiterlimit
570.16 153.70 19.14 94.34 r p3
/Font1 findfont 10 s
0.1020 0.1020 0.1020 srgb
576.14 214.76 (fr) -90.00 ta
-0.100 (ance) tb gr
570.16 153.70 589.30 248.04 cl
0.00 0.00 595.28 354.33 cl
570.16 53.38 589.30 147.72 cl
/bg { 1 1 1 srgb } def
0.4980 0.4980 0.4980 srgb
0.43 setlinewidth
[] 0 setdash
1 setlinecap
1 setlinejoin
10.00 setmiterlimit
570.16 53.38 19.14 94.34 r p3
/Font1 findfont 10 s
0.1020 0.1020 0.1020 srgb
576.14 100.55 (podemos) .5 -90.00 t
570.16 53.38 589.30 147.72 cl
0.00 0.00 595.28 354.33 cl
0.00 0.00 595.28 354.33 cl
0.00 0.00 595.28 354.33 cl
0.00 0.00 595.28 354.33 cl
0.00 0.00 595.28 354.33 cl
0.00 0.00 595.28 354.33 cl
0 0 0 srgb
1.07 setlinewidth
[] 0 setdash
0 setlinecap
1 setlinejoin
10.00 setmiterlimit
np
50.19 50.39 m
0 2.99 l
o
np
61.73 50.39 m
0 2.99 l
o
np
73.66 50.39 m
0 2.99 l
o
np
85.58 50.39 m
0 2.99 l
o
np
96.36 50.39 m
0 2.99 l
o
np
108.28 50.39 m
0 2.99 l
o
np
119.82 50.39 m
0 2.99 l
o
np
131.75 50.39 m
0 2.99 l
o
np
143.29 50.39 m
0 2.99 l
o
np
155.21 50.39 m
0 2.99 l
o
np
167.14 50.39 m
0 2.99 l
o
np
178.68 50.39 m
0 2.99 l
o
np
190.61 50.39 m
0 2.99 l
o
np
202.15 50.39 m
0 2.99 l
o
np
214.07 50.39 m
0 2.99 l
o
np
226.00 50.39 m
0 2.99 l
o
np
236.77 50.39 m
0 2.99 l
o
np
248.69 50.39 m
0 2.99 l
o
np
260.23 50.39 m
0 2.99 l
o
np
272.16 50.39 m
0 2.99 l
o
np
283.70 50.39 m
0 2.99 l
o
np
295.63 50.39 m
0 2.99 l
o
np
307.55 50.39 m
0 2.99 l
o
np
319.09 50.39 m
0 2.99 l
o
np
331.02 50.39 m
0 2.99 l
o
np
342.56 50.39 m
0 2.99 l
o
np
354.48 50.39 m
0 2.99 l
o
np
366.41 50.39 m
0 2.99 l
o
np
377.18 50.39 m
0 2.99 l
o
np
389.10 50.39 m
0 2.99 l
o
np
400.65 50.39 m
0 2.99 l
o
np
412.57 50.39 m
0 2.99 l
o
np
424.11 50.39 m
0 2.99 l
o
np
436.04 50.39 m
0 2.99 l
o
np
447.96 50.39 m
0 2.99 l
o
np
459.50 50.39 m
0 2.99 l
o
np
471.43 50.39 m
0 2.99 l
o
np
482.97 50.39 m
0 2.99 l
o
np
494.89 50.39 m
0 2.99 l
o
np
506.82 50.39 m
0 2.99 l
o
np
517.98 50.39 m
0 2.99 l
o
np
529.90 50.39 m
0 2.99 l
o
np
541.44 50.39 m
0 2.99 l
o
np
553.37 50.39 m
0 2.99 l
o
np
564.91 50.39 m
0 2.99 l
o
0.00 0.00 595.28 354.33 cl
0.00 0.00 595.28 354.33 cl
/Font1 findfont 8 s
0 0 0 srgb
54.25 43.94 (2012-11) 1 45.00 t
65.80 43.94 (2012-12) 1 45.00 t
77.72 43.94 (2013-01) 1 45.00 t
89.65 43.94 (2013-02) 1 45.00 t
100.42 43.94 (2013-03) 1 45.00 t
112.34 43.94 (2013-04) 1 45.00 t
123.88 43.94 (2013-05) 1 45.00 t
135.81 43.94 (2013-06) 1 45.00 t
147.35 43.94 (2013-07) 1 45.00 t
159.28 43.94 (2013-08) 1 45.00 t
171.20 43.94 (2013-09) 1 45.00 t
182.74 43.94 (2013-10) 1 45.00 t
194.67 43.94 (2013-11) 1 45.00 t
206.21 43.94 (2013-12) 1 45.00 t
218.13 43.94 (2014-01) 1 45.00 t
230.06 43.94 (2014-02) 1 45.00 t
240.83 43.94 (2014-03) 1 45.00 t
252.75 43.94 (2014-04) 1 45.00 t
264.30 43.94 (2014-05) 1 45.00 t
276.22 43.94 (2014-06) 1 45.00 t
287.76 43.94 (2014-07) 1 45.00 t
299.69 43.94 (2014-08) 1 45.00 t
311.61 43.94 (2014-09) 1 45.00 t
323.15 43.94 (2014-10) 1 45.00 t
335.08 43.94 (2014-11) 1 45.00 t
346.62 43.94 (2014-12) 1 45.00 t
358.54 43.94 (2015-01) 1 45.00 t
370.47 43.94 (2015-02) 1 45.00 t
381.24 43.94 (2015-03) 1 45.00 t
393.17 43.94 (2015-04) 1 45.00 t
404.71 43.94 (2015-05) 1 45.00 t
416.63 43.94 (2015-06) 1 45.00 t
428.17 43.94 (2015-07) 1 45.00 t
440.10 43.94 (2015-08) 1 45.00 t
452.02 43.94 (2015-09) 1 45.00 t
463.56 43.94 (2015-10) 1 45.00 t
475.49 43.94 (2015-11) 1 45.00 t
487.03 43.94 (2015-12) 1 45.00 t
498.96 43.94 (2016-01) 1 45.00 t
510.88 43.94 (2016-02) 1 45.00 t
522.04 43.94 (2016-03) 1 45.00 t
533.96 43.94 (2016-04) 1 45.00 t
545.50 43.94 (2016-05) 1 45.00 t
557.43 43.94 (2016-06) 1 45.00 t
568.97 43.94 (2016-07) 1 45.00 t
0.00 0.00 595.28 354.33 cl
0.00 0.00 595.28 354.33 cl
0.00 0.00 595.28 354.33 cl
0.00 0.00 595.28 354.33 cl
/Font1 findfont 12 s
0 0 0 srgb
307.55 8.37 (date) .5 0 t
0.00 0.00 595.28 354.33 cl
0.00 0.00 595.28 354.33 cl
/Font1 findfont 12 s
0 0 0 srgb
16.98 200.87 (users) .5 90 t
0.00 0.00 595.28 354.33 cl
0.00 0.00 595.28 354.33 cl
0.00 0.00 595.28 354.33 cl
0.00 0.00 595.28 354.33 cl
ep
%%Trailer
%%Pages: 1
%%EOF
