%!PS-Adobe-3.0 EPSF-3.0
%%DocumentNeededResources: font Helvetica
%%+ font Helvetica-Bold
%%+ font Helvetica-Oblique
%%+ font Helvetica-BoldOblique
%%+ font Symbol
%%Title: R Graphics Output
%%Creator: R Software
%%Pages: (atend)
%%BoundingBox: 0 0 595 170
%%EndComments
%%BeginProlog
/bp  { gs sRGB gs } def
% begin .ps.prolog
/gs  { gsave } bind def
/gr  { grestore } bind def
/ep  { showpage gr gr } bind def
/m   { moveto } bind def
/l  { rlineto } bind def
/np  { newpath } bind def
/cp  { closepath } bind def
/f   { fill } bind def
/o   { stroke } bind def
/c   { newpath 0 360 arc } bind def
/r   { 4 2 roll moveto 1 copy 3 -1 roll exch 0 exch rlineto 0 rlineto -1 mul 0 exch rlineto closepath } bind def
/p1  { stroke } bind def
/p2  { gsave bg fill grestore newpath } bind def
/p3  { gsave bg fill grestore stroke } bind def
/p6  { gsave bg eofill grestore newpath } bind def
/p7  { gsave bg eofill grestore stroke } bind def
/t   { 5 -2 roll moveto gsave rotate
       1 index stringwidth pop
       mul neg 0 rmoveto show grestore } bind def
/ta  { 4 -2 roll moveto gsave rotate show } bind def
/tb  { 2 -1 roll 0 rmoveto show } bind def
/cl  { grestore gsave newpath 3 index 3 index moveto 1 index
       4 -1 roll lineto  exch 1 index lineto lineto
       closepath clip newpath } bind def
/rgb { setrgbcolor } bind def
/s   { scalefont setfont } bind def
% end   .ps.prolog
/sRGB { [ /CIEBasedABC
          << /DecodeLMN
               [ { dup 0.03928 le
                        {12.92321 div}
                        {0.055 add 1.055 div 2.4 exp }
                     ifelse
                 } bind dup dup
               ]
             /MatrixLMN [0.412457 0.212673 0.019334
                         0.357576 0.715152 0.119192
                         0.180437 0.072175 0.950301]
             /WhitePoint [0.9505 1.0 1.0890]
           >>
         ] setcolorspace } bind def
/srgb { setcolor } bind def
%%IncludeResource: font Helvetica
/Helvetica findfont
dup length dict begin
  {1 index /FID ne {def} {pop pop} ifelse} forall
  /Encoding ISOLatin1Encoding def
  currentdict
  end
/Font1 exch definefont pop
%%IncludeResource: font Helvetica-Bold
/Helvetica-Bold findfont
dup length dict begin
  {1 index /FID ne {def} {pop pop} ifelse} forall
  /Encoding ISOLatin1Encoding def
  currentdict
  end
/Font2 exch definefont pop
%%IncludeResource: font Helvetica-Oblique
/Helvetica-Oblique findfont
dup length dict begin
  {1 index /FID ne {def} {pop pop} ifelse} forall
  /Encoding ISOLatin1Encoding def
  currentdict
  end
/Font3 exch definefont pop
%%IncludeResource: font Helvetica-BoldOblique
/Helvetica-BoldOblique findfont
dup length dict begin
  {1 index /FID ne {def} {pop pop} ifelse} forall
  /Encoding ISOLatin1Encoding def
  currentdict
  end
/Font4 exch definefont pop
%%IncludeResource: font Symbol
/Symbol findfont
dup length dict begin
  {1 index /FID ne {def} {pop pop} ifelse} forall
  currentdict
  end
/Font5 exch definefont pop
%%EndProlog
%%Page: 1 1
bp
0.00 0.00 595.28 170.08 cl
0.00 0.00 595.28 170.08 cl
0.00 0.00 595.28 170.08 cl
0.00 0.00 595.28 170.08 cl
0.00 0.00 595.28 170.08 cl
0.00 0.00 595.28 170.08 cl
0.00 0.00 595.28 170.08 cl
0.00 0.00 595.28 170.08 cl
0.00 0.00 595.28 170.08 cl
78.91 0.00 516.37 170.08 cl
/bg { 1 1 1 srgb } def
1 1 1 srgb
1.07 setlinewidth
[] 0 setdash
1 setlinecap
1 setlinejoin
10.00 setmiterlimit
78.91 0.00 437.46 170.08 r p3
0.00 0.00 595.28 170.08 cl
0.00 0.00 595.28 170.08 cl
0.00 0.00 595.28 170.08 cl
121.07 34.33 510.39 164.10 cl
/bg { 1 1 1 srgb } def
121.07 34.33 389.32 129.77 r p2
0.9804 0.9804 0.9804 srgb
1.07 setlinewidth
[] 0 setdash
0 setlinecap
1 setlinejoin
10.00 setmiterlimit
np
121.07 40.96 m
389.32 0 l
o
np
121.07 73.01 m
389.32 0 l
o
np
121.07 105.06 m
389.32 0 l
o
np
121.07 137.11 m
389.32 0 l
o
np
178.09 34.33 m
0 129.77 l
o
np
276.40 34.33 m
0 129.77 l
o
np
374.72 34.33 m
0 129.77 l
o
np
473.03 34.33 m
0 129.77 l
o
0.8980 0.8980 0.8980 srgb
0.43 setlinewidth
[] 0 setdash
np
121.07 56.98 m
389.32 0 l
o
np
121.07 89.03 m
389.32 0 l
o
np
121.07 121.08 m
389.32 0 l
o
np
121.07 153.13 m
389.32 0 l
o
np
128.93 34.33 m
0 129.77 l
o
np
227.25 34.33 m
0 129.77 l
o
np
325.56 34.33 m
0 129.77 l
o
np
423.87 34.33 m
0 129.77 l
o
/bg { 0 0 0 srgb } def
np
 136.81 156.25 m
3.91 0 l
0 3.91 l
-3.91 0 l
cp p2
np
 138.76 157.00 m
2.64 -4.56 l
-5.27 0 l
cp p2
np
 146.64 151.81 m
3.91 0 l
0 3.91 l
-3.91 0 l
cp p2
np
 148.59 151.93 m
2.64 -4.56 l
-5.27 0 l
cp p2
138.76 145.58 1.95 c p2
148.59 137.25 1.95 c p2
np
 158.43 135.56 m
2.63 -4.56 l
-5.27 0 l
cp p2
np
 156.47 129.61 m
3.91 0 l
0 3.91 l
-3.91 0 l
cp p2
np
 166.30 127.70 m
3.91 0 l
0 3.91 l
-3.91 0 l
cp p2
158.43 123.83 1.95 c p2
np
 168.26 125.72 m
2.63 -4.56 l
-5.27 0 l
cp p2
168.26 116.76 1.95 c p2
np
 176.13 114.26 m
3.91 0 l
0 3.91 l
-3.91 0 l
cp p2
178.09 112.43 1.95 c p2
np
 178.09 115.39 m
2.63 -4.56 l
-5.26 0 l
cp p2
187.92 112.32 1.95 c p2
197.75 108.60 1.95 c p2
207.58 108.29 1.95 c p2
217.41 107.28 1.95 c p2
227.25 94.95 1.95 c p2
237.08 92.58 1.95 c p2
np
 185.97 90.07 m
3.90 0 l
0 3.91 l
-3.90 0 l
cp p2
np
 195.80 89.14 m
3.91 0 l
0 3.91 l
-3.91 0 l
cp p2
np
 187.92 93.65 m
2.63 -4.56 l
-5.26 0 l
cp p2
np
 197.75 91.36 m
2.63 -4.56 l
-5.26 0 l
cp p2
np
 205.63 85.30 m
3.91 0 l
0 3.91 l
-3.91 0 l
cp p2
np
 215.46 84.98 m
3.91 0 l
0 3.91 l
-3.91 0 l
cp p2
np
 207.58 87.30 m
2.64 -4.55 l
-5.27 0 l
cp p2
np
 217.41 87.30 m
2.64 -4.55 l
-5.27 0 l
cp p2
np
 225.29 72.86 m
3.91 0 l
0 3.91 l
-3.91 0 l
cp p2
np
 235.12 65.36 m
3.91 0 l
0 3.90 l
-3.91 0 l
cp p2
246.91 65.92 1.95 c p2
np
 244.95 62.41 m
3.91 0 l
0 3.91 l
-3.91 0 l
cp p2
256.74 58.31 1.95 c p2
np
 254.78 56.35 m
3.91 0 l
0 3.91 l
-3.91 0 l
cp p2
np
 264.62 56.35 m
3.91 0 l
0 3.91 l
-3.91 0 l
cp p2
np
 274.45 55.03 m
3.91 0 l
0 3.91 l
-3.91 0 l
cp p2
np
 227.25 58.56 m
2.63 -4.56 l
-5.27 0 l
cp p2
266.57 55.52 1.95 c p2
np
 284.28 53.56 m
3.91 0 l
0 3.91 l
-3.91 0 l
cp p2
np
 237.08 56.92 m
2.63 -4.56 l
-5.27 0 l
cp p2
276.40 53.88 1.95 c p2
286.23 53.88 1.95 c p2
np
 294.11 51.92 m
3.91 0 l
0 3.91 l
-3.91 0 l
cp p2
296.07 52.02 1.95 c p2
305.90 52.02 1.95 c p2
np
 303.94 50.06 m
3.91 0 l
0 3.91 l
-3.91 0 l
cp p2
np
 313.77 50.06 m
3.91 0 l
0 3.91 l
-3.91 0 l
cp p2
np
 246.91 52.91 m
2.63 -4.56 l
-5.26 0 l
cp p2
np
 256.74 52.91 m
2.63 -4.56 l
-5.26 0 l
cp p2
np
 266.57 52.91 m
2.63 -4.56 l
-5.26 0 l
cp p2
np
 323.60 47.92 m
3.91 0 l
0 3.91 l
-3.91 0 l
cp p2
np
 276.40 50.38 m
2.64 -4.56 l
-5.27 0 l
cp p2
np
 286.23 50.38 m
2.64 -4.56 l
-5.27 0 l
cp p2
np
 296.07 50.38 m
2.63 -4.56 l
-5.27 0 l
cp p2
np
 305.90 50.38 m
2.63 -4.56 l
-5.27 0 l
cp p2
315.73 47.34 1.95 c p2
325.56 47.34 1.95 c p2
335.39 47.34 1.95 c p2
np
 333.44 45.38 m
3.91 0 l
0 3.91 l
-3.91 0 l
cp p2
np
 343.27 45.38 m
3.91 0 l
0 3.91 l
-3.91 0 l
cp p2
np
 353.10 45.38 m
3.91 0 l
0 3.91 l
-3.91 0 l
cp p2
np
 362.93 45.38 m
3.91 0 l
0 3.91 l
-3.91 0 l
cp p2
np
 372.76 45.38 m
3.91 0 l
0 3.91 l
-3.91 0 l
cp p2
np
 315.73 47.27 m
2.63 -4.56 l
-5.26 0 l
cp p2
345.22 44.23 1.95 c p2
355.05 44.23 1.95 c p2
364.89 44.23 1.95 c p2
374.72 44.23 1.95 c p2
384.55 44.23 1.95 c p2
np
 382.59 42.27 m
3.91 0 l
0 3.91 l
-3.91 0 l
cp p2
np
 392.42 42.27 m
3.91 0 l
0 3.91 l
-3.91 0 l
cp p2
np
 325.56 43.27 m
2.63 -4.56 l
-5.26 0 l
cp p2
np
 335.39 43.27 m
2.63 -4.56 l
-5.26 0 l
cp p2
np
 345.22 43.27 m
2.64 -4.56 l
-5.27 0 l
cp p2
np
 355.05 43.27 m
2.64 -4.56 l
-5.27 0 l
cp p2
np
 364.89 43.27 m
2.63 -4.56 l
-5.27 0 l
cp p2
np
 374.72 43.27 m
2.63 -4.56 l
-5.27 0 l
cp p2
np
 384.55 43.27 m
2.63 -4.56 l
-5.26 0 l
cp p2
np
 394.38 43.27 m
2.63 -4.56 l
-5.26 0 l
cp p2
np
 404.21 43.27 m
2.63 -4.56 l
-5.26 0 l
cp p2
394.38 40.23 1.95 c p2
404.21 40.23 1.95 c p2
414.04 40.23 1.95 c p2
423.87 40.23 1.95 c p2
433.71 40.23 1.95 c p2
443.54 40.23 1.95 c p2
453.37 40.23 1.95 c p2
463.20 40.23 1.95 c p2
473.03 40.23 1.95 c p2
482.86 40.23 1.95 c p2
492.69 40.23 1.95 c p2
np
 402.26 38.27 m
3.91 0 l
0 3.91 l
-3.91 0 l
cp p2
np
 412.09 38.27 m
3.91 0 l
0 3.91 l
-3.91 0 l
cp p2
np
 421.92 38.27 m
3.91 0 l
0 3.91 l
-3.91 0 l
cp p2
np
 431.75 38.27 m
3.91 0 l
0 3.91 l
-3.91 0 l
cp p2
np
 441.58 38.27 m
3.91 0 l
0 3.91 l
-3.91 0 l
cp p2
np
 451.41 38.27 m
3.91 0 l
0 3.91 l
-3.91 0 l
cp p2
0 0 0 srgb
1.07 setlinewidth
[] 0 setdash
1.00 setmiterlimit
np
138.76 145.58 m
9.83 -8.33 l
9.84 -13.42 l
9.83 -7.07 l
9.83 -4.33 l
9.83 -0.11 l
9.83 -3.72 l
9.83 -0.31 l
9.83 -1.01 l
9.84 -12.33 l
9.83 -2.37 l
9.83 -26.66 l
9.83 -7.61 l
9.83 -2.79 l
9.83 -1.64 l
9.83 0 l
9.84 -1.86 l
9.83 0 l
9.83 -4.68 l
9.83 0 l
9.83 0 l
9.83 -3.11 l
9.83 0 l
9.84 0 l
9.83 0 l
9.83 0 l
9.83 -4.00 l
9.83 0 l
9.83 0 l
9.83 0 l
9.84 0 l
9.83 0 l
9.83 0 l
9.83 0 l
9.83 0 l
9.83 0 l
9.83 0 l
o
1.07 setlinewidth
[ 2.13 2.13] 0 setdash
np
138.76 153.96 m
9.83 -5.07 l
9.84 -16.37 l
9.83 -9.84 l
9.83 -10.33 l
9.83 -21.74 l
9.83 -2.29 l
9.83 -4.06 l
9.83 0 l
9.84 -28.74 l
9.83 -1.64 l
9.83 -4.01 l
9.83 0 l
9.83 0 l
9.83 -2.53 l
9.83 0 l
9.84 0 l
9.83 0 l
9.83 -3.11 l
9.83 -4.00 l
9.83 0 l
9.83 0 l
9.83 0 l
9.84 0 l
9.83 0 l
9.83 0 l
9.83 0 l
9.83 0 l
o
1.07 setlinewidth
[ 4.27 2.13] 0 setdash
np
138.76 158.20 m
9.83 -4.44 l
9.84 -22.19 l
9.83 -1.91 l
9.83 -13.44 l
9.83 -24.19 l
9.83 -0.93 l
9.83 -3.85 l
9.83 -0.32 l
9.84 -12.12 l
9.83 -7.50 l
9.83 -2.94 l
9.83 -6.06 l
9.83 0 l
9.83 -1.33 l
9.83 -1.46 l
9.84 -1.64 l
9.83 -1.86 l
9.83 0 l
9.83 -2.15 l
9.83 -2.53 l
9.83 0 l
9.83 0 l
9.84 0 l
9.83 0 l
9.83 -3.11 l
9.83 0 l
9.83 -4.00 l
9.83 0 l
9.83 0 l
9.84 0 l
9.83 0 l
9.83 0 l
o
0.4980 0.4980 0.4980 srgb
1.07 setlinewidth
[] 0 setdash
1 setlinecap
10.00 setmiterlimit
121.07 34.33 389.32 129.77 r p1
0.00 0.00 595.28 170.08 cl
0.00 0.00 595.28 170.08 cl
0.00 0.00 595.28 170.08 cl
0.00 0.00 595.28 170.08 cl
0.00 0.00 595.28 170.08 cl
0.00 0.00 595.28 170.08 cl
/Font1 findfont 10 s
0 0 0 srgb
100.67 52.13 (10) 0 0 t
/Font1 findfont 7 s
111.79 57.10 (1) 0 0 t
/Font1 findfont 10 s
100.67 84.18 (10) 0 0 t
/Font1 findfont 7 s
111.79 89.15 (2) 0 0 t
/Font1 findfont 10 s
100.67 116.23 (10) 0 0 t
/Font1 findfont 7 s
111.79 121.20 (3) 0 0 t
/Font1 findfont 10 s
100.67 148.28 (10) 0 0 t
/Font1 findfont 7 s
111.79 153.25 (4) 0 0 t
0.00 0.00 595.28 170.08 cl
0.00 0.00 595.28 170.08 cl
0 0 0 srgb
1.07 setlinewidth
[] 0 setdash
0 setlinecap
1 setlinejoin
10.00 setmiterlimit
np
118.08 56.98 m
2.99 0 l
o
np
118.08 89.03 m
2.99 0 l
o
np
118.08 121.08 m
2.99 0 l
o
np
118.08 153.13 m
2.99 0 l
o
0.00 0.00 595.28 170.08 cl
0.00 0.00 595.28 170.08 cl
0.00 0.00 595.28 170.08 cl
0.00 0.00 595.28 170.08 cl
0.00 0.00 595.28 170.08 cl
0.00 0.00 595.28 170.08 cl
0.00 0.00 595.28 170.08 cl
0.00 0.00 595.28 170.08 cl
0 0 0 srgb
1.07 setlinewidth
[] 0 setdash
0 setlinecap
1 setlinejoin
10.00 setmiterlimit
np
128.93 31.34 m
0 2.99 l
o
np
227.25 31.34 m
0 2.99 l
o
np
325.56 31.34 m
0 2.99 l
o
np
423.87 31.34 m
0 2.99 l
o
0.00 0.00 595.28 170.08 cl
0.00 0.00 595.28 170.08 cl
/Font1 findfont 10 s
0 0 0 srgb
128.93 21.77 (0) .5 0 t
227.25 21.77 (10) .5 0 t
325.56 21.77 (20) .5 0 t
423.87 21.77 (30) .5 0 t
0.00 0.00 595.28 170.08 cl
0.00 0.00 595.28 170.08 cl
0.00 0.00 595.28 170.08 cl
0.00 0.00 595.28 170.08 cl
/Font1 findfont 12 s
0 0 0 srgb
286.72 8.37 (comm) 0 ta
-0.120 (unity) tb gr
0.00 0.00 595.28 170.08 cl
0.00 0.00 595.28 170.08 cl
/Font1 findfont 12 s
0 0 0 srgb
95.89 88.55 (siz) 90 ta
-0.180 (e) tb gr
0.00 0.00 595.28 170.08 cl
0.00 0.00 595.28 170.08 cl
0.00 0.00 595.28 170.08 cl
0.00 0.00 595.28 170.08 cl
/bg { 1 1 1 srgb } def
396.99 90.93 104.89 64.66 r p2
0.00 0.00 595.28 170.08 cl
0.00 0.00 595.28 170.08 cl
0.00 0.00 595.28 170.08 cl
0.00 0.00 595.28 170.08 cl
0.00 0.00 595.28 170.08 cl
0.00 0.00 595.28 170.08 cl
/bg { 0 0 0 srgb } def
409.88 138.39 1.95 c p2
0.00 0.00 595.28 170.08 cl
0.00 0.00 595.28 170.08 cl
0 0 0 srgb
1.07 setlinewidth
[] 0 setdash
0 setlinecap
1 setlinejoin
10.00 setmiterlimit
np
402.97 138.39 m
13.83 0 l
o
0.00 0.00 595.28 170.08 cl
0.00 0.00 595.28 170.08 cl
0.00 0.00 595.28 170.08 cl
0.00 0.00 595.28 170.08 cl
/bg { 0 0 0 srgb } def
np
 409.88 124.15 m
2.64 -4.56 l
-5.27 0 l
cp p2
0.00 0.00 595.28 170.08 cl
0.00 0.00 595.28 170.08 cl
0 0 0 srgb
1.07 setlinewidth
[ 2.13 2.13] 0 setdash
0 setlinecap
1 setlinejoin
10.00 setmiterlimit
np
402.97 121.11 m
13.83 0 l
o
0.00 0.00 595.28 170.08 cl
0.00 0.00 595.28 170.08 cl
0.00 0.00 595.28 170.08 cl
0.00 0.00 595.28 170.08 cl
/bg { 0 0 0 srgb } def
np
 407.93 101.87 m
3.91 0 l
0 3.91 l
-3.91 0 l
cp p2
0.00 0.00 595.28 170.08 cl
0.00 0.00 595.28 170.08 cl
0 0 0 srgb
1.07 setlinewidth
[ 4.27 2.13] 0 setdash
0 setlinecap
1 setlinejoin
10.00 setmiterlimit
np
402.97 103.83 m
13.83 0 l
o
0.00 0.00 595.28 170.08 cl
0.00 0.00 595.28 170.08 cl
/Font1 findfont 10 s
0 0 0 srgb
420.68 134.80 (MachineLear) 0 ta
0.250 (ning) tb gr
0.00 0.00 595.28 170.08 cl
0.00 0.00 595.28 170.08 cl
/Font1 findfont 10 s
0 0 0 srgb
420.68 117.52 (fr) 0 ta
-0.100 (ance) tb gr
0.00 0.00 595.28 170.08 cl
0.00 0.00 595.28 170.08 cl
/Font1 findfont 10 s
0 0 0 srgb
420.68 100.24 (podemos) 0 0 t
0.00 0.00 595.28 170.08 cl
0.00 0.00 595.28 170.08 cl
0.00 0.00 595.28 170.08 cl
0.00 0.00 595.28 170.08 cl
0.00 0.00 595.28 170.08 cl
0.00 0.00 595.28 170.08 cl
ep
%%Trailer
%%Pages: 1
%%EOF
