%!PS-Adobe-3.0 EPSF-3.0
%%DocumentNeededResources: font Helvetica
%%+ font Helvetica-Bold
%%+ font Helvetica-Oblique
%%+ font Helvetica-BoldOblique
%%+ font Symbol
%%Title: R Graphics Output
%%Creator: R Software
%%Pages: (atend)
%%BoundingBox: 0 0 738 459
%%EndComments
%%BeginProlog
/bp  { gs sRGB gs } def
% begin .ps.prolog
/gs  { gsave } bind def
/gr  { grestore } bind def
/ep  { showpage gr gr } bind def
/m   { moveto } bind def
/l  { rlineto } bind def
/np  { newpath } bind def
/cp  { closepath } bind def
/f   { fill } bind def
/o   { stroke } bind def
/c   { newpath 0 360 arc } bind def
/r   { 4 2 roll moveto 1 copy 3 -1 roll exch 0 exch rlineto 0 rlineto -1 mul 0 exch rlineto closepath } bind def
/p1  { stroke } bind def
/p2  { gsave bg fill grestore newpath } bind def
/p3  { gsave bg fill grestore stroke } bind def
/p6  { gsave bg eofill grestore newpath } bind def
/p7  { gsave bg eofill grestore stroke } bind def
/t   { 5 -2 roll moveto gsave rotate
       1 index stringwidth pop
       mul neg 0 rmoveto show grestore } bind def
/ta  { 4 -2 roll moveto gsave rotate show } bind def
/tb  { 2 -1 roll 0 rmoveto show } bind def
/cl  { grestore gsave newpath 3 index 3 index moveto 1 index
       4 -1 roll lineto  exch 1 index lineto lineto
       closepath clip newpath } bind def
/rgb { setrgbcolor } bind def
/s   { scalefont setfont } bind def
% end   .ps.prolog
/sRGB { [ /CIEBasedABC
          << /DecodeLMN
               [ { dup 0.03928 le
                        {12.92321 div}
                        {0.055 add 1.055 div 2.4 exp }
                     ifelse
                 } bind dup dup
               ]
             /MatrixLMN [0.412457 0.212673 0.019334
                         0.357576 0.715152 0.119192
                         0.180437 0.072175 0.950301]
             /WhitePoint [0.9505 1.0 1.0890]
           >>
         ] setcolorspace } bind def
/srgb { setcolor } bind def
%%IncludeResource: font Helvetica
/Helvetica findfont
dup length dict begin
  {1 index /FID ne {def} {pop pop} ifelse} forall
  /Encoding ISOLatin1Encoding def
  currentdict
  end
/Font1 exch definefont pop
%%IncludeResource: font Helvetica-Bold
/Helvetica-Bold findfont
dup length dict begin
  {1 index /FID ne {def} {pop pop} ifelse} forall
  /Encoding ISOLatin1Encoding def
  currentdict
  end
/Font2 exch definefont pop
%%IncludeResource: font Helvetica-Oblique
/Helvetica-Oblique findfont
dup length dict begin
  {1 index /FID ne {def} {pop pop} ifelse} forall
  /Encoding ISOLatin1Encoding def
  currentdict
  end
/Font3 exch definefont pop
%%IncludeResource: font Helvetica-BoldOblique
/Helvetica-BoldOblique findfont
dup length dict begin
  {1 index /FID ne {def} {pop pop} ifelse} forall
  /Encoding ISOLatin1Encoding def
  currentdict
  end
/Font4 exch definefont pop
%%IncludeResource: font Symbol
/Symbol findfont
dup length dict begin
  {1 index /FID ne {def} {pop pop} ifelse} forall
  currentdict
  end
/Font5 exch definefont pop
%%EndProlog
%%Page: 1 1
bp
/bg { 1 1 1 srgb } def
0.00 0.00 738.00 459.00 r p2
0.00 0.00 738.00 459.00 cl
0.00 0.00 738.00 459.00 cl
0.6627 0.6627 0.6627 srgb
0.38 setlinewidth
[] 0 setdash
1 setlinecap
1 setlinejoin
10.00 setmiterlimit
np
454.75 339.55 m
0.15 0.03 l
0.92 0.13 l
2.13 0.31 l
3.31 0.49 l
4.12 0.60 l
4.40 0.65 l
4.25 0.62 l
3.88 0.57 l
3.46 0.51 l
3.10 0.45 l
2.85 0.42 l
2.72 0.40 l
0.95 0.14 l
2.70 0.40 l
2.79 0.40 l
3.00 0.44 l
3.32 0.49 l
3.74 0.55 l
4.13 0.61 l
4.39 0.64 l
4.27 0.63 l
3.66 0.53 l
2.57 0.38 l
1.32 0.19 l
0.34 0.05 l
0.01 0 l
o
np
448.68 336.24 m
-0.10 -0.11 l
-0.62 -0.70 l
-1.41 -1.62 l
-2.21 -2.53 l
-2.73 -3.12 l
-2.91 -3.33 l
-2.82 -3.22 l
-2.56 -2.93 l
-2.29 -2.62 l
-2.04 -2.34 l
-1.89 -2.15 l
-1.80 -2.06 l
-0.54 -0.62 l
-1.79 -2.05 l
-1.85 -2.11 l
-1.99 -2.28 l
-2.20 -2.52 l
-2.48 -2.84 l
-2.75 -3.14 l
-2.90 -3.32 l
-2.83 -3.23 l
-2.40 -2.75 l
-1.67 -1.91 l
-0.85 -0.97 l
-0.21 -0.24 l
0 0 l
o
np
449.19 342.17 m
-0.10 0.16 l
-0.57 0.94 l
-1.23 2.00 l
-1.68 2.77 l
-1.82 2.98 l
-1.70 2.78 l
-1.48 2.43 l
-1.29 2.11 l
-1.16 1.90 l
-0.83 1.36 l
-1.12 1.84 l
-1.19 1.95 l
-1.33 2.18 l
-1.54 2.52 l
-1.74 2.86 l
-1.82 2.98 l
-1.59 2.62 l
-1.06 1.73 l
-0.42 0.69 l
-0.04 0.06 l
o
np
396.00 275.97 m
-0.10 -0.12 l
-0.64 -0.73 l
-1.44 -1.67 l
-2.20 -2.53 l
-2.66 -3.07 l
-2.75 -3.18 l
-2.60 -3.00 l
-2.34 -2.69 l
-2.06 -2.39 l
-1.86 -2.14 l
-1.74 -2.01 l
-1.23 -1.42 l
-1.70 -1.96 l
-1.76 -2.03 l
-1.91 -2.20 l
-2.14 -2.47 l
-2.40 -2.78 l
-2.67 -3.07 l
-2.76 -3.18 l
-2.57 -2.97 l
-2.01 -2.32 l
-1.22 -1.41 l
-0.45 -0.52 l
-0.04 -0.04 l
o
np
347.94 220.48 m
-0.11 -0.12 l
-0.65 -0.77 l
-1.46 -1.70 l
-2.18 -2.54 l
-2.57 -2.99 l
-2.58 -3.02 l
-2.39 -2.79 l
-2.11 -2.46 l
-1.87 -2.18 l
-1.69 -1.97 l
-1.62 -1.89 l
-0.27 -0.32 l
-1.61 -1.88 l
-1.68 -1.96 l
-1.83 -2.13 l
-2.06 -2.41 l
-2.34 -2.73 l
-2.56 -2.99 l
-2.59 -3.02 l
-2.28 -2.65 l
-1.60 -1.88 l
-0.79 -0.91 l
-0.17 -0.20 l
0 0 l
o
np
304.14 169.36 m
-0.11 -0.13 l
-0.68 -0.80 l
-1.49 -1.75 l
-2.15 -2.53 l
-2.43 -2.85 l
-2.36 -2.78 l
-2.11 -2.48 l
-1.85 -2.17 l
-1.64 -1.93 l
-1.53 -1.80 l
-0.70 -0.83 l
-1.50 -1.76 l
-1.58 -1.85 l
-1.74 -2.05 l
-1.98 -2.33 l
-2.26 -2.65 l
-2.43 -2.86 l
-2.33 -2.74 l
-1.84 -2.16 l
-1.06 -1.25 l
-0.33 -0.38 l
-0.01 -0.01 l
o
np
265.25 123.65 m
-0.12 -0.15 l
-0.74 -0.86 l
-1.53 -1.80 l
-2.06 -2.42 l
-2.16 -2.53 l
-1.95 -2.29 l
-1.68 -1.98 l
-1.47 -1.72 l
-1.36 -1.59 l
-0.40 -0.47 l
-1.34 -1.57 l
-1.42 -1.67 l
-1.61 -1.89 l
-1.87 -2.20 l
-2.11 -2.48 l
-2.13 -2.50 l
-1.74 -2.04 l
-0.98 -1.15 l
-0.26 -0.31 l
-0.01 0 l
o
np
447.48 339.69 m
-0.15 0.03 l
-0.96 0.18 l
-2.16 0.40 l
-3.30 0.61 l
-3.99 0.74 l
-4.13 0.77 l
-3.89 0.72 l
-3.49 0.65 l
-3.09 0.57 l
-2.78 0.52 l
-2.60 0.48 l
-1.79 0.34 l
-2.54 0.47 l
-2.64 0.49 l
-2.86 0.53 l
-3.20 0.59 l
-3.61 0.67 l
-3.99 0.74 l
-4.14 0.77 l
-3.84 0.72 l
-3.00 0.55 l
-1.79 0.34 l
-0.66 0.12 l
-0.05 0.01 l
o
np
454.45 337.46 m
0.15 -0.07 l
0.93 -0.44 l
2.05 -0.96 l
3.03 -1.41 l
3.49 -1.64 l
3.47 -1.62 l
3.15 -1.47 l
2.78 -1.30 l
2.45 -1.15 l
2.25 -1.05 l
1.85 -0.87 l
2.18 -1.01 l
2.27 -1.07 l
2.49 -1.16 l
2.83 -1.32 l
3.21 -1.51 l
3.49 -1.63 l
3.46 -1.62 l
2.91 -1.36 l
1.89 -0.88 l
0.78 -0.37 l
0.09 -0.04 l
o
np
453.61 341.73 m
0.12 0.13 l
0.72 0.78 l
1.56 1.70 l
2.24 2.43 l
2.50 2.71 l
2.40 2.61 l
2.14 2.32 l
1.87 2.02 l
1.66 1.80 l
1.55 1.69 l
0.44 0.47 l
1.54 1.68 l
1.62 1.75 l
1.80 1.95 l
2.06 2.23 l
2.34 2.54 l
2.50 2.71 l
2.35 2.56 l
1.79 1.94 l
0.96 1.04 l
0.24 0.26 l
0 0 l
o
/bg { 1 0 0 srgb } def
0 0 0 srgb
0.75 setlinewidth
[] 0 setdash
451.11 339.02 3.69 c p3
/bg { 1 0.7490 0 srgb } def
530.88 350.72 3.69 c p3
/bg { 0.5020 1 0 srgb } def
398.41 278.76 3.69 c p3
/bg { 0 1 0.2510 srgb } def
423.56 384.18 3.69 c p3
/bg { 0 1 1 srgb } def
350.34 223.28 3.69 c p3
/bg { 0 1 0.2510 srgb } def
306.53 172.17 3.69 c p3
/bg { 0 1 1 srgb } def
267.64 126.46 3.69 c p3
/bg { 0 1 0.2510 srgb } def
235.92 89.22 3.69 c p3
/bg { 0 0.2510 1 srgb } def
379.20 352.37 3.69 c p3
/bg { 0.5020 0 1 srgb } def
508.99 311.95 3.69 c p3
/bg { 1 0 0.7490 srgb } def
490.51 381.76 3.69 c p3
