%!PS-Adobe-3.0 EPSF-3.0
%%DocumentNeededResources: font Helvetica
%%+ font Helvetica-Bold
%%+ font Helvetica-Oblique
%%+ font Helvetica-BoldOblique
%%+ font Symbol
%%Title: R Graphics Output
%%Creator: R Software
%%Pages: (atend)
%%BoundingBox: 0 0 595 520
%%EndComments
%%BeginProlog
/bp  { gs sRGB gs } def
% begin .ps.prolog
/gs  { gsave } bind def
/gr  { grestore } bind def
/ep  { showpage gr gr } bind def
/m   { moveto } bind def
/l  { rlineto } bind def
/np  { newpath } bind def
/cp  { closepath } bind def
/f   { fill } bind def
/o   { stroke } bind def
/c   { newpath 0 360 arc } bind def
/r   { 4 2 roll moveto 1 copy 3 -1 roll exch 0 exch rlineto 0 rlineto -1 mul 0 exch rlineto closepath } bind def
/p1  { stroke } bind def
/p2  { gsave bg fill grestore newpath } bind def
/p3  { gsave bg fill grestore stroke } bind def
/p6  { gsave bg eofill grestore newpath } bind def
/p7  { gsave bg eofill grestore stroke } bind def
/t   { 5 -2 roll moveto gsave rotate
       1 index stringwidth pop
       mul neg 0 rmoveto show grestore } bind def
/ta  { 4 -2 roll moveto gsave rotate show } bind def
/tb  { 2 -1 roll 0 rmoveto show } bind def
/cl  { grestore gsave newpath 3 index 3 index moveto 1 index
       4 -1 roll lineto  exch 1 index lineto lineto
       closepath clip newpath } bind def
/rgb { setrgbcolor } bind def
/s   { scalefont setfont } bind def
% end   .ps.prolog
/sRGB { [ /CIEBasedABC
          << /DecodeLMN
               [ { dup 0.03928 le
                        {12.92321 div}
                        {0.055 add 1.055 div 2.4 exp }
                     ifelse
                 } bind dup dup
               ]
             /MatrixLMN [0.412457 0.212673 0.019334
                         0.357576 0.715152 0.119192
                         0.180437 0.072175 0.950301]
             /WhitePoint [0.9505 1.0 1.0890]
           >>
         ] setcolorspace } bind def
/srgb { setcolor } bind def
%%IncludeResource: font Helvetica
/Helvetica findfont
dup length dict begin
  {1 index /FID ne {def} {pop pop} ifelse} forall
  /Encoding ISOLatin1Encoding def
  currentdict
  end
/Font1 exch definefont pop
%%IncludeResource: font Helvetica-Bold
/Helvetica-Bold findfont
dup length dict begin
  {1 index /FID ne {def} {pop pop} ifelse} forall
  /Encoding ISOLatin1Encoding def
  currentdict
  end
/Font2 exch definefont pop
%%IncludeResource: font Helvetica-Oblique
/Helvetica-Oblique findfont
dup length dict begin
  {1 index /FID ne {def} {pop pop} ifelse} forall
  /Encoding ISOLatin1Encoding def
  currentdict
  end
/Font3 exch definefont pop
%%IncludeResource: font Helvetica-BoldOblique
/Helvetica-BoldOblique findfont
dup length dict begin
  {1 index /FID ne {def} {pop pop} ifelse} forall
  /Encoding ISOLatin1Encoding def
  currentdict
  end
/Font4 exch definefont pop
%%IncludeResource: font Symbol
/Symbol findfont
dup length dict begin
  {1 index /FID ne {def} {pop pop} ifelse} forall
  currentdict
  end
/Font5 exch definefont pop
%%EndProlog
%%Page: 1 1
bp
0.00 0.00 595.28 519.69 cl
0.00 0.00 595.28 519.69 cl
0.00 0.00 595.28 519.69 cl
0.00 0.00 595.28 519.69 cl
0.00 0.00 595.28 519.69 cl
0.00 0.00 595.28 519.69 cl
0.00 0.00 595.28 519.69 cl
0.00 0.00 595.28 519.69 cl
0.00 0.00 595.28 519.69 cl
0.00 0.00 595.28 519.69 cl
0.00 0.00 595.28 519.69 cl
0.00 0.00 595.28 519.69 cl
0.00 0.00 595.28 519.69 cl
0.00 0.00 595.28 519.69 cl
0.00 0.00 595.28 519.69 cl
0.00 0.00 595.28 519.69 cl
0.00 0.00 595.28 519.69 cl
0.00 0.00 595.28 519.69 cl
/bg { 1 1 1 srgb } def
1 1 1 srgb
1.07 setlinewidth
[] 0 setdash
1 setlinecap
1 setlinejoin
10.00 setmiterlimit
0.00 0.00 595.28 519.69 r p3
0.00 0.00 595.28 519.69 cl
38.27 426.42 496.36 513.71 cl
/bg { 1 1 1 srgb } def
38.27 426.42 458.09 87.28 r p2
0.9804 0.9804 0.9804 srgb
1.07 setlinewidth
[] 0 setdash
0 setlinecap
1 setlinejoin
10.00 setmiterlimit
np
43.16 426.42 m
0 87.29 l
o
np
53.78 426.42 m
0 87.29 l
o
np
64.40 426.42 m
0 87.29 l
o
np
74.50 426.42 m
0 87.29 l
o
np
84.60 426.42 m
0 87.29 l
o
np
95.05 426.42 m
0 87.29 l
o
np
105.49 426.42 m
0 87.29 l
o
np
115.94 426.42 m
0 87.29 l
o
np
126.38 426.42 m
0 87.29 l
o
np
137.00 426.42 m
0 87.29 l
o
np
147.45 426.42 m
0 87.29 l
o
np
157.89 426.42 m
0 87.29 l
o
np
168.34 426.42 m
0 87.29 l
o
np
178.78 426.42 m
0 87.29 l
o
np
189.40 426.42 m
0 87.29 l
o
np
199.50 426.42 m
0 87.29 l
o
np
209.61 426.42 m
0 87.29 l
o
np
220.05 426.42 m
0 87.29 l
o
np
230.50 426.42 m
0 87.29 l
o
np
240.94 426.42 m
0 87.29 l
o
np
251.39 426.42 m
0 87.29 l
o
np
262.00 426.42 m
0 87.29 l
o
np
272.45 426.42 m
0 87.29 l
o
np
282.89 426.42 m
0 87.29 l
o
np
293.34 426.42 m
0 87.29 l
o
np
303.79 426.42 m
0 87.29 l
o
np
314.40 426.42 m
0 87.29 l
o
np
324.50 426.42 m
0 87.29 l
o
np
334.61 426.42 m
0 87.29 l
o
np
345.05 426.42 m
0 87.29 l
o
np
355.50 426.42 m
0 87.29 l
o
np
365.94 426.42 m
0 87.29 l
o
np
376.39 426.42 m
0 87.29 l
o
np
387.01 426.42 m
0 87.29 l
o
np
397.45 426.42 m
0 87.29 l
o
np
407.90 426.42 m
0 87.29 l
o
np
418.34 426.42 m
0 87.29 l
o
np
428.79 426.42 m
0 87.29 l
o
np
439.40 426.42 m
0 87.29 l
o
np
449.68 426.42 m
0 87.29 l
o
np
459.95 426.42 m
0 87.29 l
o
np
470.40 426.42 m
0 87.29 l
o
np
480.84 426.42 m
0 87.29 l
o
np
491.46 426.42 m
0 87.29 l
o
0.8980 0.8980 0.8980 srgb
0.43 setlinewidth
[] 0 setdash
np
38.27 469.25 m
458.09 0 l
o
np
48.47 426.42 m
0 87.29 l
o
np
59.09 426.42 m
0 87.29 l
o
np
69.71 426.42 m
0 87.29 l
o
np
79.29 426.42 m
0 87.29 l
o
np
89.91 426.42 m
0 87.29 l
o
np
100.19 426.42 m
0 87.29 l
o
np
110.80 426.42 m
0 87.29 l
o
np
121.08 426.42 m
0 87.29 l
o
np
131.69 426.42 m
0 87.29 l
o
np
142.31 426.42 m
0 87.29 l
o
np
152.58 426.42 m
0 87.29 l
o
np
163.20 426.42 m
0 87.29 l
o
np
173.47 426.42 m
0 87.29 l
o
np
184.09 426.42 m
0 87.29 l
o
np
194.71 426.42 m
0 87.29 l
o
np
204.30 426.42 m
0 87.29 l
o
np
214.91 426.42 m
0 87.29 l
o
np
225.19 426.42 m
0 87.29 l
o
np
235.80 426.42 m
0 87.29 l
o
np
246.08 426.42 m
0 87.29 l
o
np
256.70 426.42 m
0 87.29 l
o
np
267.31 426.42 m
0 87.29 l
o
np
277.59 426.42 m
0 87.29 l
o
np
288.20 426.42 m
0 87.29 l
o
np
298.48 426.42 m
0 87.29 l
o
np
309.09 426.42 m
0 87.29 l
o
np
319.71 426.42 m
0 87.29 l
o
np
329.30 426.42 m
0 87.29 l
o
np
339.92 426.42 m
0 87.29 l
o
np
350.19 426.42 m
0 87.29 l
o
np
360.81 426.42 m
0 87.29 l
o
np
371.08 426.42 m
0 87.29 l
o
np
381.70 426.42 m
0 87.29 l
o
np
392.31 426.42 m
0 87.29 l
o
np
402.59 426.42 m
0 87.29 l
o
np
413.20 426.42 m
0 87.29 l
o
np
423.48 426.42 m
0 87.29 l
o
np
434.10 426.42 m
0 87.29 l
o
np
444.71 426.42 m
0 87.29 l
o
np
454.64 426.42 m
0 87.29 l
o
np
465.26 426.42 m
0 87.29 l
o
np
475.53 426.42 m
0 87.29 l
o
np
486.15 426.42 m
0 87.29 l
o
0 0 0 srgb
0.71 setlinewidth
[] 0 setdash
1 setlinecap
np
55.57 488.51 m
7.04 0 l
o
np
59.09 484.99 m
0 7.04 l
o
np
66.19 489.20 m
7.03 0 l
o
np
69.71 485.68 m
0 7.04 l
o
np
75.78 490.41 m
7.03 0 l
o
np
79.29 486.89 m
0 7.04 l
o
np
86.39 509.74 m
7.04 0 l
o
np
89.91 506.22 m
0 7.04 l
o
np
96.67 495.35 m
7.03 0 l
o
np
100.19 491.83 m
0 7.04 l
o
np
107.28 486.38 m
7.04 0 l
o
np
110.80 482.86 m
0 7.04 l
o
np
117.56 489.97 m
7.04 0 l
o
np
121.08 486.45 m
0 7.04 l
o
np
128.17 494.09 m
7.04 0 l
o
np
131.69 490.57 m
0 7.04 l
o
np
138.79 491.46 m
7.04 0 l
o
np
142.31 487.94 m
0 7.04 l
o
np
149.06 478.41 m
7.04 0 l
o
np
152.58 474.89 m
0 7.04 l
o
np
159.68 491.63 m
7.04 0 l
o
np
163.20 488.11 m
0 7.04 l
o
np
169.96 486.94 m
7.03 0 l
o
np
173.47 483.42 m
0 7.04 l
o
np
180.57 489.81 m
7.04 0 l
o
np
184.09 486.30 m
0 7.03 l
o
np
191.19 493.77 m
7.04 0 l
o
np
194.71 490.25 m
0 7.04 l
o
np
200.78 490.85 m
7.04 0 l
o
np
204.30 487.33 m
0 7.04 l
o
np
211.39 480.09 m
7.04 0 l
o
np
214.91 476.58 m
0 7.03 l
o
np
221.67 490.87 m
7.04 0 l
o
np
225.19 487.35 m
0 7.04 l
o
np
232.29 482.71 m
7.03 0 l
o
np
235.80 479.19 m
0 7.04 l
o
np
242.56 488.63 m
7.04 0 l
o
np
246.08 485.11 m
0 7.04 l
o
np
253.18 501.97 m
7.03 0 l
o
np
256.70 498.45 m
0 7.04 l
o
np
263.79 494.40 m
7.04 0 l
o
np
267.31 490.89 m
0 7.03 l
o
np
274.07 488.18 m
7.03 0 l
o
np
277.59 484.66 m
0 7.04 l
o
np
284.68 498.47 m
7.04 0 l
o
np
288.20 494.95 m
0 7.04 l
o
np
294.96 495.50 m
7.04 0 l
o
np
298.48 491.98 m
0 7.04 l
o
np
305.57 491.05 m
7.04 0 l
o
np
309.09 487.53 m
0 7.04 l
o
np
316.19 497.47 m
7.04 0 l
o
np
319.71 493.95 m
0 7.04 l
o
np
325.78 501.40 m
7.04 0 l
o
np
329.30 497.88 m
0 7.04 l
o
np
336.40 505.09 m
7.03 0 l
o
np
339.92 501.57 m
0 7.04 l
o
np
346.67 495.59 m
7.04 0 l
o
np
350.19 492.07 m
0 7.03 l
o
np
357.29 494.46 m
7.04 0 l
o
np
360.81 490.94 m
0 7.04 l
o
np
367.56 499.70 m
7.04 0 l
o
np
371.08 496.18 m
0 7.04 l
o
np
378.18 498.22 m
7.04 0 l
o
np
381.70 494.70 m
0 7.04 l
o
np
388.80 498.77 m
7.03 0 l
o
np
392.31 495.25 m
0 7.04 l
o
np
399.07 503.81 m
7.04 0 l
o
np
402.59 500.29 m
0 7.04 l
o
np
409.69 496.30 m
7.03 0 l
o
np
413.20 492.79 m
0 7.03 l
o
np
419.96 501.85 m
7.04 0 l
o
np
423.48 498.33 m
0 7.04 l
o
np
430.58 492.78 m
7.03 0 l
o
np
434.10 489.26 m
0 7.04 l
o
np
441.19 496.74 m
7.04 0 l
o
np
444.71 493.22 m
0 7.04 l
o
np
451.12 501.67 m
7.04 0 l
o
np
454.64 498.16 m
0 7.03 l
o
np
461.74 496.95 m
7.04 0 l
o
np
465.26 493.43 m
0 7.04 l
o
np
472.02 495.82 m
7.03 0 l
o
np
475.53 492.30 m
0 7.04 l
o
56.60 462.12 4.98 4.98 r p1
np
56.60 462.12 m
4.98 4.98 l
o
np
56.60 467.10 m
4.98 -4.98 l
o
67.22 452.09 4.98 4.98 r p1
np
67.22 452.09 m
4.97 4.97 l
o
np
67.22 457.06 m
4.97 -4.97 l
o
76.81 443.95 4.98 4.98 r p1
np
76.81 443.95 m
4.97 4.98 l
o
np
76.81 448.93 m
4.97 -4.98 l
o
87.42 442.89 4.98 4.98 r p1
np
87.42 442.89 m
4.98 4.97 l
o
np
87.42 447.86 m
4.98 -4.97 l
o
97.70 451.33 4.98 4.98 r p1
np
97.70 451.33 m
4.97 4.98 l
o
np
97.70 456.31 m
4.97 -4.98 l
o
108.31 440.53 4.98 4.98 r p1
np
108.31 440.53 m
4.98 4.98 l
o
np
108.31 445.51 m
4.98 -4.98 l
o
118.59 452.49 4.98 4.98 r p1
np
118.59 452.49 m
4.97 4.98 l
o
np
118.59 457.47 m
4.97 -4.98 l
o
129.20 427.90 4.98 4.98 r p1
np
129.20 427.90 m
4.98 4.98 l
o
np
129.20 432.88 m
4.98 -4.98 l
o
139.82 447.61 4.98 4.98 r p1
np
139.82 447.61 m
4.98 4.97 l
o
np
139.82 452.58 m
4.98 -4.97 l
o
150.10 441.75 4.98 4.98 r p1
np
150.10 441.75 m
4.97 4.98 l
o
np
150.10 446.73 m
4.97 -4.98 l
o
160.71 454.55 4.98 4.98 r p1
np
160.71 454.55 m
4.98 4.98 l
o
np
160.71 459.53 m
4.98 -4.98 l
o
170.99 431.30 4.98 4.98 r p1
np
170.99 431.30 m
4.97 4.97 l
o
np
170.99 436.27 m
4.97 -4.97 l
o
181.60 449.98 4.98 4.98 r p1
np
181.60 449.98 m
4.98 4.98 l
o
np
181.60 454.96 m
4.98 -4.98 l
o
192.22 435.79 4.98 4.98 r p1
np
192.22 435.79 m
4.98 4.97 l
o
np
192.22 440.76 m
4.98 -4.97 l
o
201.81 444.44 4.98 4.98 r p1
np
201.81 444.44 m
4.98 4.98 l
o
np
201.81 449.42 m
4.98 -4.98 l
o
212.43 449.78 4.98 4.98 r p1
np
212.43 449.78 m
4.97 4.98 l
o
np
212.43 454.76 m
4.97 -4.98 l
o
222.70 447.15 4.98 4.98 r p1
np
222.70 447.15 m
4.98 4.98 l
o
np
222.70 452.13 m
4.98 -4.98 l
o
233.32 445.93 4.98 4.98 r p1
np
233.32 445.93 m
4.97 4.98 l
o
np
233.32 450.91 m
4.97 -4.98 l
o
243.59 447.04 4.98 4.98 r p1
np
243.59 447.04 m
4.98 4.97 l
o
np
243.59 452.01 m
4.98 -4.97 l
o
254.21 447.27 4.98 4.98 r p1
np
254.21 447.27 m
4.97 4.97 l
o
np
254.21 452.24 m
4.97 -4.97 l
o
264.82 448.15 4.98 4.98 r p1
np
264.82 448.15 m
4.98 4.97 l
o
np
264.82 453.12 m
4.98 -4.97 l
o
275.10 437.71 4.98 4.98 r p1
np
275.10 437.71 m
4.97 4.98 l
o
np
275.10 442.69 m
4.97 -4.98 l
o
285.71 439.96 4.98 4.98 r p1
np
285.71 439.96 m
4.98 4.98 l
o
np
285.71 444.94 m
4.98 -4.98 l
o
295.99 448.10 4.98 4.98 r p1
np
295.99 448.10 m
4.98 4.97 l
o
np
295.99 453.07 m
4.98 -4.97 l
o
306.61 453.43 4.98 4.98 r p1
np
306.61 453.43 m
4.97 4.98 l
o
np
306.61 458.41 m
4.97 -4.98 l
o
317.22 448.80 4.98 4.98 r p1
np
317.22 448.80 m
4.98 4.97 l
o
np
317.22 453.77 m
4.98 -4.97 l
o
326.81 443.30 4.98 4.98 r p1
np
326.81 443.30 m
4.98 4.98 l
o
np
326.81 448.28 m
4.98 -4.98 l
o
337.43 441.14 4.98 4.98 r p1
np
337.43 441.14 m
4.97 4.97 l
o
np
337.43 446.11 m
4.97 -4.97 l
o
347.70 440.52 4.98 4.98 r p1
np
347.70 440.52 m
4.98 4.97 l
o
np
347.70 445.49 m
4.98 -4.97 l
o
358.32 448.06 4.98 4.98 r p1
np
358.32 448.06 m
4.97 4.97 l
o
np
358.32 453.03 m
4.97 -4.97 l
o
368.59 444.14 4.98 4.98 r p1
np
368.59 444.14 m
4.98 4.97 l
o
np
368.59 449.11 m
4.98 -4.97 l
o
379.21 438.91 4.98 4.98 r p1
np
379.21 438.91 m
4.98 4.97 l
o
np
379.21 443.88 m
4.98 -4.97 l
o
389.83 445.99 4.98 4.98 r p1
np
389.83 445.99 m
4.97 4.97 l
o
np
389.83 450.96 m
4.97 -4.97 l
o
400.10 450.12 4.98 4.98 r p1
np
400.10 450.12 m
4.98 4.98 l
o
np
400.10 455.10 m
4.98 -4.98 l
o
410.72 447.48 4.98 4.98 r p1
np
410.72 447.48 m
4.97 4.97 l
o
np
410.72 452.45 m
4.97 -4.97 l
o
420.99 450.56 4.98 4.98 r p1
np
420.99 450.56 m
4.98 4.98 l
o
np
420.99 455.54 m
4.98 -4.98 l
o
431.61 447.47 4.98 4.98 r p1
np
431.61 447.47 m
4.97 4.98 l
o
np
431.61 452.45 m
4.97 -4.98 l
o
442.22 443.76 4.98 4.98 r p1
np
442.22 443.76 m
4.98 4.97 l
o
np
442.22 448.73 m
4.98 -4.97 l
o
452.16 446.58 4.98 4.98 r p1
np
452.16 446.58 m
4.97 4.97 l
o
np
452.16 451.55 m
4.97 -4.97 l
o
462.77 447.13 4.98 4.98 r p1
np
462.77 447.13 m
4.98 4.98 l
o
np
462.77 452.11 m
4.98 -4.98 l
o
473.05 451.85 4.98 4.98 r p1
np
473.05 451.85 m
4.97 4.97 l
o
np
473.05 456.82 m
4.97 -4.97 l
o
1.07 setlinewidth
[] 0 setdash
0 setlinecap
1.00 setmiterlimit
np
59.09 488.51 m
10.62 0.69 l
9.58 1.21 l
10.62 19.33 l
10.28 -14.39 l
10.61 -8.97 l
10.28 3.59 l
10.61 4.12 l
10.62 -2.63 l
10.27 -13.05 l
10.62 13.22 l
10.27 -4.69 l
10.62 2.87 l
10.62 3.96 l
9.59 -2.92 l
10.61 -10.76 l
10.28 10.78 l
10.61 -8.16 l
10.28 5.92 l
10.62 13.34 l
10.61 -7.57 l
10.28 -6.22 l
10.61 10.29 l
10.28 -2.97 l
10.61 -4.45 l
10.62 6.42 l
9.59 3.93 l
10.62 3.69 l
10.27 -9.50 l
10.62 -1.13 l
10.27 5.24 l
10.62 -1.48 l
10.61 0.55 l
10.28 5.04 l
10.61 -7.51 l
10.28 5.55 l
10.62 -9.07 l
10.61 3.96 l
9.93 4.93 l
10.62 -4.72 l
10.27 -1.13 l
o
1.07 setlinewidth
[ 2.13 2.13] 0 setdash
np
59.09 464.61 m
10.62 -10.04 l
9.58 -8.13 l
10.62 -1.07 l
10.28 8.45 l
10.61 -10.80 l
10.28 11.96 l
10.61 -24.59 l
10.62 19.71 l
10.27 -5.86 l
10.62 12.80 l
10.27 -23.26 l
10.62 18.69 l
10.62 -14.20 l
9.59 8.66 l
10.61 5.34 l
10.28 -2.63 l
10.61 -1.22 l
10.28 1.10 l
10.62 0.23 l
10.61 0.88 l
10.28 -10.43 l
10.61 2.25 l
10.28 8.14 l
10.61 5.33 l
10.62 -4.63 l
9.59 -5.50 l
10.62 -2.16 l
10.27 -0.63 l
10.62 7.55 l
10.27 -3.92 l
10.62 -5.24 l
10.61 7.09 l
10.28 4.13 l
10.61 -2.64 l
10.28 3.08 l
10.62 -3.09 l
10.61 -3.71 l
9.93 2.82 l
10.62 0.55 l
10.27 4.71 l
o
0.4980 0.4980 0.4980 srgb
1.07 setlinewidth
[] 0 setdash
1 setlinecap
10.00 setmiterlimit
38.27 426.42 458.09 87.28 r p1
0.00 0.00 595.28 519.69 cl
38.27 333.16 496.36 420.45 cl
/bg { 1 1 1 srgb } def
38.27 333.16 458.09 87.28 r p2
0.9804 0.9804 0.9804 srgb
1.07 setlinewidth
[] 0 setdash
0 setlinecap
1 setlinejoin
10.00 setmiterlimit
np
38.27 363.62 m
458.09 0 l
o
np
38.27 406.28 m
458.09 0 l
o
np
43.16 333.16 m
0 87.29 l
o
np
53.78 333.16 m
0 87.29 l
o
np
64.40 333.16 m
0 87.29 l
o
np
74.50 333.16 m
0 87.29 l
o
np
84.60 333.16 m
0 87.29 l
o
np
95.05 333.16 m
0 87.29 l
o
np
105.49 333.16 m
0 87.29 l
o
np
115.94 333.16 m
0 87.29 l
o
np
126.38 333.16 m
0 87.29 l
o
np
137.00 333.16 m
0 87.29 l
o
np
147.45 333.16 m
0 87.29 l
o
np
157.89 333.16 m
0 87.29 l
o
np
168.34 333.16 m
0 87.29 l
o
np
178.78 333.16 m
0 87.29 l
o
np
189.40 333.16 m
0 87.29 l
o
np
199.50 333.16 m
0 87.29 l
o
np
209.61 333.16 m
0 87.29 l
o
np
220.05 333.16 m
0 87.29 l
o
np
230.50 333.16 m
0 87.29 l
o
np
240.94 333.16 m
0 87.29 l
o
np
251.39 333.16 m
0 87.29 l
o
np
262.00 333.16 m
0 87.29 l
o
np
272.45 333.16 m
0 87.29 l
o
np
282.89 333.16 m
0 87.29 l
o
np
293.34 333.16 m
0 87.29 l
o
np
303.79 333.16 m
0 87.29 l
o
np
314.40 333.16 m
0 87.29 l
o
np
324.50 333.16 m
0 87.29 l
o
np
334.61 333.16 m
0 87.29 l
o
np
345.05 333.16 m
0 87.29 l
o
np
355.50 333.16 m
0 87.29 l
o
np
365.94 333.16 m
0 87.29 l
o
np
376.39 333.16 m
0 87.29 l
o
np
387.01 333.16 m
0 87.29 l
o
np
397.45 333.16 m
0 87.29 l
o
np
407.90 333.16 m
0 87.29 l
o
np
418.34 333.16 m
0 87.29 l
o
np
428.79 333.16 m
0 87.29 l
o
np
439.40 333.16 m
0 87.29 l
o
np
449.68 333.16 m
0 87.29 l
o
np
459.95 333.16 m
0 87.29 l
o
np
470.40 333.16 m
0 87.29 l
o
np
480.84 333.16 m
0 87.29 l
o
np
491.46 333.16 m
0 87.29 l
o
0.8980 0.8980 0.8980 srgb
0.43 setlinewidth
[] 0 setdash
np
38.27 342.29 m
458.09 0 l
o
np
38.27 384.95 m
458.09 0 l
o
np
48.47 333.16 m
0 87.29 l
o
np
59.09 333.16 m
0 87.29 l
o
np
69.71 333.16 m
0 87.29 l
o
np
79.29 333.16 m
0 87.29 l
o
np
89.91 333.16 m
0 87.29 l
o
np
100.19 333.16 m
0 87.29 l
o
np
110.80 333.16 m
0 87.29 l
o
np
121.08 333.16 m
0 87.29 l
o
np
131.69 333.16 m
0 87.29 l
o
np
142.31 333.16 m
0 87.29 l
o
np
152.58 333.16 m
0 87.29 l
o
np
163.20 333.16 m
0 87.29 l
o
np
173.47 333.16 m
0 87.29 l
o
np
184.09 333.16 m
0 87.29 l
o
np
194.71 333.16 m
0 87.29 l
o
np
204.30 333.16 m
0 87.29 l
o
np
214.91 333.16 m
0 87.29 l
o
np
225.19 333.16 m
0 87.29 l
o
np
235.80 333.16 m
0 87.29 l
o
np
246.08 333.16 m
0 87.29 l
o
np
256.70 333.16 m
0 87.29 l
o
np
267.31 333.16 m
0 87.29 l
o
np
277.59 333.16 m
0 87.29 l
o
np
288.20 333.16 m
0 87.29 l
o
np
298.48 333.16 m
0 87.29 l
o
np
309.09 333.16 m
0 87.29 l
o
np
319.71 333.16 m
0 87.29 l
o
np
329.30 333.16 m
0 87.29 l
o
np
339.92 333.16 m
0 87.29 l
o
np
350.19 333.16 m
0 87.29 l
o
np
360.81 333.16 m
0 87.29 l
o
np
371.08 333.16 m
0 87.29 l
o
np
381.70 333.16 m
0 87.29 l
o
np
392.31 333.16 m
0 87.29 l
o
np
402.59 333.16 m
0 87.29 l
o
np
413.20 333.16 m
0 87.29 l
o
np
423.48 333.16 m
0 87.29 l
o
np
434.10 333.16 m
0 87.29 l
o
np
444.71 333.16 m
0 87.29 l
o
np
454.64 333.16 m
0 87.29 l
o
np
465.26 333.16 m
0 87.29 l
o
np
475.53 333.16 m
0 87.29 l
o
np
486.15 333.16 m
0 87.29 l
o
0 0 0 srgb
0.71 setlinewidth
[] 0 setdash
1 setlinecap
np
55.57 416.48 m
7.04 0 l
o
np
59.09 412.96 m
0 7.04 l
o
np
66.19 414.64 m
7.03 0 l
o
np
69.71 411.13 m
0 7.03 l
o
np
75.78 409.24 m
7.03 0 l
o
np
79.29 405.73 m
0 7.03 l
o
np
86.39 407.69 m
7.04 0 l
o
np
89.91 404.17 m
0 7.04 l
o
np
96.67 412.12 m
7.03 0 l
o
np
100.19 408.60 m
0 7.04 l
o
np
107.28 415.04 m
7.04 0 l
o
np
110.80 411.52 m
0 7.04 l
o
np
117.56 410.67 m
7.04 0 l
o
np
121.08 407.15 m
0 7.04 l
o
np
128.17 411.15 m
7.04 0 l
o
np
131.69 407.63 m
0 7.04 l
o
np
138.79 403.02 m
7.04 0 l
o
np
142.31 399.50 m
0 7.04 l
o
np
149.06 408.62 m
7.04 0 l
o
np
152.58 405.10 m
0 7.04 l
o
np
159.68 413.31 m
7.04 0 l
o
np
163.20 409.79 m
0 7.04 l
o
np
169.96 406.14 m
7.03 0 l
o
np
173.47 402.63 m
0 7.03 l
o
np
180.57 408.41 m
7.04 0 l
o
np
184.09 404.89 m
0 7.04 l
o
np
191.19 401.15 m
7.04 0 l
o
np
194.71 397.63 m
0 7.04 l
o
np
200.78 408.00 m
7.04 0 l
o
np
204.30 404.48 m
0 7.04 l
o
np
211.39 404.24 m
7.04 0 l
o
np
214.91 400.73 m
0 7.03 l
o
np
221.67 408.61 m
7.04 0 l
o
np
225.19 405.09 m
0 7.04 l
o
np
232.29 406.67 m
7.03 0 l
o
np
235.80 403.15 m
0 7.04 l
o
np
242.56 408.75 m
7.04 0 l
o
np
246.08 405.23 m
0 7.04 l
o
np
253.18 407.27 m
7.03 0 l
o
np
256.70 403.75 m
0 7.04 l
o
np
263.79 404.94 m
7.04 0 l
o
np
267.31 401.42 m
0 7.04 l
o
np
274.07 409.44 m
7.03 0 l
o
np
277.59 405.92 m
0 7.04 l
o
np
284.68 410.92 m
7.04 0 l
o
np
288.20 407.40 m
0 7.04 l
o
np
294.96 397.63 m
7.04 0 l
o
np
298.48 394.12 m
0 7.03 l
o
np
305.57 413.59 m
7.04 0 l
o
np
309.09 410.07 m
0 7.04 l
o
np
316.19 411.83 m
7.04 0 l
o
np
319.71 408.31 m
0 7.04 l
o
np
325.78 407.53 m
7.04 0 l
o
np
329.30 404.01 m
0 7.04 l
o
np
336.40 405.95 m
7.03 0 l
o
np
339.92 402.43 m
0 7.04 l
o
np
346.67 405.82 m
7.04 0 l
o
np
350.19 402.30 m
0 7.04 l
o
np
357.29 404.90 m
7.04 0 l
o
np
360.81 401.38 m
0 7.03 l
o
np
367.56 411.28 m
7.04 0 l
o
np
371.08 407.76 m
0 7.04 l
o
np
378.18 408.96 m
7.04 0 l
o
np
381.70 405.44 m
0 7.04 l
o
np
388.80 403.76 m
7.03 0 l
o
np
392.31 400.24 m
0 7.04 l
o
np
399.07 406.16 m
7.04 0 l
o
np
402.59 402.64 m
0 7.04 l
o
np
409.69 397.28 m
7.03 0 l
o
np
413.20 393.77 m
0 7.03 l
o
np
419.96 404.00 m
7.04 0 l
o
np
423.48 400.48 m
0 7.04 l
o
np
430.58 403.77 m
7.03 0 l
o
np
434.10 400.25 m
0 7.03 l
o
np
441.19 403.43 m
7.04 0 l
o
np
444.71 399.91 m
0 7.04 l
o
np
451.12 408.23 m
7.04 0 l
o
np
454.64 404.71 m
0 7.04 l
o
np
461.74 403.92 m
7.04 0 l
o
np
465.26 400.40 m
0 7.04 l
o
np
472.02 399.48 m
7.03 0 l
o
np
475.53 395.96 m
0 7.03 l
o
56.60 372.55 4.98 4.98 r p1
np
56.60 372.55 m
4.98 4.98 l
o
np
56.60 377.53 m
4.98 -4.98 l
o
67.22 373.44 4.98 4.98 r p1
np
67.22 373.44 m
4.97 4.97 l
o
np
67.22 378.41 m
4.97 -4.97 l
o
76.81 371.11 4.98 4.98 r p1
np
76.81 371.11 m
4.97 4.97 l
o
np
76.81 376.08 m
4.97 -4.97 l
o
87.42 371.90 4.98 4.98 r p1
np
87.42 371.90 m
4.98 4.98 l
o
np
87.42 376.88 m
4.98 -4.98 l
o
97.70 371.78 4.98 4.98 r p1
np
97.70 371.78 m
4.97 4.98 l
o
np
97.70 376.76 m
4.97 -4.98 l
o
108.31 373.08 4.98 4.98 r p1
np
108.31 373.08 m
4.98 4.98 l
o
np
108.31 378.06 m
4.98 -4.98 l
o
118.59 370.76 4.98 4.98 r p1
np
118.59 370.76 m
4.97 4.97 l
o
np
118.59 375.73 m
4.97 -4.97 l
o
129.20 383.70 4.98 4.98 r p1
np
129.20 383.70 m
4.98 4.98 l
o
np
129.20 388.68 m
4.98 -4.98 l
o
139.82 372.93 4.98 4.98 r p1
np
139.82 372.93 m
4.98 4.98 l
o
np
139.82 377.91 m
4.98 -4.98 l
o
150.10 385.71 4.98 4.98 r p1
np
150.10 385.71 m
4.97 4.98 l
o
np
150.10 390.69 m
4.97 -4.98 l
o
160.71 383.43 4.98 4.98 r p1
np
160.71 383.43 m
4.98 4.98 l
o
np
160.71 388.41 m
4.98 -4.98 l
o
170.99 365.84 4.98 4.98 r p1
np
170.99 365.84 m
4.97 4.98 l
o
np
170.99 370.82 m
4.97 -4.98 l
o
181.60 382.15 4.98 4.98 r p1
np
181.60 382.15 m
4.98 4.97 l
o
np
181.60 387.12 m
4.98 -4.97 l
o
192.22 363.65 4.98 4.98 r p1
np
192.22 363.65 m
4.98 4.98 l
o
np
192.22 368.63 m
4.98 -4.98 l
o
201.81 373.37 4.98 4.98 r p1
np
201.81 373.37 m
4.98 4.98 l
o
np
201.81 378.35 m
4.98 -4.98 l
o
212.43 368.77 4.98 4.98 r p1
np
212.43 368.77 m
4.97 4.98 l
o
np
212.43 373.75 m
4.97 -4.98 l
o
222.70 373.91 4.98 4.98 r p1
np
222.70 373.91 m
4.98 4.98 l
o
np
222.70 378.89 m
4.98 -4.98 l
o
233.32 367.81 4.98 4.98 r p1
np
233.32 367.81 m
4.97 4.98 l
o
np
233.32 372.79 m
4.97 -4.98 l
o
243.59 367.32 4.98 4.98 r p1
np
243.59 367.32 m
4.98 4.98 l
o
np
243.59 372.30 m
4.98 -4.98 l
o
254.21 373.37 4.98 4.98 r p1
np
254.21 373.37 m
4.97 4.98 l
o
np
254.21 378.35 m
4.97 -4.98 l
o
264.82 373.06 4.98 4.98 r p1
np
264.82 373.06 m
4.98 4.97 l
o
np
264.82 378.03 m
4.98 -4.97 l
o
275.10 375.94 4.98 4.98 r p1
np
275.10 375.94 m
4.97 4.98 l
o
np
275.10 380.92 m
4.97 -4.98 l
o
285.71 389.67 4.98 4.98 r p1
np
285.71 389.67 m
4.98 4.98 l
o
np
285.71 394.65 m
4.98 -4.98 l
o
295.99 354.81 4.98 4.98 r p1
np
295.99 354.81 m
4.98 4.98 l
o
np
295.99 359.79 m
4.98 -4.98 l
o
306.61 371.37 4.98 4.98 r p1
np
306.61 371.37 m
4.97 4.97 l
o
np
306.61 376.34 m
4.97 -4.97 l
o
317.22 372.22 4.98 4.98 r p1
np
317.22 372.22 m
4.98 4.97 l
o
np
317.22 377.19 m
4.98 -4.97 l
o
326.81 381.41 4.98 4.98 r p1
np
326.81 381.41 m
4.98 4.97 l
o
np
326.81 386.38 m
4.98 -4.97 l
o
337.43 370.13 4.98 4.98 r p1
np
337.43 370.13 m
4.97 4.98 l
o
np
337.43 375.11 m
4.97 -4.98 l
o
347.70 373.08 4.98 4.98 r p1
np
347.70 373.08 m
4.98 4.97 l
o
np
347.70 378.05 m
4.98 -4.97 l
o
358.32 373.79 4.98 4.98 r p1
np
358.32 373.79 m
4.97 4.97 l
o
np
358.32 378.76 m
4.97 -4.97 l
o
368.59 372.43 4.98 4.98 r p1
np
368.59 372.43 m
4.98 4.98 l
o
np
368.59 377.41 m
4.98 -4.98 l
o
379.21 345.31 4.98 4.98 r p1
np
379.21 345.31 m
4.98 4.98 l
o
np
379.21 350.29 m
4.98 -4.98 l
o
389.83 372.48 4.98 4.98 r p1
np
389.83 372.48 m
4.97 4.98 l
o
np
389.83 377.46 m
4.97 -4.98 l
o
400.10 367.14 4.98 4.98 r p1
np
400.10 367.14 m
4.98 4.98 l
o
np
400.10 372.12 m
4.98 -4.98 l
o
410.72 334.64 4.98 4.98 r p1
np
410.72 334.64 m
4.97 4.98 l
o
np
410.72 339.62 m
4.97 -4.98 l
o
420.99 368.09 4.98 4.98 r p1
np
420.99 368.09 m
4.98 4.98 l
o
np
420.99 373.07 m
4.98 -4.98 l
o
431.61 371.21 4.98 4.98 r p1
np
431.61 371.21 m
4.97 4.98 l
o
np
431.61 376.19 m
4.97 -4.98 l
o
442.22 376.07 4.98 4.98 r p1
np
442.22 376.07 m
4.98 4.97 l
o
np
442.22 381.04 m
4.98 -4.97 l
o
462.77 363.66 4.98 4.98 r p1
np
462.77 363.66 m
4.98 4.97 l
o
np
462.77 368.63 m
4.98 -4.97 l
o
473.05 360.96 4.98 4.98 r p1
np
473.05 360.96 m
4.97 4.98 l
o
np
473.05 365.94 m
4.97 -4.98 l
o
1.07 setlinewidth
[] 0 setdash
0 setlinecap
1.00 setmiterlimit
np
59.09 416.48 m
10.62 -1.84 l
9.58 -5.40 l
10.62 -1.55 l
10.28 4.43 l
10.61 2.92 l
10.28 -4.37 l
10.61 0.48 l
10.62 -8.13 l
10.27 5.60 l
10.62 4.69 l
10.27 -7.17 l
10.62 2.27 l
10.62 -7.26 l
9.59 6.85 l
10.61 -3.76 l
10.28 4.37 l
10.61 -1.94 l
10.28 2.08 l
10.62 -1.48 l
10.61 -2.33 l
10.28 4.50 l
10.61 1.48 l
10.28 -13.29 l
10.61 15.96 l
10.62 -1.76 l
9.59 -4.30 l
10.62 -1.58 l
10.27 -0.13 l
10.62 -0.92 l
10.27 6.38 l
10.62 -2.32 l
10.61 -5.20 l
10.28 2.40 l
10.61 -8.88 l
10.28 6.72 l
10.62 -0.23 l
10.61 -0.34 l
9.93 4.80 l
10.62 -4.31 l
10.27 -4.44 l
o
1.07 setlinewidth
[ 2.13 2.13] 0 setdash
np
59.09 375.04 m
10.62 0.89 l
9.58 -2.34 l
10.62 0.80 l
10.28 -0.12 l
10.61 1.30 l
10.28 -2.33 l
10.61 12.95 l
10.62 -10.77 l
10.27 12.78 l
10.62 -2.28 l
10.27 -17.59 l
10.62 16.30 l
10.62 -18.49 l
9.59 9.72 l
10.61 -4.60 l
10.28 5.14 l
10.61 -6.10 l
10.28 -0.49 l
10.62 6.05 l
10.61 -0.31 l
10.28 2.88 l
10.61 13.73 l
10.28 -34.86 l
10.61 16.56 l
10.62 0.85 l
9.59 9.18 l
10.62 -11.27 l
10.27 2.94 l
10.62 0.72 l
10.27 -1.36 l
10.62 -27.12 l
10.61 27.17 l
10.28 -5.34 l
10.61 -32.50 l
10.28 33.45 l
10.62 3.12 l
10.61 4.86 l
20.55 -12.42 l
10.27 -2.69 l
o
0.4980 0.4980 0.4980 srgb
1.07 setlinewidth
[] 0 setdash
1 setlinecap
10.00 setmiterlimit
38.27 333.16 458.09 87.28 r p1
0.00 0.00 595.28 519.69 cl
38.27 239.90 496.36 327.19 cl
/bg { 1 1 1 srgb } def
38.27 239.90 458.09 87.28 r p2
0.9804 0.9804 0.9804 srgb
1.07 setlinewidth
[] 0 setdash
0 setlinecap
1 setlinejoin
10.00 setmiterlimit
np
43.16 239.90 m
0 87.29 l
o
np
53.78 239.90 m
0 87.29 l
o
np
64.40 239.90 m
0 87.29 l
o
np
74.50 239.90 m
0 87.29 l
o
np
84.60 239.90 m
0 87.29 l
o
np
95.05 239.90 m
0 87.29 l
o
np
105.49 239.90 m
0 87.29 l
o
np
115.94 239.90 m
0 87.29 l
o
np
126.38 239.90 m
0 87.29 l
o
np
137.00 239.90 m
0 87.29 l
o
np
147.45 239.90 m
0 87.29 l
o
np
157.89 239.90 m
0 87.29 l
o
np
168.34 239.90 m
0 87.29 l
o
np
178.78 239.90 m
0 87.29 l
o
np
189.40 239.90 m
0 87.29 l
o
np
199.50 239.90 m
0 87.29 l
o
np
209.61 239.90 m
0 87.29 l
o
np
220.05 239.90 m
0 87.29 l
o
np
230.50 239.90 m
0 87.29 l
o
np
240.94 239.90 m
0 87.29 l
o
np
251.39 239.90 m
0 87.29 l
o
np
262.00 239.90 m
0 87.29 l
o
np
272.45 239.90 m
0 87.29 l
o
np
282.89 239.90 m
0 87.29 l
o
np
293.34 239.90 m
0 87.29 l
o
np
303.79 239.90 m
0 87.29 l
o
np
314.40 239.90 m
0 87.29 l
o
np
324.50 239.90 m
0 87.29 l
o
np
334.61 239.90 m
0 87.29 l
o
np
345.05 239.90 m
0 87.29 l
o
np
355.50 239.90 m
0 87.29 l
o
np
365.94 239.90 m
0 87.29 l
o
np
376.39 239.90 m
0 87.29 l
o
np
387.01 239.90 m
0 87.29 l
o
np
397.45 239.90 m
0 87.29 l
o
np
407.90 239.90 m
0 87.29 l
o
np
418.34 239.90 m
0 87.29 l
o
np
428.79 239.90 m
0 87.29 l
o
np
439.40 239.90 m
0 87.29 l
o
np
449.68 239.90 m
0 87.29 l
o
np
459.95 239.90 m
0 87.29 l
o
np
470.40 239.90 m
0 87.29 l
o
np
480.84 239.90 m
0 87.29 l
o
np
491.46 239.90 m
0 87.29 l
o
0.8980 0.8980 0.8980 srgb
0.43 setlinewidth
[] 0 setdash
np
38.27 282.86 m
458.09 0 l
o
np
48.47 239.90 m
0 87.29 l
o
np
59.09 239.90 m
0 87.29 l
o
np
69.71 239.90 m
0 87.29 l
o
np
79.29 239.90 m
0 87.29 l
o
np
89.91 239.90 m
0 87.29 l
o
np
100.19 239.90 m
0 87.29 l
o
np
110.80 239.90 m
0 87.29 l
o
np
121.08 239.90 m
0 87.29 l
o
np
131.69 239.90 m
0 87.29 l
o
np
142.31 239.90 m
0 87.29 l
o
np
152.58 239.90 m
0 87.29 l
o
np
163.20 239.90 m
0 87.29 l
o
np
173.47 239.90 m
0 87.29 l
o
np
184.09 239.90 m
0 87.29 l
o
np
194.71 239.90 m
0 87.29 l
o
np
204.30 239.90 m
0 87.29 l
o
np
214.91 239.90 m
0 87.29 l
o
np
225.19 239.90 m
0 87.29 l
o
np
235.80 239.90 m
0 87.29 l
o
np
246.08 239.90 m
0 87.29 l
o
np
256.70 239.90 m
0 87.29 l
o
np
267.31 239.90 m
0 87.29 l
o
np
277.59 239.90 m
0 87.29 l
o
np
288.20 239.90 m
0 87.29 l
o
np
298.48 239.90 m
0 87.29 l
o
np
309.09 239.90 m
0 87.29 l
o
np
319.71 239.90 m
0 87.29 l
o
np
329.30 239.90 m
0 87.29 l
o
np
339.92 239.90 m
0 87.29 l
o
np
350.19 239.90 m
0 87.29 l
o
np
360.81 239.90 m
0 87.29 l
o
np
371.08 239.90 m
0 87.29 l
o
np
381.70 239.90 m
0 87.29 l
o
np
392.31 239.90 m
0 87.29 l
o
np
402.59 239.90 m
0 87.29 l
o
np
413.20 239.90 m
0 87.29 l
o
np
423.48 239.90 m
0 87.29 l
o
np
434.10 239.90 m
0 87.29 l
o
np
444.71 239.90 m
0 87.29 l
o
np
454.64 239.90 m
0 87.29 l
o
np
465.26 239.90 m
0 87.29 l
o
np
475.53 239.90 m
0 87.29 l
o
np
486.15 239.90 m
0 87.29 l
o
0 0 0 srgb
0.71 setlinewidth
[] 0 setdash
1 setlinecap
np
55.57 306.04 m
7.04 0 l
o
np
59.09 302.52 m
0 7.04 l
o
np
66.19 299.30 m
7.03 0 l
o
np
69.71 295.78 m
0 7.04 l
o
np
75.78 304.52 m
7.03 0 l
o
np
79.29 301.00 m
0 7.04 l
o
np
86.39 323.22 m
7.04 0 l
o
np
89.91 319.70 m
0 7.04 l
o
np
96.67 302.33 m
7.03 0 l
o
np
100.19 298.81 m
0 7.04 l
o
np
107.28 292.53 m
7.04 0 l
o
np
110.80 289.01 m
0 7.04 l
o
np
117.56 312.27 m
7.04 0 l
o
np
121.08 308.75 m
0 7.04 l
o
np
128.17 312.22 m
7.04 0 l
o
np
131.69 308.70 m
0 7.04 l
o
np
138.79 323.09 m
7.04 0 l
o
np
142.31 319.58 m
0 7.03 l
o
np
149.06 273.16 m
7.04 0 l
o
np
152.58 269.65 m
0 7.03 l
o
np
159.68 308.27 m
7.04 0 l
o
np
163.20 304.75 m
0 7.03 l
o
np
169.96 288.23 m
7.03 0 l
o
np
173.47 284.71 m
0 7.04 l
o
np
180.57 299.45 m
7.04 0 l
o
np
184.09 295.93 m
0 7.04 l
o
np
191.19 300.37 m
7.04 0 l
o
np
194.71 296.85 m
0 7.04 l
o
np
200.78 309.78 m
7.04 0 l
o
np
204.30 306.26 m
0 7.04 l
o
np
211.39 306.44 m
7.04 0 l
o
np
214.91 302.92 m
0 7.03 l
o
np
221.67 298.50 m
7.04 0 l
o
np
225.19 294.98 m
0 7.04 l
o
np
232.29 289.92 m
7.03 0 l
o
np
235.80 286.40 m
0 7.04 l
o
np
242.56 285.02 m
7.04 0 l
o
np
246.08 281.51 m
0 7.03 l
o
np
253.18 304.20 m
7.03 0 l
o
np
256.70 300.69 m
0 7.03 l
o
np
263.79 299.03 m
7.04 0 l
o
np
267.31 295.51 m
0 7.04 l
o
np
274.07 300.19 m
7.03 0 l
o
np
277.59 296.67 m
0 7.04 l
o
np
284.68 310.83 m
7.04 0 l
o
np
288.20 307.31 m
0 7.04 l
o
np
294.96 291.33 m
7.04 0 l
o
np
298.48 287.81 m
0 7.04 l
o
np
305.57 302.02 m
7.04 0 l
o
np
309.09 298.50 m
0 7.04 l
o
np
316.19 301.68 m
7.04 0 l
o
np
319.71 298.16 m
0 7.04 l
o
np
325.78 291.16 m
7.04 0 l
o
np
329.30 287.64 m
0 7.04 l
o
np
336.40 306.77 m
7.03 0 l
o
np
339.92 303.25 m
0 7.03 l
o
np
346.67 301.85 m
7.04 0 l
o
np
350.19 298.33 m
0 7.04 l
o
np
357.29 301.30 m
7.04 0 l
o
np
360.81 297.78 m
0 7.04 l
o
np
367.56 299.55 m
7.04 0 l
o
np
371.08 296.03 m
0 7.04 l
o
np
378.18 294.44 m
7.04 0 l
o
np
381.70 290.92 m
0 7.04 l
o
np
388.80 290.35 m
7.03 0 l
o
np
392.31 286.83 m
0 7.03 l
o
np
399.07 293.20 m
7.04 0 l
o
np
402.59 289.68 m
0 7.04 l
o
np
409.69 300.25 m
7.03 0 l
o
np
413.20 296.73 m
0 7.04 l
o
np
419.96 299.48 m
7.04 0 l
o
np
423.48 295.97 m
0 7.03 l
o
np
430.58 300.87 m
7.03 0 l
o
np
434.10 297.35 m
0 7.04 l
o
np
441.19 301.22 m
7.04 0 l
o
np
444.71 297.70 m
0 7.04 l
o
np
451.12 277.01 m
7.04 0 l
o
np
454.64 273.49 m
0 7.03 l
o
np
461.74 306.54 m
7.04 0 l
o
np
465.26 303.02 m
0 7.04 l
o
np
472.02 309.13 m
7.03 0 l
o
np
475.53 305.61 m
0 7.04 l
o
56.60 246.97 4.98 4.98 r p1
np
56.60 246.97 m
4.98 4.97 l
o
np
56.60 251.94 m
4.98 -4.97 l
o
67.22 253.94 4.98 4.98 r p1
np
67.22 253.94 m
4.97 4.98 l
o
np
67.22 258.92 m
4.97 -4.98 l
o
76.81 247.03 4.98 4.98 r p1
np
76.81 247.03 m
4.97 4.98 l
o
np
76.81 252.01 m
4.97 -4.98 l
o
87.42 260.60 4.98 4.98 r p1
np
87.42 260.60 m
4.98 4.98 l
o
np
87.42 265.58 m
4.98 -4.98 l
o
97.70 268.99 4.98 4.98 r p1
np
97.70 268.99 m
4.97 4.97 l
o
np
97.70 273.96 m
4.97 -4.97 l
o
108.31 241.38 4.98 4.98 r p1
np
108.31 241.38 m
4.98 4.98 l
o
np
108.31 246.36 m
4.98 -4.98 l
o
118.59 251.23 4.98 4.98 r p1
np
118.59 251.23 m
4.97 4.97 l
o
np
118.59 256.20 m
4.97 -4.97 l
o
129.20 244.97 4.98 4.98 r p1
np
129.20 244.97 m
4.98 4.98 l
o
np
129.20 249.95 m
4.98 -4.98 l
o
139.82 265.11 4.98 4.98 r p1
np
139.82 265.11 m
4.98 4.98 l
o
np
139.82 270.09 m
4.98 -4.98 l
o
150.10 250.25 4.98 4.98 r p1
np
150.10 250.25 m
4.97 4.98 l
o
np
150.10 255.23 m
4.97 -4.98 l
o
160.71 268.18 4.98 4.98 r p1
np
160.71 268.18 m
4.98 4.97 l
o
np
160.71 273.15 m
4.98 -4.97 l
o
170.99 241.74 4.98 4.98 r p1
np
170.99 241.74 m
4.97 4.98 l
o
np
170.99 246.72 m
4.97 -4.98 l
o
181.60 254.66 4.98 4.98 r p1
np
181.60 254.66 m
4.98 4.98 l
o
np
181.60 259.64 m
4.98 -4.98 l
o
192.22 265.07 4.98 4.98 r p1
np
192.22 265.07 m
4.98 4.97 l
o
np
192.22 270.04 m
4.98 -4.97 l
o
201.81 247.02 4.98 4.98 r p1
np
201.81 247.02 m
4.98 4.98 l
o
np
201.81 252.00 m
4.98 -4.98 l
o
212.43 261.61 4.98 4.98 r p1
np
212.43 261.61 m
4.97 4.97 l
o
np
212.43 266.58 m
4.97 -4.97 l
o
222.70 251.28 4.98 4.98 r p1
np
222.70 251.28 m
4.98 4.98 l
o
np
222.70 256.26 m
4.98 -4.98 l
o
233.32 261.91 4.98 4.98 r p1
np
233.32 261.91 m
4.97 4.98 l
o
np
233.32 266.89 m
4.97 -4.98 l
o
243.59 249.13 4.98 4.98 r p1
np
243.59 249.13 m
4.98 4.98 l
o
np
243.59 254.11 m
4.98 -4.98 l
o
254.21 247.93 4.98 4.98 r p1
np
254.21 247.93 m
4.97 4.98 l
o
np
254.21 252.91 m
4.97 -4.98 l
o
264.82 251.01 4.98 4.98 r p1
np
264.82 251.01 m
4.98 4.98 l
o
np
264.82 255.99 m
4.98 -4.98 l
o
275.10 255.85 4.98 4.98 r p1
np
275.10 255.85 m
4.97 4.97 l
o
np
275.10 260.82 m
4.97 -4.97 l
o
285.71 270.00 4.98 4.98 r p1
np
285.71 270.00 m
4.98 4.98 l
o
np
285.71 274.98 m
4.98 -4.98 l
o
295.99 261.87 4.98 4.98 r p1
np
295.99 261.87 m
4.98 4.98 l
o
np
295.99 266.85 m
4.98 -4.98 l
o
306.61 259.44 4.98 4.98 r p1
np
306.61 259.44 m
4.97 4.98 l
o
np
306.61 264.42 m
4.97 -4.98 l
o
317.22 262.22 4.98 4.98 r p1
np
317.22 262.22 m
4.98 4.98 l
o
np
317.22 267.20 m
4.98 -4.98 l
o
326.81 263.65 4.98 4.98 r p1
np
326.81 263.65 m
4.98 4.98 l
o
np
326.81 268.63 m
4.98 -4.98 l
o
337.43 253.04 4.98 4.98 r p1
np
337.43 253.04 m
4.97 4.98 l
o
np
337.43 258.02 m
4.97 -4.98 l
o
347.70 258.43 4.98 4.98 r p1
np
347.70 258.43 m
4.98 4.97 l
o
np
347.70 263.40 m
4.98 -4.97 l
o
358.32 257.66 4.98 4.98 r p1
np
358.32 257.66 m
4.97 4.98 l
o
np
358.32 262.64 m
4.97 -4.98 l
o
368.59 256.28 4.98 4.98 r p1
np
368.59 256.28 m
4.98 4.98 l
o
np
368.59 261.26 m
4.98 -4.98 l
o
379.21 248.20 4.98 4.98 r p1
np
379.21 248.20 m
4.98 4.98 l
o
np
379.21 253.18 m
4.98 -4.98 l
o
389.83 252.86 4.98 4.98 r p1
np
389.83 252.86 m
4.97 4.98 l
o
np
389.83 257.84 m
4.97 -4.98 l
o
400.10 260.95 4.98 4.98 r p1
np
400.10 260.95 m
4.98 4.97 l
o
np
400.10 265.92 m
4.98 -4.97 l
o
410.72 256.49 4.98 4.98 r p1
np
410.72 256.49 m
4.97 4.97 l
o
np
410.72 261.46 m
4.97 -4.97 l
o
420.99 257.98 4.98 4.98 r p1
np
420.99 257.98 m
4.98 4.98 l
o
np
420.99 262.96 m
4.98 -4.98 l
o
431.61 263.56 4.98 4.98 r p1
np
431.61 263.56 m
4.97 4.97 l
o
np
431.61 268.53 m
4.97 -4.97 l
o
442.22 260.13 4.98 4.98 r p1
np
442.22 260.13 m
4.98 4.98 l
o
np
442.22 265.11 m
4.98 -4.98 l
o
452.16 266.07 4.98 4.98 r p1
np
452.16 266.07 m
4.97 4.98 l
o
np
452.16 271.05 m
4.97 -4.98 l
o
462.77 254.19 4.98 4.98 r p1
np
462.77 254.19 m
4.98 4.98 l
o
np
462.77 259.17 m
4.98 -4.98 l
o
473.05 255.29 4.98 4.98 r p1
np
473.05 255.29 m
4.97 4.98 l
o
np
473.05 260.27 m
4.97 -4.98 l
o
1.07 setlinewidth
[] 0 setdash
0 setlinecap
1.00 setmiterlimit
np
59.09 306.04 m
10.62 -6.74 l
9.58 5.22 l
10.62 18.70 l
10.28 -20.89 l
10.61 -9.80 l
10.28 19.74 l
10.61 -0.05 l
10.62 10.87 l
10.27 -49.93 l
10.62 35.11 l
10.27 -20.04 l
10.62 11.22 l
10.62 0.92 l
9.59 9.41 l
10.61 -3.34 l
10.28 -7.94 l
10.61 -8.58 l
10.28 -4.90 l
10.62 19.18 l
10.61 -5.17 l
10.28 1.16 l
10.61 10.64 l
10.28 -19.50 l
10.61 10.69 l
10.62 -0.34 l
9.59 -10.52 l
10.62 15.61 l
10.27 -4.92 l
10.62 -0.55 l
10.27 -1.75 l
10.62 -5.11 l
10.61 -4.09 l
10.28 2.85 l
10.61 7.05 l
10.28 -0.77 l
10.62 1.39 l
10.61 0.35 l
9.93 -24.21 l
10.62 29.53 l
10.27 2.59 l
o
1.07 setlinewidth
[ 2.13 2.13] 0 setdash
np
59.09 249.45 m
10.62 6.98 l
9.58 -6.91 l
10.62 13.57 l
10.28 8.38 l
10.61 -27.60 l
10.28 9.84 l
10.61 -6.25 l
10.62 20.14 l
10.27 -14.86 l
10.62 17.93 l
10.27 -26.44 l
10.62 12.92 l
10.62 10.41 l
9.59 -18.05 l
10.61 14.58 l
10.28 -10.32 l
10.61 10.63 l
10.28 -12.78 l
10.62 -1.20 l
10.61 3.08 l
10.28 4.83 l
10.61 14.16 l
10.28 -8.13 l
10.61 -2.43 l
10.62 2.78 l
9.59 1.43 l
10.62 -10.61 l
10.27 5.38 l
10.62 -0.76 l
10.27 -1.38 l
10.62 -8.08 l
10.61 4.66 l
10.28 8.08 l
10.61 -4.45 l
10.28 1.49 l
10.62 5.58 l
10.61 -3.43 l
9.93 5.94 l
10.62 -11.88 l
10.27 1.10 l
o
0.4980 0.4980 0.4980 srgb
1.07 setlinewidth
[] 0 setdash
1 setlinecap
10.00 setmiterlimit
38.27 239.90 458.09 87.28 r p1
0.00 0.00 595.28 519.69 cl
38.27 146.64 496.36 233.93 cl
/bg { 1 1 1 srgb } def
38.27 146.64 458.09 87.28 r p2
0.9804 0.9804 0.9804 srgb
1.07 setlinewidth
[] 0 setdash
0 setlinecap
1 setlinejoin
10.00 setmiterlimit
np
43.16 146.64 m
0 87.29 l
o
np
53.78 146.64 m
0 87.29 l
o
np
64.40 146.64 m
0 87.29 l
o
np
74.50 146.64 m
0 87.29 l
o
np
84.60 146.64 m
0 87.29 l
o
np
95.05 146.64 m
0 87.29 l
o
np
105.49 146.64 m
0 87.29 l
o
np
115.94 146.64 m
0 87.29 l
o
np
126.38 146.64 m
0 87.29 l
o
np
137.00 146.64 m
0 87.29 l
o
np
147.45 146.64 m
0 87.29 l
o
np
157.89 146.64 m
0 87.29 l
o
np
168.34 146.64 m
0 87.29 l
o
np
178.78 146.64 m
0 87.29 l
o
np
189.40 146.64 m
0 87.29 l
o
np
199.50 146.64 m
0 87.29 l
o
np
209.61 146.64 m
0 87.29 l
o
np
220.05 146.64 m
0 87.29 l
o
np
230.50 146.64 m
0 87.29 l
o
np
240.94 146.64 m
0 87.29 l
o
np
251.39 146.64 m
0 87.29 l
o
np
262.00 146.64 m
0 87.29 l
o
np
272.45 146.64 m
0 87.29 l
o
np
282.89 146.64 m
0 87.29 l
o
np
293.34 146.64 m
0 87.29 l
o
np
303.79 146.64 m
0 87.29 l
o
np
314.40 146.64 m
0 87.29 l
o
np
324.50 146.64 m
0 87.29 l
o
np
334.61 146.64 m
0 87.29 l
o
np
345.05 146.64 m
0 87.29 l
o
np
355.50 146.64 m
0 87.29 l
o
np
365.94 146.64 m
0 87.29 l
o
np
376.39 146.64 m
0 87.29 l
o
np
387.01 146.64 m
0 87.29 l
o
np
397.45 146.64 m
0 87.29 l
o
np
407.90 146.64 m
0 87.29 l
o
np
418.34 146.64 m
0 87.29 l
o
np
428.79 146.64 m
0 87.29 l
o
np
439.40 146.64 m
0 87.29 l
o
np
449.68 146.64 m
0 87.29 l
o
np
459.95 146.64 m
0 87.29 l
o
np
470.40 146.64 m
0 87.29 l
o
np
480.84 146.64 m
0 87.29 l
o
np
491.46 146.64 m
0 87.29 l
o
0.8980 0.8980 0.8980 srgb
0.43 setlinewidth
[] 0 setdash
np
38.27 178.29 m
458.09 0 l
o
np
48.47 146.64 m
0 87.29 l
o
np
59.09 146.64 m
0 87.29 l
o
np
69.71 146.64 m
0 87.29 l
o
np
79.29 146.64 m
0 87.29 l
o
np
89.91 146.64 m
0 87.29 l
o
np
100.19 146.64 m
0 87.29 l
o
np
110.80 146.64 m
0 87.29 l
o
np
121.08 146.64 m
0 87.29 l
o
np
131.69 146.64 m
0 87.29 l
o
np
142.31 146.64 m
0 87.29 l
o
np
152.58 146.64 m
0 87.29 l
o
np
163.20 146.64 m
0 87.29 l
o
np
173.47 146.64 m
0 87.29 l
o
np
184.09 146.64 m
0 87.29 l
o
np
194.71 146.64 m
0 87.29 l
o
np
204.30 146.64 m
0 87.29 l
o
np
214.91 146.64 m
0 87.29 l
o
np
225.19 146.64 m
0 87.29 l
o
np
235.80 146.64 m
0 87.29 l
o
np
246.08 146.64 m
0 87.29 l
o
np
256.70 146.64 m
0 87.29 l
o
np
267.31 146.64 m
0 87.29 l
o
np
277.59 146.64 m
0 87.29 l
o
np
288.20 146.64 m
0 87.29 l
o
np
298.48 146.64 m
0 87.29 l
o
np
309.09 146.64 m
0 87.29 l
o
np
319.71 146.64 m
0 87.29 l
o
np
329.30 146.64 m
0 87.29 l
o
np
339.92 146.64 m
0 87.29 l
o
np
350.19 146.64 m
0 87.29 l
o
np
360.81 146.64 m
0 87.29 l
o
np
371.08 146.64 m
0 87.29 l
o
np
381.70 146.64 m
0 87.29 l
o
np
392.31 146.64 m
0 87.29 l
o
np
402.59 146.64 m
0 87.29 l
o
np
413.20 146.64 m
0 87.29 l
o
np
423.48 146.64 m
0 87.29 l
o
np
434.10 146.64 m
0 87.29 l
o
np
444.71 146.64 m
0 87.29 l
o
np
454.64 146.64 m
0 87.29 l
o
np
465.26 146.64 m
0 87.29 l
o
np
475.53 146.64 m
0 87.29 l
o
np
486.15 146.64 m
0 87.29 l
o
0 0 0 srgb
0.71 setlinewidth
[] 0 setdash
1 setlinecap
np
232.29 229.96 m
7.03 0 l
o
np
235.80 226.44 m
0 7.04 l
o
np
242.56 223.81 m
7.04 0 l
o
np
246.08 220.29 m
0 7.04 l
o
np
253.18 219.64 m
7.03 0 l
o
np
256.70 216.12 m
0 7.04 l
o
np
263.79 218.92 m
7.04 0 l
o
np
267.31 215.40 m
0 7.04 l
o
np
274.07 216.45 m
7.03 0 l
o
np
277.59 212.93 m
0 7.04 l
o
np
284.68 217.31 m
7.04 0 l
o
np
288.20 213.79 m
0 7.04 l
o
np
294.96 211.62 m
7.04 0 l
o
np
298.48 208.11 m
0 7.03 l
o
np
305.57 219.12 m
7.04 0 l
o
np
309.09 215.61 m
0 7.03 l
o
np
316.19 213.71 m
7.04 0 l
o
np
319.71 210.19 m
0 7.04 l
o
np
325.78 216.91 m
7.04 0 l
o
np
329.30 213.39 m
0 7.04 l
o
np
336.40 213.39 m
7.03 0 l
o
np
339.92 209.87 m
0 7.04 l
o
np
346.67 214.58 m
7.04 0 l
o
np
350.19 211.06 m
0 7.04 l
o
np
357.29 217.71 m
7.04 0 l
o
np
360.81 214.19 m
0 7.04 l
o
np
367.56 209.28 m
7.04 0 l
o
np
371.08 205.76 m
0 7.04 l
o
np
378.18 215.73 m
7.04 0 l
o
np
381.70 212.21 m
0 7.04 l
o
np
388.80 208.04 m
7.03 0 l
o
np
392.31 204.52 m
0 7.04 l
o
np
399.07 207.20 m
7.04 0 l
o
np
402.59 203.68 m
0 7.04 l
o
np
409.69 214.37 m
7.03 0 l
o
np
413.20 210.85 m
0 7.04 l
o
np
430.58 210.95 m
7.03 0 l
o
np
434.10 207.43 m
0 7.04 l
o
np
441.19 210.27 m
7.04 0 l
o
np
444.71 206.75 m
0 7.04 l
o
np
451.12 215.11 m
7.04 0 l
o
np
454.64 211.59 m
0 7.04 l
o
np
461.74 215.20 m
7.04 0 l
o
np
465.26 211.68 m
0 7.03 l
o
np
472.02 208.96 m
7.03 0 l
o
np
475.53 205.44 m
0 7.04 l
o
222.70 173.24 4.98 4.98 r p1
np
222.70 173.24 m
4.98 4.98 l
o
np
222.70 178.22 m
4.98 -4.98 l
o
233.32 162.27 4.98 4.98 r p1
np
233.32 162.27 m
4.97 4.97 l
o
np
233.32 167.24 m
4.97 -4.97 l
o
243.59 161.11 4.98 4.98 r p1
np
243.59 161.11 m
4.98 4.98 l
o
np
243.59 166.09 m
4.98 -4.98 l
o
254.21 165.11 4.98 4.98 r p1
np
254.21 165.11 m
4.97 4.98 l
o
np
254.21 170.09 m
4.97 -4.98 l
o
264.82 150.08 4.98 4.98 r p1
np
264.82 150.08 m
4.98 4.97 l
o
np
264.82 155.05 m
4.98 -4.97 l
o
275.10 153.98 4.98 4.98 r p1
np
275.10 153.98 m
4.97 4.97 l
o
np
275.10 158.95 m
4.97 -4.97 l
o
285.71 161.81 4.98 4.98 r p1
np
285.71 161.81 m
4.98 4.98 l
o
np
285.71 166.79 m
4.98 -4.98 l
o
295.99 162.99 4.98 4.98 r p1
np
295.99 162.99 m
4.98 4.98 l
o
np
295.99 167.97 m
4.98 -4.98 l
o
306.61 158.51 4.98 4.98 r p1
np
306.61 158.51 m
4.97 4.98 l
o
np
306.61 163.49 m
4.97 -4.98 l
o
317.22 158.52 4.98 4.98 r p1
np
317.22 158.52 m
4.98 4.97 l
o
np
317.22 163.49 m
4.98 -4.97 l
o
326.81 162.38 4.98 4.98 r p1
np
326.81 162.38 m
4.98 4.98 l
o
np
326.81 167.36 m
4.98 -4.98 l
o
337.43 160.18 4.98 4.98 r p1
np
337.43 160.18 m
4.97 4.98 l
o
np
337.43 165.16 m
4.97 -4.98 l
o
347.70 159.37 4.98 4.98 r p1
np
347.70 159.37 m
4.98 4.97 l
o
np
347.70 164.34 m
4.98 -4.97 l
o
358.32 154.39 4.98 4.98 r p1
np
358.32 154.39 m
4.97 4.98 l
o
np
358.32 159.37 m
4.97 -4.98 l
o
368.59 159.91 4.98 4.98 r p1
np
368.59 159.91 m
4.98 4.98 l
o
np
368.59 164.89 m
4.98 -4.98 l
o
379.21 162.66 4.98 4.98 r p1
np
379.21 162.66 m
4.98 4.98 l
o
np
379.21 167.64 m
4.98 -4.98 l
o
389.83 159.58 4.98 4.98 r p1
np
389.83 159.58 m
4.97 4.98 l
o
np
389.83 164.56 m
4.97 -4.98 l
o
400.10 160.92 4.98 4.98 r p1
np
400.10 160.92 m
4.98 4.97 l
o
np
400.10 165.89 m
4.98 -4.97 l
o
410.72 158.34 4.98 4.98 r p1
np
410.72 158.34 m
4.97 4.98 l
o
np
410.72 163.32 m
4.97 -4.98 l
o
431.61 156.11 4.98 4.98 r p1
np
431.61 156.11 m
4.97 4.97 l
o
np
431.61 161.08 m
4.97 -4.97 l
o
442.22 161.48 4.98 4.98 r p1
np
442.22 161.48 m
4.98 4.97 l
o
np
442.22 166.45 m
4.98 -4.97 l
o
452.16 148.12 4.98 4.98 r p1
np
452.16 148.12 m
4.97 4.98 l
o
np
452.16 153.10 m
4.97 -4.98 l
o
462.77 156.50 4.98 4.98 r p1
np
462.77 156.50 m
4.98 4.98 l
o
np
462.77 161.48 m
4.98 -4.98 l
o
473.05 164.56 4.98 4.98 r p1
np
473.05 164.56 m
4.97 4.98 l
o
np
473.05 169.54 m
4.97 -4.98 l
o
1.07 setlinewidth
[] 0 setdash
0 setlinecap
1.00 setmiterlimit
np
235.80 229.96 m
10.28 -6.15 l
10.62 -4.17 l
10.61 -0.72 l
10.28 -2.47 l
10.61 0.86 l
10.28 -5.69 l
10.61 7.50 l
10.62 -5.41 l
9.59 3.20 l
10.62 -3.52 l
10.27 1.19 l
10.62 3.13 l
10.27 -8.43 l
10.62 6.45 l
10.61 -7.69 l
10.28 -0.84 l
10.61 7.17 l
20.90 -3.42 l
10.61 -0.68 l
9.93 4.84 l
10.62 0.09 l
10.27 -6.24 l
o
1.07 setlinewidth
[ 2.13 2.13] 0 setdash
np
225.19 175.73 m
10.61 -10.98 l
10.28 -1.15 l
10.62 4.00 l
10.61 -15.04 l
10.28 3.90 l
10.61 7.84 l
10.28 1.18 l
10.61 -4.48 l
10.62 0.01 l
9.59 3.86 l
10.62 -2.20 l
10.27 -0.82 l
10.62 -4.97 l
10.27 5.52 l
10.62 2.75 l
10.61 -3.08 l
10.28 1.34 l
10.61 -2.58 l
20.90 -2.24 l
10.61 5.37 l
9.93 -13.35 l
10.62 8.38 l
10.27 8.06 l
o
0.4980 0.4980 0.4980 srgb
1.07 setlinewidth
[] 0 setdash
1 setlinecap
10.00 setmiterlimit
38.27 146.64 458.09 87.28 r p1
0.00 0.00 595.28 519.69 cl
38.27 53.38 496.36 140.67 cl
/bg { 1 1 1 srgb } def
38.27 53.38 458.09 87.28 r p2
0.9804 0.9804 0.9804 srgb
1.07 setlinewidth
[] 0 setdash
0 setlinecap
1 setlinejoin
10.00 setmiterlimit
np
43.16 53.38 m
0 87.29 l
o
np
53.78 53.38 m
0 87.29 l
o
np
64.40 53.38 m
0 87.29 l
o
np
74.50 53.38 m
0 87.29 l
o
np
84.60 53.38 m
0 87.29 l
o
np
95.05 53.38 m
0 87.29 l
o
np
105.49 53.38 m
0 87.29 l
o
np
115.94 53.38 m
0 87.29 l
o
np
126.38 53.38 m
0 87.29 l
o
np
137.00 53.38 m
0 87.29 l
o
np
147.45 53.38 m
0 87.29 l
o
np
157.89 53.38 m
0 87.29 l
o
np
168.34 53.38 m
0 87.29 l
o
np
178.78 53.38 m
0 87.29 l
o
np
189.40 53.38 m
0 87.29 l
o
np
199.50 53.38 m
0 87.29 l
o
np
209.61 53.38 m
0 87.29 l
o
np
220.05 53.38 m
0 87.29 l
o
np
230.50 53.38 m
0 87.29 l
o
np
240.94 53.38 m
0 87.29 l
o
np
251.39 53.38 m
0 87.29 l
o
np
262.00 53.38 m
0 87.29 l
o
np
272.45 53.38 m
0 87.29 l
o
np
282.89 53.38 m
0 87.29 l
o
np
293.34 53.38 m
0 87.29 l
o
np
303.79 53.38 m
0 87.29 l
o
np
314.40 53.38 m
0 87.29 l
o
np
324.50 53.38 m
0 87.29 l
o
np
334.61 53.38 m
0 87.29 l
o
np
345.05 53.38 m
0 87.29 l
o
np
355.50 53.38 m
0 87.29 l
o
np
365.94 53.38 m
0 87.29 l
o
np
376.39 53.38 m
0 87.29 l
o
np
387.01 53.38 m
0 87.29 l
o
np
397.45 53.38 m
0 87.29 l
o
np
407.90 53.38 m
0 87.29 l
o
np
418.34 53.38 m
0 87.29 l
o
np
428.79 53.38 m
0 87.29 l
o
np
439.40 53.38 m
0 87.29 l
o
np
449.68 53.38 m
0 87.29 l
o
np
459.95 53.38 m
0 87.29 l
o
np
470.40 53.38 m
0 87.29 l
o
np
480.84 53.38 m
0 87.29 l
o
np
491.46 53.38 m
0 87.29 l
o
0.8980 0.8980 0.8980 srgb
0.43 setlinewidth
[] 0 setdash
np
38.27 91.30 m
458.09 0 l
o
np
48.47 53.38 m
0 87.29 l
o
np
59.09 53.38 m
0 87.29 l
o
np
69.71 53.38 m
0 87.29 l
o
np
79.29 53.38 m
0 87.29 l
o
np
89.91 53.38 m
0 87.29 l
o
np
100.19 53.38 m
0 87.29 l
o
np
110.80 53.38 m
0 87.29 l
o
np
121.08 53.38 m
0 87.29 l
o
np
131.69 53.38 m
0 87.29 l
o
np
142.31 53.38 m
0 87.29 l
o
np
152.58 53.38 m
0 87.29 l
o
np
163.20 53.38 m
0 87.29 l
o
np
173.47 53.38 m
0 87.29 l
o
np
184.09 53.38 m
0 87.29 l
o
np
194.71 53.38 m
0 87.29 l
o
np
204.30 53.38 m
0 87.29 l
o
np
214.91 53.38 m
0 87.29 l
o
np
225.19 53.38 m
0 87.29 l
o
np
235.80 53.38 m
0 87.29 l
o
np
246.08 53.38 m
0 87.29 l
o
np
256.70 53.38 m
0 87.29 l
o
np
267.31 53.38 m
0 87.29 l
o
np
277.59 53.38 m
0 87.29 l
o
np
288.20 53.38 m
0 87.29 l
o
np
298.48 53.38 m
0 87.29 l
o
np
309.09 53.38 m
0 87.29 l
o
np
319.71 53.38 m
0 87.29 l
o
np
329.30 53.38 m
0 87.29 l
o
np
339.92 53.38 m
0 87.29 l
o
np
350.19 53.38 m
0 87.29 l
o
np
360.81 53.38 m
0 87.29 l
o
np
371.08 53.38 m
0 87.29 l
o
np
381.70 53.38 m
0 87.29 l
o
np
392.31 53.38 m
0 87.29 l
o
np
402.59 53.38 m
0 87.29 l
o
np
413.20 53.38 m
0 87.29 l
o
np
423.48 53.38 m
0 87.29 l
o
np
434.10 53.38 m
0 87.29 l
o
np
444.71 53.38 m
0 87.29 l
o
np
454.64 53.38 m
0 87.29 l
o
np
465.26 53.38 m
0 87.29 l
o
np
475.53 53.38 m
0 87.29 l
o
np
486.15 53.38 m
0 87.29 l
o
0 0 0 srgb
0.71 setlinewidth
[] 0 setdash
1 setlinecap
np
55.57 127.51 m
7.04 0 l
o
np
59.09 123.99 m
0 7.04 l
o
np
66.19 123.84 m
7.03 0 l
o
np
69.71 120.32 m
0 7.04 l
o
np
75.78 128.00 m
7.03 0 l
o
np
79.29 124.48 m
0 7.04 l
o
np
86.39 125.55 m
7.04 0 l
o
np
89.91 122.03 m
0 7.04 l
o
np
96.67 125.86 m
7.03 0 l
o
np
100.19 122.34 m
0 7.04 l
o
np
107.28 126.51 m
7.04 0 l
o
np
110.80 122.99 m
0 7.04 l
o
np
117.56 127.94 m
7.04 0 l
o
np
121.08 124.42 m
0 7.03 l
o
np
128.17 127.65 m
7.04 0 l
o
np
131.69 124.13 m
0 7.04 l
o
np
138.79 132.11 m
7.04 0 l
o
np
142.31 128.59 m
0 7.04 l
o
np
149.06 121.52 m
7.04 0 l
o
np
152.58 118.00 m
0 7.04 l
o
np
159.68 122.64 m
7.04 0 l
o
np
163.20 119.12 m
0 7.04 l
o
np
169.96 125.82 m
7.03 0 l
o
np
173.47 122.30 m
0 7.04 l
o
np
180.57 129.39 m
7.04 0 l
o
np
184.09 125.87 m
0 7.04 l
o
np
191.19 131.88 m
7.04 0 l
o
np
194.71 128.36 m
0 7.04 l
o
np
200.78 123.00 m
7.04 0 l
o
np
204.30 119.48 m
0 7.04 l
o
np
211.39 133.65 m
7.04 0 l
o
np
214.91 130.13 m
0 7.04 l
o
np
221.67 134.25 m
7.04 0 l
o
np
225.19 130.73 m
0 7.04 l
o
np
232.29 132.26 m
7.03 0 l
o
np
235.80 128.74 m
0 7.04 l
o
np
242.56 132.64 m
7.04 0 l
o
np
246.08 129.12 m
0 7.04 l
o
np
253.18 133.77 m
7.03 0 l
o
np
256.70 130.26 m
0 7.03 l
o
np
263.79 125.98 m
7.04 0 l
o
np
267.31 122.46 m
0 7.04 l
o
np
274.07 136.70 m
7.03 0 l
o
np
277.59 133.18 m
0 7.04 l
o
np
284.68 132.30 m
7.04 0 l
o
np
288.20 128.78 m
0 7.03 l
o
np
294.96 134.80 m
7.04 0 l
o
np
298.48 131.29 m
0 7.03 l
o
np
305.57 132.79 m
7.04 0 l
o
np
309.09 129.27 m
0 7.04 l
o
np
316.19 124.56 m
7.04 0 l
o
np
319.71 121.04 m
0 7.03 l
o
np
325.78 130.42 m
7.04 0 l
o
np
329.30 126.91 m
0 7.03 l
o
np
336.40 131.98 m
7.03 0 l
o
np
339.92 128.46 m
0 7.04 l
o
np
346.67 123.97 m
7.04 0 l
o
np
350.19 120.45 m
0 7.04 l
o
np
357.29 126.72 m
7.04 0 l
o
np
360.81 123.20 m
0 7.04 l
o
np
367.56 131.11 m
7.04 0 l
o
np
371.08 127.59 m
0 7.03 l
o
np
378.18 124.12 m
7.04 0 l
o
np
381.70 120.60 m
0 7.04 l
o
np
388.80 135.02 m
7.03 0 l
o
np
392.31 131.50 m
0 7.04 l
o
np
399.07 123.31 m
7.04 0 l
o
np
402.59 119.79 m
0 7.04 l
o
np
409.69 134.13 m
7.03 0 l
o
np
413.20 130.61 m
0 7.04 l
o
np
419.96 123.73 m
7.04 0 l
o
np
423.48 120.21 m
0 7.04 l
o
np
430.58 130.01 m
7.03 0 l
o
np
434.10 126.49 m
0 7.04 l
o
np
441.19 129.69 m
7.04 0 l
o
np
444.71 126.17 m
0 7.04 l
o
np
451.12 135.66 m
7.04 0 l
o
np
454.64 132.14 m
0 7.04 l
o
np
461.74 129.05 m
7.04 0 l
o
np
465.26 125.53 m
0 7.04 l
o
np
472.02 125.82 m
7.03 0 l
o
np
475.53 122.31 m
0 7.03 l
o
56.60 73.19 4.98 4.98 r p1
np
56.60 73.19 m
4.98 4.97 l
o
np
56.60 78.16 m
4.98 -4.97 l
o
67.22 73.51 4.98 4.98 r p1
np
67.22 73.51 m
4.97 4.98 l
o
np
67.22 78.49 m
4.97 -4.98 l
o
76.81 76.22 4.98 4.98 r p1
np
76.81 76.22 m
4.97 4.97 l
o
np
76.81 81.19 m
4.97 -4.97 l
o
87.42 79.67 4.98 4.98 r p1
np
87.42 79.67 m
4.98 4.98 l
o
np
87.42 84.65 m
4.98 -4.98 l
o
97.70 81.41 4.98 4.98 r p1
np
97.70 81.41 m
4.97 4.98 l
o
np
97.70 86.39 m
4.97 -4.98 l
o
108.31 72.38 4.98 4.98 r p1
np
108.31 72.38 m
4.98 4.98 l
o
np
108.31 77.36 m
4.98 -4.98 l
o
118.59 71.57 4.98 4.98 r p1
np
118.59 71.57 m
4.97 4.98 l
o
np
118.59 76.55 m
4.97 -4.98 l
o
129.20 82.31 4.98 4.98 r p1
np
129.20 82.31 m
4.98 4.98 l
o
np
129.20 87.29 m
4.98 -4.98 l
o
139.82 77.58 4.98 4.98 r p1
np
139.82 77.58 m
4.98 4.97 l
o
np
139.82 82.55 m
4.98 -4.97 l
o
150.10 77.95 4.98 4.98 r p1
np
150.10 77.95 m
4.97 4.98 l
o
np
150.10 82.93 m
4.97 -4.98 l
o
160.71 72.87 4.98 4.98 r p1
np
160.71 72.87 m
4.98 4.97 l
o
np
160.71 77.84 m
4.98 -4.97 l
o
170.99 66.20 4.98 4.98 r p1
np
170.99 66.20 m
4.97 4.97 l
o
np
170.99 71.17 m
4.97 -4.97 l
o
181.60 70.11 4.98 4.98 r p1
np
181.60 70.11 m
4.98 4.98 l
o
np
181.60 75.09 m
4.98 -4.98 l
o
192.22 65.15 4.98 4.98 r p1
np
192.22 65.15 m
4.98 4.97 l
o
np
192.22 70.12 m
4.98 -4.97 l
o
201.81 72.15 4.98 4.98 r p1
np
201.81 72.15 m
4.98 4.97 l
o
np
201.81 77.12 m
4.98 -4.97 l
o
212.43 74.92 4.98 4.98 r p1
np
212.43 74.92 m
4.97 4.97 l
o
np
212.43 79.89 m
4.97 -4.97 l
o
222.70 76.00 4.98 4.98 r p1
np
222.70 76.00 m
4.98 4.98 l
o
np
222.70 80.98 m
4.98 -4.98 l
o
233.32 83.87 4.98 4.98 r p1
np
233.32 83.87 m
4.97 4.98 l
o
np
233.32 88.85 m
4.97 -4.98 l
o
243.59 70.97 4.98 4.98 r p1
np
243.59 70.97 m
4.98 4.98 l
o
np
243.59 75.95 m
4.98 -4.98 l
o
254.21 75.50 4.98 4.98 r p1
np
254.21 75.50 m
4.97 4.98 l
o
np
254.21 80.48 m
4.97 -4.98 l
o
264.82 61.58 4.98 4.98 r p1
np
264.82 61.58 m
4.98 4.98 l
o
np
264.82 66.56 m
4.98 -4.98 l
o
275.10 75.43 4.98 4.98 r p1
np
275.10 75.43 m
4.97 4.98 l
o
np
275.10 80.41 m
4.97 -4.98 l
o
285.71 64.00 4.98 4.98 r p1
np
285.71 64.00 m
4.98 4.97 l
o
np
285.71 68.97 m
4.98 -4.97 l
o
295.99 74.41 4.98 4.98 r p1
np
295.99 74.41 m
4.98 4.98 l
o
np
295.99 79.39 m
4.98 -4.98 l
o
306.61 75.04 4.98 4.98 r p1
np
306.61 75.04 m
4.97 4.97 l
o
np
306.61 80.01 m
4.97 -4.97 l
o
317.22 67.24 4.98 4.98 r p1
np
317.22 67.24 m
4.98 4.98 l
o
np
317.22 72.22 m
4.98 -4.98 l
o
326.81 81.86 4.98 4.98 r p1
np
326.81 81.86 m
4.98 4.98 l
o
np
326.81 86.84 m
4.98 -4.98 l
o
337.43 72.32 4.98 4.98 r p1
np
337.43 72.32 m
4.97 4.97 l
o
np
337.43 77.29 m
4.97 -4.97 l
o
347.70 63.57 4.98 4.98 r p1
np
347.70 63.57 m
4.98 4.98 l
o
np
347.70 68.55 m
4.98 -4.98 l
o
358.32 73.52 4.98 4.98 r p1
np
358.32 73.52 m
4.97 4.98 l
o
np
358.32 78.50 m
4.97 -4.98 l
o
368.59 67.21 4.98 4.98 r p1
np
368.59 67.21 m
4.98 4.97 l
o
np
368.59 72.18 m
4.98 -4.97 l
o
379.21 79.61 4.98 4.98 r p1
np
379.21 79.61 m
4.98 4.98 l
o
np
379.21 84.59 m
4.98 -4.98 l
o
389.83 68.75 4.98 4.98 r p1
np
389.83 68.75 m
4.97 4.97 l
o
np
389.83 73.72 m
4.97 -4.97 l
o
400.10 70.13 4.98 4.98 r p1
np
400.10 70.13 m
4.98 4.98 l
o
np
400.10 75.11 m
4.98 -4.98 l
o
410.72 71.82 4.98 4.98 r p1
np
410.72 71.82 m
4.97 4.98 l
o
np
410.72 76.80 m
4.97 -4.98 l
o
420.99 74.38 4.98 4.98 r p1
np
420.99 74.38 m
4.98 4.98 l
o
np
420.99 79.36 m
4.98 -4.98 l
o
431.61 54.86 4.98 4.98 r p1
np
431.61 54.86 m
4.97 4.98 l
o
np
431.61 59.84 m
4.97 -4.98 l
o
442.22 62.49 4.98 4.98 r p1
np
442.22 62.49 m
4.98 4.98 l
o
np
442.22 67.47 m
4.98 -4.98 l
o
452.16 84.49 4.98 4.98 r p1
np
452.16 84.49 m
4.97 4.97 l
o
np
452.16 89.46 m
4.97 -4.97 l
o
462.77 78.01 4.98 4.98 r p1
np
462.77 78.01 m
4.98 4.98 l
o
np
462.77 82.99 m
4.98 -4.98 l
o
473.05 69.11 4.98 4.98 r p1
np
473.05 69.11 m
4.97 4.98 l
o
np
473.05 74.09 m
4.97 -4.98 l
o
1.07 setlinewidth
[] 0 setdash
0 setlinecap
1.00 setmiterlimit
np
59.09 127.51 m
10.62 -3.67 l
9.58 4.16 l
10.62 -2.45 l
10.28 0.31 l
10.61 0.65 l
10.28 1.43 l
10.61 -0.29 l
10.62 4.46 l
10.27 -10.59 l
10.62 1.12 l
10.27 3.18 l
10.62 3.57 l
10.62 2.49 l
9.59 -8.88 l
10.61 10.65 l
10.28 0.60 l
10.61 -1.99 l
10.28 0.38 l
10.62 1.13 l
10.61 -7.79 l
10.28 10.72 l
10.61 -4.40 l
10.28 2.50 l
10.61 -2.01 l
10.62 -8.23 l
9.59 5.86 l
10.62 1.56 l
10.27 -8.01 l
10.62 2.75 l
10.27 4.39 l
10.62 -6.99 l
10.61 10.90 l
10.28 -11.71 l
10.61 10.82 l
10.28 -10.40 l
10.62 6.28 l
10.61 -0.32 l
9.93 5.97 l
10.62 -6.61 l
10.27 -3.23 l
o
1.07 setlinewidth
[ 2.13 2.13] 0 setdash
np
59.09 75.68 m
10.62 0.32 l
9.58 2.70 l
10.62 3.46 l
10.28 1.74 l
10.61 -9.03 l
10.28 -0.81 l
10.61 10.74 l
10.62 -4.74 l
10.27 0.38 l
10.62 -5.08 l
10.27 -6.68 l
10.62 3.92 l
10.62 -4.96 l
9.59 7.00 l
10.61 2.77 l
10.28 1.08 l
10.61 7.87 l
10.28 -12.90 l
10.62 4.53 l
10.61 -13.92 l
10.28 13.85 l
10.61 -11.44 l
10.28 10.42 l
10.61 0.62 l
10.62 -7.79 l
9.59 14.62 l
10.62 -9.55 l
10.27 -8.74 l
10.62 9.95 l
10.27 -6.31 l
10.62 12.40 l
10.61 -10.86 l
10.28 1.38 l
10.61 1.69 l
10.28 2.56 l
10.62 -19.52 l
10.61 7.63 l
9.93 22.00 l
10.62 -6.48 l
10.27 -8.90 l
o
0.4980 0.4980 0.4980 srgb
1.07 setlinewidth
[] 0 setdash
1 setlinecap
10.00 setmiterlimit
38.27 53.38 458.09 87.28 r p1
0.00 0.00 595.28 519.69 cl
0.00 0.00 595.28 519.69 cl
0.00 0.00 595.28 519.69 cl
0.00 0.00 595.28 519.69 cl
0.00 0.00 595.28 519.69 cl
0.00 0.00 595.28 519.69 cl
/Font1 findfont 8 s
0 0 0 srgb
32.89 466.37 (1) 1 0 t
0.00 0.00 595.28 519.69 cl
0.00 0.00 595.28 519.69 cl
0 0 0 srgb
1.07 setlinewidth
[] 0 setdash
0 setlinecap
1 setlinejoin
10.00 setmiterlimit
np
35.28 469.25 m
2.99 0 l
o
0.00 0.00 595.28 519.69 cl
0.00 0.00 595.28 519.69 cl
0.00 0.00 595.28 519.69 cl
0.00 0.00 595.28 519.69 cl
0.00 0.00 595.28 519.69 cl
0.00 0.00 595.28 519.69 cl
0.00 0.00 595.28 519.69 cl
0.00 0.00 595.28 519.69 cl
/Font1 findfont 8 s
0 0 0 srgb
32.89 339.42 (0.1) 1 0 t
32.89 382.08 (1.0) 1 0 t
0.00 0.00 595.28 519.69 cl
0.00 0.00 595.28 519.69 cl
0 0 0 srgb
1.07 setlinewidth
[] 0 setdash
0 setlinecap
1 setlinejoin
10.00 setmiterlimit
np
35.28 342.29 m
2.99 0 l
o
np
35.28 384.95 m
2.99 0 l
o
0.00 0.00 595.28 519.69 cl
0.00 0.00 595.28 519.69 cl
0.00 0.00 595.28 519.69 cl
0.00 0.00 595.28 519.69 cl
0.00 0.00 595.28 519.69 cl
0.00 0.00 595.28 519.69 cl
0.00 0.00 595.28 519.69 cl
0.00 0.00 595.28 519.69 cl
/Font1 findfont 8 s
0 0 0 srgb
32.89 279.99 (1) 1 0 t
0.00 0.00 595.28 519.69 cl
0.00 0.00 595.28 519.69 cl
0 0 0 srgb
1.07 setlinewidth
[] 0 setdash
0 setlinecap
1 setlinejoin
10.00 setmiterlimit
np
35.28 282.86 m
2.99 0 l
o
0.00 0.00 595.28 519.69 cl
0.00 0.00 595.28 519.69 cl
0.00 0.00 595.28 519.69 cl
0.00 0.00 595.28 519.69 cl
0.00 0.00 595.28 519.69 cl
0.00 0.00 595.28 519.69 cl
0.00 0.00 595.28 519.69 cl
0.00 0.00 595.28 519.69 cl
/Font1 findfont 8 s
0 0 0 srgb
32.89 175.42 (1) 1 0 t
0.00 0.00 595.28 519.69 cl
0.00 0.00 595.28 519.69 cl
0 0 0 srgb
1.07 setlinewidth
[] 0 setdash
0 setlinecap
1 setlinejoin
10.00 setmiterlimit
np
35.28 178.29 m
2.99 0 l
o
0.00 0.00 595.28 519.69 cl
0.00 0.00 595.28 519.69 cl
0.00 0.00 595.28 519.69 cl
0.00 0.00 595.28 519.69 cl
0.00 0.00 595.28 519.69 cl
0.00 0.00 595.28 519.69 cl
0.00 0.00 595.28 519.69 cl
0.00 0.00 595.28 519.69 cl
/Font1 findfont 8 s
0 0 0 srgb
32.89 88.43 (1) 1 0 t
0.00 0.00 595.28 519.69 cl
0.00 0.00 595.28 519.69 cl
0 0 0 srgb
1.07 setlinewidth
[] 0 setdash
0 setlinecap
1 setlinejoin
10.00 setmiterlimit
np
35.28 91.30 m
2.99 0 l
o
0.00 0.00 595.28 519.69 cl
0.00 0.00 595.28 519.69 cl
0.00 0.00 595.28 519.69 cl
496.36 426.42 514.06 513.71 cl
/bg { 1 1 1 srgb } def
0.4980 0.4980 0.4980 srgb
0.43 setlinewidth
[] 0 setdash
1 setlinecap
1 setlinejoin
10.00 setmiterlimit
496.36 426.42 17.70 87.28 r p3
/Font1 findfont 8 s
0.1020 0.1020 0.1020 srgb
502.33 481.18 (fr) -90.00 ta
-0.080 (ance) tb gr
496.36 426.42 514.06 513.71 cl
0.00 0.00 595.28 519.69 cl
496.36 333.16 514.06 420.45 cl
/bg { 1 1 1 srgb } def
0.4980 0.4980 0.4980 srgb
0.43 setlinewidth
[] 0 setdash
1 setlinecap
1 setlinejoin
10.00 setmiterlimit
496.36 333.16 17.70 87.28 r p3
/Font1 findfont 8 s
0.1020 0.1020 0.1020 srgb
502.33 376.81 (gameofthrones) .5 -90.00 t
496.36 333.16 514.06 420.45 cl
0.00 0.00 595.28 519.69 cl
496.36 239.90 514.06 327.19 cl
/bg { 1 1 1 srgb } def
0.4980 0.4980 0.4980 srgb
0.43 setlinewidth
[] 0 setdash
1 setlinecap
1 setlinejoin
10.00 setmiterlimit
496.36 239.90 17.70 87.28 r p3
/Font1 findfont 8 s
0.1020 0.1020 0.1020 srgb
502.33 314.23 (MachineLear) -90.00 ta
0.200 (ning) tb gr
496.36 239.90 514.06 327.19 cl
0.00 0.00 595.28 519.69 cl
496.36 146.64 514.06 233.93 cl
/bg { 1 1 1 srgb } def
0.4980 0.4980 0.4980 srgb
0.43 setlinewidth
[] 0 setdash
1 setlinecap
1 setlinejoin
10.00 setmiterlimit
496.36 146.64 17.70 87.28 r p3
/Font1 findfont 8 s
0.1020 0.1020 0.1020 srgb
502.33 190.28 (podemos) .5 -90.00 t
496.36 146.64 514.06 233.93 cl
0.00 0.00 595.28 519.69 cl
496.36 53.38 514.06 140.67 cl
/bg { 1 1 1 srgb } def
0.4980 0.4980 0.4980 srgb
0.43 setlinewidth
[] 0 setdash
1 setlinecap
1 setlinejoin
10.00 setmiterlimit
496.36 53.38 17.70 87.28 r p3
/Font1 findfont 8 s
0.1020 0.1020 0.1020 srgb
502.33 133.25 (T) -90.00 ta
-0.960 (w) tb
-0.080 (oXChromosomes) tb gr
496.36 53.38 514.06 140.67 cl
0.00 0.00 595.28 519.69 cl
0.00 0.00 595.28 519.69 cl
0.00 0.00 595.28 519.69 cl
0.00 0.00 595.28 519.69 cl
0.00 0.00 595.28 519.69 cl
0.00 0.00 595.28 519.69 cl
0 0 0 srgb
1.07 setlinewidth
[] 0 setdash
0 setlinecap
1 setlinejoin
10.00 setmiterlimit
np
48.47 50.39 m
0 2.99 l
o
np
59.09 50.39 m
0 2.99 l
o
np
69.71 50.39 m
0 2.99 l
o
np
79.29 50.39 m
0 2.99 l
o
np
89.91 50.39 m
0 2.99 l
o
np
100.19 50.39 m
0 2.99 l
o
np
110.80 50.39 m
0 2.99 l
o
np
121.08 50.39 m
0 2.99 l
o
np
131.69 50.39 m
0 2.99 l
o
np
142.31 50.39 m
0 2.99 l
o
np
152.58 50.39 m
0 2.99 l
o
np
163.20 50.39 m
0 2.99 l
o
np
173.47 50.39 m
0 2.99 l
o
np
184.09 50.39 m
0 2.99 l
o
np
194.71 50.39 m
0 2.99 l
o
np
204.30 50.39 m
0 2.99 l
o
np
214.91 50.39 m
0 2.99 l
o
np
225.19 50.39 m
0 2.99 l
o
np
235.80 50.39 m
0 2.99 l
o
np
246.08 50.39 m
0 2.99 l
o
np
256.70 50.39 m
0 2.99 l
o
np
267.31 50.39 m
0 2.99 l
o
np
277.59 50.39 m
0 2.99 l
o
np
288.20 50.39 m
0 2.99 l
o
np
298.48 50.39 m
0 2.99 l
o
np
309.09 50.39 m
0 2.99 l
o
np
319.71 50.39 m
0 2.99 l
o
np
329.30 50.39 m
0 2.99 l
o
np
339.92 50.39 m
0 2.99 l
o
np
350.19 50.39 m
0 2.99 l
o
np
360.81 50.39 m
0 2.99 l
o
np
371.08 50.39 m
0 2.99 l
o
np
381.70 50.39 m
0 2.99 l
o
np
392.31 50.39 m
0 2.99 l
o
np
402.59 50.39 m
0 2.99 l
o
np
413.20 50.39 m
0 2.99 l
o
np
423.48 50.39 m
0 2.99 l
o
np
434.10 50.39 m
0 2.99 l
o
np
444.71 50.39 m
0 2.99 l
o
np
454.64 50.39 m
0 2.99 l
o
np
465.26 50.39 m
0 2.99 l
o
np
475.53 50.39 m
0 2.99 l
o
np
486.15 50.39 m
0 2.99 l
o
0.00 0.00 595.28 519.69 cl
0.00 0.00 595.28 519.69 cl
/Font1 findfont 8 s
0 0 0 srgb
52.53 43.94 (2012-12) 1 45.00 t
63.15 43.94 (2013-01) 1 45.00 t
73.77 43.94 (2013-02) 1 45.00 t
83.36 43.94 (2013-03) 1 45.00 t
93.97 43.94 (2013-04) 1 45.00 t
104.25 43.94 (2013-05) 1 45.00 t
114.86 43.94 (2013-06) 1 45.00 t
125.14 43.94 (2013-07) 1 45.00 t
135.75 43.94 (2013-08) 1 45.00 t
146.37 43.94 (2013-09) 1 45.00 t
156.65 43.94 (2013-10) 1 45.00 t
167.26 43.94 (2013-11) 1 45.00 t
177.54 43.94 (2013-12) 1 45.00 t
188.15 43.94 (2014-01) 1 45.00 t
198.77 43.94 (2014-02) 1 45.00 t
208.36 43.94 (2014-03) 1 45.00 t
218.98 43.94 (2014-04) 1 45.00 t
229.25 43.94 (2014-05) 1 45.00 t
239.87 43.94 (2014-06) 1 45.00 t
250.14 43.94 (2014-07) 1 45.00 t
260.76 43.94 (2014-08) 1 45.00 t
271.37 43.94 (2014-09) 1 45.00 t
281.65 43.94 (2014-10) 1 45.00 t
292.26 43.94 (2014-11) 1 45.00 t
302.54 43.94 (2014-12) 1 45.00 t
313.15 43.94 (2015-01) 1 45.00 t
323.77 43.94 (2015-02) 1 45.00 t
333.36 43.94 (2015-03) 1 45.00 t
343.98 43.94 (2015-04) 1 45.00 t
354.25 43.94 (2015-05) 1 45.00 t
364.87 43.94 (2015-06) 1 45.00 t
375.14 43.94 (2015-07) 1 45.00 t
385.76 43.94 (2015-08) 1 45.00 t
396.38 43.94 (2015-09) 1 45.00 t
406.65 43.94 (2015-10) 1 45.00 t
417.27 43.94 (2015-11) 1 45.00 t
427.54 43.94 (2015-12) 1 45.00 t
438.16 43.94 (2016-01) 1 45.00 t
448.77 43.94 (2016-02) 1 45.00 t
458.71 43.94 (2016-03) 1 45.00 t
469.32 43.94 (2016-04) 1 45.00 t
479.60 43.94 (2016-05) 1 45.00 t
490.21 43.94 (2016-06) 1 45.00 t
0.00 0.00 595.28 519.69 cl
0.00 0.00 595.28 519.69 cl
0.00 0.00 595.28 519.69 cl
0.00 0.00 595.28 519.69 cl
/Font1 findfont 12 s
0 0 0 srgb
267.31 8.37 (date) .5 0 t
0.00 0.00 595.28 519.69 cl
0.00 0.00 595.28 519.69 cl
/Font1 findfont 12 s
0 0 0 srgb
16.98 283.55 (mean z-score) .5 90 t
0.00 0.00 595.28 519.69 cl
0.00 0.00 595.28 519.69 cl
0.00 0.00 595.28 519.69 cl
0.00 0.00 595.28 519.69 cl
/bg { 1 1 1 srgb } def
522.56 259.85 58.23 47.38 r p2
0.00 0.00 595.28 519.69 cl
0.00 0.00 595.28 519.69 cl
0.00 0.00 595.28 519.69 cl
0.00 0.00 595.28 519.69 cl
0.00 0.00 595.28 519.69 cl
0.00 0.00 595.28 519.69 cl
0 0 0 srgb
0.71 setlinewidth
[] 0 setdash
1 setlinecap
1 setlinejoin
10.00 setmiterlimit
np
531.93 290.03 m
7.04 0 l
o
np
535.45 286.51 m
0 7.03 l
o
0.00 0.00 595.28 519.69 cl
0.00 0.00 595.28 519.69 cl
0 0 0 srgb
1.07 setlinewidth
[] 0 setdash
0 setlinecap
1 setlinejoin
10.00 setmiterlimit
np
528.54 290.03 m
13.82 0 l
o
0.00 0.00 595.28 519.69 cl
0.00 0.00 595.28 519.69 cl
0.00 0.00 595.28 519.69 cl
0.00 0.00 595.28 519.69 cl
0 0 0 srgb
0.71 setlinewidth
[] 0 setdash
1 setlinecap
1 setlinejoin
10.00 setmiterlimit
532.96 270.26 4.98 4.98 r p1
np
532.96 270.26 m
4.98 4.97 l
o
np
532.96 275.23 m
4.98 -4.97 l
o
0.00 0.00 595.28 519.69 cl
0.00 0.00 595.28 519.69 cl
0 0 0 srgb
1.07 setlinewidth
[ 2.13 2.13] 0 setdash
0 setlinecap
1 setlinejoin
10.00 setmiterlimit
np
528.54 272.75 m
13.82 0 l
o
0.00 0.00 595.28 519.69 cl
0.00 0.00 595.28 519.69 cl
/Font1 findfont 10 s
0 0 0 srgb
546.25 286.44 (in-star) 0 0 t
0.00 0.00 595.28 519.69 cl
0.00 0.00 595.28 519.69 cl
/Font1 findfont 10 s
0 0 0 srgb
546.25 269.16 (chain) 0 0 t
0.00 0.00 595.28 519.69 cl
0.00 0.00 595.28 519.69 cl
0.00 0.00 595.28 519.69 cl
0.00 0.00 595.28 519.69 cl
0.00 0.00 595.28 519.69 cl
0.00 0.00 595.28 519.69 cl
ep
%%Trailer
%%Pages: 1
%%EOF
