\beamer@endinputifotherversion {3.36pt}
\beamer@sectionintoc {1}{Intro}{2}{0}{1}
\beamer@sectionintoc {2}{Model}{7}{0}{2}
\beamer@sectionintoc {3}{Experiments}{10}{0}{3}
\beamer@sectionintoc {4}{Conclusions}{15}{0}{4}
